3,0.015625,0.015625
3,0.015625,0.046875
3,0.015625,0.078125
3,0.015625,0.109375
3,0.015625,0.140625
3,0.015625,0.171875
3,0.015625,0.203125
3,0.015625,0.234375
3,0.015625,0.265625
3,0.015625,0.296875
3,0.015625,0.328125
3,0.015625,0.359375
3,0.015625,0.390625
3,0.015625,0.421875
3,0.015625,0.453125
3,0.015625,0.484375
3,0.015625,0.515625
3,0.015625,0.546875
3,0.015625,0.578125
3,0.015625,0.609375
3,0.015625,0.640625
3,0.015625,0.671875
3,0.015625,0.703125
3,0.015625,0.734375
3,0.015625,0.765625
3,0.015625,0.796875
3,0.015625,0.828125
3,0.015625,0.859375
3,0.015625,0.890625
3,0.046875,0.015625
3,0.046875,0.046875
3,0.046875,0.078125
3,0.046875,0.109375
3,0.046875,0.140625
3,0.046875,0.171875
3,0.046875,0.203125
3,0.046875,0.234375
3,0.046875,0.265625
3,0.046875,0.296875
3,0.046875,0.328125
3,0.046875,0.359375
3,0.046875,0.390625
3,0.046875,0.421875
3,0.046875,0.453125
3,0.046875,0.484375
3,0.046875,0.515625
3,0.046875,0.546875
3,0.046875,0.578125
3,0.046875,0.609375
3,0.046875,0.640625
3,0.046875,0.671875
3,0.046875,0.703125
3,0.046875,0.734375
3,0.046875,0.765625
3,0.046875,0.796875
3,0.046875,0.828125
3,0.046875,0.859375
3,0.046875,0.890625
3.04709,0.078125,0.015625
3.04709,0.078125,0.046875
3.04771,0.078125,0.078125
3.05531,0.078125,0.109375
3.0435,0.078125,0.140625
3.03305,0.078125,0.171875
3.01732,0.078125,0.203125
3.02084,0.078125,0.234375
3.01567,0.078125,0.265625
3.00692,0.078125,0.296875
2.99177,0.078125,0.328125
2.97938,0.078125,0.359375
2.94465,0.078125,0.390625
2.91426,0.078125,0.421875
2.9167,0.078125,0.453125
2.91536,0.078125,0.484375
2.92532,0.078125,0.515625
2.93741,0.078125,0.546875
2.95325,0.078125,0.578125
2.97153,0.078125,0.609375
2.98508,0.078125,0.640625
2.98898,0.078125,0.671875
3.02211,0.078125,0.703125
3.04828,0.078125,0.734375
3.03836,0.078125,0.765625
3.03747,0.078125,0.796875
3.03048,0.078125,0.828125
3.03295,0.078125,0.859375
3.03861,0.078125,0.890625
3.11109,0.109375,0.015625
3.11109,0.109375,0.046875
3.10985,0.109375,0.078125
3.10671,0.109375,0.109375
3.10397,0.109375,0.140625
3.09073,0.109375,0.171875
3.0762,0.109375,0.203125
3.0692,0.109375,0.234375
3.05753,0.109375,0.265625
3.02078,0.109375,0.296875
2.97242,0.109375,0.328125
2.91887,0.109375,0.359375
2.85186,0.109375,0.390625
2.81084,0.109375,0.421875
2.7865,0.109375,0.453125
2.77545,0.109375,0.484375
2.80092,0.109375,0.515625
2.83706,0.109375,0.546875
2.88788,0.109375,0.578125
2.93695,0.109375,0.609375
2.97719,0.109375,0.640625
3.01857,0.109375,0.671875
3.05731,0.109375,0.703125
3.08015,0.109375,0.734375
3.08586,0.109375,0.765625
3.08954,0.109375,0.796875
3.09303,0.109375,0.828125
3.08783,0.109375,0.859375
3.0938,0.109375,0.890625
3.18982,0.140625,0.015625
3.18982,0.140625,0.046875
3.18695,0.140625,0.078125
3.18646,0.140625,0.109375
3.18471,0.140625,0.140625
3.17233,0.140625,0.171875
3.15938,0.140625,0.203125
3.14404,0.140625,0.234375
3.11167,0.140625,0.265625
3.04415,0.140625,0.296875
2.95839,0.140625,0.328125
2.84926,0.140625,0.359375
2.72316,0.140625,0.390625
2.63421,0.140625,0.421875
2.5988,0.140625,0.453125
2.57863,0.140625,0.484375
2.6261,0.140625,0.515625
2.71568,0.140625,0.546875
2.81716,0.140625,0.578125
2.90063,0.140625,0.609375
2.97624,0.140625,0.640625
3.04804,0.140625,0.671875
3.10326,0.140625,0.703125
3.13717,0.140625,0.734375
3.15554,0.140625,0.765625
3.15654,0.140625,0.796875
3.16023,0.140625,0.828125
3.16047,0.140625,0.859375
3.16286,0.140625,0.890625
3.29005,0.171875,0.015625
3.29005,0.171875,0.046875
3.28759,0.171875,0.078125
3.29357,0.171875,0.109375
3.29657,0.171875,0.140625
3.28943,0.171875,0.171875
3.27867,0.171875,0.203125
3.25606,0.171875,0.234375
3.1895,0.171875,0.265625
3.08922,0.171875,0.296875
2.94894,0.171875,0.328125
2.75469,0.171875,0.359375
2.55899,0.171875,0.390625
2.37645,0.171875,0.421875
2.29173,0.171875,0.453125
2.28847,0.171875,0.484375
2.38294,0.171875,0.515625
2.57206,0.171875,0.546875
2.72826,0.171875,0.578125
2.86327,0.171875,0.609375
2.99056,0.171875,0.640625
3.0898,0.171875,0.671875
3.17097,0.171875,0.703125
3.22465,0.171875,0.734375
3.24988,0.171875,0.765625
3.25172,0.171875,0.796875
3.25056,0.171875,0.828125
3.25243,0.171875,0.859375
3.2406,0.171875,0.890625
3.40838,0.203125,0.015625
3.40838,0.203125,0.046875
3.41803,0.203125,0.078125
3.42768,0.203125,0.109375
3.43621,0.203125,0.140625
3.44227,0.203125,0.171875
3.43262,0.203125,0.203125
3.40128,0.203125,0.234375
3.32278,0.203125,0.265625
3.18797,0.203125,0.296875
2.95299,0.203125,0.328125
2.62036,0.203125,0.359375
2.33558,0.203125,0.390625
2.01957,0.203125,0.421875
1.87574,0.203125,0.453125
1.84256,0.203125,0.484375
2.05017,0.203125,0.515625
2.38423,0.203125,0.546875
2.63288,0.203125,0.578125
2.83747,0.203125,0.609375
3.02506,0.203125,0.640625
3.17022,0.203125,0.671875
3.27348,0.203125,0.703125
3.34896,0.203125,0.734375
3.37398,0.203125,0.765625
3.37049,0.203125,0.796875
3.36747,0.203125,0.828125
3.35543,0.203125,0.859375
3.34539,0.203125,0.890625
3.54504,0.234375,0.015625
3.54504,0.234375,0.046875
3.57614,0.234375,0.078125
3.59045,0.234375,0.109375
3.6014,0.234375,0.140625
3.6308,0.234375,0.171875
3.62534,0.234375,0.203125
3.59193,0.234375,0.234375
3.5272,0.234375,0.265625
3.3759,0.234375,0.296875
3.02553,0.234375,0.328125
2.39669,0.234375,0.359375
2.13331,0.234375,0.390625
1.46812,0.234375,0.421875
1.18417,0.234375,0.453125
0,0.234375,0.484375
0,0.234375,0.515625
2.26717,0.234375,0.546875
2.56434,0.234375,0.578125
2.8037,0.234375,0.609375
3.09983,0.234375,0.640625
3.30873,0.234375,0.671875
3.43244,0.234375,0.703125
3.50653,0.234375,0.734375
3.52942,0.234375,0.765625
3.51445,0.234375,0.796875
3.50916,0.234375,0.828125
3.47368,0.234375,0.859375
3.47011,0.234375,0.890625
3.71818,0.265625,0.015625
3.71818,0.265625,0.046875
3.73688,0.265625,0.078125
3.76192,0.265625,0.109375
3.80709,0.265625,0.140625
3.84133,0.265625,0.171875
3.85462,0.265625,0.203125
3.85789,0.265625,0.234375
3.8097,0.265625,0.265625
3.7054,0.265625,0.296875
3.49549,0.265625,0.328125
0,0.265625,0.359375
0,0.265625,0.390625
0,0.265625,0.421875
0.54664,0.265625,0.453125
0,0.265625,0.484375
0,0.265625,0.515625
2.28055,0.265625,0.546875
2.52281,0.265625,0.578125
2.66056,0.265625,0.609375
3.2575,0.265625,0.640625
3.54972,0.265625,0.671875
3.67538,0.265625,0.703125
3.70721,0.265625,0.734375
3.70875,0.265625,0.765625
3.68626,0.265625,0.796875
3.65364,0.265625,0.828125
3.63224,0.265625,0.859375
3.61138,0.265625,0.890625
3.9,0.296875,0.015625
3.9,0.296875,0.046875
3.92098,0.296875,0.078125
3.96766,0.296875,0.109375
4.02462,0.296875,0.140625
4.07699,0.296875,0.171875
4.12717,0.296875,0.203125
4.13029,0.296875,0.234375
4.07925,0.296875,0.265625
4.02471,0.296875,0.296875
3.92581,0.296875,0.328125
0,0.296875,0.359375
0,0.296875,0.390625
0,0.296875,0.421875
0,0.296875,0.453125
0,0.296875,0.484375
0,0.296875,0.515625
0,0.296875,0.546875
0,0.296875,0.578125
0,0.296875,0.609375
3.76587,0.296875,0.640625
3.93566,0.296875,0.671875
3.99988,0.296875,0.703125
3.99698,0.296875,0.734375
3.93087,0.296875,0.765625
3.87167,0.296875,0.796875
3.80737,0.296875,0.828125
3.78681,0.296875,0.859375
3.7482,0.296875,0.890625
4.084,0.328125,0.015625
4.084,0.328125,0.046875
4.12769,0.328125,0.078125
4.18984,0.328125,0.109375
4.26876,0.328125,0.140625
4.33601,0.328125,0.171875
4.41122,0.328125,0.203125
4.42015,0.328125,0.234375
4.20136,0.328125,0.265625
4.37469,0.328125,0.296875
3.15559,0.328125,0.328125
0,0.328125,0.359375
0,0.328125,0.390625
0,0.328125,0.421875
0,0.328125,0.453125
0,0.328125,0.484375
0,0.328125,0.515625
0,0.328125,0.546875
0,0.328125,0.578125
0,0.328125,0.609375
4.92379,0.328125,0.640625
4.42416,0.328125,0.671875
4.34653,0.328125,0.703125
4.28127,0.328125,0.734375
4.18026,0.328125,0.765625
4.07953,0.328125,0.796875
3.98504,0.328125,0.828125
3.92455,0.328125,0.859375
3.88566,0.328125,0.890625
4.27167,0.359375,0.015625
4.27167,0.359375,0.046875
4.34849,0.359375,0.078125
4.4157,0.359375,0.109375
4.50779,0.359375,0.140625
4.61464,0.359375,0.171875
4.75792,0.359375,0.203125
4.9342,0.359375,0.234375
5.10949,0.359375,0.265625
0,0.359375,0.296875
0,0.359375,0.328125
0,0.359375,0.359375
0,0.359375,0.390625
0,0.359375,0.421875
0,0.359375,0.453125
0,0.359375,0.484375
0,0.359375,0.515625
0,0.359375,0.546875
0,0.359375,0.578125
0,0.359375,0.609375
4.26646,0.359375,0.640625
4.52918,0.359375,0.671875
4.62896,0.359375,0.703125
4.50576,0.359375,0.734375
4.37956,0.359375,0.765625
4.26272,0.359375,0.796875
4.1619,0.359375,0.828125
4.07384,0.359375,0.859375
4.04139,0.359375,0.890625
4.47642,0.390625,0.015625
4.47642,0.390625,0.046875
4.53188,0.390625,0.078125
4.62547,0.390625,0.109375
4.73561,0.390625,0.140625
4.89393,0.390625,0.171875
5.09603,0.390625,0.203125
5.42717,0.390625,0.234375
6.02655,0.390625,0.265625
0,0.390625,0.296875
0,0.390625,0.328125
0,0.390625,0.359375
0,0.390625,0.390625
0,0.390625,0.421875
0,0.390625,0.453125
0,0.390625,0.484375
0,0.390625,0.515625
0,0.390625,0.546875
0,0.390625,0.578125
0,0.390625,0.609375
3.6866,0.390625,0.640625
4.56285,0.390625,0.671875
4.81065,0.390625,0.703125
4.73196,0.390625,0.734375
4.59638,0.390625,0.765625
4.43868,0.390625,0.796875
4.3353,0.390625,0.828125
4.25075,0.390625,0.859375
4.1939,0.390625,0.890625
4.66483,0.421875,0.015625
4.66483,0.421875,0.046875
4.70352,0.421875,0.078125
4.81662,0.421875,0.109375
4.93235,0.421875,0.140625
5.10723,0.421875,0.171875
5.29883,0.421875,0.203125
5.48795,0.421875,0.234375
5.43968,0.421875,0.265625
2.29837,0.421875,0.296875
0,0.421875,0.328125
0,0.421875,0.359375
0,0.421875,0.390625
0,0.421875,0.421875
0,0.421875,0.453125
0,0.421875,0.484375
0,0.421875,0.515625
0,0.421875,0.546875
0,0.421875,0.578125
0,0.421875,0.609375
0,0.421875,0.640625
4.5616,0.421875,0.671875
4.94373,0.421875,0.703125
4.96056,0.421875,0.734375
4.80828,0.421875,0.765625
4.63338,0.421875,0.796875
4.49939,0.421875,0.828125
4.41422,0.421875,0.859375
4.3434,0.421875,0.890625
4.8218,0.453125,0.015625
4.8218,0.453125,0.046875
4.88359,0.453125,0.078125
4.97921,0.453125,0.109375
5.10839,0.453125,0.140625
5.29934,0.453125,0.171875
5.4946,0.453125,0.203125
5.61429,0.453125,0.234375
5.05424,0.453125,0.265625
1.82661,0.453125,0.296875
0,0.453125,0.328125
0,0.453125,0.359375
0,0.453125,0.390625
0,0.453125,0.421875
0,0.453125,0.453125
0,0.453125,0.484375
0,0.453125,0.515625
0,0.453125,0.546875
0,0.453125,0.578125
0,0.453125,0.609375
0,0.453125,0.640625
4.57495,0.453125,0.671875
5.01288,0.453125,0.703125
5.16773,0.453125,0.734375
4.9958,0.453125,0.765625
4.80672,0.453125,0.796875
4.64891,0.453125,0.828125
4.55604,0.453125,0.859375
4.48545,0.453125,0.890625
4.97008,0.484375,0.015625
4.97008,0.484375,0.046875
5.04194,0.484375,0.078125
5.13452,0.484375,0.109375
5.27295,0.484375,0.140625
5.42382,0.484375,0.171875
5.63926,0.484375,0.203125
5.69941,0.484375,0.234375
4.65621,0.484375,0.265625
1.22784,0.484375,0.296875
0,0.484375,0.328125
0,0.484375,0.359375
0,0.484375,0.390625
0,0.484375,0.421875
0,0.484375,0.453125
0,0.484375,0.484375
0,0.484375,0.515625
0,0.484375,0.546875
0,0.484375,0.578125
-0.142607,0.484375,0.609375
1.48027,0.484375,0.640625
4.15475,0.484375,0.671875
4.98128,0.484375,0.703125
5.24414,0.484375,0.734375
5.13111,0.484375,0.765625
4.95069,0.484375,0.796875
4.79074,0.484375,0.828125
4.68373,0.484375,0.859375
4.60546,0.484375,0.890625
5.10042,0.515625,0.015625
5.10042,0.515625,0.046875
5.18152,0.515625,0.078125
5.2744,0.515625,0.109375
5.41156,0.515625,0.140625
5.55953,0.515625,0.171875
5.71897,0.515625,0.203125
5.71708,0.515625,0.234375
3.9776,0.515625,0.265625
0.897772,0.515625,0.296875
0,0.515625,0.328125
0,0.515625,0.359375
0,0.515625,0.390625
0,0.515625,0.421875
0,0.515625,0.453125
0,0.515625,0.484375
0,0.515625,0.515625
0,0.515625,0.546875
0,0.515625,0.578125
-0.052662,0.515625,0.609375
1.30657,0.515625,0.640625
3.63719,0.515625,0.671875
4.98949,0.515625,0.703125
5.30944,0.515625,0.734375
5.25874,0.515625,0.765625
5.08955,0.515625,0.796875
4.91919,0.515625,0.828125
4.79922,0.515625,0.859375
4.71799,0.515625,0.890625
5.22913,0.546875,0.015625
5.22913,0.546875,0.046875
5.29738,0.546875,0.078125
5.39042,0.546875,0.109375
5.52243,0.546875,0.140625
5.67389,0.546875,0.171875
5.78925,0.546875,0.203125
5.68413,0.546875,0.234375
3.5432,0.546875,0.265625
0.796176,0.546875,0.296875
-0.118565,0.546875,0.328125
-0.223901,0.546875,0.359375
-0.123723,0.546875,0.390625
0,0.546875,0.421875
0,0.546875,0.453125
0,0.546875,0.484375
0,0.546875,0.515625
0,0.546875,0.546875
0,0.546875,0.578125
-0.0650524,0.546875,0.609375
1.06929,0.546875,0.640625
3.14354,0.546875,0.671875
4.92047,0.546875,0.703125
5.38775,0.546875,0.734375
5.34661,0.546875,0.765625
5.19164,0.546875,0.796875
5.02359,0.546875,0.828125
4.90538,0.546875,0.859375
4.84344,0.546875,0.890625
5.33333,0.578125,0.015625
5.33333,0.578125,0.046875
5.40483,0.578125,0.078125
5.50595,0.578125,0.109375
5.61532,0.578125,0.140625
5.73613,0.578125,0.171875
5.82007,0.578125,0.203125
5.57331,0.578125,0.234375
3.39293,0.578125,0.265625
0.907074,0.578125,0.296875
0.0706898,0.578125,0.328125
-0.208098,0.578125,0.359375
-0.349976,0.578125,0.390625
0,0.578125,0.421875
0,0.578125,0.453125
-0.0797908,0.578125,0.484375
-0.0914188,0.578125,0.515625
-0.0548372,0.578125,0.546875
-0.0398413,0.578125,0.578125
0.127619,0.578125,0.609375
0.864045,0.578125,0.640625
2.8185,0.578125,0.671875
4.79925,0.578125,0.703125
5.40921,0.578125,0.734375
5.40312,0.578125,0.765625
5.27561,0.578125,0.796875
5.12831,0.578125,0.828125
5.00536,0.578125,0.859375
4.93613,0.578125,0.890625
5.43827,0.609375,0.015625
5.43827,0.609375,0.046875
5.50419,0.609375,0.078125
5.59652,0.609375,0.109375
5.69509,0.609375,0.140625
5.81919,0.609375,0.171875
5.87386,0.609375,0.203125
5.35034,0.609375,0.234375
3.35774,0.609375,0.265625
1.26358,0.609375,0.296875
0.419974,0.609375,0.328125
0.113378,0.609375,0.359375
-0.195249,0.609375,0.390625
-0.748124,0.609375,0.421875
-0.360274,0.609375,0.453125
-0.50797,0.609375,0.484375
-0.559397,0.609375,0.515625
-0.358325,0.609375,0.546875
0.0486125,0.609375,0.578125
0.470908,0.609375,0.609375
0.975275,0.609375,0.640625
2.63041,0.609375,0.671875
4.59965,0.609375,0.703125
5.39765,0.609375,0.734375
5.49905,0.609375,0.765625
5.359,0.609375,0.796875
5.20617,0.609375,0.828125
5.10372,0.609375,0.859375
5.0209,0.609375,0.890625
5.52749,0.640625,0.015625
5.52749,0.640625,0.046875
5.58419,0.640625,0.078125
5.66952,0.640625,0.109375
5.77451,0.640625,0.140625
5.89393,0.640625,0.171875
5.92234,0.640625,0.203125
5.28668,0.640625,0.234375
3.35329,0.640625,0.265625
1.57034,0.640625,0.296875
0.906311,0.640625,0.328125
0.470486,0.640625,0.359375
-0.0846195,0.640625,0.390625
-0.641794,0.640625,0.421875
-0.93151,0.640625,0.453125
-1.19049,0.640625,0.484375
-1.13692,0.640625,0.515625
-0.682925,0.640625,0.546875
-0.0478635,0.640625,0.578125
0.558167,0.640625,0.609375
1.13753,0.640625,0.640625
2.62623,0.640625,0.671875
4.45439,0.640625,0.703125
5.34473,0.640625,0.734375
5.56128,0.640625,0.765625
5.44116,0.640625,0.796875
5.28096,0.640625,0.828125
5.17981,0.640625,0.859375
5.10423,0.640625,0.890625
5.59341,0.671875,0.015625
5.59341,0.671875,0.046875
5.65546,0.671875,0.078125
5.74132,0.671875,0.109375
5.84665,0.671875,0.140625
5.96187,0.671875,0.171875
6.01009,0.671875,0.203125
5.25515,0.671875,0.234375
3.36301,0.671875,0.265625
1.87923,0.671875,0.296875
1.29026,0.671875,0.328125
0.696542,0.671875,0.359375
0.0091975,0.671875,0.390625
-0.613331,0.671875,0.421875
-1.19613,0.671875,0.453125
-1.66593,0.671875,0.484375
-1.63082,0.671875,0.515625
-1.05729,0.671875,0.546875
-0.2577,0.671875,0.578125
0.534265,0.671875,0.609375
1.26011,0.671875,0.640625
2.63972,0.671875,0.671875
4.34662,0.671875,0.703125
5.30528,0.671875,0.734375
5.58995,0.671875,0.765625
5.50768,0.671875,0.796875
5.35697,0.671875,0.828125
5.25465,0.671875,0.859375
5.18141,0.671875,0.890625
5.65398,0.703125,0.015625
5.65398,0.703125,0.046875
5.71136,0.703125,0.078125
5.79508,0.703125,0.109375
5.91018,0.703125,0.140625
6.01791,0.703125,0.171875
6.03855,0.703125,0.203125
5.32934,0.703125,0.234375
3.47961,0.703125,0.265625
2.05141,0.703125,0.296875
1.5091,0.703125,0.328125
0.808943,0.703125,0.359375
0.0709844,0.703125,0.390625
-0.556044,0.703125,0.421875
-1.2694,0.703125,0.453125
-1.9473,0.703125,0.484375
-2.06547,0.703125,0.515625
-1.42467,0.703125,0.546875
-0.479809,0.703125,0.578125
0.48836,0.703125,0.609375
1.37396,0.703125,0.640625
2.56936,0.703125,0.671875
4.20778,0.703125,0.703125
5.3067,0.703125,0.734375
5.62405,0.703125,0.765625
5.5623,0.703125,0.796875
5.43413,0.703125,0.828125
5.32897,0.703125,0.859375
5.26043,0.703125,0.890625
5.70331,0.734375,0.015625
5.70331,0.734375,0.046875
5.75997,0.734375,0.078125
5.84619,0.734375,0.109375
5.96437,0.734375,0.140625
6.0728,0.734375,0.171875
6.06913,0.734375,0.203125
5.39125,0.734375,0.234375
3.53435,0.734375,0.265625
2.17038,0.734375,0.296875
1.65364,0.734375,0.328125
0.887126,0.734375,0.359375
0.136949,0.734375,0.390625
-0.541937,0.734375,0.421875
-1.28734,0.734375,0.453125
-2.05789,0.734375,0.484375
-2.34732,0.734375,0.515625
-1.77681,0.734375,0.546875
-0.7418,0.734375,0.578125
0.44956,0.734375,0.609375
1.49034,0.734375,0.640625
2.4207,0.734375,0.671875
4.01074,0.734375,0.703125
5.34771,0.734375,0.734375
5.68578,0.734375,0.765625
5.63122,0.734375,0.796875
5.51127,0.734375,0.828125
5.40076,0.734375,0.859375
5.33126,0.734375,0.890625
5.74323,0.765625,0.015625
5.74323,0.765625,0.046875
5.79271,0.765625,0.078125
5.8878,0.765625,0.109375
6.01084,0.765625,0.140625
6.15006,0.765625,0.171875
6.15214,0.765625,0.203125
5.27945,0.765625,0.234375
3.51258,0.765625,0.265625
2.36495,0.765625,0.296875
1.77414,0.765625,0.328125
0.967666,0.765625,0.359375
0.183622,0.765625,0.390625
-0.574041,0.765625,0.421875
-1.30568,0.765625,0.453125
-2.10856,0.765625,0.484375
-2.54418,0.765625,0.515625
-2.00035,0.765625,0.546875
-0.97533,0.765625,0.578125
0.330925,0.765625,0.609375
1.53656,0.765625,0.640625
2.32718,0.765625,0.671875
3.82924,0.765625,0.703125
5.34963,0.765625,0.734375
5.76577,0.765625,0.765625
5.7171,0.765625,0.796875
5.59483,0.765625,0.828125
5.48196,0.765625,0.859375
5.39736,0.765625,0.890625
5.77152,0.796875,0.015625
5.77152,0.796875,0.046875
5.81378,0.796875,0.078125
5.91155,0.796875,0.109375
6.04346,0.796875,0.140625
6.1913,0.796875,0.171875
6.17249,0.796875,0.203125
5.22807,0.796875,0.234375
3.55925,0.796875,0.265625
2.48341,0.796875,0.296875
1.86852,0.796875,0.328125
1.03535,0.796875,0.359375
0.202369,0.796875,0.390625
-0.581574,0.796875,0.421875
-1.35559,0.796875,0.453125
-2.20066,0.796875,0.484375
-2.67332,0.796875,0.515625
-2.15569,0.796875,0.546875
-1.09049,0.796875,0.578125
0.186149,0.796875,0.609375
1.453,0.796875,0.640625
2.41703,0.796875,0.671875
3.67751,0.796875,0.703125
5.21318,0.796875,0.734375
5.89455,0.796875,0.765625
5.80292,0.796875,0.796875
5.67543,0.796875,0.828125
5.55823,0.796875,0.859375
5.46992,0.796875,0.890625
5.77898,0.828125,0.015625
5.77898,0.828125,0.046875
5.8202,0.828125,0.078125
5.91704,0.828125,0.109375
6.05399,0.828125,0.140625
6.20573,0.828125,0.171875
6.20651,0.828125,0.203125
5.24653,0.828125,0.234375
3.58634,0.828125,0.265625
2.51868,0.828125,0.296875
1.91151,0.828125,0.328125
1.09085,0.828125,0.359375
0.22508,0.828125,0.390625
-0.573608,0.828125,0.421875
-1.47351,0.828125,0.453125
-2.31409,0.828125,0.484375
-2.70009,0.828125,0.515625
-2.26499,0.828125,0.546875
-1.18073,0.828125,0.578125
0.127306,0.828125,0.609375
1.4287,0.828125,0.640625
2.44204,0.828125,0.671875
3.57691,0.828125,0.703125
5.11219,0.828125,0.734375
5.9479,0.828125,0.765625
5.89016,0.828125,0.796875
5.75397,0.828125,0.828125
5.6373,0.828125,0.859375
5.54285,0.828125,0.890625
5.76624,0.859375,0.015625
5.76624,0.859375,0.046875
5.81006,0.859375,0.078125
5.90299,0.859375,0.109375
6.0361,0.859375,0.140625
6.18817,0.859375,0.171875
6.23085,0.859375,0.203125
5.36264,0.859375,0.234375
3.62619,0.859375,0.265625
2.45798,0.859375,0.296875
1.87305,0.859375,0.328125
1.12209,0.859375,0.359375
0.245402,0.859375,0.390625
-0.664753,0.859375,0.421875
-1.55252,0.859375,0.453125
-2.32379,0.859375,0.484375
-2.7319,0.859375,0.515625
-2.35858,0.859375,0.546875
-1.23428,0.859375,0.578125
0.152975,0.859375,0.609375
1.44466,0.859375,0.640625
2.38181,0.859375,0.671875
3.59088,0.859375,0.703125
5.11146,0.859375,0.734375
5.90463,0.859375,0.765625
5.96265,0.859375,0.796875
5.82878,0.859375,0.828125
5.69987,0.859375,0.859375
5.61175,0.859375,0.890625
5.73738,0.890625,0.015625
5.73738,0.890625,0.046875
5.78059,0.890625,0.078125
5.86777,0.890625,0.109375
6.00102,0.890625,0.140625
6.14732,0.890625,0.171875
6.17962,0.890625,0.203125
5.47938,0.890625,0.234375
3.7381,0.890625,0.265625
2.41126,0.890625,0.296875
1.79534,0.890625,0.328125
1.07783,0.890625,0.359375
0.201227,0.890625,0.390625
-0.715472,0.890625,0.421875
-1.572,0.890625,0.453125
-2.38681,0.890625,0.484375
-2.79894,0.890625,0.515625
-2.38734,0.890625,0.546875
-1.21882,0.890625,0.578125
0.211058,0.890625,0.609375
1.4912,0.890625,0.640625
2.40517,0.890625,0.671875
3.55998,0.890625,0.703125
5.08777,0.890625,0.734375
5.93324,0.890625,0.765625
6.02041,0.890625,0.796875
5.90348,0.890625,0.828125
5.76302,0.890625,0.859375
5.6685,0.890625,0.890625
5.68922,0.921875,0.015625
5.68922,0.921875,0.046875
5.73044,0.921875,0.078125
5.81703,0.921875,0.109375
5.95323,0.921875,0.140625
6.10383,0.921875,0.171875
6.14715,0.921875,0.203125
5.39649,0.921875,0.234375
3.81282,0.921875,0.265625
2.54056,0.921875,0.296875
1.72705,0.921875,0.328125
0.974818,0.921875,0.359375
0.154979,0.921875,0.390625
-0.751133,0.921875,0.421875
-1.65969,0.921875,0.453125
-2.50462,0.921875,0.484375
-2.87267,0.921875,0.515625
-2.30783,0.921875,0.546875
-1.09985,0.921875,0.578125
0.261683,0.921875,0.609375
1.55925,0.921875,0.640625
2.51795,0.921875,0.671875
3.4854,0.921875,0.703125
5.0171,0.921875,0.734375
6.01711,0.921875,0.765625
6.08549,0.921875,0.796875
5.96464,0.921875,0.828125
5.83809,0.921875,0.859375
5.73135,0.921875,0.890625
5.61942,0.953125,0.015625
5.61942,0.953125,0.046875
5.65805,0.953125,0.078125
5.74802,0.953125,0.109375
5.88272,0.953125,0.140625
6.04407,0.953125,0.171875
6.1027,0.953125,0.203125
5.34217,0.953125,0.234375
3.90649,0.953125,0.265625
2.60277,0.953125,0.296875
1.63793,0.953125,0.328125
0.901434,0.953125,0.359375
0.0787477,0.953125,0.390625
-0.856642,0.953125,0.421875
-1.78237,0.953125,0.453125
-2.62863,0.953125,0.484375
-2.88773,0.953125,0.515625
-2.17837,0.953125,0.546875
-0.942334,0.953125,0.578125
0.396873,0.953125,0.609375
1.65365,0.953125,0.640625
2.56405,0.953125,0.671875
3.48518,0.953125,0.703125
4.99336,0.953125,0.734375
6.05948,0.953125,0.765625
6.16586,0.953125,0.796875
6.02354,0.953125,0.828125
5.9014,0.953125,0.859375
5.79568,0.953125,0.890625
5.52731,0.984375,0.015625
5.52731,0.984375,0.046875
5.56245,0.984375,0.078125
5.65149,0.984375,0.109375
5.77613,0.984375,0.140625
5.93642,0.984375,0.171875
6.04353,0.984375,0.203125
5.47386,0.984375,0.234375
4.05406,0.984375,0.265625
2.5496,0.984375,0.296875
1.54186,0.984375,0.328125
0.807584,0.984375,0.359375
-0.0768825,0.984375,0.390625
-1.02096,0.984375,0.421875
-1.99698,0.984375,0.453125
-2.7695,0.984375,0.484375
-2.75968,0.984375,0.515625
-2.02861,0.984375,0.546875
-0.764224,0.984375,0.578125
0.623793,0.984375,0.609375
1.78899,0.984375,0.640625
2.63265,0.984375,0.671875
3.5536,0.984375,0.703125
4.9774,0.984375,0.734375
6.04239,0.984375,0.765625
6.24684,0.984375,0.796875
6.08161,0.984375,0.828125
5.9467,0.984375,0.859375
5.84271,0.984375,0.890625
5.41422,1.01563,0.015625
5.41422,1.01563,0.046875
5.44106,1.01563,0.078125
5.51878,1.01563,0.109375
5.64376,1.01563,0.140625
5.79958,1.01563,0.171875
5.94699,1.01563,0.203125
5.66883,1.01563,0.234375
4.26146,1.01563,0.265625
2.52121,1.01563,0.296875
1.49994,1.01563,0.328125
0.673768,1.01563,0.359375
-0.293595,1.01563,0.390625
-1.30132,1.01563,0.421875
-2.27543,1.01563,0.453125
-2.83945,1.01563,0.484375
-2.61751,1.01563,0.515625
-1.79773,1.01563,0.546875
-0.523978,1.01563,0.578125
0.8018,1.01563,0.609375
1.96755,1.01563,0.640625
2.77328,1.01563,0.671875
3.61653,1.01563,0.703125
4.98661,1.01563,0.734375
6.05908,1.01563,0.765625
6.28601,1.01563,0.796875
6.12577,1.01563,0.828125
5.98232,1.01563,0.859375
5.87351,1.01563,0.890625
5.28147,1.04688,0.015625
5.28147,1.04688,0.046875
5.29872,1.04688,0.078125
5.3596,1.04688,0.109375
5.4855,1.04688,0.140625
5.63215,1.04688,0.171875
5.7574,1.04688,0.203125
5.64027,1.04688,0.234375
4.56632,1.04688,0.265625
2.82866,1.04688,0.296875
1.48678,1.04688,0.328125
0.503762,1.04688,0.359375
-0.520988,1.04688,0.390625
-1.6411,1.04688,0.421875
-2.5816,1.04688,0.453125
-2.88993,1.04688,0.484375
-2.46169,1.04688,0.515625
-1.48715,1.04688,0.546875
-0.246458,1.04688,0.578125
1.0277,1.04688,0.609375
2.12615,1.04688,0.640625
2.8131,1.04688,0.671875
3.68261,1.04688,0.703125
5.08877,1.04688,0.734375
6.11883,1.04688,0.765625
6.29296,1.04688,0.796875
6.14715,1.04688,0.828125
6.00034,1.04688,0.859375
5.88651,1.04688,0.890625
5.12692,1.07813,0.015625
5.12692,1.07813,0.046875
5.13214,1.07813,0.078125
5.19299,1.07813,0.109375
5.28781,1.07813,0.140625
5.41847,1.07813,0.171875
5.50803,1.07813,0.203125
5.46484,1.07813,0.234375
4.78856,1.07813,0.265625
3.23822,1.07813,0.296875
1.59388,1.07813,0.328125
0.400939,1.07813,0.359375
-0.723636,1.07813,0.390625
-2.00633,1.07813,0.421875
-2.89298,1.07813,0.453125
-2.87369,1.07813,0.484375
-2.20457,1.07813,0.515625
-1.14995,1.07813,0.546875
0.0952125,1.07813,0.578125
1.26569,1.07813,0.609375
2.19802,1.07813,0.640625
2.90297,1.07813,0.671875
3.80526,1.07813,0.703125
5.16614,1.07813,0.734375
6.13543,1.07813,0.765625
6.29456,1.07813,0.796875
6.14842,1.07813,0.828125
5.99465,1.07813,0.859375
5.88256,1.07813,0.890625
4.96708,1.10938,0.015625
4.96708,1.10938,0.046875
4.95219,1.10938,0.078125
5.00297,1.10938,0.109375
5.0782,1.10938,0.140625
5.17933,1.10938,0.171875
5.24594,1.10938,0.203125
5.21237,1.10938,0.234375
4.79611,1.10938,0.265625
3.5364,1.10938,0.296875
1.83478,1.10938,0.328125
0.365748,1.10938,0.359375
-0.924184,1.10938,0.390625
-2.2606,1.10938,0.421875
-3.07389,1.10938,0.453125
-2.78451,1.10938,0.484375
-1.88399,1.10938,0.515625
-0.775292,1.10938,0.546875
0.447556,1.10938,0.578125
1.45853,1.10938,0.609375
2.28856,1.10938,0.640625
3.02007,1.10938,0.671875
3.89108,1.10938,0.703125
5.22496,1.10938,0.734375
6.15916,1.10938,0.765625
6.27065,1.10938,0.796875
6.13072,1.10938,0.828125
5.97487,1.10938,0.859375
5.86647,1.10938,0.890625
4.79082,1.14063,0.015625
4.79082,1.14063,0.046875
4.78124,1.14063,0.078125
4.80687,1.14063,0.109375
4.86623,1.14063,0.140625
4.91597,1.14063,0.171875
4.97177,1.14063,0.203125
4.92166,1.14063,0.234375
4.632,1.14063,0.265625
3.75048,1.14063,0.296875
2.07305,1.14063,0.328125
0.332652,1.14063,0.359375
-1.06136,1.14063,0.390625
-2.41391,1.14063,0.421875
-3.06045,1.14063,0.453125
-2.57707,1.14063,0.484375
-1.58304,1.14063,0.515625
-0.38055,1.14063,0.546875
0.771864,1.14063,0.578125
1.62141,1.14063,0.609375
2.39815,1.14063,0.640625
3.12138,1.14063,0.671875
3.9381,1.14063,0.703125
5.27035,1.14063,0.734375
6.19984,1.14063,0.765625
6.24422,1.14063,0.796875
6.10785,1.14063,0.828125
5.95173,1.14063,0.859375
5.83692,1.14063,0.890625
4.62447,1.17188,0.015625
4.62447,1.17188,0.046875
4.6155,1.17188,0.078125
4.59915,1.17188,0.109375
4.63709,1.17188,0.140625
4.66842,1.17188,0.171875
4.68162,1.17188,0.203125
4.60447,1.17188,0.234375
4.37278,1.17188,0.265625
3.73619,1.17188,0.296875
2.21948,1.17188,0.328125
0.429362,1.17188,0.359375
-1.13754,1.17188,0.390625
-2.52035,1.17188,0.421875
-2.90235,1.17188,0.453125
-2.26092,1.17188,0.484375
-1.18976,1.17188,0.515625
0.0455214,1.17188,0.546875
1.02689,1.17188,0.578125
1.74257,1.17188,0.609375
2.50299,1.17188,0.640625
3.22718,1.17188,0.671875
4.0455,1.17188,0.703125
5.29122,1.17188,0.734375
6.17334,1.17188,0.765625
6.24344,1.17188,0.796875
6.08501,1.17188,0.828125
5.92196,1.17188,0.859375
5.79365,1.17188,0.890625
4.46686,1.20313,0.015625
4.46686,1.20313,0.046875
4.43697,1.20313,0.078125
4.40264,1.20313,0.109375
4.41113,1.20313,0.140625
4.42434,1.20313,0.171875
4.40222,1.20313,0.203125
4.30076,1.20313,0.234375
4.05785,1.20313,0.265625
3.51637,1.20313,0.296875
2.30592,1.20313,0.328125
0.548114,1.20313,0.359375
-1.28264,1.20313,0.390625
-2.53814,1.20313,0.421875
-2.59269,1.20313,0.453125
-1.75217,1.20313,0.484375
-0.65839,1.20313,0.515625
0.344988,1.20313,0.546875
1.15844,1.20313,0.578125
1.89896,1.20313,0.609375
2.62778,1.20313,0.640625
3.29826,1.20313,0.671875
4.14047,1.20313,0.703125
5.37974,1.20313,0.734375
6.18576,1.20313,0.765625
6.21926,1.20313,0.796875
6.03685,1.20313,0.828125
5.86656,1.20313,0.859375
5.73454,1.20313,0.890625
4.31802,1.23438,0.015625
4.31802,1.23438,0.046875
4.26114,1.23438,0.078125
4.22686,1.23438,0.109375
4.21336,1.23438,0.140625
4.20305,1.23438,0.171875
4.14082,1.23438,0.203125
4.00298,1.23438,0.234375
3.74781,1.23438,0.265625
3.21589,1.23438,0.296875
2.22725,1.23438,0.328125
0.487316,1.23438,0.359375
-1.42645,1.23438,0.390625
-2.36859,1.23438,0.421875
-2.11294,1.23438,0.453125
-1.20235,1.23438,0.484375
-0.181843,1.23438,0.515625
0.632378,1.23438,0.546875
1.33821,1.23438,0.578125
2.06247,1.23438,0.609375
2.7396,1.23438,0.640625
3.35741,1.23438,0.671875
4.22579,1.23438,0.703125
5.5315,1.23438,0.734375
6.22964,1.23438,0.765625
6.15144,1.23438,0.796875
5.95912,1.23438,0.828125
5.78614,1.23438,0.859375
5.65148,1.23438,0.890625
4.18079,1.26563,0.015625
4.18079,1.26563,0.046875
4.12085,1.26563,0.078125
4.08014,1.26563,0.109375
4.05039,1.26563,0.140625
3.99167,1.26563,0.171875
3.88496,1.26563,0.203125
3.73873,1.26563,0.234375
3.46792,1.26563,0.265625
2.87869,1.26563,0.296875
1.85576,1.26563,0.328125
0.271485,1.26563,0.359375
-1.40865,1.26563,0.390625
-2.05171,1.26563,0.421875
-1.60711,1.26563,0.453125
-0.699622,1.26563,0.484375
0.347465,1.26563,0.515625
1.01116,1.26563,0.546875
1.54327,1.26563,0.578125
2.19364,1.26563,0.609375
2.80961,1.26563,0.640625
3.42032,1.26563,0.671875
4.43423,1.26563,0.703125
5.68112,1.26563,0.734375
6.18186,1.26563,0.765625
6.05734,1.26563,0.796875
5.85881,1.26563,0.828125
5.67996,1.26563,0.859375
5.54465,1.26563,0.890625
4.06935,1.29688,0.015625
4.06935,1.29688,0.046875
4.01037,1.29688,0.078125
3.95311,1.29688,0.109375
3.90457,1.29688,0.140625
3.83188,1.29688,0.171875
3.69999,1.29688,0.203125
3.49427,1.29688,0.234375
3.16076,1.29688,0.265625
2.51468,1.29688,0.296875
1.38557,1.29688,0.328125
-0.113517,1.29688,0.359375
-1.33564,1.29688,0.390625
-1.5735,1.29688,0.421875
-0.999217,1.29688,0.453125
-0.130096,1.29688,0.484375
0.740428,1.29688,0.515625
1.27872,1.29688,0.546875
1.78216,1.29688,0.578125
2.38132,1.29688,0.609375
2.87415,1.29688,0.640625
3.53137,1.29688,0.671875
4.70313,1.29688,0.703125
5.78675,1.29688,0.734375
6.08271,1.29688,0.765625
5.92083,1.29688,0.796875
5.71321,1.29688,0.828125
5.54191,1.29688,0.859375
5.42578,1.29688,0.890625
3.98609,1.32813,0.015625
3.98609,1.32813,0.046875
3.932,1.32813,0.078125
3.86539,1.32813,0.109375
3.80083,1.32813,0.140625
3.71394,1.32813,0.171875
3.55499,1.32813,0.203125
3.29894,1.32813,0.234375
2.84987,1.32813,0.265625
2.12456,1.32813,0.296875
0.853805,1.32813,0.328125
-0.535435,1.32813,0.359375
-1.15343,1.32813,0.390625
-0.992596,1.32813,0.421875
-0.426619,1.32813,0.453125
0.340946,1.32813,0.484375
1.06617,1.32813,0.515625
1.54255,1.32813,0.546875
2.01702,1.32813,0.578125
2.50068,1.32813,0.609375
2.96717,1.32813,0.640625
3.80197,1.32813,0.671875
5.00079,1.32813,0.703125
5.80986,1.32813,0.734375
5.91656,1.32813,0.765625
5.7289,1.32813,0.796875
5.53269,1.32813,0.828125
5.39239,1.32813,0.859375
5.28309,1.32813,0.890625
3.93299,1.35938,0.015625
3.93299,1.35938,0.046875
3.87857,1.35938,0.078125
3.81928,1.35938,0.109375
3.75275,1.35938,0.140625
3.64704,1.35938,0.171875
3.44322,1.35938,0.203125
3.13247,1.35938,0.234375
2.56134,1.35938,0.265625
1.62154,1.35938,0.296875
0.311827,1.35938,0.328125
-0.656556,1.35938,0.359375
-0.829534,1.35938,0.390625
-0.567155,1.35938,0.421875
-0.019646,1.35938,0.453125
0.75079,1.35938,0.484375
1.38956,1.35938,0.515625
1.77792,1.35938,0.546875
2.20393,1.35938,0.578125
2.59532,1.35938,0.609375
3.1,1.35938,0.640625
4.1597,1.35938,0.671875
5.3216,1.35938,0.703125
5.75101,1.35938,0.734375
5.66733,1.35938,0.765625
5.48914,1.35938,0.796875
5.34673,1.35938,0.828125
5.22325,1.35938,0.859375
5.11469,1.35938,0.890625
3.91513,1.39063,0.015625
3.91513,1.39063,0.046875
3.86682,1.39063,0.078125
3.81275,1.39063,0.109375
3.74953,1.39063,0.140625
3.62765,1.39063,0.171875
3.39647,1.39063,0.203125
3.02636,1.39063,0.234375
2.18846,1.39063,0.265625
1.01504,1.39063,0.296875
0.00924046,1.39063,0.328125
-0.496552,1.39063,0.359375
-0.537117,1.39063,0.390625
-0.273448,1.39063,0.421875
0.335237,1.39063,0.453125
1.01162,1.39063,0.484375
1.56982,1.39063,0.515625
2.00034,1.39063,0.546875
2.35082,1.39063,0.578125
2.78276,1.39063,0.609375
3.46322,1.39063,0.640625
4.5353,1.39063,0.671875
5.42044,1.39063,0.703125
5.54981,1.39063,0.734375
5.40089,1.39063,0.765625
5.24018,1.39063,0.796875
5.14748,1.39063,0.828125
5.02322,1.39063,0.859375
4.94208,1.39063,0.890625
3.93422,1.42188,0.015625
3.93422,1.42188,0.046875
3.89495,1.42188,0.078125
3.84812,1.42188,0.109375
3.78351,1.42188,0.140625
3.66119,1.42188,0.171875
3.42798,1.42188,0.203125
2.88846,1.42188,0.234375
1.74208,1.42188,0.265625
0.581702,1.42188,0.296875
-0.00104555,1.42188,0.328125
-0.264871,1.42188,0.359375
-0.306897,1.42188,0.390625
-0.0481353,1.42188,0.421875
0.549245,1.42188,0.453125
1.14135,1.42188,0.484375
1.66038,1.42188,0.515625
2.18507,1.42188,0.546875
2.56597,1.42188,0.578125
3.14974,1.42188,0.609375
3.97517,1.42188,0.640625
4.79066,1.42188,0.671875
5.23156,1.42188,0.703125
5.24096,1.42188,0.734375
5.13215,1.42188,0.765625
4.99846,1.42188,0.796875
4.91038,1.42188,0.828125
4.79816,1.42188,0.859375
4.76473,1.42188,0.890625
3.9865,1.45313,0.015625
3.9865,1.45313,0.046875
3.95584,1.45313,0.078125
3.92504,1.45313,0.109375
3.86589,1.45313,0.140625
3.75272,1.45313,0.171875
3.50596,1.45313,0.203125
2.64619,1.45313,0.234375
1.31605,1.45313,0.265625
0.472549,1.45313,0.296875
0.152658,1.45313,0.328125
-0.0590963,1.45313,0.359375
-0.0550029,1.45313,0.390625
0.179506,1.45313,0.421875
0.704818,1.45313,0.453125
1.25225,1.45313,0.484375
1.71791,1.45313,0.515625
2.29864,1.45313,0.546875
2.90415,1.45313,0.578125
3.60611,1.45313,0.609375
4.27219,1.45313,0.640625
4.76264,1.45313,0.671875
4.93169,1.45313,0.703125
4.91168,1.45313,0.734375
4.83957,1.45313,0.765625
4.74042,1.45313,0.796875
4.65527,1.45313,0.828125
4.58556,1.45313,0.859375
4.57349,1.45313,0.890625
4.07027,1.48438,0.015625
4.07027,1.48438,0.046875
4.04847,1.48438,0.078125
4.03801,1.48438,0.109375
4.00063,1.48438,0.140625
3.91023,1.48438,0.171875
3.55131,1.48438,0.203125
2.31331,1.48438,0.234375
1.05039,1.48438,0.265625
0.624642,1.48438,0.296875
0.374776,1.48438,0.328125
0.225119,1.48438,0.359375
0.24136,1.48438,0.390625
0.438894,1.48438,0.421875
0.871823,1.48438,0.453125
1.37011,1.48438,0.484375
1.88146,1.48438,0.515625
2.44894,1.48438,0.546875
3.17622,1.48438,0.578125
3.821,1.48438,0.609375
4.22027,1.48438,0.640625
4.50513,1.48438,0.671875
4.61333,1.48438,0.703125
4.59946,1.48438,0.734375
4.54759,1.48438,0.765625
4.47981,1.48438,0.796875
4.40592,1.48438,0.828125
4.35276,1.48438,0.859375
4.36747,1.48438,0.890625
4.18136,1.51563,0.015625
4.18136,1.51563,0.046875
4.16949,1.51563,0.078125
4.1748,1.51563,0.109375
4.17817,1.51563,0.140625
4.09604,1.51563,0.171875
3.49507,1.51563,0.203125
2.093,1.51563,0.234375
1.05556,1.51563,0.265625
0.824274,1.51563,0.296875
0.653294,1.51563,0.328125
0.579198,1.51563,0.359375
0.563667,1.51563,0.390625
0.726471,1.51563,0.421875
1.07936,1.51563,0.453125
1.54461,1.51563,0.484375
2.05073,1.51563,0.515625
2.60211,1.51563,0.546875
3.22299,1.51563,0.578125
3.72612,1.51563,0.609375
3.99916,1.51563,0.640625
4.18267,1.51563,0.671875
4.2684,1.51563,0.703125
4.29551,1.51563,0.734375
4.25857,1.51563,0.765625
4.21528,1.51563,0.796875
4.16903,1.51563,0.828125
4.13672,1.51563,0.859375
4.17531,1.51563,0.890625
4.31217,1.54688,0.015625
4.31217,1.54688,0.046875
4.32074,1.54688,0.078125
4.34843,1.54688,0.109375
4.36882,1.54688,0.140625
4.24806,1.54688,0.171875
3.45819,1.54688,0.203125
2.05627,1.54688,0.234375
1.19601,1.54688,0.265625
1.04068,1.54688,0.296875
0.968554,1.54688,0.328125
0.884863,1.54688,0.359375
0.888893,1.54688,0.390625
1.02991,1.54688,0.421875
1.33893,1.54688,0.453125
1.72656,1.54688,0.484375
2.13832,1.54688,0.515625
2.62464,1.54688,0.546875
3.09725,1.54688,0.578125
3.48376,1.54688,0.609375
3.70768,1.54688,0.640625
3.87801,1.54688,0.671875
3.95661,1.54688,0.703125
4.00021,1.54688,0.734375
3.97613,1.54688,0.765625
3.96734,1.54688,0.796875
3.93428,1.54688,0.828125
3.92136,1.54688,0.859375
3.99846,1.54688,0.890625
4.4647,1.57813,0.015625
4.4647,1.57813,0.046875
4.48746,1.57813,0.078125
4.5301,1.57813,0.109375
4.57361,1.57813,0.140625
4.40654,1.57813,0.171875
3.51217,1.57813,0.203125
2.15249,1.57813,0.234375
1.37962,1.57813,0.265625
1.26205,1.57813,0.296875
1.22453,1.57813,0.328125
1.12742,1.57813,0.359375
1.17387,1.57813,0.390625
1.30022,1.57813,0.421875
1.55289,1.57813,0.453125
1.85242,1.57813,0.484375
2.18835,1.57813,0.515625
2.56523,1.57813,0.546875
2.91087,1.57813,0.578125
3.20684,1.57813,0.609375
3.43033,1.57813,0.640625
3.58197,1.57813,0.671875
3.67999,1.57813,0.703125
3.71653,1.57813,0.734375
3.72216,1.57813,0.765625
3.7456,1.57813,0.796875
3.7284,1.57813,0.828125
3.72003,1.57813,0.859375
3.82087,1.57813,0.890625
4.61223,1.60938,0.015625
4.61223,1.60938,0.046875
4.6648,1.60938,0.078125
4.73352,1.60938,0.109375
4.80053,1.60938,0.140625
4.59203,1.60938,0.171875
3.62223,1.60938,0.203125
2.35425,1.60938,0.234375
1.60199,1.60938,0.265625
1.44263,1.60938,0.296875
1.41375,1.60938,0.328125
1.34059,1.60938,0.359375
1.37521,1.60938,0.390625
1.47765,1.60938,0.421875
1.66925,1.60938,0.453125
1.90905,1.60938,0.484375
2.17375,1.60938,0.515625
2.46296,1.60938,0.546875
2.74334,1.60938,0.578125
2.98046,1.60938,0.609375
3.18999,1.60938,0.640625
3.33165,1.60938,0.671875
3.42577,1.60938,0.703125
3.47097,1.60938,0.734375
3.51392,1.60938,0.765625
3.53274,1.60938,0.796875
3.5381,1.60938,0.828125
3.53985,1.60938,0.859375
3.65335,1.60938,0.890625
4.75924,1.64063,0.015625
4.75924,1.64063,0.046875
4.82349,1.64063,0.078125
4.91555,1.64063,0.109375
5.02605,1.64063,0.140625
4.8245,1.64063,0.171875
3.813,1.64063,0.203125
2.65471,1.64063,0.234375
1.91681,1.64063,0.265625
1.58096,1.64063,0.296875
1.50896,1.64063,0.328125
1.48057,1.64063,0.359375
1.49619,1.64063,0.390625
1.56344,1.64063,0.421875
1.71389,1.64063,0.453125
1.9058,1.64063,0.484375
2.11787,1.64063,0.515625
2.35259,1.64063,0.546875
2.59274,1.64063,0.578125
2.79414,1.64063,0.609375
2.9689,1.64063,0.640625
3.12345,1.64063,0.671875
3.21003,1.64063,0.703125
3.25916,1.64063,0.734375
3.31817,1.64063,0.765625
3.35516,1.64063,0.796875
3.35514,1.64063,0.828125
3.37283,1.64063,0.859375
3.51332,1.64063,0.890625
4.89151,1.67188,0.015625
4.89151,1.67188,0.046875
4.94472,1.67188,0.078125
5.04906,1.67188,0.109375
5.21633,1.67188,0.140625
5.05178,1.67188,0.171875
4.14725,1.67188,0.203125
3.06993,1.67188,0.234375
2.29,1.67188,0.265625
1.77202,1.67188,0.296875
1.54091,1.67188,0.328125
1.49621,1.67188,0.359375
1.5244,1.67188,0.390625
1.58787,1.67188,0.421875
1.69428,1.67188,0.453125
1.85491,1.67188,0.484375
2.04402,1.67188,0.515625
2.24331,1.67188,0.546875
2.45212,1.67188,0.578125
2.63339,1.67188,0.609375
2.77334,1.67188,0.640625
2.91446,1.67188,0.671875
3.02345,1.67188,0.703125
3.09318,1.67188,0.734375
3.14201,1.67188,0.765625
3.18345,1.67188,0.796875
3.20113,1.67188,0.828125
3.23834,1.67188,0.859375
3.37766,1.67188,0.890625
4.97306,1.70313,0.015625
4.97306,1.70313,0.046875
5.03488,1.70313,0.078125
5.15163,1.70313,0.109375
5.34247,1.70313,0.140625
5.23779,1.70313,0.171875
4.50465,1.70313,0.203125
3.53304,1.70313,0.234375
2.72882,1.70313,0.265625
2.08928,1.70313,0.296875
1.67006,1.70313,0.328125
1.45397,1.70313,0.359375
1.43661,1.70313,0.390625
1.52048,1.70313,0.421875
1.62438,1.70313,0.453125
1.76805,1.70313,0.484375
1.94421,1.70313,0.515625
2.12222,1.70313,0.546875
2.30057,1.70313,0.578125
2.47981,1.70313,0.609375
2.62771,1.70313,0.640625
2.75383,1.70313,0.671875
2.87051,1.70313,0.703125
2.9421,1.70313,0.734375
2.98812,1.70313,0.765625
3.02994,1.70313,0.796875
3.06437,1.70313,0.828125
3.10985,1.70313,0.859375
3.24927,1.70313,0.890625
5.02348,1.73438,0.015625
5.02348,1.73438,0.046875
5.08002,1.73438,0.078125
5.21189,1.73438,0.109375
5.39539,1.73438,0.140625
5.42267,1.73438,0.171875
4.83453,1.73438,0.203125
3.87692,1.73438,0.234375
3.14303,1.73438,0.265625
2.49459,1.73438,0.296875
1.97086,1.73438,0.328125
1.5483,1.73438,0.359375
1.34522,1.73438,0.390625
1.36,1.73438,0.421875
1.4752,1.73438,0.453125
1.61575,1.73438,0.484375
1.8033,1.73438,0.515625
1.99097,1.73438,0.546875
2.17476,1.73438,0.578125
2.35483,1.73438,0.609375
2.50521,1.73438,0.640625
2.62883,1.73438,0.671875
2.73466,1.73438,0.703125
2.80751,1.73438,0.734375
2.86715,1.73438,0.765625
2.90131,1.73438,0.796875
2.94288,1.73438,0.828125
3.0062,1.73438,0.859375
3.14193,1.73438,0.890625
5.03583,1.76563,0.015625
5.03583,1.76563,0.046875
5.08233,1.76563,0.078125
5.21327,1.76563,0.109375
5.37064,1.76563,0.140625
5.49215,1.76563,0.171875
5.16165,1.76563,0.203125
4.26065,1.76563,0.234375
3.47974,1.76563,0.265625
2.86959,1.76563,0.296875
2.26853,1.76563,0.328125
1.79526,1.76563,0.359375
1.41391,1.76563,0.390625
1.24177,1.76563,0.421875
1.25949,1.76563,0.453125
1.36939,1.76563,0.484375
1.61228,1.76563,0.515625
1.86167,1.76563,0.546875
2.06162,1.76563,0.578125
2.25019,1.76563,0.609375
2.40237,1.76563,0.640625
2.53423,1.76563,0.671875
2.63637,1.76563,0.703125
2.70873,1.76563,0.734375
2.76575,1.76563,0.765625
2.80958,1.76563,0.796875
2.847,1.76563,0.828125
2.90429,1.76563,0.859375
3.04995,1.76563,0.890625
5.01187,1.79688,0.015625
5.01187,1.79688,0.046875
5.04496,1.79688,0.078125
5.16593,1.79688,0.109375
5.32014,1.79688,0.140625
5.47793,1.79688,0.171875
5.28998,1.79688,0.203125
4.58134,1.79688,0.234375
3.79325,1.79688,0.265625
3.16445,1.79688,0.296875
2.5975,1.79688,0.328125
2.10085,1.79688,0.359375
1.61806,1.79688,0.390625
1.26909,1.79688,0.421875
1.08247,1.79688,0.453125
1.10735,1.79688,0.484375
1.38156,1.79688,0.515625
1.70981,1.79688,0.546875
1.9745,1.79688,0.578125
2.16877,1.79688,0.609375
2.32805,1.79688,0.640625
2.47128,1.79688,0.671875
2.56788,1.79688,0.703125
2.63503,1.79688,0.734375
2.69103,1.79688,0.765625
2.73453,1.79688,0.796875
2.77098,1.79688,0.828125
2.82456,1.79688,0.859375
2.97034,1.79688,0.890625
4.95456,1.82813,0.015625
4.95456,1.82813,0.046875
4.97652,1.82813,0.078125
5.07441,1.82813,0.109375
5.2265,1.82813,0.140625
5.40284,1.82813,0.171875
5.33707,1.82813,0.203125
4.80825,1.82813,0.234375
4.0245,1.82813,0.265625
3.34256,1.82813,0.296875
2.88574,1.82813,0.328125
2.40122,1.82813,0.359375
1.87049,1.82813,0.390625
1.39819,1.82813,0.421875
1.05087,1.82813,0.453125
0.971166,1.82813,0.484375
1.16399,1.82813,0.515625
1.52109,1.82813,0.546875
1.87612,1.82813,0.578125
2.12113,1.82813,0.609375
2.29551,1.82813,0.640625
2.42968,1.82813,0.671875
2.52508,1.82813,0.703125
2.58734,1.82813,0.734375
2.638,1.82813,0.765625
2.67295,1.82813,0.796875
2.71087,1.82813,0.828125
2.76297,1.82813,0.859375
2.90129,1.82813,0.890625
4.86976,1.85938,0.015625
4.86976,1.85938,0.046875
4.88624,1.85938,0.078125
4.9497,1.85938,0.109375
5.07281,1.85938,0.140625
5.20278,1.85938,0.171875
5.25907,1.85938,0.203125
4.99956,1.85938,0.234375
4.321,1.85938,0.265625
3.52443,1.85938,0.296875
3.03173,1.85938,0.328125
2.61464,1.85938,0.359375
2.08382,1.85938,0.390625
1.54994,1.85938,0.421875
1.10831,1.85938,0.453125
0.933243,1.85938,0.484375
1.06038,1.85938,0.515625
1.38931,1.85938,0.546875
1.76924,1.85938,0.578125
2.10014,1.85938,0.609375
2.31108,1.85938,0.640625
2.42085,1.85938,0.671875
2.50761,1.85938,0.703125
2.56162,1.85938,0.734375
2.60201,1.85938,0.765625
2.63519,1.85938,0.796875
2.66543,1.85938,0.828125
2.71705,1.85938,0.859375
2.84773,1.85938,0.890625
4.77462,1.89063,0.015625
4.77462,1.89063,0.046875
4.76989,1.89063,0.078125
4.80049,1.89063,0.109375
4.88208,1.89063,0.140625
4.97372,1.89063,0.171875
5.03206,1.89063,0.203125
4.92845,1.89063,0.234375
4.57794,1.89063,0.265625
3.89572,1.89063,0.296875
3.1728,1.89063,0.328125
2.67823,1.89063,0.359375
2.21549,1.89063,0.390625
1.66069,1.89063,0.421875
1.1754,1.89063,0.453125
0.996167,1.89063,0.484375
1.11246,1.89063,0.515625
1.39288,1.89063,0.546875
1.71199,1.89063,0.578125
2.09534,1.89063,0.609375
2.35247,1.89063,0.640625
2.44222,1.89063,0.671875
2.51414,1.89063,0.703125
2.55986,1.89063,0.734375
2.58829,1.89063,0.765625
2.6119,1.89063,0.796875
2.63574,1.89063,0.828125
2.68653,1.89063,0.859375
2.81361,1.89063,0.890625
