0,0.015625,0.015625
0,0.015625,0.046875
0,0.015625,0.078125
0,0.015625,0.109375
0,0.015625,0.140625
0,0.015625,0.171875
0,0.015625,0.203125
0,0.015625,0.234375
0,0.015625,0.265625
0,0.015625,0.296875
0,0.015625,0.328125
0,0.015625,0.359375
0,0.015625,0.390625
0,0.015625,0.421875
0,0.015625,0.453125
0,0.015625,0.484375
0,0.015625,0.515625
0,0.015625,0.546875
0,0.015625,0.578125
0,0.015625,0.609375
0,0.015625,0.640625
0,0.015625,0.671875
0,0.015625,0.703125
0,0.015625,0.734375
0,0.015625,0.765625
0,0.015625,0.796875
0,0.015625,0.828125
0,0.015625,0.859375
0,0.015625,0.890625
0,0.046875,0.015625
-0.208809,0.046875,0.046875
0.0132444,0.046875,0.078125
-0.562797,0.046875,0.109375
-2.67327,0.046875,0.140625
-3.25191,0.046875,0.171875
-3.84639,0.046875,0.203125
-3.3148,0.046875,0.234375
-3.77562,0.046875,0.265625
-5.05636,0.046875,0.296875
-4.53671,0.046875,0.328125
-4.72626,0.046875,0.359375
-4.51263,0.046875,0.390625
-4.39876,0.046875,0.421875
-2.64089,0.046875,0.453125
-1.69194,0.046875,0.484375
0.659785,0.046875,0.515625
2.20002,0.046875,0.546875
2.36408,0.046875,0.578125
3.89921,0.046875,0.609375
2.57491,0.046875,0.640625
4.08392,0.046875,0.671875
0.766171,0.046875,0.703125
3.36343,0.046875,0.734375
1.94427,0.046875,0.765625
1.41959,0.046875,0.796875
1.31387,0.046875,0.828125
1.10611,0.046875,0.859375
0.896703,0.046875,0.890625
0,0.078125,0.015625
0.222258,0.078125,0.046875
-0.552452,0.078125,0.078125
-1.23121,0.078125,0.109375
-1.16717,0.078125,0.140625
-2.15486,0.078125,0.171875
-2.53144,0.078125,0.203125
-4.12566,0.078125,0.234375
-4.32127,0.078125,0.265625
-4.3437,0.078125,0.296875
-4.60208,0.078125,0.328125
-4.8839,0.078125,0.359375
-4.17893,0.078125,0.390625
-3.25686,0.078125,0.421875
-1.89493,0.078125,0.453125
-0.354783,0.078125,0.484375
0.602683,0.078125,0.515625
2.48371,0.078125,0.546875
4.30702,0.078125,0.578125
3.48218,0.078125,0.609375
4.03322,0.078125,0.640625
4.01481,0.078125,0.671875
5.25185,0.078125,0.703125
3.042,0.078125,0.734375
2.56033,0.078125,0.765625
2.23969,0.078125,0.796875
1.53162,0.078125,0.828125
1.48169,0.078125,0.859375
0.988043,0.078125,0.890625
0,0.109375,0.015625
-0.13081,0.109375,0.046875
-0.614998,0.109375,0.078125
-1.29983,0.109375,0.109375
-2.16742,0.109375,0.140625
-2.63931,0.109375,0.171875
-3.76779,0.109375,0.203125
-4.96508,0.109375,0.234375
-5.18922,0.109375,0.265625
-5.55553,0.109375,0.296875
-5.9943,0.109375,0.328125
-5.66655,0.109375,0.359375
-5.51947,0.109375,0.390625
-5.00927,0.109375,0.421875
-3.33886,0.109375,0.453125
-0.737964,0.109375,0.484375
1.64647,0.109375,0.515625
3.43878,0.109375,0.546875
4.78261,0.109375,0.578125
4.65096,0.109375,0.609375
5.20938,0.109375,0.640625
5.6686,0.109375,0.671875
5.41658,0.109375,0.703125
4.28227,0.109375,0.734375
3.69396,0.109375,0.765625
2.88927,0.109375,0.796875
2.32721,0.109375,0.828125
1.86638,0.109375,0.859375
1.16098,0.109375,0.890625
0,0.140625,0.015625
0.66633,0.140625,0.046875
-0.51071,0.140625,0.078125
-1.69199,0.140625,0.109375
-2.7503,0.140625,0.140625
-2.80278,0.140625,0.171875
-3.92512,0.140625,0.203125
-4.55275,0.140625,0.234375
-4.62598,0.140625,0.265625
-5.45896,0.140625,0.296875
-6.59227,0.140625,0.328125
-7.2704,0.140625,0.359375
-6.91713,0.140625,0.390625
-6.54395,0.140625,0.421875
-4.33073,0.140625,0.453125
-2.31734,0.140625,0.484375
1.50264,0.140625,0.515625
3.88588,0.140625,0.546875
4.75175,0.140625,0.578125
4.79774,0.140625,0.609375
5.82125,0.140625,0.640625
5.49053,0.140625,0.671875
5.3448,0.140625,0.703125
4.35272,0.140625,0.734375
3.78405,0.140625,0.765625
2.87643,0.140625,0.796875
2.24828,0.140625,0.828125
1.76285,0.140625,0.859375
0.936316,0.140625,0.890625
0,0.171875,0.015625
-0.440725,0.171875,0.046875
-0.433969,0.171875,0.078125
-1.9032,0.171875,0.109375
-2.60577,0.171875,0.140625
-3.16473,0.171875,0.171875
-4.13471,0.171875,0.203125
-4.23365,0.171875,0.234375
-4.07463,0.171875,0.265625
-5.13319,0.171875,0.296875
-6.96578,0.171875,0.328125
-10.034,0.171875,0.359375
-6.34582,0.171875,0.390625
-9.82867,0.171875,0.421875
-6.10907,0.171875,0.453125
-1.75944,0.171875,0.484375
9.10284,0.171875,0.515625
7.07704,0.171875,0.546875
5.73933,0.171875,0.578125
5.40028,0.171875,0.609375
5.93895,0.171875,0.640625
5.84213,0.171875,0.671875
6.13021,0.171875,0.703125
5.73888,0.171875,0.734375
4.84274,0.171875,0.765625
3.68712,0.171875,0.796875
2.79889,0.171875,0.828125
1.38391,0.171875,0.859375
0.999975,0.171875,0.890625
0,0.203125,0.015625
-0.171213,0.203125,0.046875
-1.33372,0.203125,0.078125
-2.171,0.203125,0.109375
-2.43649,0.203125,0.140625
-2.802,0.203125,0.171875
-3.03991,0.203125,0.203125
-2.35431,0.203125,0.234375
-1.86365,0.203125,0.265625
-1.84969,0.203125,0.296875
-3.88142,0.203125,0.328125
-20.4444,0.203125,0.359375
-54.1984,0.203125,0.390625
-14.0157,0.203125,0.421875
-4.07647,0.203125,0.453125
-12.8563,0.203125,0.484375
-35.6774,0.203125,0.515625
7.83387,0.203125,0.546875
3.82411,0.203125,0.578125
1.98631,0.203125,0.609375
8.15025,0.203125,0.640625
7.71288,0.203125,0.671875
5.96248,0.203125,0.703125
4.96805,0.203125,0.734375
4.59691,0.203125,0.765625
3.6609,0.203125,0.796875
2.90009,0.203125,0.828125
2.15539,0.203125,0.859375
1.53172,0.203125,0.890625
0,0.234375,0.015625
-0.457802,0.234375,0.046875
-1.47155,0.234375,0.078125
-1.1496,0.234375,0.109375
-1.86973,0.234375,0.140625
-2.32548,0.234375,0.171875
-2.31879,0.234375,0.203125
-2.4014,0.234375,0.234375
-0.540783,0.234375,0.265625
7.10989,0.234375,0.296875
18.7953,0.234375,0.328125
5.30186,0.234375,0.359375
134.043,0.234375,0.390625
71.2793,0.234375,0.421875
12.8284,0.234375,0.453125
-23.872,0.234375,0.484375
-14.5974,0.234375,0.515625
-36.512,0.234375,0.546875
-0.0464821,0.234375,0.578125
41.0141,0.234375,0.609375
20.4958,0.234375,0.640625
9.41227,0.234375,0.671875
6.63395,0.234375,0.703125
4.57875,0.234375,0.734375
3.05718,0.234375,0.765625
2.43614,0.234375,0.796875
1.96886,0.234375,0.828125
1.79522,0.234375,0.859375
1.17656,0.234375,0.890625
0,0.265625,0.015625
-2.92078,0.265625,0.046875
-0.954546,0.265625,0.078125
-1.45492,0.265625,0.109375
-1.70503,0.265625,0.140625
-2.05901,0.265625,0.171875
-2.98686,0.265625,0.203125
-3.41424,0.265625,0.234375
-3.56786,0.265625,0.265625
6.44681,0.265625,0.296875
6.49538,0.265625,0.328125
129.902,0.265625,0.359375
9.40663,0.265625,0.390625
-2.94151,0.265625,0.421875
36.9915,0.265625,0.453125
-64.4312,0.265625,0.484375
-3.95634,0.265625,0.515625
-30.8788,0.265625,0.546875
-13.8829,0.265625,0.578125
-120.398,0.265625,0.609375
15.4771,0.265625,0.640625
3.27761,0.265625,0.671875
2.64314,0.265625,0.703125
1.39671,0.265625,0.734375
2.56106,0.265625,0.765625
2.53341,0.265625,0.796875
1.84391,0.265625,0.828125
0.759776,0.265625,0.859375
0.0702,0.265625,0.890625
0,0.296875,0.015625
-1.11566,0.296875,0.046875
-1.82163,0.296875,0.078125
-1.74236,0.296875,0.109375
-1.3124,0.296875,0.140625
-1.50264,0.296875,0.171875
-0.799572,0.296875,0.203125
-1.04181,0.296875,0.234375
-11.2711,0.296875,0.265625
-40.0037,0.296875,0.296875
95.7953,0.296875,0.328125
-7.95678,0.296875,0.359375
2.177,0.296875,0.390625
-4.82435,0.296875,0.421875
1.21507,0.296875,0.453125
-12.3567,0.296875,0.484375
-27.245,0.296875,0.515625
1.6744,0.296875,0.546875
-104.77,0.296875,0.578125
-21.6905,0.296875,0.609375
-81.1936,0.296875,0.640625
-18.3672,0.296875,0.671875
-5.75865,0.296875,0.703125
-0.872009,0.296875,0.734375
1.1841,0.296875,0.765625
1.20164,0.296875,0.796875
1.0093,0.296875,0.828125
1.34332,0.296875,0.859375
0.588346,0.296875,0.890625
0,0.328125,0.015625
-3.71196,0.328125,0.046875
-1.12322,0.328125,0.078125
-0.832081,0.328125,0.109375
-1.45126,0.328125,0.140625
-1.44282,0.328125,0.171875
2.27499,0.328125,0.203125
9.1972,0.328125,0.234375
-4.78761,0.328125,0.265625
36.7822,0.328125,0.296875
148.217,0.328125,0.328125
93.4341,0.328125,0.359375
0,0.328125,0.390625
0,0.328125,0.421875
0,0.328125,0.453125
0,0.328125,0.484375
-1.35257,0.328125,0.515625
1.35257,0.328125,0.546875
-186.024,0.328125,0.578125
35.5589,0.328125,0.609375
14.2721,0.328125,0.640625
-1.40061,0.328125,0.671875
0.922142,0.328125,0.703125
3.38305,0.328125,0.734375
2.64166,0.328125,0.765625
3.09484,0.328125,0.796875
1.42787,0.328125,0.828125
1.71249,0.328125,0.859375
0.79985,0.328125,0.890625
0,0.359375,0.015625
-1.02501,0.359375,0.046875
-1.42883,0.359375,0.078125
-2.08975,0.359375,0.109375
-2.84054,0.359375,0.140625
-2.85369,0.359375,0.171875
-1.17358,0.359375,0.203125
1.97201,0.359375,0.234375
50.8562,0.359375,0.265625
170.596,0.359375,0.296875
31.4154,0.359375,0.328125
0,0.359375,0.359375
0,0.359375,0.390625
0,0.359375,0.421875
0,0.359375,0.453125
0,0.359375,0.484375
0,0.359375,0.515625
0,0.359375,0.546875
-54.612,0.359375,0.578125
-88.603,0.359375,0.609375
-41.9897,0.359375,0.640625
-12.335,0.359375,0.671875
-2.05801,0.359375,0.703125
2.76465,0.359375,0.734375
2.23954,0.359375,0.765625
2.36658,0.359375,0.796875
2.03244,0.359375,0.828125
1.72463,0.359375,0.859375
0.784182,0.359375,0.890625
0,0.390625,0.015625
-1.24761,0.390625,0.046875
-3.08923,0.390625,0.078125
-2.93681,0.390625,0.109375
-3.33685,0.390625,0.140625
-4.9227,0.390625,0.171875
-7.1699,0.390625,0.203125
-17.2284,0.390625,0.234375
200.875,0.390625,0.265625
-3.67244,0.390625,0.296875
-0.348287,0.390625,0.328125
-1.89685,0.390625,0.359375
0,0.390625,0.390625
0,0.390625,0.421875
0,0.390625,0.453125
0,0.390625,0.484375
0,0.390625,0.515625
29.6587,0.390625,0.546875
-38.3917,0.390625,0.578125
-111.732,0.390625,0.609375
-30.9693,0.390625,0.640625
-9.1308,0.390625,0.671875
-5.11904,0.390625,0.703125
-0.613914,0.390625,0.734375
1.11826,0.390625,0.765625
1.24758,0.390625,0.796875
1.11165,0.390625,0.828125
0.443074,0.390625,0.859375
0.943182,0.390625,0.890625
0,0.421875,0.015625
-1.71404,0.421875,0.046875
-3.19844,0.421875,0.078125
-3.60175,0.421875,0.109375
-4.04741,0.421875,0.140625
-5.87975,0.421875,0.171875
-3.32924,0.421875,0.203125
1.87743,0.421875,0.234375
109.365,0.421875,0.265625
80.9794,0.421875,0.296875
17.2725,0.421875,0.328125
1.89685,0.421875,0.359375
0,0.421875,0.390625
0,0.421875,0.421875
0,0.421875,0.453125
0,0.421875,0.484375
0,0.421875,0.515625
0,0.421875,0.546875
-0.413137,0.421875,0.578125
-82.1872,0.421875,0.609375
-43.4354,0.421875,0.640625
-40.731,0.421875,0.671875
-11.2259,0.421875,0.703125
-2.38724,0.421875,0.734375
0.630175,0.421875,0.765625
0.924416,0.421875,0.796875
1.74072,0.421875,0.828125
1.69912,0.421875,0.859375
0.837798,0.421875,0.890625
0,0.453125,0.015625
-2.73624,0.453125,0.046875
-3.02866,0.453125,0.078125
-3.55821,0.453125,0.109375
-4.6268,0.453125,0.140625
-4.18328,0.453125,0.171875
-0.6017,0.453125,0.203125
18.6966,0.453125,0.234375
116.551,0.453125,0.265625
97.887,0.453125,0.296875
-14.0792,0.453125,0.328125
0,0.453125,0.359375
0.500464,0.453125,0.390625
0,0.453125,0.421875
0,0.453125,0.453125
0,0.453125,0.484375
0,0.453125,0.515625
0,0.453125,0.546875
0.55354,0.453125,0.578125
-83.1859,0.453125,0.609375
-65.6733,0.453125,0.640625
-23.0057,0.453125,0.671875
-10.4576,0.453125,0.703125
1.63717,0.453125,0.734375
4.30964,0.453125,0.765625
2.82179,0.453125,0.796875
2.53182,0.453125,0.828125
1.82609,0.453125,0.859375
0.387262,0.453125,0.890625
0,0.484375,0.015625
-3.83213,0.484375,0.046875
-3.00991,0.484375,0.078125
-3.71492,0.484375,0.109375
-4.97048,0.484375,0.140625
-3.81312,0.484375,0.171875
-0.198418,0.484375,0.203125
35.757,0.484375,0.234375
123.862,0.484375,0.265625
34.6384,0.484375,0.296875
-14.0085,0.484375,0.328125
-5.39155,0.484375,0.359375
3.34641,0.484375,0.390625
8.68551,0.484375,0.421875
0,0.484375,0.453125
0,0.484375,0.484375
3.46666,0.484375,0.515625
2.66122,0.484375,0.546875
1.67883,0.484375,0.578125
-58.9918,0.484375,0.609375
-90.7745,0.484375,0.640625
-35.07,0.484375,0.671875
-15.859,0.484375,0.703125
1.22255,0.484375,0.734375
3.6491,0.484375,0.765625
2.23644,0.484375,0.796875
1.97882,0.484375,0.828125
0.90663,0.484375,0.859375
-0.05546,0.484375,0.890625
0,0.515625,0.015625
-2.6499,0.515625,0.046875
-3.87519,0.515625,0.078125
-3.07905,0.515625,0.109375
-3.65554,0.515625,0.140625
-4.7279,0.515625,0.171875
2.51204,0.515625,0.203125
58.3653,0.515625,0.234375
99.6729,0.515625,0.265625
22.767,0.515625,0.296875
1.71121,0.515625,0.328125
-7.74187,0.515625,0.359375
-16.0998,0.515625,0.390625
-15.4854,0.515625,0.421875
0,0.515625,0.453125
-2.50533,0.515625,0.484375
-1.80106,0.515625,0.515625
14.6528,0.515625,0.546875
10.8322,0.515625,0.578125
-43.4232,0.515625,0.609375
-71.6787,0.515625,0.640625
-42.8735,0.515625,0.671875
-18.1592,0.515625,0.703125
-2.76833,0.515625,0.734375
1.6087,0.515625,0.765625
2.38462,0.515625,0.796875
1.75539,0.515625,0.828125
1.51269,0.515625,0.859375
0.270319,0.515625,0.890625
0,0.546875,0.015625
-3.76116,0.546875,0.046875
-3.08175,0.546875,0.078125
-3.12275,0.546875,0.109375
-3.7477,0.546875,0.140625
-3.14263,0.546875,0.171875
9.70089,0.546875,0.203125
63.6511,0.546875,0.234375
87.7702,0.546875,0.265625
36.4862,0.546875,0.296875
-11.7624,0.546875,0.328125
-25.4436,0.546875,0.359375
-31.7545,0.546875,0.390625
-39.8893,0.546875,0.421875
-55.2401,0.546875,0.453125
-21.6582,0.546875,0.484375
-10.4448,0.546875,0.515625
3.59929,0.546875,0.546875
-4.31234,0.546875,0.578125
-30.9691,0.546875,0.609375
-58.2973,0.546875,0.640625
-52.4256,0.546875,0.671875
-19.8784,0.546875,0.703125
0.78398,0.546875,0.734375
3.77581,0.546875,0.765625
4.63903,0.546875,0.796875
2.87135,0.546875,0.828125
1.94573,0.546875,0.859375
0.871735,0.546875,0.890625
0,0.578125,0.015625
-3.12966,0.578125,0.046875
-2.51869,0.578125,0.078125
-2.78558,0.578125,0.109375
-2.95646,0.578125,0.140625
-1.6278,0.578125,0.171875
12.1986,0.578125,0.203125
71.159,0.578125,0.234375
86.4542,0.578125,0.265625
23.1159,0.578125,0.296875
-11.1134,0.578125,0.328125
-16.2629,0.578125,0.359375
-19.1118,0.578125,0.390625
-20.2364,0.578125,0.421875
-2.15511,0.578125,0.453125
-20.2994,0.578125,0.484375
-21.6131,0.578125,0.515625
-11.0716,0.578125,0.546875
-13.3256,0.578125,0.578125
-32.488,0.578125,0.609375
-59.2968,0.578125,0.640625
-56.1092,0.578125,0.671875
-21.7462,0.578125,0.703125
0.0865955,0.578125,0.734375
3.47369,0.578125,0.765625
4.222,0.578125,0.796875
3.34917,0.578125,0.828125
1.9334,0.578125,0.859375
0.981572,0.578125,0.890625
0,0.609375,0.015625
-2.46978,0.609375,0.046875
-2.62143,0.609375,0.078125
-2.98342,0.609375,0.109375
-3.02397,0.609375,0.140625
-0.57731,0.609375,0.171875
15.2843,0.609375,0.203125
77.0908,0.609375,0.234375
68.2561,0.609375,0.265625
6.98132,0.609375,0.296875
6.26252,0.609375,0.328125
11.7769,0.609375,0.359375
21.487,0.609375,0.390625
-6.95158,0.609375,0.421875
22.0324,0.609375,0.453125
1.55041,0.609375,0.484375
-17.2226,0.609375,0.515625
-25.2452,0.609375,0.546875
-16.5448,0.609375,0.578125
-27.4656,0.609375,0.609375
-57.9678,0.609375,0.640625
-57.5767,0.609375,0.671875
-26.5381,0.609375,0.703125
-3.59022,0.609375,0.734375
3.47381,0.609375,0.765625
4.472,0.609375,0.796875
3.62893,0.609375,0.828125
2.19272,0.609375,0.859375
1.01198,0.609375,0.890625
0,0.640625,0.015625
-2.11881,0.640625,0.046875
-2.38682,0.640625,0.078125
-2.95551,0.640625,0.109375
-3.09177,0.640625,0.140625
0.544086,0.640625,0.171875
23.2158,0.640625,0.203125
70.438,0.640625,0.234375
52.6856,0.640625,0.265625
12.6877,0.640625,0.296875
20.9653,0.640625,0.328125
25.3674,0.640625,0.359375
24.5563,0.640625,0.390625
22.7692,0.640625,0.421875
28.1167,0.640625,0.453125
6.6558,0.640625,0.484375
-14.8371,0.640625,0.515625
-25.1238,0.640625,0.546875
-21.1375,0.640625,0.578125
-24.9459,0.640625,0.609375
-47.729,0.640625,0.640625
-57.6701,0.640625,0.671875
-31.7985,0.640625,0.703125
-4.67962,0.640625,0.734375
3.27562,0.640625,0.765625
4.04796,0.640625,0.796875
3.4372,0.640625,0.828125
2.23815,0.640625,0.859375
1.20413,0.640625,0.890625
0,0.671875,0.015625
-1.53023,0.671875,0.046875
-2.43909,0.671875,0.078125
-3.78503,0.671875,0.109375
-2.68266,0.671875,0.140625
1.09747,0.671875,0.171875
28.8652,0.671875,0.203125
68.1704,0.671875,0.234375
49.0651,0.671875,0.265625
17.7949,0.671875,0.296875
24.4365,0.671875,0.328125
26.2462,0.671875,0.359375
26.4103,0.671875,0.390625
30.1603,0.671875,0.421875
28.5357,0.671875,0.453125
9.97653,0.671875,0.484375
-10.1586,0.671875,0.515625
-25.586,0.671875,0.546875
-28.7854,0.671875,0.578125
-24.0874,0.671875,0.609375
-40.559,0.671875,0.640625
-57.0522,0.671875,0.671875
-31.9184,0.671875,0.703125
-5.24595,0.671875,0.734375
1.52381,0.671875,0.765625
3.52595,0.671875,0.796875
3.24033,0.671875,0.828125
2.7905,0.671875,0.859375
1.50815,0.671875,0.890625
0,0.703125,0.015625
-1.19477,0.703125,0.046875
-3.12838,0.703125,0.078125
-3.67502,0.703125,0.109375
-2.56551,0.703125,0.140625
0.733473,0.703125,0.171875
32.5268,0.703125,0.203125
68.6325,0.703125,0.234375
49.5635,0.703125,0.265625
23.7347,0.703125,0.296875
24.6908,0.703125,0.328125
26.9326,0.703125,0.359375
29.275,0.703125,0.390625
28.886,0.703125,0.421875
27.5892,0.703125,0.453125
14.8591,0.703125,0.484375
-8.14135,0.703125,0.515625
-25.3156,0.703125,0.546875
-31.08,0.703125,0.578125
-24.2923,0.703125,0.609375
-37.2875,0.703125,0.640625
-53.6297,0.703125,0.671875
-34.4828,0.703125,0.703125
-7.67319,0.703125,0.734375
2.77599,0.703125,0.765625
4.27294,0.703125,0.796875
3.14191,0.703125,0.828125
2.54033,0.703125,0.859375
1.26278,0.703125,0.890625
0,0.734375,0.015625
-1.62839,0.734375,0.046875
-2.95414,0.734375,0.078125
-3.48864,0.734375,0.109375
-3.31279,0.734375,0.140625
1.33552,0.734375,0.171875
33.9984,0.734375,0.203125
70.7166,0.734375,0.234375
45.9439,0.734375,0.265625
18.9995,0.734375,0.296875
25.7012,0.734375,0.328125
30.0772,0.734375,0.359375
31.3756,0.734375,0.390625
26.4906,0.734375,0.421875
29.1704,0.734375,0.453125
23.3582,0.734375,0.484375
-3.75676,0.734375,0.515625
-26.0372,0.734375,0.546875
-36.0849,0.734375,0.578125
-27.7628,0.734375,0.609375
-32.3892,0.734375,0.640625
-50.1381,0.734375,0.671875
-38.9923,0.734375,0.703125
-11.6335,0.734375,0.734375
3.01046,0.734375,0.765625
4.56761,0.734375,0.796875
3.27817,0.734375,0.828125
2.64995,0.734375,0.859375
1.4221,0.734375,0.890625
0,0.765625,0.015625
-1.10576,0.765625,0.046875
-2.84519,0.765625,0.078125
-3.67709,0.765625,0.109375
-3.88468,0.765625,0.140625
1.98334,0.765625,0.171875
35.7438,0.765625,0.203125
67.2333,0.765625,0.234375
41.5734,0.765625,0.265625
17.2812,0.765625,0.296875
27.7433,0.765625,0.328125
32.5606,0.765625,0.359375
29.9571,0.765625,0.390625
28.029,0.765625,0.421875
32.4748,0.765625,0.453125
25.5557,0.765625,0.484375
-2.90607,0.765625,0.515625
-25.6134,0.765625,0.546875
-36.0305,0.765625,0.578125
-30.0995,0.765625,0.609375
-29.8967,0.765625,0.640625
-51.8668,0.765625,0.671875
-42.2947,0.765625,0.703125
-11.658,0.765625,0.734375
0.0571976,0.765625,0.765625
4.0072,0.765625,0.796875
3.04094,0.765625,0.828125
1.95815,0.765625,0.859375
1.51502,0.765625,0.890625
0,0.796875,0.015625
-0.391611,0.796875,0.046875
-2.87068,0.796875,0.078125
-3.65039,0.796875,0.109375
-4.20908,0.796875,0.140625
1.30887,0.796875,0.171875
31.851,0.796875,0.203125
60.5621,0.796875,0.234375
42.9559,0.796875,0.265625
25.2011,0.796875,0.296875
30.2847,0.796875,0.328125
29.0279,0.796875,0.359375
29.3425,0.796875,0.390625
34.0364,0.796875,0.421875
35.6415,0.796875,0.453125
23.8103,0.796875,0.484375
-2.05162,0.796875,0.515625
-24.1245,0.796875,0.546875
-36.7371,0.796875,0.578125
-32.7846,0.796875,0.609375
-30.6659,0.796875,0.640625
-48.1473,0.796875,0.671875
-44.3256,0.796875,0.703125
-17.1239,0.796875,0.734375
-0.63457,0.796875,0.765625
3.38111,0.796875,0.796875
2.8757,0.796875,0.828125
2.34724,0.796875,0.859375
1.52168,0.796875,0.890625
0,0.828125,0.015625
-0.540216,0.828125,0.046875
-2.87315,0.828125,0.078125
-3.28294,0.828125,0.109375
-3.4446,0.828125,0.140625
1.67564,0.828125,0.171875
27.0353,0.828125,0.203125
61.0561,0.828125,0.234375
49.0893,0.828125,0.265625
24.2841,0.828125,0.296875
27.0523,0.828125,0.328125
29.8222,0.828125,0.359375
33.409,0.828125,0.390625
36.3953,0.828125,0.421875
36.4847,0.828125,0.453125
24.245,0.828125,0.484375
-2.84118,0.828125,0.515625
-24.0086,0.828125,0.546875
-35.7741,0.828125,0.578125
-37.3063,0.828125,0.609375
-31.8502,0.828125,0.640625
-43.8561,0.828125,0.671875
-48.7878,0.828125,0.703125
-23.4451,0.828125,0.734375
-1.7125,0.828125,0.765625
3.39119,0.828125,0.796875
2.98932,0.828125,0.828125
1.83108,0.828125,0.859375
1.43504,0.828125,0.890625
0,0.859375,0.015625
-0.913023,0.859375,0.046875
-2.87086,0.859375,0.078125
-2.98652,0.859375,0.109375
-2.69402,0.859375,0.140625
0.792559,0.859375,0.171875
24.6623,0.859375,0.203125
60.0491,0.859375,0.234375
49.0058,0.859375,0.265625
20.7352,0.859375,0.296875
24.8064,0.859375,0.328125
32.669,0.859375,0.359375
32.8842,0.859375,0.390625
33.5393,0.859375,0.421875
35.0759,0.859375,0.453125
22.7166,0.859375,0.484375
-3.05195,0.859375,0.515625
-22.781,0.859375,0.546875
-34.1797,0.859375,0.578125
-40.9075,0.859375,0.609375
-31.7041,0.859375,0.640625
-40.4827,0.859375,0.671875
-49.8037,0.859375,0.703125
-24.9431,0.859375,0.734375
-4.09569,0.859375,0.765625
2.5823,0.859375,0.796875
3.03265,0.859375,0.828125
2.36238,0.859375,0.859375
1.29743,0.859375,0.890625
0,0.890625,0.015625
-0.551268,0.890625,0.046875
-2.57315,0.890625,0.078125
-2.97173,0.890625,0.109375
-2.77082,0.890625,0.140625
-0.716991,0.890625,0.171875
21.0281,0.890625,0.203125
55.7249,0.890625,0.234375
45.518,0.890625,0.265625
22.1951,0.890625,0.296875
30.4167,0.890625,0.328125
33.3075,0.890625,0.359375
30.0104,0.890625,0.390625
32.8074,0.890625,0.421875
35.0322,0.890625,0.453125
24.5859,0.890625,0.484375
-4.01356,0.890625,0.515625
-25.338,0.890625,0.546875
-36.4072,0.890625,0.578125
-40.5817,0.890625,0.609375
-30.0087,0.890625,0.640625
-39.025,0.890625,0.671875
-49.3364,0.890625,0.703125
-26.1738,0.890625,0.734375
-3.34797,0.890625,0.765625
3.35973,0.890625,0.796875
3.3502,0.890625,0.828125
2.0235,0.890625,0.859375
1.65189,0.890625,0.890625
0,0.921875,0.015625
0.428619,0.921875,0.046875
-2.58816,0.921875,0.078125
-3.28604,0.921875,0.109375
-2.90541,0.921875,0.140625
-1.00661,0.921875,0.171875
15.5038,0.921875,0.203125
53.3485,0.921875,0.234375
60.4563,0.921875,0.265625
35.3421,0.921875,0.296875
28.4142,0.921875,0.328125
33.1322,0.921875,0.359375
37.6977,0.921875,0.390625
39.1944,0.921875,0.421875
39.6463,0.921875,0.453125
25.6734,0.921875,0.484375
-10.0497,0.921875,0.515625
-30.1371,0.921875,0.546875
-36.8746,0.921875,0.578125
-38.9464,0.921875,0.609375
-33.8336,0.921875,0.640625
-40.4607,0.921875,0.671875
-47.3503,0.921875,0.703125
-28.8966,0.921875,0.734375
-3.0046,0.921875,0.765625
4.12196,0.921875,0.796875
3.47343,0.921875,0.828125
2.35039,0.921875,0.859375
1.72723,0.921875,0.890625
0,0.953125,0.015625
-0.253347,0.953125,0.046875
-2.03742,0.953125,0.078125
-3.22188,0.953125,0.109375
-3.46544,0.953125,0.140625
-1.32607,0.953125,0.171875
6.68737,0.953125,0.203125
55.2899,0.953125,0.234375
73.1433,0.953125,0.265625
37.4634,0.953125,0.296875
30.5699,0.953125,0.328125
39.5265,0.953125,0.359375
46.6999,0.953125,0.390625
46.1026,0.953125,0.421875
44.5566,0.953125,0.453125
26.8731,0.953125,0.484375
-13.7168,0.953125,0.515625
-31.0942,0.953125,0.546875
-35.5335,0.953125,0.578125
-42.0662,0.953125,0.609375
-37.5101,0.953125,0.640625
-37.9757,0.953125,0.671875
-45.9727,0.953125,0.703125
-29.7721,0.953125,0.734375
-5.43198,0.953125,0.765625
0.854095,0.953125,0.796875
2.42688,0.953125,0.828125
2.46113,0.953125,0.859375
1.83158,0.953125,0.890625
0,0.984375,0.015625
0.927166,0.984375,0.046875
-1.83346,0.984375,0.078125
-3.5792,0.984375,0.109375
-3.63094,0.984375,0.140625
-3.5817,0.984375,0.171875
0.669472,0.984375,0.203125
43.5881,0.984375,0.234375
62.3163,0.984375,0.265625
43.7233,0.984375,0.296875
49.0185,0.984375,0.328125
49.4986,0.984375,0.359375
49.4656,0.984375,0.390625
51.5619,0.984375,0.421875
45.9734,0.984375,0.453125
22.531,0.984375,0.484375
-13.2219,0.984375,0.515625
-30.2574,0.984375,0.546875
-36.3824,0.984375,0.578125
-42.9896,0.984375,0.609375
-36.7608,0.984375,0.640625
-37.1656,0.984375,0.671875
-46.0234,0.984375,0.703125
-30.5418,0.984375,0.734375
-6.70809,0.984375,0.765625
2.05344,0.984375,0.796875
3.05436,0.984375,0.828125
2.40962,0.984375,0.859375
1.51835,0.984375,0.890625
0,1.01563,0.015625
0.702725,1.01563,0.046875
-1.61489,1.01563,0.078125
-3.58219,1.01563,0.109375
-3.87815,1.01563,0.140625
-4.48754,1.01563,0.171875
-0.586353,1.01563,0.203125
21.9618,1.01563,0.234375
48.5776,1.01563,0.265625
55.1981,1.01563,0.296875
51.6088,1.01563,0.328125
48.024,1.01563,0.359375
54.8832,1.01563,0.390625
56.7835,1.01563,0.421875
42.3293,1.01563,0.453125
19.7,1.01563,0.484375
-13.2727,1.01563,0.515625
-33.8675,1.01563,0.546875
-38.3805,1.01563,0.578125
-40.8053,1.01563,0.609375
-33.1372,1.01563,0.640625
-35.8824,1.01563,0.671875
-46.9174,1.01563,0.703125
-31.9567,1.01563,0.734375
-4.98845,1.01563,0.765625
4.94131,1.01563,0.796875
4.35587,1.01563,0.828125
2.80593,1.01563,0.859375
2.1183,1.01563,0.890625
0,1.04688,0.015625
0.403737,1.04688,0.046875
-0.549066,1.04688,0.078125
-2.43715,1.04688,0.109375
-3.77276,1.04688,0.140625
-3.48703,1.04688,0.171875
-1.19273,1.04688,0.203125
9.33028,1.04688,0.234375
32.4213,1.04688,0.265625
45.3343,1.04688,0.296875
45.7146,1.04688,0.328125
52.7644,1.04688,0.359375
63.7072,1.04688,0.390625
58.2239,1.04688,0.421875
42.0427,1.04688,0.453125
17.3052,1.04688,0.484375
-17.3825,1.04688,0.515625
-34.5288,1.04688,0.546875
-39.4683,1.04688,0.578125
-38.308,1.04688,0.609375
-35.7893,1.04688,0.640625
-36.6051,1.04688,0.671875
-45.0955,1.04688,0.703125
-31.9229,1.04688,0.734375
-4.74565,1.04688,0.765625
2.49719,1.04688,0.796875
3.54438,1.04688,0.828125
2.54799,1.04688,0.859375
1.74815,1.04688,0.890625
0,1.07813,0.015625
2.14477,1.07813,0.046875
-0.709783,1.07813,0.078125
-2.88616,1.07813,0.109375
-2.88832,1.07813,0.140625
-2.16179,1.07813,0.171875
-0.398079,1.07813,0.203125
4.49828,1.07813,0.234375
17.8302,1.07813,0.265625
28.8201,1.07813,0.296875
37.7161,1.07813,0.328125
49.5186,1.07813,0.359375
58.6184,1.07813,0.390625
57.8339,1.07813,0.421875
44.7296,1.07813,0.453125
8.01132,1.07813,0.484375
-25.8629,1.07813,0.515625
-36.5464,1.07813,0.546875
-42.1118,1.07813,0.578125
-40.7162,1.07813,0.609375
-36.2275,1.07813,0.640625
-32.1909,1.07813,0.671875
-40.0085,1.07813,0.703125
-30.1687,1.07813,0.734375
-5.4957,1.07813,0.765625
2.53909,1.07813,0.796875
2.63448,1.07813,0.828125
1.48084,1.07813,0.859375
0.838958,1.07813,0.890625
0,1.10938,0.015625
2.70513,1.10938,0.046875
-1.00243,1.10938,0.078125
-1.45975,1.10938,0.109375
-1.96213,1.10938,0.140625
-1.8454,1.10938,0.171875
-1.07901,1.10938,0.203125
4.08186,1.10938,0.234375
10.1645,1.10938,0.265625
17.2764,1.10938,0.296875
26.2199,1.10938,0.328125
33.2241,1.10938,0.359375
42.5947,1.10938,0.390625
47.321,1.10938,0.421875
33.73,1.10938,0.453125
-2.38605,1.10938,0.484375
-29.1537,1.10938,0.515625
-40.7794,1.10938,0.546875
-41.7515,1.10938,0.578125
-36.2846,1.10938,0.609375
-29.5995,1.10938,0.640625
-28.8255,1.10938,0.671875
-38.2936,1.10938,0.703125
-28.7543,1.10938,0.734375
-6.99613,1.10938,0.765625
1.03971,1.10938,0.796875
1.89898,1.10938,0.828125
1.39642,1.10938,0.859375
0.649714,1.10938,0.890625
0,1.14063,0.015625
0.551734,1.14063,0.046875
1.04881,1.14063,0.078125
-0.338565,1.14063,0.109375
-1.87855,1.14063,0.140625
-1.88565,1.14063,0.171875
-0.291613,1.14063,0.203125
4.13344,1.14063,0.234375
4.89024,1.14063,0.265625
11.161,1.14063,0.296875
20.3279,1.14063,0.328125
24.9226,1.14063,0.359375
32.6337,1.14063,0.390625
40.496,1.14063,0.421875
20.3885,1.14063,0.453125
-18.0319,1.14063,0.484375
-36.1369,1.14063,0.515625
-43.0908,1.14063,0.546875
-35.4561,1.14063,0.578125
-29.1236,1.14063,0.609375
-29.5383,1.14063,0.640625
-30.3274,1.14063,0.671875
-35.7341,1.14063,0.703125
-31.276,1.14063,0.734375
-11.7704,1.14063,0.765625
-0.0132842,1.14063,0.796875
1.83848,1.14063,0.828125
1.65815,1.14063,0.859375
0.736265,1.14063,0.890625
0,1.17188,0.015625
1.65255,1.17188,0.046875
0.769166,1.17188,0.078125
0.208015,1.17188,0.109375
-0.853324,1.17188,0.140625
-1.03989,1.17188,0.171875
0.728096,1.17188,0.203125
1.92542,1.17188,0.234375
2.71353,1.17188,0.265625
9.91557,1.17188,0.296875
16.2764,1.17188,0.328125
21.7382,1.17188,0.359375
36.2567,1.17188,0.390625
39.0125,1.17188,0.421875
2.87478,1.17188,0.453125
-31.1402,1.17188,0.484375
-41.3444,1.17188,0.515625
-41.2398,1.17188,0.546875
-29.4126,1.17188,0.578125
-29.1077,1.17188,0.609375
-32.0187,1.17188,0.640625
-26.8799,1.17188,0.671875
-32.8014,1.17188,0.703125
-32.9136,1.17188,0.734375
-11.8726,1.17188,0.765625
1.94354,1.17188,0.796875
2.50394,1.17188,0.828125
1.48462,1.17188,0.859375
0.612724,1.17188,0.890625
0,1.20313,0.015625
1.78978,1.20313,0.046875
0.451445,1.20313,0.078125
-0.132893,1.20313,0.109375
-0.875847,1.20313,0.140625
-0.036953,1.20313,0.171875
0.434855,1.20313,0.203125
1.91627,1.20313,0.234375
3.64365,1.20313,0.265625
10.0359,1.20313,0.296875
14.5982,1.20313,0.328125
24.8902,1.20313,0.359375
40.0557,1.20313,0.390625
21.776,1.20313,0.421875
-18.5681,1.20313,0.453125
-35.8245,1.20313,0.484375
-39.6974,1.20313,0.515625
-34.3794,1.20313,0.546875
-28.1874,1.20313,0.578125
-31.7574,1.20313,0.609375
-28.319,1.20313,0.640625
-23.2714,1.20313,0.671875
-34.15,1.20313,0.703125
-32.2519,1.20313,0.734375
-10.716,1.20313,0.765625
0.722184,1.20313,0.796875
2.11677,1.20313,0.828125
1.66754,1.20313,0.859375
1.16588,1.20313,0.890625
0,1.23438,0.015625
0.97494,1.23438,0.046875
1.41491,1.23438,0.078125
-0.477592,1.23438,0.109375
-0.840803,1.23438,0.140625
-0.691237,1.23438,0.171875
0.539361,1.23438,0.203125
2.14456,1.23438,0.234375
6.12075,1.23438,0.265625
12.3614,1.23438,0.296875
20.9692,1.23438,0.328125
32.9799,1.23438,0.359375
28.7717,1.23438,0.390625
-2.35304,1.23438,0.421875
-31.6016,1.23438,0.453125
-40.8344,1.23438,0.484375
-34.5615,1.23438,0.515625
-29.6066,1.23438,0.546875
-30.0607,1.23438,0.578125
-31.5083,1.23438,0.609375
-28.8257,1.23438,0.640625
-27.4,1.23438,0.671875
-38.7463,1.23438,0.703125
-33.1864,1.23438,0.734375
-10.3683,1.23438,0.765625
0.333161,1.23438,0.796875
2.6003,1.23438,0.828125
2.62557,1.23438,0.859375
1.53501,1.23438,0.890625
0,1.26563,0.015625
1.39049,1.26563,0.046875
1.29288,1.26563,0.078125
-0.169318,1.26563,0.109375
-0.0931611,1.26563,0.140625
-0.505746,1.26563,0.171875
0.91829,1.26563,0.203125
2.71144,1.26563,0.234375
8.57481,1.26563,0.265625
19.3946,1.26563,0.296875
34.7324,1.26563,0.328125
32.5455,1.26563,0.359375
5.60205,1.26563,0.390625
-21.4656,1.26563,0.421875
-39.2802,1.26563,0.453125
-37.1855,1.26563,0.484375
-29.0803,1.26563,0.515625
-29.6526,1.26563,0.546875
-28.4157,1.26563,0.578125
-29.0134,1.26563,0.609375
-26.155,1.26563,0.640625
-32.5867,1.26563,0.671875
-47.7627,1.26563,0.703125
-33.1013,1.26563,0.734375
-7.40095,1.26563,0.765625
1.82641,1.26563,0.796875
2.67422,1.26563,0.828125
2.26108,1.26563,0.859375
1.39082,1.26563,0.890625
0,1.29688,0.015625
1.46314,1.29688,0.046875
1.18723,1.29688,0.078125
-0.174743,1.29688,0.109375
-0.412096,1.29688,0.140625
0.258838,1.29688,0.171875
1.01336,1.29688,0.203125
3.72503,1.29688,0.234375
13.5138,1.29688,0.265625
35.0045,1.29688,0.296875
38.6814,1.29688,0.328125
8.02449,1.29688,0.359375
-20.2059,1.29688,0.390625
-32.8166,1.29688,0.421875
-38.3581,1.29688,0.453125
-31.477,1.29688,0.484375
-27.8252,1.29688,0.515625
-26.4056,1.29688,0.546875
-25.7428,1.29688,0.578125
-24.982,1.29688,0.609375
-25.4645,1.29688,0.640625
-41.7689,1.29688,0.671875
-46.4566,1.29688,0.703125
-23.2505,1.29688,0.734375
-3.30532,1.29688,0.765625
2.89194,1.29688,0.796875
2.45158,1.29688,0.828125
2.24377,1.29688,0.859375
0.81923,1.29688,0.890625
0,1.32813,0.015625
1.07821,1.32813,0.046875
0.854108,1.32813,0.078125
-0.199856,1.32813,0.109375
-0.406406,1.32813,0.140625
0.293627,1.32813,0.171875
1.1104,1.32813,0.203125
7.38277,1.32813,0.234375
28.9634,1.32813,0.265625
47.2127,1.32813,0.296875
20.1754,1.32813,0.328125
-18.1283,1.32813,0.359375
-30.9447,1.32813,0.390625
-34.2218,1.32813,0.421875
-36.5688,1.32813,0.453125
-34.6914,1.32813,0.484375
-27.3869,1.32813,0.515625
-22.7588,1.32813,0.546875
-23.3726,1.32813,0.578125
-23.1347,1.32813,0.609375
-32.6815,1.32813,0.640625
-49.6638,1.32813,0.671875
-41.0611,1.32813,0.703125
-13.3096,1.32813,0.734375
0.945232,1.32813,0.765625
2.00406,1.32813,0.796875
3.03051,1.32813,0.828125
2.86196,1.32813,0.859375
1.12893,1.32813,0.890625
0,1.35938,0.015625
0.929012,1.35938,0.046875
0.506576,1.35938,0.078125
-0.282286,1.35938,0.109375
-0.593894,1.35938,0.140625
0.0769548,1.35938,0.171875
3.12202,1.35938,0.203125
21.2527,1.35938,0.234375
43.8462,1.35938,0.265625
32.6446,1.35938,0.296875
-3.37511,1.35938,0.328125
-21.8545,1.35938,0.359375
-28.9904,1.35938,0.390625
-33.8957,1.35938,0.421875
-42.3941,1.35938,0.453125
-37.9706,1.35938,0.484375
-23.7943,1.35938,0.515625
-21.3627,1.35938,0.546875
-18.9035,1.35938,0.578125
-20.9293,1.35938,0.609375
-42.022,1.35938,0.640625
-50.8384,1.35938,0.671875
-28.8426,1.35938,0.703125
-6.39814,1.35938,0.734375
2.10366,1.35938,0.765625
4.1435,1.35938,0.796875
3.58633,1.35938,0.828125
1.45316,1.35938,0.859375
0.37621,1.35938,0.890625
0,1.39063,0.015625
0.398938,1.39063,0.046875
0.107419,1.39063,0.078125
-0.394788,1.39063,0.109375
-0.656759,1.39063,0.140625
-0.0912352,1.39063,0.171875
12.8644,1.39063,0.203125
35.6209,1.39063,0.234375
38.5805,1.39063,0.265625
11.5209,1.39063,0.296875
-14.5523,1.39063,0.328125
-23.544,1.39063,0.359375
-31.4665,1.39063,0.390625
-39.5413,1.39063,0.421875
-46.4814,1.39063,0.453125
-36.8167,1.39063,0.484375
-24.6169,1.39063,0.515625
-25.251,1.39063,0.546875
-21.6635,1.39063,0.578125
-31.5882,1.39063,0.609375
-53.007,1.39063,0.640625
-38.1631,1.39063,0.671875
-11.297,1.39063,0.703125
-1.64149,1.39063,0.734375
4.05459,1.39063,0.765625
4.35396,1.39063,0.796875
2.52597,1.39063,0.828125
1.71236,1.39063,0.859375
0.521491,1.39063,0.890625
0,1.42188,0.015625
-0.291604,1.42188,0.046875
-0.0166075,1.42188,0.078125
-0.316017,1.42188,0.109375
-0.180369,1.42188,0.140625
2.77505,1.42188,0.171875
24.9781,1.42188,0.203125
39.9336,1.42188,0.234375
23.4613,1.42188,0.265625
-4.32233,1.42188,0.296875
-15.5259,1.42188,0.328125
-19.9331,1.42188,0.359375
-28.9654,1.42188,0.390625
-38.0328,1.42188,0.421875
-43.3558,1.42188,0.453125
-36.3656,1.42188,0.484375
-30.8601,1.42188,0.515625
-29.3463,1.42188,0.546875
-35.6295,1.42188,0.578125
-53.4366,1.42188,0.609375
-45.3389,1.42188,0.640625
-19.3829,1.42188,0.671875
-4.19582,1.42188,0.703125
3.13843,1.42188,0.734375
5.33928,1.42188,0.765625
3.53614,1.42188,0.796875
2.30735,1.42188,0.828125
0.846632,1.42188,0.859375
-0.384592,1.42188,0.890625
0,1.45313,0.015625
-0.223583,1.45313,0.046875
-0.38875,1.45313,0.078125
0.0205517,1.45313,0.109375
-0.510624,1.45313,0.140625
8.78736,1.45313,0.171875
33.5881,1.45313,0.203125
37.6595,1.45313,0.234375
9.02702,1.45313,0.265625
-11.2379,1.45313,0.296875
-11.2373,1.45313,0.328125
-15.1162,1.45313,0.359375
-22.3912,1.45313,0.390625
-32.4153,1.45313,0.421875
-40.7612,1.45313,0.453125
-35.2807,1.45313,0.484375
-34.3632,1.45313,0.515625
-36.9623,1.45313,0.546875
-45.5558,1.45313,0.578125
-44.3995,1.45313,0.609375
-23.2975,1.45313,0.640625
-7.93642,1.45313,0.671875
0.947796,1.45313,0.703125
4.0246,1.45313,0.734375
3.73443,1.45313,0.765625
3.03985,1.45313,0.796875
2.52316,1.45313,0.828125
0.875765,1.45313,0.859375
-1.26505,1.45313,0.890625
0,1.48438,0.015625
-1.44044,1.48438,0.046875
0.490572,1.48438,0.078125
-0.480388,1.48438,0.109375
2.01002,1.48438,0.140625
19.1131,1.48438,0.171875
39.4847,1.48438,0.203125
25.0559,1.48438,0.234375
-3.04657,1.48438,0.265625
-9.79477,1.48438,0.296875
-8.61742,1.48438,0.328125
-11.3707,1.48438,0.359375
-16.8967,1.48438,0.390625
-25.4419,1.48438,0.421875
-31.1097,1.48438,0.453125
-32.6258,1.48438,0.484375
-34.0074,1.48438,0.515625
-39.4166,1.48438,0.546875
-37.2273,1.48438,0.578125
-22.7569,1.48438,0.609375
-8.51434,1.48438,0.640625
0.391357,1.48438,0.671875
2.29277,1.48438,0.703125
3.29203,1.48438,0.734375
4.31086,1.48438,0.765625
3.21317,1.48438,0.796875
2.50652,1.48438,0.828125
0.527401,1.48438,0.859375
-1.81238,1.48438,0.890625
0,1.51563,0.015625
0.230428,1.51563,0.046875
-0.875327,1.51563,0.078125
-1.14134,1.51563,0.109375
7.4022,1.51563,0.140625
28.7659,1.51563,0.171875
36.1839,1.51563,0.203125
12.4184,1.51563,0.234375
-7.95674,1.51563,0.265625
-8.02207,1.51563,0.296875
-5.34879,1.51563,0.328125
-6.27439,1.51563,0.359375
-9.22713,1.51563,0.390625
-13.814,1.51563,0.421875
-18.7964,1.51563,0.453125
-23.5303,1.51563,0.484375
-24.6107,1.51563,0.515625
-24.6108,1.51563,0.546875
-17.8283,1.51563,0.578125
-10.4294,1.51563,0.609375
-1.807,1.51563,0.640625
2.22676,1.51563,0.671875
2.89165,1.51563,0.703125
4.64985,1.51563,0.734375
4.70128,1.51563,0.765625
4.37009,1.51563,0.796875
2.72912,1.51563,0.828125
-0.124737,1.51563,0.859375
-1.71447,1.51563,0.890625
0,1.54688,0.015625
-0.76969,1.54688,0.046875
-1.12136,1.54688,0.078125
-0.254333,1.54688,0.109375
12.5805,1.54688,0.140625
35.194,1.54688,0.171875
32.512,1.54688,0.203125
5.91788,1.54688,0.234375
-8.63099,1.54688,0.265625
-5.46508,1.54688,0.296875
-4.70935,1.54688,0.328125
-4.85016,1.54688,0.359375
-5.45953,1.54688,0.390625
-7.92645,1.54688,0.421875
-10.8168,1.54688,0.453125
-10.8286,1.54688,0.484375
-12.1223,1.54688,0.515625
-10.6374,1.54688,0.546875
-3.48346,1.54688,0.578125
-0.744072,1.54688,0.609375
0.95974,1.54688,0.640625
3.06091,1.54688,0.671875
3.51884,1.54688,0.703125
5.14755,1.54688,0.734375
4.50165,1.54688,0.765625
3.16019,1.54688,0.796875
2.11003,1.54688,0.828125
0.209915,1.54688,0.859375
-2.25484,1.54688,0.890625
0,1.57813,0.015625
0.233607,1.57813,0.046875
-0.798821,1.57813,0.078125
1.80601,1.57813,0.109375
18.1721,1.57813,0.140625
41.8698,1.57813,0.171875
31.0737,1.57813,0.203125
2.11293,1.57813,0.234375
-6.89399,1.57813,0.265625
-6.77881,1.57813,0.296875
-5.78828,1.57813,0.328125
-3.60801,1.57813,0.359375
-5.17792,1.57813,0.390625
-4.68668,1.57813,0.421875
-4.83209,1.57813,0.453125
-6.20135,1.57813,0.484375
-5.54469,1.57813,0.515625
-3.35255,1.57813,0.546875
-0.042778,1.57813,0.578125
0.524124,1.57813,0.609375
0.245834,1.57813,0.640625
4.70795,1.57813,0.671875
4.20435,1.57813,0.703125
3.94258,1.57813,0.734375
3.54396,1.57813,0.765625
1.68491,1.57813,0.796875
0.896631,1.57813,0.828125
-0.847616,1.57813,0.859375
-1.96387,1.57813,0.890625
0,1.60938,0.015625
0.277129,1.60938,0.046875
-1.90652,1.60938,0.078125
2.96243,1.60938,0.109375
24.2628,1.60938,0.140625
47.245,1.60938,0.171875
33.7457,1.60938,0.203125
4.06118,1.60938,0.234375
-7.31489,1.60938,0.265625
-9.1005,1.60938,0.296875
-6.39035,1.60938,0.328125
-4.16077,1.60938,0.359375
-4.32345,1.60938,0.390625
-2.85739,1.60938,0.421875
-2.95409,1.60938,0.453125
-3.7575,1.60938,0.484375
-2.7747,1.60938,0.515625
-1.22383,1.60938,0.546875
-0.268028,1.60938,0.578125
1.71568,1.60938,0.609375
2.8035,1.60938,0.640625
3.93514,1.60938,0.671875
3.64565,1.60938,0.703125
2.99707,1.60938,0.734375
2.13397,1.60938,0.765625
0.799538,1.60938,0.796875
1.67319,1.60938,0.828125
-1.8804,1.60938,0.859375
-4.00419,1.60938,0.890625
0,1.64063,0.015625
1.04362,1.64063,0.046875
-2.95034,1.64063,0.078125
2.37246,1.64063,0.109375
25.4035,1.64063,0.140625
42.6814,1.64063,0.171875
30.886,1.64063,0.203125
14.0038,1.64063,0.234375
5.15186,1.64063,0.265625
-0.110355,1.64063,0.296875
-3.51463,1.64063,0.328125
-5.03781,1.64063,0.359375
-3.93225,1.64063,0.390625
-2.38668,1.64063,0.421875
-1.92719,1.64063,0.453125
-1.16621,1.64063,0.484375
-0.717804,1.64063,0.515625
0.540432,1.64063,0.546875
2.16715,1.64063,0.578125
4.08233,1.64063,0.609375
3.32222,1.64063,0.640625
2.11627,1.64063,0.671875
2.61269,1.64063,0.703125
2.20299,1.64063,0.734375
1.7819,1.64063,0.765625
2.25456,1.64063,0.796875
1.15506,1.64063,0.828125
-2.95816,1.64063,0.859375
-4.10101,1.64063,0.890625
0,1.67188,0.015625
-0.0385399,1.67188,0.046875
-3.45058,1.67188,0.078125
4.07647,1.67188,0.109375
25.5077,1.67188,0.140625
41.5433,1.67188,0.171875
31.2133,1.67188,0.203125
21.8901,1.67188,0.234375
17.8021,1.67188,0.265625
9.85945,1.67188,0.296875
4.55777,1.67188,0.328125
-0.68502,1.67188,0.359375
-4.34509,1.67188,0.390625
-3.55281,1.67188,0.421875
-1.48509,1.67188,0.453125
-0.140343,1.67188,0.484375
1.17134,1.67188,0.515625
2.48304,1.67188,0.546875
2.69591,1.67188,0.578125
2.53412,1.67188,0.609375
2.10255,1.67188,0.640625
2.10456,1.67188,0.671875
3.05893,1.67188,0.703125
3.05527,1.67188,0.734375
2.25488,1.67188,0.765625
1.48975,1.67188,0.796875
0.129224,1.67188,0.828125
-4.38469,1.67188,0.859375
-6.37791,1.67188,0.890625
0,1.70313,0.015625
-0.993591,1.70313,0.046875
-3.3064,1.70313,0.078125
5.00346,1.70313,0.109375
23.4938,1.70313,0.140625
37.4423,1.70313,0.171875
35.2197,1.70313,0.203125
28.3703,1.70313,0.234375
26.4807,1.70313,0.265625
21.5038,1.70313,0.296875
15.9934,1.70313,0.328125
10.252,1.70313,0.359375
4.08276,1.70313,0.390625
-0.88023,1.70313,0.421875
-2.71836,1.70313,0.453125
-1.76521,1.70313,0.484375
0.858212,1.70313,0.515625
1.50733,1.70313,0.546875
1.24871,1.70313,0.578125
2.18011,1.70313,0.609375
3.121,1.70313,0.640625
3.33065,1.70313,0.671875
3.58893,1.70313,0.703125
2.28743,1.70313,0.734375
1.71243,1.70313,0.765625
1.11961,1.70313,0.796875
-0.523087,1.70313,0.828125
-4.99774,1.70313,0.859375
-6.87697,1.70313,0.890625
0,1.73438,0.015625
-1.22964,1.73438,0.046875
-2.78278,1.73438,0.078125
1.90032,1.73438,0.109375
18.118,1.73438,0.140625
34.5362,1.73438,0.171875
34.2893,1.73438,0.203125
28.968,1.73438,0.234375
31.6699,1.73438,0.265625
29.2168,1.73438,0.296875
26.1278,1.73438,0.328125
22.7887,1.73438,0.359375
15.1273,1.73438,0.390625
7.30847,1.73438,0.421875
1.05495,1.73438,0.453125
-1.13348,1.73438,0.484375
-0.245892,1.73438,0.515625
2.15586,1.73438,0.546875
3.86955,1.73438,0.578125
4.26463,1.73438,0.609375
4.49205,1.73438,0.640625
3.77932,1.73438,0.671875
3.0463,1.73438,0.703125
2.16267,1.73438,0.734375
2.27116,1.73438,0.765625
0.910069,1.73438,0.796875
-0.698843,1.73438,0.828125
-4.34599,1.73438,0.859375
-6.53556,1.73438,0.890625
0,1.76563,0.015625
-0.635846,1.76563,0.046875
-3.43318,1.76563,0.078125
-0.835622,1.76563,0.109375
14.1421,1.76563,0.140625
33.1863,1.76563,0.171875
31.847,1.76563,0.203125
25.552,1.76563,0.234375
26.756,1.76563,0.265625
25.3184,1.76563,0.296875
29.8704,1.76563,0.328125
32.8839,1.76563,0.359375
27.4386,1.76563,0.390625
18.3661,1.76563,0.421875
10.9146,1.76563,0.453125
5.42313,1.76563,0.484375
1.4954,1.76563,0.515625
1.05189,1.76563,0.546875
3.15853,1.76563,0.578125
3.78451,1.76563,0.609375
2.78923,1.76563,0.640625
2.18991,1.76563,0.671875
2.48489,1.76563,0.703125
2.08567,1.76563,0.734375
1.96556,1.76563,0.765625
1.16102,1.76563,0.796875
-0.0651751,1.76563,0.828125
-4.3478,1.76563,0.859375
-7.05691,1.76563,0.890625
0,1.79688,0.015625
-1.19011,1.79688,0.046875
-3.25943,1.79688,0.078125
-2.22304,1.79688,0.109375
11.9425,1.79688,0.140625
31.2762,1.79688,0.171875
35.5714,1.79688,0.203125
30.2399,1.79688,0.234375
24.6282,1.79688,0.265625
24.0111,1.79688,0.296875
28.6279,1.79688,0.328125
32.1896,1.79688,0.359375
31.6414,1.79688,0.390625
26.0069,1.79688,0.421875
18.7635,1.79688,0.453125
9.555,1.79688,0.484375
2.53956,1.79688,0.515625
-0.627768,1.79688,0.546875
0.142834,1.79688,0.578125
2.11765,1.79688,0.609375
2.4828,1.79688,0.640625
2.25234,1.79688,0.671875
2.4236,1.79688,0.703125
2.05577,1.79688,0.734375
1.93786,1.79688,0.765625
1.32208,1.79688,0.796875
-0.192953,1.79688,0.828125
-4.5379,1.79688,0.859375
-6.93236,1.79688,0.890625
0,1.82813,0.015625
-0.804149,1.82813,0.046875
-2.80639,1.82813,0.078125
-3.29713,1.82813,0.109375
5.38597,1.82813,0.140625
26.2749,1.82813,0.171875
36.7387,1.82813,0.203125
33.9579,1.82813,0.234375
28.8764,1.82813,0.265625
26.5709,1.82813,0.296875
28.1318,1.82813,0.328125
30.9093,1.82813,0.359375
32.3264,1.82813,0.390625
30.2843,1.82813,0.421875
20.2342,1.82813,0.453125
11.471,1.82813,0.484375
5.6417,1.82813,0.515625
-0.64123,1.82813,0.546875
-0.76488,1.82813,0.578125
1.40501,1.82813,0.609375
2.35926,1.82813,0.640625
3.1114,1.82813,0.671875
3.25824,1.82813,0.703125
2.68781,1.82813,0.734375
1.70917,1.82813,0.765625
0.938115,1.82813,0.796875
-0.31036,1.82813,0.828125
-4.52842,1.82813,0.859375
-5.95857,1.82813,0.890625
0,1.85938,0.015625
-1.03724,1.85938,0.046875
-2.04399,1.85938,0.078125
-3.6357,1.85938,0.109375
-0.950422,1.85938,0.140625
18.515,1.85938,0.171875
30.0506,1.85938,0.203125
30.4417,1.85938,0.234375
30.3542,1.85938,0.265625
27.3418,1.85938,0.296875
29.208,1.85938,0.328125
34.3364,1.85938,0.359375
39.2647,1.85938,0.390625
33.4929,1.85938,0.421875
19.9896,1.85938,0.453125
11.8467,1.85938,0.484375
6.17365,1.85938,0.515625
-0.381524,1.85938,0.546875
-2.68609,1.85938,0.578125
-0.760941,1.85938,0.609375
0.862719,1.85938,0.640625
2.7496,1.85938,0.671875
2.86096,1.85938,0.703125
2.35153,1.85938,0.734375
1.63707,1.85938,0.765625
1.14078,1.85938,0.796875
-0.257004,1.85938,0.828125
-4.13237,1.85938,0.859375
-5.20306,1.85938,0.890625
0,1.89063,0.015625
0.536978,1.89063,0.046875
-1.9912,1.89063,0.078125
-2.88756,1.89063,0.109375
-1.30004,1.89063,0.140625
8.74365,1.89063,0.171875
20.4317,1.89063,0.203125
25.8555,1.89063,0.234375
29.2807,1.89063,0.265625
28.8382,1.89063,0.296875
30.7258,1.89063,0.328125
32.1866,1.89063,0.359375
33.8369,1.89063,0.390625
27.7867,1.89063,0.421875
15.9266,1.89063,0.453125
7.83266,1.89063,0.484375
3.76597,1.89063,0.515625
-0.956138,1.89063,0.546875
-5.35065,1.89063,0.578125
-3.45685,1.89063,0.609375
-1.06499,1.89063,0.640625
1.32178,1.89063,0.671875
1.68706,1.89063,0.703125
1.29861,1.89063,0.734375
1.1437,1.89063,0.765625
0.631256,1.89063,0.796875
-0.550781,1.89063,0.828125
-3.91627,1.89063,0.859375
-5.00632,1.89063,0.890625
