0.974119,0.0625,0.0625,0
0.974119,0.0625,0.1875,0
1.29289,0.0625,0.3125,0
1.52309,0.0625,0.4375,0
2.00584,0.0625,0.5625,0
2.61351,0.0625,0.6875,0
3.05395,0.0625,0.8125,0
3.34074,0.0625,0.9375,0
3.60119,0.0625,1.0625,0
3.59636,0.0625,1.1875,0
3.62177,0.0625,1.3125,0
3.61201,0.0625,1.4375,0
3.73653,0.0625,1.5625,0
0.974119,0.1875,0.0625,0
0.974119,0.1875,0.1875,0
1.29289,0.1875,0.3125,0
1.52309,0.1875,0.4375,0
2.00584,0.1875,0.5625,0
2.61351,0.1875,0.6875,0
3.05395,0.1875,0.8125,0
3.34074,0.1875,0.9375,0
3.60119,0.1875,1.0625,0
3.59636,0.1875,1.1875,0
3.62177,0.1875,1.3125,0
3.61201,0.1875,1.4375,0
3.73653,0.1875,1.5625,0
0.882441,0.3125,0.0625,0
0.882441,0.3125,0.1875,0
1.18992,0.3125,0.3125,0
1.39793,0.3125,0.4375,0
1.98789,0.3125,0.5625,0
2.61146,0.3125,0.6875,0
3.24611,0.3125,0.8125,0
3.63357,0.3125,0.9375,0
3.90452,0.3125,1.0625,0
3.78168,0.3125,1.1875,0
3.59279,0.3125,1.3125,0
3.52718,0.3125,1.4375,0
3.48921,0.3125,1.5625,0
0.146922,0.4375,0.0625,0
0.146922,0.4375,0.1875,0
0.531698,0.4375,0.3125,0
0.869979,0.4375,0.4375,0
1.64272,0.4375,0.5625,0
2.59877,0.4375,0.6875,0
3.73054,0.4375,0.8125,0
4.55216,0.4375,0.9375,0
4.69979,0.4375,1.0625,0
4.14615,0.4375,1.1875,0
3.52156,0.4375,1.3125,0
3.19582,0.4375,1.4375,0
2.88317,0.4375,1.5625,0
-0.542219,0.5625,0.0625,0
-0.542219,0.5625,0.1875,0
-0.230305,0.5625,0.3125,0
0.0193271,0.5625,0.4375,0
0.824063,0.5625,0.5625,0
2.47233,0.5625,0.6875,0
3.80357,0.5625,0.8125,0
5.81682,0.5625,0.9375,0
6.33451,0.5625,1.0625,0
4.13155,0.5625,1.1875,0
3.0344,0.5625,1.3125,0
2.58346,0.5625,1.4375,0
2.24378,0.5625,1.5625,0
-1.5034,0.6875,0.0625,0
-1.5034,0.6875,0.1875,0
-1.20224,0.6875,0.3125,0
-1.29784,0.6875,0.4375,0
-0.512773,0.6875,0.5625,0
-0.210841,0.6875,0.6875,0
0,0.6875,0.8125,0
0,0.6875,0.9375,0
0,0.6875,1.0625,0
2.89427,0.6875,1.1875,0
0.874525,0.6875,1.3125,0
1.45255,0.6875,1.4375,0
1.27001,0.6875,1.5625,0
-2.55666,0.8125,0.0625,0
-2.55666,0.8125,0.1875,0
-2.58054,0.8125,0.3125,0
-3.33413,0.8125,0.4375,0
-3.27089,0.8125,0.5625,0
0,0.8125,0.6875,0
0,0.8125,0.8125,0
0,0.8125,0.9375,0
0,0.8125,1.0625,0
0,0.8125,1.1875,0
-3.20345,0.8125,1.3125,0
0.173548,0.8125,1.4375,0
0.214505,0.8125,1.5625,0
-3.21947,0.9375,0.0625,0
-3.21947,0.9375,0.1875,0
-3.53943,0.9375,0.3125,0
-5.37109,0.9375,0.4375,0
-7.71244,0.9375,0.5625,0
0,0.9375,0.6875,0
0,0.9375,0.8125,0
0,0.9375,0.9375,0
0,0.9375,1.0625,0
0,0.9375,1.1875,0
-7.70749,0.9375,1.3125,0
-1.00049,0.9375,1.4375,0
-0.285305,0.9375,1.5625,0
-3.43784,1.0625,0.0625,0
-3.43784,1.0625,0.1875,0
-3.87682,1.0625,0.3125,0
-5.8199,1.0625,0.4375,0
-9.22557,1.0625,0.5625,0
0,1.0625,0.6875,0
0,1.0625,0.8125,0
0,1.0625,0.9375,0
0,1.0625,1.0625,0
0,1.0625,1.1875,0
-3.50366,1.0625,1.3125,0
-0.457811,1.0625,1.4375,0
-0.772417,1.0625,1.5625,0
-3.52743,1.1875,0.0625,0
-3.52743,1.1875,0.1875,0
-3.78717,1.1875,0.3125,0
-4.45703,1.1875,0.4375,0
-4.7303,1.1875,0.5625,0
-6.29929,1.1875,0.6875,0
0,1.1875,0.8125,0
0,1.1875,0.9375,0
0,1.1875,1.0625,0
0,1.1875,1.1875,0
-0.019112,1.1875,1.3125,0
-1.33049,1.1875,1.4375,0
-1.27361,1.1875,1.5625,0
-3.32723,1.3125,0.0625,0
-3.32723,1.3125,0.1875,0
-3.5981,1.3125,0.3125,0
-3.72841,1.3125,0.4375,0
-2.76517,1.3125,0.5625,0
-0.10938,1.3125,0.6875,0
0.581668,1.3125,0.8125,0
-1.70797,1.3125,0.9375,0
1.26524,1.3125,1.0625,0
-1.98387,1.3125,1.1875,0
-4.23052,1.3125,1.3125,0
-2.93777,1.3125,1.4375,0
-1.57443,1.3125,1.5625,0
-2.89529,1.4375,0.0625,0
-2.89529,1.4375,0.1875,0
-3.18123,1.4375,0.3125,0
-3.31381,1.4375,0.4375,0
-3.1794,1.4375,0.5625,0
-2.56402,1.4375,0.6875,0
-1.76283,1.4375,0.8125,0
-1.30231,1.4375,0.9375,0
-0.679779,1.4375,1.0625,0
-3.32956,1.4375,1.1875,0
-3.91543,1.4375,1.3125,0
-1.74727,1.4375,1.4375,0
-0.863548,1.4375,1.5625,0
-2.4685,1.5625,0.0625,0
-2.4685,1.5625,0.1875,0
-2.58193,1.5625,0.3125,0
-2.36193,1.5625,0.4375,0
-1.89914,1.5625,0.5625,0
-1.77068,1.5625,0.6875,0
-0.698682,1.5625,0.8125,0
0.822395,1.5625,0.9375,0
-0.00281527,1.5625,1.0625,0
-1.11149,1.5625,1.1875,0
-0.409117,1.5625,1.3125,0
-0.327545,1.5625,1.4375,0
-0.605568,1.5625,1.5625,0
1.65115,0.687326,0.812332,1
0,0.747685,0.870675,1
8.50175,0.676102,0.935235,1
0,0.737362,0.94741,1
6.3241,0.6809,1.06588,1
0,0.739004,1.03616,1
-4.68067,0.812497,0.687497,1
0,0.87441,0.749739,1
-0.731874,0.78598,0.783001,1
0,0.82609,0.827617,1
0,0.813298,1.06175,1
6.18779,0.755398,1.11612,1
-1.40233,0.799785,1.20459,1
0,0.8356,1.15644,1
-12.3032,0.935925,0.680217,1
0,0.949199,0.741606,1
0,0.939238,1.17506,1
-21.6959,0.930607,1.23684,1
-15.9205,1.06433,0.684834,1
0,1.0241,0.743411,1
0,1.05983,0.815617,1
-12.6488,1.1068,0.76088,1
0,1.05611,1.16815,1
-16.748,1.07539,1.22654,1
-6.95531,1.19916,0.803,1
0,1.15077,0.842418,1
0,1.16939,0.940094,1
-1.81536,1.231,0.931268,1
0,1.16487,1.05646,1
1.19427,1.22438,1.07235,1
0,1.14185,1.14269,1
-3.12762,1.19178,1.1917,1
