0,0.03125,0.03125
0,0.03125,0.09375
0,0.03125,0.15625
0,0.03125,0.21875
0,0.03125,0.28125
0,0.03125,0.34375
0,0.03125,0.40625
0,0.03125,0.46875
0,0.03125,0.53125
0,0.03125,0.59375
0,0.03125,0.65625
0,0.03125,0.71875
0,0.03125,0.78125
0,0.03125,0.84375
0,0.03125,0.90625
0,0.03125,0.96875
0,0.03125,1.03125
0,0.03125,1.09375
0,0.03125,1.15625
0,0.03125,1.21875
0,0.03125,1.28125
0,0.03125,1.34375
0,0.03125,1.40625
0,0.03125,1.46875
0,0.03125,1.53125
0,0.03125,1.59375
0,0.03125,1.65625
0,0.03125,1.71875
0,0.03125,1.78125
0,0.09375,0.03125
0,0.09375,0.09375
-0.0164329,0.09375,0.15625
-0.0318821,0.09375,0.21875
-0.0458252,0.09375,0.28125
-0.0605946,0.09375,0.34375
-0.0754217,0.09375,0.40625
-0.0875296,0.09375,0.46875
-0.0969706,0.09375,0.53125
-0.102369,0.09375,0.59375
-0.103884,0.09375,0.65625
-0.100666,0.09375,0.71875
-0.089659,0.09375,0.78125
-0.0737173,0.09375,0.84375
-0.0507736,0.09375,0.90625
-0.0247565,0.09375,0.96875
0.00363389,0.09375,1.03125
0.0314479,0.09375,1.09375
0.0580714,0.09375,1.15625
0.0777673,0.09375,1.21875
0.0917103,0.09375,1.28125
0.0983641,0.09375,1.34375
0.099886,0.09375,1.40625
0.0973366,0.09375,1.46875
0.0906423,0.09375,1.53125
0.0780192,0.09375,1.59375
0.0653675,0.09375,1.65625
0.0507598,0.09375,1.71875
0.0349782,0.09375,1.78125
0,0.15625,0.03125
0,0.15625,0.09375
-0.020719,0.15625,0.15625
-0.0407687,0.15625,0.21875
-0.0617999,0.15625,0.28125
-0.0830825,0.15625,0.34375
-0.101348,0.15625,0.40625
-0.117633,0.15625,0.46875
-0.130964,0.15625,0.53125
-0.139005,0.15625,0.59375
-0.13964,0.15625,0.65625
-0.133281,0.15625,0.71875
-0.119813,0.15625,0.78125
-0.0965425,0.15625,0.84375
-0.0674121,0.15625,0.90625
-0.0297223,0.15625,0.96875
0.00986648,0.15625,1.03125
0.0474173,0.15625,1.09375
0.0795017,0.15625,1.15625
0.108867,0.15625,1.21875
0.127227,0.15625,1.28125
0.136431,0.15625,1.34375
0.137743,0.15625,1.40625
0.13187,0.15625,1.46875
0.120497,0.15625,1.53125
0.106412,0.15625,1.59375
0.0869535,0.15625,1.65625
0.067441,0.15625,1.71875
0.0449847,0.15625,1.78125
0,0.21875,0.03125
0,0.21875,0.09375
-0.0266213,0.21875,0.15625
-0.0530357,0.21875,0.21875
-0.0817841,0.21875,0.28125
-0.108483,0.21875,0.34375
-0.131071,0.21875,0.40625
-0.153012,0.21875,0.46875
-0.171056,0.21875,0.53125
-0.183617,0.21875,0.59375
-0.187069,0.21875,0.65625
-0.178412,0.21875,0.71875
-0.158954,0.21875,0.78125
-0.12678,0.21875,0.84375
-0.0865079,0.21875,0.90625
-0.0378366,0.21875,0.96875
0.016744,0.21875,1.03125
0.0687945,0.21875,1.09375
0.113437,0.21875,1.15625
0.149425,0.21875,1.21875
0.174323,0.21875,1.28125
0.186856,0.21875,1.34375
0.187336,0.21875,1.40625
0.177661,0.21875,1.46875
0.1593,0.21875,1.53125
0.136996,0.21875,1.59375
0.112528,0.21875,1.65625
0.0863798,0.21875,1.71875
0.058351,0.21875,1.78125
0,0.28125,0.03125
0,0.28125,0.09375
-0.032442,0.28125,0.15625
-0.0663567,0.28125,0.21875
-0.10374,0.28125,0.28125
-0.138981,0.28125,0.34375
-0.172525,0.28125,0.40625
-0.203066,0.28125,0.46875
-0.228301,0.28125,0.53125
-0.246078,0.28125,0.59375
-0.252388,0.28125,0.65625
-0.245521,0.28125,0.71875
-0.220625,0.28125,0.78125
-0.17569,0.28125,0.84375
-0.112963,0.28125,0.90625
-0.043969,0.28125,0.96875
0.0243415,0.28125,1.03125
0.0973081,0.28125,1.09375
0.16026,0.28125,1.15625
0.205638,0.28125,1.21875
0.235762,0.28125,1.28125
0.248422,0.28125,1.34375
0.24721,0.28125,1.40625
0.232203,0.28125,1.46875
0.207998,0.28125,1.53125
0.177247,0.28125,1.59375
0.143059,0.28125,1.65625
0.108641,0.28125,1.71875
0.0726616,0.28125,1.78125
0,0.34375,0.03125
0,0.34375,0.09375
-0.0403121,0.34375,0.15625
-0.0843527,0.34375,0.21875
-0.128266,0.34375,0.28125
-0.173179,0.34375,0.34375
-0.218448,0.34375,0.40625
-0.257956,0.34375,0.46875
-0.292874,0.34375,0.53125
-0.319149,0.34375,0.59375
-0.331365,0.34375,0.65625
-0.325801,0.34375,0.71875
-0.297454,0.34375,0.78125
-0.245003,0.34375,0.84375
-0.16189,0.34375,0.90625
-0.0594269,0.34375,0.96875
0.0430807,0.34375,1.03125
0.139909,0.34375,1.09375
0.225276,0.34375,1.15625
0.285737,0.34375,1.21875
0.320338,0.34375,1.28125
0.331831,0.34375,1.34375
0.321241,0.34375,1.40625
0.295838,0.34375,1.46875
0.261377,0.34375,1.53125
0.222147,0.34375,1.59375
0.178696,0.34375,1.65625
0.131649,0.34375,1.71875
0.0872543,0.34375,1.78125
0,0.40625,0.03125
0,0.40625,0.09375
-0.0482858,0.40625,0.15625
-0.10043,0.40625,0.21875
-0.152706,0.40625,0.28125
-0.206777,0.40625,0.34375
-0.263589,0.40625,0.40625
-0.317824,0.40625,0.46875
-0.368196,0.40625,0.53125
-0.409618,0.40625,0.59375
-0.435839,0.40625,0.65625
-0.436035,0.40625,0.71875
-0.40222,0.40625,0.78125
-0.328326,0.40625,0.84375
-0.222417,0.40625,0.90625
-0.0937287,0.40625,0.96875
0.06023,0.40625,1.03125
0.203881,0.40625,1.09375
0.315054,0.40625,1.15625
0.391676,0.40625,1.21875
0.433167,0.40625,1.28125
0.440261,0.40625,1.34375
0.416947,0.40625,1.40625
0.374193,0.40625,1.46875
0.325322,0.40625,1.53125
0.272076,0.40625,1.59375
0.217039,0.40625,1.65625
0.158478,0.40625,1.71875
0.104762,0.40625,1.78125
0,0.46875,0.03125
0,0.46875,0.09375
-0.0556572,0.46875,0.15625
-0.117493,0.46875,0.21875
-0.180632,0.46875,0.28125
-0.243666,0.46875,0.34375
-0.311729,0.46875,0.40625
-0.383347,0.46875,0.46875
-0.452891,0.46875,0.53125
-0.511524,0.46875,0.59375
-0.558903,0.46875,0.65625
-0.578155,0.46875,0.71875
-0.55554,0.46875,0.78125
-0.468198,0.46875,0.84375
-0.312782,0.46875,0.90625
-0.118338,0.46875,0.96875
0.0882979,0.46875,1.03125
0.27927,0.46875,1.09375
0.440008,0.46875,1.15625
0.545893,0.46875,1.21875
0.582534,0.46875,1.28125
0.573994,0.46875,1.34375
0.538178,0.46875,1.40625
0.475452,0.46875,1.46875
0.402107,0.46875,1.53125
0.330646,0.46875,1.59375
0.260629,0.46875,1.65625
0.184786,0.46875,1.71875
0.116458,0.46875,1.78125
0,0.53125,0.03125
0,0.53125,0.09375
-0.0614212,0.53125,0.15625
-0.131615,0.53125,0.21875
-0.207661,0.53125,0.28125
-0.279817,0.53125,0.34375
-0.360093,0.53125,0.40625
-0.452194,0.53125,0.46875
-0.543765,0.53125,0.53125
-0.634024,0.53125,0.59375
-0.711987,0.53125,0.65625
-0.758059,0.53125,0.71875
-0.745632,0.53125,0.78125
-0.653487,0.53125,0.84375
-0.466203,0.53125,0.90625
-0.184993,0.53125,0.96875
0.136936,0.53125,1.03125
0.447753,0.53125,1.09375
0.664698,0.53125,1.15625
0.777202,0.53125,1.21875
0.801006,0.53125,1.28125
0.755369,0.53125,1.34375
0.675358,0.53125,1.40625
0.58427,0.53125,1.46875
0.488809,0.53125,1.53125
0.395951,0.53125,1.59375
0.303507,0.53125,1.65625
0.220815,0.53125,1.71875
0.13704,0.53125,1.78125
0,0.59375,0.03125
0,0.59375,0.09375
-0.0759799,0.59375,0.15625
-0.147745,0.59375,0.21875
-0.222385,0.59375,0.28125
-0.313598,0.59375,0.34375
-0.418314,0.59375,0.40625
-0.5208,0.59375,0.46875
-0.636308,0.59375,0.53125
-0.770066,0.59375,0.59375
-0.895013,0.59375,0.65625
-0.997765,0.59375,0.71875
-1.03705,0.59375,0.78125
-0.945273,0.59375,0.84375
-0.679497,0.59375,0.90625
-0.278841,0.59375,0.96875
0.20905,0.59375,1.03125
0.690891,0.59375,1.09375
1.00253,0.59375,1.15625
1.0953,0.59375,1.21875
1.07546,0.59375,1.28125
0.973255,0.59375,1.34375
0.838311,0.59375,1.40625
0.700116,0.59375,1.46875
0.57287,0.59375,1.53125
0.459675,0.59375,1.59375
0.347793,0.59375,1.65625
0.253074,0.59375,1.71875
0.162191,0.59375,1.78125
0,0.65625,0.03125
0,0.65625,0.09375
-0.0769228,0.65625,0.15625
-0.157635,0.65625,0.21875
-0.241253,0.65625,0.28125
-0.349075,0.65625,0.34375
-0.45826,0.65625,0.40625
-0.580806,0.65625,0.46875
-0.736871,0.65625,0.53125
-0.916894,0.65625,0.59375
-1.10542,0.65625,0.65625
-1.28537,0.65625,0.71875
-1.4384,0.65625,0.78125
-1.51012,0.65625,0.84375
-1.27503,0.65625,0.90625
-0.437211,0.65625,0.96875
0.587737,0.65625,1.03125
1.37862,0.65625,1.09375
1.5162,0.65625,1.15625
1.53333,0.65625,1.21875
1.40481,0.65625,1.28125
1.20807,0.65625,1.34375
1.00501,0.65625,1.40625
0.81851,0.65625,1.46875
0.654789,0.65625,1.53125
0.513055,0.65625,1.59375
0.398773,0.65625,1.65625
0.297829,0.65625,1.71875
0.202143,0.65625,1.78125
0,0.71875,0.03125
0,0.71875,0.09375
-0.0833525,0.71875,0.15625
-0.17148,0.71875,0.21875
-0.269032,0.71875,0.28125
-0.371495,0.71875,0.34375
-0.48443,0.71875,0.40625
-0.634678,0.71875,0.46875
-0.806501,0.71875,0.53125
-1.01649,0.71875,0.59375
-1.27973,0.71875,0.65625
-1.56838,0.71875,0.71875
-1.94875,0.71875,0.78125
0,0.71875,0.84375
0,0.71875,0.90625
0,0.71875,0.96875
0,0.71875,1.03125
0,0.71875,1.09375
2.42487,0.71875,1.15625
2.05612,0.71875,1.21875
1.75923,0.71875,1.28125
1.42291,0.71875,1.34375
1.14182,0.71875,1.40625
0.903427,0.71875,1.46875
0.704845,0.71875,1.53125
0.544648,0.71875,1.59375
0.423917,0.71875,1.65625
0.317725,0.71875,1.71875
0.228151,0.71875,1.78125
0,0.78125,0.03125
0,0.78125,0.09375
-0.0854266,0.78125,0.15625
-0.171839,0.78125,0.21875
-0.265641,0.78125,0.28125
-0.361372,0.78125,0.34375
-0.478878,0.78125,0.40625
-0.617771,0.78125,0.46875
-0.803728,0.78125,0.53125
-1.03205,0.78125,0.59375
-1.36057,0.78125,0.65625
-1.90547,0.78125,0.71875
0,0.78125,0.78125
0,0.78125,0.84375
0,0.78125,0.90625
0,0.78125,0.96875
0,0.78125,1.03125
0,0.78125,1.09375
0,0.78125,1.15625
2.82723,0.78125,1.21875
2.07086,0.78125,1.28125
1.53733,0.78125,1.34375
1.16285,0.78125,1.40625
0.90142,0.78125,1.46875
0.699855,0.78125,1.53125
0.534953,0.78125,1.59375
0.407964,0.78125,1.65625
0.304449,0.78125,1.71875
0.217952,0.78125,1.78125
0,0.84375,0.03125
0,0.84375,0.09375
-0.0751028,0.84375,0.15625
-0.154441,0.84375,0.21875
-0.236464,0.84375,0.28125
-0.320759,0.84375,0.34375
-0.417833,0.84375,0.40625
-0.543055,0.84375,0.46875
-0.71061,0.84375,0.53125
-0.939974,0.84375,0.59375
-1.31451,0.84375,0.65625
0,0.84375,0.71875
0,0.84375,0.78125
0,0.84375,0.84375
0,0.84375,0.90625
0,0.84375,0.96875
0,0.84375,1.03125
0,0.84375,1.09375
0,0.84375,1.15625
0,0.84375,1.21875
2.15099,0.84375,1.28125
1.45793,0.84375,1.34375
1.05473,0.84375,1.40625
0.774632,0.84375,1.46875
0.599646,0.84375,1.53125
0.467927,0.84375,1.59375
0.361861,0.84375,1.65625
0.27325,0.84375,1.71875
0.189046,0.84375,1.78125
0,0.90625,0.03125
0,0.90625,0.09375
-0.0613528,0.90625,0.15625
-0.122658,0.90625,0.21875
-0.186365,0.90625,0.28125
-0.255326,0.90625,0.34375
-0.331382,0.90625,0.40625
-0.428108,0.90625,0.46875
-0.539908,0.90625,0.53125
-0.705554,0.90625,0.59375
-0.979722,0.90625,0.65625
0,0.90625,0.71875
0,0.90625,0.78125
0,0.90625,0.84375
0,0.90625,0.90625
0,0.90625,0.96875
0,0.90625,1.03125
0,0.90625,1.09375
0,0.90625,1.15625
0,0.90625,1.21875
1.26377,0.90625,1.28125
1.09687,0.90625,1.34375
0.808792,0.90625,1.40625
0.604486,0.90625,1.46875
0.474978,0.90625,1.53125
0.36875,0.90625,1.59375
0.285811,0.90625,1.65625
0.217632,0.90625,1.71875
0.156662,0.90625,1.78125
0,0.96875,0.03125
0,0.96875,0.09375
-0.045963,0.96875,0.15625
-0.0881252,0.96875,0.21875
-0.130251,0.96875,0.28125
-0.17815,0.96875,0.34375
-0.231404,0.96875,0.40625
-0.285816,0.96875,0.46875
-0.344813,0.96875,0.53125
-0.410642,0.96875,0.59375
-0.449972,0.96875,0.65625
0,0.96875,0.71875
0,0.96875,0.78125
0,0.96875,0.84375
0,0.96875,0.90625
0,0.96875,0.96875
0,0.96875,1.03125
0,0.96875,1.09375
0,0.96875,1.15625
0,0.96875,1.21875
0.449921,0.96875,1.28125
0.604782,0.96875,1.34375
0.477165,0.96875,1.40625
0.374791,0.96875,1.46875
0.305331,0.96875,1.53125
0.250357,0.96875,1.59375
0.201089,0.96875,1.65625
0.157638,0.96875,1.71875
0.120539,0.96875,1.78125
0,1.03125,0.03125
0,1.03125,0.09375
-0.0244456,1.03125,0.15625
-0.0474301,1.03125,0.21875
-0.0700532,1.03125,0.28125
-0.0934689,1.03125,0.34375
-0.118953,1.03125,0.40625
-0.13756,1.03125,0.46875
-0.144738,1.03125,0.53125
-0.134576,1.03125,0.59375
-0.100783,1.03125,0.65625
0,1.03125,0.71875
0,1.03125,0.78125
0,1.03125,0.84375
0,1.03125,0.90625
0,1.03125,0.96875
0,1.03125,1.03125
0,1.03125,1.09375
0,1.03125,1.15625
0,1.03125,1.21875
-0.236927,1.03125,1.28125
0.0377502,1.03125,1.34375
0.11706,1.03125,1.40625
0.129946,1.03125,1.46875
0.125667,1.03125,1.53125
0.123341,1.03125,1.59375
0.11068,1.03125,1.65625
0.0946636,1.03125,1.71875
0.0808609,1.03125,1.78125
0,1.09375,0.03125
0,1.09375,0.09375
-0.00964061,1.09375,0.15625
-0.012988,1.09375,0.21875
-0.0125002,1.09375,0.28125
-0.00857914,1.09375,0.34375
0.000470493,1.09375,0.40625
0.0200378,1.09375,0.46875
0.0570292,1.09375,0.53125
0.142136,1.09375,0.59375
0.381746,1.09375,0.65625
0,1.09375,0.71875
0,1.09375,0.78125
0,1.09375,0.84375
0,1.09375,0.90625
0,1.09375,0.96875
0,1.09375,1.03125
0,1.09375,1.09375
0,1.09375,1.15625
0,1.09375,1.21875
-0.975769,1.09375,1.28125
-0.41574,1.09375,1.34375
-0.237277,1.09375,1.40625
-0.118261,1.09375,1.46875
-0.0587985,1.09375,1.53125
-0.0141903,1.09375,1.59375
0.015153,1.09375,1.65625
0.0322054,1.09375,1.71875
0.045006,1.09375,1.78125
0,1.15625,0.03125
0,1.15625,0.09375
0.00734229,1.15625,0.15625
0.0199159,1.15625,0.21875
0.0383119,1.15625,0.28125
0.0622435,1.15625,0.34375
0.0972418,1.15625,0.40625
0.143882,1.15625,0.46875
0.208439,1.15625,0.53125
0.291553,1.15625,0.59375
0.392748,1.15625,0.65625
0.368124,1.15625,0.71875
0,1.15625,0.78125
0,1.15625,0.84375
0,1.15625,0.90625
0,1.15625,0.96875
0,1.15625,1.03125
0,1.15625,1.09375
0,1.15625,1.15625
-0.915809,1.15625,1.21875
-1.22378,1.15625,1.28125
-0.835695,1.15625,1.34375
-0.53554,1.15625,1.40625
-0.328069,1.15625,1.46875
-0.212075,1.15625,1.53125
-0.125323,1.15625,1.59375
-0.0645366,1.15625,1.65625
-0.0246291,1.15625,1.71875
0.00377955,1.15625,1.78125
0,1.21875,0.03125
0,1.21875,0.09375
0.0236646,1.21875,0.15625
0.0510184,1.21875,0.21875
0.086176,1.21875,0.28125
0.128237,1.21875,0.34375
0.182383,1.21875,0.40625
0.254121,1.21875,0.46875
0.344596,1.21875,0.53125
0.450609,1.21875,0.59375
0.552402,1.21875,0.65625
0.456112,1.21875,0.71875
0.221899,1.21875,0.78125
0,1.21875,0.84375
0,1.21875,0.90625
0,1.21875,0.96875
0,1.21875,1.03125
0,1.21875,1.09375
0.224217,1.21875,1.15625
-0.397936,1.21875,1.21875
-1.01745,1.21875,1.28125
-1.00614,1.21875,1.34375
-0.698046,1.21875,1.40625
-0.460401,1.21875,1.46875
-0.309711,1.21875,1.53125
-0.199565,1.21875,1.59375
-0.126359,1.21875,1.65625
-0.0723234,1.21875,1.71875
-0.0309368,1.21875,1.78125
0,1.28125,0.03125
0,1.28125,0.09375
0.0356263,1.28125,0.15625
0.0784982,1.28125,0.21875
0.128062,1.28125,0.28125
0.187719,1.28125,0.34375
0.258031,1.28125,0.40625
0.349036,1.28125,0.46875
0.460705,1.28125,0.53125
0.605631,1.28125,0.59375
0.803097,1.28125,0.65625
0.967443,1.28125,0.71875
0.636952,1.28125,0.78125
-0.088532,1.28125,0.84375
-0.608369,1.28125,0.90625
-0.414162,1.28125,0.96875
0.0325852,1.28125,1.03125
0.273999,1.28125,1.09375
-0.0546377,1.28125,1.15625
-0.478074,1.28125,1.21875
-0.896986,1.28125,1.28125
-0.933267,1.28125,1.34375
-0.713337,1.28125,1.40625
-0.525759,1.28125,1.46875
-0.37673,1.28125,1.53125
-0.261678,1.28125,1.59375
-0.177923,1.28125,1.65625
-0.105837,1.28125,1.71875
-0.0478672,1.28125,1.78125
0,1.34375,0.03125
0,1.34375,0.09375
0.0475155,1.34375,0.15625
0.0994988,1.34375,0.21875
0.158942,1.34375,0.28125
0.229167,1.34375,0.34375
0.312729,1.34375,0.40625
0.418344,1.34375,0.46875
0.549628,1.34375,0.53125
0.72083,1.34375,0.59375
0.940498,1.34375,0.65625
1.21729,1.34375,0.71875
1.1108,1.34375,0.78125
0.483178,1.34375,0.84375
-0.0171566,1.34375,0.90625
-0.208226,1.34375,0.96875
-0.157637,1.34375,1.03125
-0.207559,1.34375,1.09375
-0.631543,1.34375,1.15625
-0.950029,1.34375,1.21875
-1.02337,1.34375,1.28125
-0.91753,1.34375,1.34375
-0.730395,1.34375,1.40625
-0.56382,1.34375,1.46875
-0.410244,1.34375,1.53125
-0.307816,1.34375,1.59375
-0.217724,1.34375,1.65625
-0.136852,1.34375,1.71875
-0.0758968,1.34375,1.78125
0,1.40625,0.03125
0,1.40625,0.09375
0.0528647,1.40625,0.15625
0.11376,1.40625,0.21875
0.182246,1.40625,0.28125
0.260085,1.40625,0.34375
0.353411,1.40625,0.40625
0.461931,1.40625,0.46875
0.603236,1.40625,0.53125
0.779576,1.40625,0.59375
0.989545,1.40625,0.65625
1.26617,1.40625,0.71875
1.43671,1.40625,0.78125
1.17763,1.40625,0.84375
0.663177,1.40625,0.90625
0.189094,1.40625,0.96875
-0.246264,1.40625,1.03125
-0.708445,1.40625,1.09375
-1.10552,1.40625,1.15625
-1.17217,1.40625,1.21875
-1.05113,1.40625,1.28125
-0.884934,1.40625,1.34375
-0.720423,1.40625,1.40625
-0.577917,1.40625,1.46875
-0.438374,1.40625,1.53125
-0.325253,1.40625,1.59375
-0.226478,1.40625,1.65625
-0.150955,1.40625,1.71875
-0.0886229,1.40625,1.78125
0,1.46875,0.03125
0,1.46875,0.09375
0.0576256,1.46875,0.15625
0.121377,1.46875,0.21875
0.193045,1.46875,0.28125
0.275742,1.46875,0.34375
0.372292,1.46875,0.40625
0.483678,1.46875,0.46875
0.620033,1.46875,0.53125
0.780833,1.46875,0.59375
0.973861,1.46875,0.65625
1.2177,1.46875,0.71875
1.44975,1.46875,0.78125
1.45678,1.46875,0.84375
1.09068,1.46875,0.90625
0.504589,1.46875,0.96875
-0.222876,1.46875,1.03125
-0.815257,1.46875,1.09375
-1.12243,1.46875,1.15625
-1.16091,1.46875,1.21875
-1.0058,1.46875,1.28125
-0.832559,1.46875,1.34375
-0.694568,1.46875,1.40625
-0.562039,1.46875,1.46875
-0.439171,1.46875,1.53125
-0.330147,1.46875,1.59375
-0.231496,1.46875,1.65625
-0.145097,1.46875,1.71875
-0.0661836,1.46875,1.78125
0,1.53125,0.03125
0,1.53125,0.09375
0.0620246,1.53125,0.15625
0.127915,1.53125,0.21875
0.199459,1.53125,0.28125
0.281587,1.53125,0.34375
0.375662,1.53125,0.40625
0.482116,1.53125,0.46875
0.601504,1.53125,0.53125
0.736607,1.53125,0.59375
0.9046,1.53125,0.65625
1.09583,1.53125,0.71875
1.29367,1.53125,0.78125
1.38132,1.53125,0.84375
1.11072,1.53125,0.90625
0.495691,1.53125,0.96875
-0.157235,1.53125,1.03125
-0.687236,1.53125,1.09375
-0.978411,1.53125,1.15625
-1.02179,1.53125,1.21875
-0.920003,1.53125,1.28125
-0.776556,1.53125,1.34375
-0.644699,1.53125,1.40625
-0.521779,1.53125,1.46875
-0.415542,1.53125,1.53125
-0.314712,1.53125,1.59375
-0.223778,1.53125,1.65625
-0.135815,1.53125,1.71875
-0.0565982,1.53125,1.78125
0,1.59375,0.03125
0,1.59375,0.09375
0.0630007,1.59375,0.15625
0.130131,1.59375,0.21875
0.203043,1.59375,0.28125
0.277198,1.59375,0.34375
0.357726,1.59375,0.40625
0.453548,1.59375,0.46875
0.560678,1.59375,0.53125
0.677559,1.59375,0.59375
0.806869,1.59375,0.65625
0.928954,1.59375,0.71875
1.02926,1.59375,0.78125
1.06167,1.59375,0.84375
0.901627,1.59375,0.90625
0.452131,1.59375,0.96875
-0.087592,1.59375,1.03125
-0.551483,1.59375,1.09375
-0.791467,1.59375,1.15625
-0.835031,1.59375,1.21875
-0.784919,1.59375,1.28125
-0.686872,1.59375,1.34375
-0.570986,1.59375,1.40625
-0.465318,1.59375,1.46875
-0.379625,1.59375,1.53125
-0.292308,1.59375,1.59375
-0.212989,1.59375,1.65625
-0.133871,1.59375,1.71875
-0.0516156,1.59375,1.78125
0,1.65625,0.03125
0,1.65625,0.09375
0.0632859,1.65625,0.15625
0.12629,1.65625,0.21875
0.191356,1.65625,0.28125
0.25963,1.65625,0.34375
0.334322,1.65625,0.40625
0.415793,1.65625,0.46875
0.50436,1.65625,0.53125
0.594859,1.65625,0.59375
0.681239,1.65625,0.65625
0.76289,1.65625,0.71875
0.796358,1.65625,0.78125
0.762372,1.65625,0.84375
0.628093,1.65625,0.90625
0.345609,1.65625,0.96875
-0.0611473,1.65625,1.03125
-0.406083,1.65625,1.09375
-0.596855,1.65625,1.15625
-0.657692,1.65625,1.21875
-0.636898,1.65625,1.28125
-0.574287,1.65625,1.34375
-0.49575,1.65625,1.40625
-0.417152,1.65625,1.46875
-0.342797,1.65625,1.53125
-0.266,1.65625,1.59375
-0.192164,1.65625,1.65625
-0.121199,1.65625,1.71875
-0.0432156,1.65625,1.78125
0,1.71875,0.03125
0,1.71875,0.09375
0.0599524,1.71875,0.15625
0.117764,1.71875,0.21875
0.177818,1.71875,0.28125
0.241048,1.71875,0.34375
0.305731,1.71875,0.40625
0.370292,1.71875,0.46875
0.437441,1.71875,0.53125
0.505135,1.71875,0.59375
0.564999,1.71875,0.65625
0.606577,1.71875,0.71875
0.610401,1.71875,0.78125
0.550215,1.71875,0.84375
0.420454,1.71875,0.90625
0.221821,1.71875,0.96875
-0.0396145,1.71875,1.03125
-0.283431,1.71875,1.09375
-0.437889,1.71875,1.15625
-0.497761,1.71875,1.21875
-0.498433,1.71875,1.28125
-0.469159,1.71875,1.34375
-0.425477,1.71875,1.40625
-0.368144,1.71875,1.46875
-0.30533,1.71875,1.53125
-0.244174,1.71875,1.59375
-0.180662,1.71875,1.65625
-0.116437,1.71875,1.71875
-0.0534566,1.71875,1.78125
0,1.78125,0.03125
0,1.78125,0.09375
0.0548411,1.78125,0.15625
0.109782,1.78125,0.21875
0.165226,1.78125,0.28125
0.220183,1.78125,0.34375
0.273248,1.78125,0.40625
0.324853,1.78125,0.46875
0.373754,1.78125,0.53125
0.418294,1.78125,0.59375
0.451596,1.78125,0.65625
0.465186,1.78125,0.71875
0.449701,1.78125,0.78125
0.392278,1.78125,0.84375
0.283232,1.78125,0.90625
0.12307,1.78125,0.96875
-0.0361668,1.78125,1.03125
-0.193104,1.78125,1.09375
-0.308181,1.78125,1.15625
-0.369138,1.78125,1.21875
-0.388495,1.78125,1.28125
-0.380484,1.78125,1.34375
-0.356269,1.78125,1.40625
-0.316634,1.78125,1.46875
-0.268194,1.78125,1.53125
-0.219892,1.78125,1.59375
-0.168356,1.78125,1.65625
-0.11393,1.78125,1.71875
-0.0591008,1.78125,1.78125
