3,0.0625,0.0625
3,0.0625,0.1875
3,0.0625,0.3125
3,0.0625,0.4375
3,0.0625,0.5625
3,0.0625,0.6875
3,0.0625,0.8125
3,0.0625,0.9375
3,0.0625,1.0625
3,0.0625,1.1875
3,0.0625,1.3125
3,0.0625,1.4375
3,0.0625,1.5625
3,0.1875,0.0625
3,0.1875,0.1875
3,0.1875,0.3125
3,0.1875,0.4375
3,0.1875,0.5625
3,0.1875,0.6875
3,0.1875,0.8125
3,0.1875,0.9375
3,0.1875,1.0625
3,0.1875,1.1875
3,0.1875,1.3125
3,0.1875,1.4375
3,0.1875,1.5625
3.0832,0.3125,0.0625
3.0832,0.3125,0.1875
3.07466,0.3125,0.3125
3.05831,0.3125,0.4375
3.02179,0.3125,0.5625
2.96717,0.3125,0.6875
2.90802,0.3125,0.8125
2.88185,0.3125,0.9375
2.89413,0.3125,1.0625
2.92895,0.3125,1.1875
2.97624,0.3125,1.3125
3.03,0.3125,1.4375
3.07529,0.3125,1.5625
3.19366,0.4375,0.0625
3.19366,0.4375,0.1875
3.1794,0.4375,0.3125
3.14455,0.4375,0.4375
3.06,0.4375,0.5625
2.92497,0.4375,0.6875
2.77967,0.4375,0.8125
2.69581,0.4375,0.9375
2.7081,0.4375,1.0625
2.82049,0.4375,1.1875
2.97094,0.4375,1.3125
3.09448,0.4375,1.4375
3.19113,0.4375,1.5625
3.34374,0.5625,0.0625
3.34374,0.5625,0.1875
3.34239,0.5625,0.3125
3.28988,0.5625,0.4375
3.14078,0.5625,0.5625
2.86221,0.5625,0.6875
2.59525,0.5625,0.8125
2.34724,0.5625,0.9375
2.35341,0.5625,1.0625
2.69336,0.5625,1.1875
3.00906,0.5625,1.3125
3.23011,0.5625,1.4375
3.37438,0.5625,1.5625
3.55115,0.6875,0.0625
3.55115,0.6875,0.1875
3.55527,0.6875,0.3125
3.53554,0.6875,0.4375
3.34612,0.6875,0.5625
2.96117,0.6875,0.6875
0,0.6875,0.8125
0,0.6875,0.9375
0,0.6875,1.0625
2.61965,0.6875,1.1875
3.19234,0.6875,1.3125
3.50003,0.6875,1.4375
3.62734,0.6875,1.5625
3.76346,0.8125,0.0625
3.76346,0.8125,0.1875
3.84662,0.8125,0.3125
3.92203,0.8125,0.4375
3.8421,0.8125,0.5625
0,0.8125,0.6875
0,0.8125,0.8125
0,0.8125,0.9375
0,0.8125,1.0625
0,0.8125,1.1875
3.81682,0.8125,1.3125
3.95621,0.8125,1.4375
3.95889,0.8125,1.5625
3.98155,0.9375,0.0625
3.98155,0.9375,0.1875
4.1522,0.9375,0.3125
4.37795,0.9375,0.4375
4.55693,0.9375,0.5625
0,0.9375,0.6875
0,0.9375,0.8125
0,0.9375,0.9375
0,0.9375,1.0625
0,0.9375,1.1875
4.94339,0.9375,1.3125
4.52358,0.9375,1.4375
4.29935,0.9375,1.5625
4.15762,1.0625,0.0625
4.15762,1.0625,0.1875
4.3325,1.0625,0.3125
4.67025,1.0625,0.4375
4.64838,1.0625,0.5625
0,1.0625,0.6875
0,1.0625,0.8125
0,1.0625,0.9375
0,1.0625,1.0625
0,1.0625,1.1875
5.07976,1.0625,1.3125
4.84942,1.0625,1.4375
4.46687,1.0625,1.5625
4.24948,1.1875,0.0625
4.24948,1.1875,0.1875
4.37264,1.1875,0.3125
4.58942,1.1875,0.4375
4.32775,1.1875,0.5625
2.29356,1.1875,0.6875
0,1.1875,0.8125
0,1.1875,0.9375
0,1.1875,1.0625
0,1.1875,1.1875
4.59639,1.1875,1.3125
4.79143,1.1875,1.4375
4.50615,1.1875,1.5625
4.26853,1.3125,0.0625
4.26853,1.3125,0.1875
4.3443,1.3125,0.3125
4.48547,1.3125,0.4375
4.20804,1.3125,0.5625
2.65861,1.3125,0.6875
0.18604,1.3125,0.8125
-0.395601,1.3125,0.9375
0.0745881,1.3125,1.0625
1.79045,1.3125,1.1875
4.03597,1.3125,1.3125
4.46436,1.3125,1.4375
4.40601,1.3125,1.5625
4.20606,1.4375,0.0625
4.20606,1.4375,0.1875
4.23703,1.4375,0.3125
4.31256,1.4375,0.4375
4.17006,1.4375,0.5625
2.83367,1.4375,0.6875
0.625026,1.4375,0.8125
-0.483705,1.4375,0.9375
0.511684,1.4375,1.0625
2.24036,1.4375,1.1875
3.68484,1.4375,1.3125
4.06384,1.4375,1.4375
4.21201,1.4375,1.5625
4.0814,1.5625,0.0625
4.0814,1.5625,0.1875
4.0651,1.5625,0.3125
4.04441,1.5625,0.4375
3.86134,1.5625,0.5625
2.92223,1.5625,0.6875
1.20553,1.5625,0.8125
0.102725,1.5625,0.9375
0.820327,1.5625,1.0625
2.43334,1.5625,1.1875
3.43882,1.5625,1.3125
3.72506,1.5625,1.4375
4.01543,1.5625,1.5625
