0,0.03125,0.03125
0,0.03125,0.09375
0,0.03125,0.15625
0,0.03125,0.21875
0,0.03125,0.28125
0,0.03125,0.34375
0,0.03125,0.40625
0,0.03125,0.46875
0,0.03125,0.53125
0,0.03125,0.59375
0,0.03125,0.65625
0,0.03125,0.71875
0,0.03125,0.78125
0,0.03125,0.84375
0,0.03125,0.90625
0,0.03125,0.96875
0,0.03125,1.03125
0,0.03125,1.09375
0,0.03125,1.15625
0,0.03125,1.21875
0,0.03125,1.28125
0,0.03125,1.34375
0,0.03125,1.40625
0,0.03125,1.46875
0,0.03125,1.53125
0,0.03125,1.59375
0,0.03125,1.65625
0,0.03125,1.71875
0,0.03125,1.78125
0,0.09375,0.03125
0,0.09375,0.09375
-0.0152616,0.09375,0.15625
-0.0292417,0.09375,0.21875
-0.0434595,0.09375,0.28125
-0.0578852,0.09375,0.34375
-0.0712675,0.09375,0.40625
-0.0822257,0.09375,0.46875
-0.0904627,0.09375,0.53125
-0.0954719,0.09375,0.59375
-0.0956794,0.09375,0.65625
-0.0897835,0.09375,0.71875
-0.0784106,0.09375,0.78125
-0.0617341,0.09375,0.84375
-0.0378919,0.09375,0.90625
-0.0132185,0.09375,0.96875
0.0135801,0.09375,1.03125
0.0400173,0.09375,1.09375
0.0660922,0.09375,1.15625
0.0846766,0.09375,1.21875
0.0978964,0.09375,1.28125
0.106019,0.09375,1.34375
0.108013,0.09375,1.40625
0.104139,0.09375,1.46875
0.0965111,0.09375,1.53125
0.084761,0.09375,1.59375
0.0710759,0.09375,1.65625
0.0539407,0.09375,1.71875
0.0361615,0.09375,1.78125
0,0.15625,0.03125
0,0.15625,0.09375
-0.018385,0.15625,0.15625
-0.0386286,0.15625,0.21875
-0.0592209,0.15625,0.28125
-0.0782287,0.15625,0.34375
-0.0955184,0.15625,0.40625
-0.110465,0.15625,0.46875
-0.122852,0.15625,0.53125
-0.130178,0.15625,0.59375
-0.130462,0.15625,0.65625
-0.123606,0.15625,0.71875
-0.107512,0.15625,0.78125
-0.0838196,0.15625,0.84375
-0.0557208,0.15625,0.90625
-0.0180804,0.15625,0.96875
0.0199466,0.15625,1.03125
0.0580587,0.15625,1.09375
0.0870149,0.15625,1.15625
0.112958,0.15625,1.21875
0.132778,0.15625,1.28125
0.144011,0.15625,1.34375
0.143942,0.15625,1.40625
0.137427,0.15625,1.46875
0.126028,0.15625,1.53125
0.111464,0.15625,1.59375
0.093106,0.15625,1.65625
0.0712986,0.15625,1.71875
0.0480705,0.15625,1.78125
0,0.21875,0.03125
0,0.21875,0.09375
-0.0259869,0.21875,0.15625
-0.0521438,0.21875,0.21875
-0.0776307,0.21875,0.28125
-0.101584,0.21875,0.34375
-0.123129,0.21875,0.40625
-0.144281,0.21875,0.46875
-0.162329,0.21875,0.53125
-0.174126,0.21875,0.59375
-0.177247,0.21875,0.65625
-0.169646,0.21875,0.71875
-0.148158,0.21875,0.78125
-0.114197,0.21875,0.84375
-0.0723538,0.21875,0.90625
-0.0220328,0.21875,0.96875
0.0287259,0.21875,1.03125
0.0788947,0.21875,1.09375
0.123864,0.21875,1.15625
0.159395,0.21875,1.21875
0.183238,0.21875,1.28125
0.193037,0.21875,1.34375
0.191455,0.21875,1.40625
0.179921,0.21875,1.46875
0.161871,0.21875,1.53125
0.139409,0.21875,1.59375
0.114558,0.21875,1.65625
0.08869,0.21875,1.71875
0.0603875,0.21875,1.78125
0,0.28125,0.03125
0,0.28125,0.09375
-0.0319188,0.28125,0.15625
-0.0653674,0.28125,0.21875
-0.0992458,0.28125,0.28125
-0.134002,0.28125,0.34375
-0.165375,0.28125,0.40625
-0.193912,0.28125,0.46875
-0.216085,0.28125,0.53125
-0.230778,0.28125,0.59375
-0.236265,0.28125,0.65625
-0.228519,0.28125,0.71875
-0.204968,0.28125,0.78125
-0.162013,0.28125,0.84375
-0.100314,0.28125,0.90625
-0.0310945,0.28125,0.96875
0.0415056,0.28125,1.03125
0.113494,0.28125,1.09375
0.176819,0.28125,1.15625
0.222214,0.28125,1.21875
0.247314,0.28125,1.28125
0.256463,0.28125,1.34375
0.253486,0.28125,1.40625
0.237419,0.28125,1.46875
0.21195,0.28125,1.53125
0.180341,0.28125,1.59375
0.14678,0.28125,1.65625
0.112066,0.28125,1.71875
0.0750387,0.28125,1.78125
0,0.34375,0.03125
0,0.34375,0.09375
-0.0403382,0.34375,0.15625
-0.0831473,0.34375,0.21875
-0.126186,0.34375,0.28125
-0.16783,0.34375,0.34375
-0.20936,0.34375,0.40625
-0.247125,0.34375,0.46875
-0.279692,0.34375,0.53125
-0.302158,0.34375,0.59375
-0.31302,0.34375,0.65625
-0.304165,0.34375,0.71875
-0.274551,0.34375,0.78125
-0.221263,0.34375,0.84375
-0.144212,0.34375,0.90625
-0.0504864,0.34375,0.96875
0.0577465,0.34375,1.03125
0.160134,0.34375,1.09375
0.241514,0.34375,1.15625
0.297219,0.34375,1.21875
0.330996,0.34375,1.28125
0.340598,0.34375,1.34375
0.329466,0.34375,1.40625
0.30386,0.34375,1.46875
0.268901,0.34375,1.53125
0.227124,0.34375,1.59375
0.181267,0.34375,1.65625
0.135015,0.34375,1.71875
0.0900725,0.34375,1.78125
0,0.40625,0.03125
0,0.40625,0.09375
-0.046742,0.40625,0.15625
-0.0984151,0.40625,0.21875
-0.150782,0.40625,0.28125
-0.203395,0.40625,0.34375
-0.257685,0.40625,0.40625
-0.309939,0.40625,0.46875
-0.356594,0.40625,0.53125
-0.395421,0.40625,0.59375
-0.414151,0.40625,0.65625
-0.409334,0.40625,0.71875
-0.375462,0.40625,0.78125
-0.30545,0.40625,0.84375
-0.199503,0.40625,0.90625
-0.0675024,0.40625,0.96875
0.0794131,0.40625,1.03125
0.215734,0.40625,1.09375
0.325067,0.40625,1.15625
0.406173,0.40625,1.21875
0.450485,0.40625,1.28125
0.453524,0.40625,1.34375
0.427441,0.40625,1.40625
0.38675,0.40625,1.46875
0.333635,0.40625,1.53125
0.276747,0.40625,1.59375
0.218902,0.40625,1.65625
0.160691,0.40625,1.71875
0.104794,0.40625,1.78125
0,0.46875,0.03125
0,0.46875,0.09375
-0.0560846,0.46875,0.15625
-0.114492,0.46875,0.21875
-0.177538,0.46875,0.28125
-0.242914,0.46875,0.34375
-0.30697,0.46875,0.40625
-0.374477,0.46875,0.46875
-0.44289,0.46875,0.53125
-0.500257,0.46875,0.59375
-0.539784,0.46875,0.65625
-0.547534,0.46875,0.71875
-0.51063,0.46875,0.78125
-0.425071,0.46875,0.84375
-0.287251,0.46875,0.90625
-0.102966,0.46875,0.96875
0.109236,0.46875,1.03125
0.309848,0.46875,1.09375
0.472282,0.46875,1.15625
0.571719,0.46875,1.21875
0.600578,0.46875,1.28125
0.588026,0.46875,1.34375
0.545467,0.46875,1.40625
0.483426,0.46875,1.46875
0.407763,0.46875,1.53125
0.331975,0.46875,1.59375
0.259539,0.46875,1.65625
0.186706,0.46875,1.71875
0.117385,0.46875,1.78125
0,0.53125,0.03125
0,0.53125,0.09375
-0.0646693,0.53125,0.15625
-0.128388,0.53125,0.21875
-0.20026,0.53125,0.28125
-0.270733,0.53125,0.34375
-0.35606,0.53125,0.40625
-0.444811,0.53125,0.46875
-0.533499,0.53125,0.53125
-0.616116,0.53125,0.59375
-0.687894,0.53125,0.65625
-0.731723,0.53125,0.71875
-0.712205,0.53125,0.78125
-0.608131,0.53125,0.84375
-0.424351,0.53125,0.90625
-0.158606,0.53125,0.96875
0.164888,0.53125,1.03125
0.490487,0.53125,1.09375
0.704752,0.53125,1.15625
0.802145,0.53125,1.21875
0.814607,0.53125,1.28125
0.766376,0.53125,1.34375
0.683183,0.53125,1.40625
0.587637,0.53125,1.46875
0.492545,0.53125,1.53125
0.393459,0.53125,1.59375
0.297755,0.53125,1.65625
0.215555,0.53125,1.71875
0.134815,0.53125,1.78125
0,0.59375,0.03125
0,0.59375,0.09375
-0.0706603,0.59375,0.15625
-0.14496,0.59375,0.21875
-0.222493,0.59375,0.28125
-0.310586,0.59375,0.34375
-0.41264,0.59375,0.40625
-0.51513,0.59375,0.46875
-0.625807,0.59375,0.53125
-0.750998,0.59375,0.59375
-0.863582,0.59375,0.65625
-0.9614,0.59375,0.71875
-0.992918,0.59375,0.78125
-0.8926,0.59375,0.84375
-0.645094,0.59375,0.90625
-0.235439,0.59375,0.96875
0.244942,0.59375,1.03125
0.720145,0.59375,1.09375
1.01955,0.59375,1.15625
1.11094,0.59375,1.21875
1.08732,0.59375,1.28125
0.985302,0.59375,1.34375
0.849745,0.59375,1.40625
0.703191,0.59375,1.46875
0.570668,0.59375,1.53125
0.460324,0.59375,1.59375
0.348277,0.59375,1.65625
0.248467,0.59375,1.71875
0.159634,0.59375,1.78125
0,0.65625,0.03125
0,0.65625,0.09375
-0.0756099,0.65625,0.15625
-0.158483,0.65625,0.21875
-0.242822,0.65625,0.28125
-0.350762,0.65625,0.34375
-0.458558,0.65625,0.40625
-0.580549,0.65625,0.46875
-0.728889,0.65625,0.53125
-0.901584,0.65625,0.59375
-1.07835,0.65625,0.65625
-1.24242,0.65625,0.71875
-1.37015,0.65625,0.78125
-1.45013,0.65625,0.84375
-1.25318,0.65625,0.90625
-0.392808,0.65625,0.96875
0.631453,0.65625,1.03125
1.38508,0.65625,1.09375
1.5181,0.65625,1.15625
1.53729,0.65625,1.21875
1.40698,0.65625,1.28125
1.21227,0.65625,1.34375
1.01234,0.65625,1.40625
0.820022,0.65625,1.46875
0.649331,0.65625,1.53125
0.508295,0.65625,1.59375
0.395724,0.65625,1.65625
0.294383,0.65625,1.71875
0.19942,0.65625,1.78125
0,0.71875,0.03125
0,0.71875,0.09375
-0.0844575,0.71875,0.15625
-0.173243,0.71875,0.21875
-0.270652,0.71875,0.28125
-0.374466,0.71875,0.34375
-0.485075,0.71875,0.40625
-0.629847,0.71875,0.46875
-0.80583,0.71875,0.53125
-1.01331,0.71875,0.59375
-1.27584,0.71875,0.65625
-1.55099,0.71875,0.71875
-1.89423,0.71875,0.78125
0,0.71875,0.84375
0,0.71875,0.90625
0,0.71875,0.96875
0,0.71875,1.03125
0,0.71875,1.09375
2.40644,0.71875,1.15625
2.08294,0.71875,1.21875
1.78217,0.71875,1.28125
1.43788,0.71875,1.34375
1.13991,0.71875,1.40625
0.892568,0.71875,1.46875
0.693231,0.71875,1.53125
0.534829,0.71875,1.59375
0.416347,0.71875,1.65625
0.31271,0.71875,1.71875
0.224185,0.71875,1.78125
0,0.78125,0.03125
0,0.78125,0.09375
-0.0863045,0.78125,0.15625
-0.173553,0.78125,0.21875
-0.267235,0.78125,0.28125
-0.365466,0.78125,0.34375
-0.486297,0.78125,0.40625
-0.628571,0.78125,0.46875
-0.815964,0.78125,0.53125
-1.05036,0.78125,0.59375
-1.38051,0.78125,0.65625
-1.8977,0.78125,0.71875
0,0.78125,0.78125
0,0.78125,0.84375
0,0.78125,0.90625
0,0.78125,0.96875
0,0.78125,1.03125
0,0.78125,1.09375
0,0.78125,1.15625
2.78073,0.78125,1.21875
2.11954,0.78125,1.28125
1.57456,0.78125,1.34375
1.15728,0.78125,1.40625
0.88362,0.78125,1.46875
0.681139,0.78125,1.53125
0.520092,0.78125,1.59375
0.396966,0.78125,1.65625
0.2969,0.78125,1.71875
0.212959,0.78125,1.78125
0,0.84375,0.03125
0,0.84375,0.09375
-0.0762398,0.84375,0.15625
-0.157255,0.84375,0.21875
-0.241513,0.84375,0.28125
-0.328753,0.84375,0.34375
-0.42754,0.84375,0.40625
-0.559276,0.84375,0.46875
-0.73192,0.84375,0.53125
-0.968786,0.84375,0.59375
-1.34533,0.84375,0.65625
0,0.84375,0.71875
0,0.84375,0.78125
0,0.84375,0.84375
0,0.84375,0.90625
0,0.84375,0.96875
0,0.84375,1.03125
0,0.84375,1.09375
0,0.84375,1.15625
0,0.84375,1.21875
2.21757,0.84375,1.28125
1.4539,0.84375,1.34375
1.01717,0.84375,1.40625
0.739318,0.84375,1.46875
0.571013,0.84375,1.53125
0.44797,0.84375,1.59375
0.347956,0.84375,1.65625
0.264177,0.84375,1.71875
0.183643,0.84375,1.78125
0,0.90625,0.03125
0,0.90625,0.09375
-0.0616586,0.90625,0.15625
-0.123793,0.90625,0.21875
-0.190692,0.90625,0.28125
-0.261878,0.90625,0.34375
-0.345574,0.90625,0.40625
-0.450127,0.90625,0.46875
-0.570706,0.90625,0.53125
-0.756824,0.90625,0.59375
-1.0465,0.90625,0.65625
0,0.90625,0.71875
0,0.90625,0.78125
0,0.90625,0.84375
0,0.90625,0.90625
0,0.90625,0.96875
0,0.90625,1.03125
0,0.90625,1.09375
0,0.90625,1.15625
0,0.90625,1.21875
1.16286,0.90625,1.28125
0.944462,0.90625,1.34375
0.709455,0.90625,1.40625
0.548142,0.90625,1.46875
0.439317,0.90625,1.53125
0.346068,0.90625,1.59375
0.271753,0.90625,1.65625
0.208663,0.90625,1.71875
0.152271,0.90625,1.78125
0,0.96875,0.03125
0,0.96875,0.09375
-0.0469649,0.96875,0.15625
-0.0897026,0.96875,0.21875
-0.133288,0.96875,0.28125
-0.181043,0.96875,0.34375
-0.239293,0.96875,0.40625
-0.303408,0.96875,0.46875
-0.371734,0.96875,0.53125
-0.451338,0.96875,0.59375
-0.548959,0.96875,0.65625
0,0.96875,0.71875
0,0.96875,0.78125
0,0.96875,0.84375
0,0.96875,0.90625
0,0.96875,0.96875
0,0.96875,1.03125
0,0.96875,1.09375
0,0.96875,1.15625
0,0.96875,1.21875
0.29777,0.96875,1.28125
0.43076,0.96875,1.34375
0.377531,0.96875,1.40625
0.318057,0.96875,1.46875
0.270558,0.96875,1.53125
0.224853,0.96875,1.59375
0.184327,0.96875,1.65625
0.147767,0.96875,1.71875
0.117201,0.96875,1.78125
0,1.03125,0.03125
0,1.03125,0.09375
-0.0263597,1.03125,0.15625
-0.0508947,1.03125,0.21875
-0.0740547,1.03125,0.28125
-0.100313,1.03125,0.34375
-0.128145,1.03125,0.40625
-0.148737,1.03125,0.46875
-0.165749,1.03125,0.53125
-0.164003,1.03125,0.59375
-0.108619,1.03125,0.65625
0,1.03125,0.71875
0,1.03125,0.78125
0,1.03125,0.84375
0,1.03125,0.90625
0,1.03125,0.96875
0,1.03125,1.03125
0,1.03125,1.09375
0,1.03125,1.15625
0,1.03125,1.21875
-0.389505,1.03125,1.28125
-0.0668091,1.03125,1.34375
0.0476206,1.03125,1.40625
0.0826487,1.03125,1.46875
0.0940976,1.03125,1.53125
0.10022,1.03125,1.59375
0.0944058,1.03125,1.65625
0.0848851,1.03125,1.71875
0.0788182,1.03125,1.78125
0,1.09375,0.03125
0,1.09375,0.09375
-0.0110812,1.09375,0.15625
-0.0161628,1.09375,0.21875
-0.0166199,1.09375,0.28125
-0.0155253,1.09375,0.34375
-0.0087633,1.09375,0.40625
0.00864653,1.09375,0.46875
0.0370405,1.09375,0.53125
0.101361,1.09375,0.59375
0.272843,1.09375,0.65625
0,1.09375,0.71875
0,1.09375,0.78125
0,1.09375,0.84375
0,1.09375,0.90625
0,1.09375,0.96875
0,1.09375,1.03125
0,1.09375,1.09375
0,1.09375,1.15625
0,1.09375,1.21875
-1.07481,1.09375,1.28125
-0.509528,1.09375,1.34375
-0.280376,1.09375,1.40625
-0.145812,1.09375,1.46875
-0.075814,1.09375,1.53125
-0.0275516,1.09375,1.59375
0.00399857,1.09375,1.65625
0.0236555,1.09375,1.71875
0.040345,1.09375,1.78125
0,1.15625,0.03125
0,1.15625,0.09375
0.00640614,1.15625,0.15625
0.0180194,1.15625,0.21875
0.0359713,1.15625,0.28125
0.0594311,1.15625,0.34375
0.0941517,1.15625,0.40625
0.141872,1.15625,0.46875
0.206722,1.15625,0.53125
0.297821,1.15625,0.59375
0.411481,1.15625,0.65625
0.433469,1.15625,0.71875
0,1.15625,0.78125
0,1.15625,0.84375
0,1.15625,0.90625
0,1.15625,0.96875
0,1.15625,1.03125
0,1.15625,1.09375
0,1.15625,1.15625
-1.01142,1.15625,1.21875
-1.20156,1.15625,1.28125
-0.816165,1.15625,1.34375
-0.529827,1.15625,1.40625
-0.330789,1.15625,1.46875
-0.218157,1.15625,1.53125
-0.133746,1.15625,1.59375
-0.0738929,1.15625,1.65625
-0.0328076,1.15625,1.71875
-0.00661594,1.15625,1.78125
0,1.21875,0.03125
0,1.21875,0.09375
0.023494,1.21875,0.15625
0.050251,1.21875,0.21875
0.0847526,1.21875,0.28125
0.126959,1.21875,0.34375
0.181933,1.21875,0.40625
0.259112,1.21875,0.46875
0.363493,1.21875,0.53125
0.488842,1.21875,0.59375
0.642073,1.21875,0.65625
0.615815,1.21875,0.71875
0.105009,1.21875,0.78125
0,1.21875,0.84375
0,1.21875,0.90625
0,1.21875,0.96875
0,1.21875,1.03125
0,1.21875,1.09375
-0.0766416,1.21875,1.15625
-0.523061,1.21875,1.21875
-0.957818,1.21875,1.28125
-0.916256,1.21875,1.34375
-0.658064,1.21875,1.40625
-0.454514,1.21875,1.46875
-0.314618,1.21875,1.53125
-0.207319,1.21875,1.59375
-0.134323,1.21875,1.65625
-0.0797087,1.21875,1.71875
-0.0397701,1.21875,1.78125
0,1.28125,0.03125
0,1.28125,0.09375
0.036922,1.28125,0.15625
0.078944,1.28125,0.21875
0.127938,1.28125,0.28125
0.188182,1.28125,0.34375
0.262323,1.28125,0.40625
0.357674,1.28125,0.46875
0.479137,1.28125,0.53125
0.63953,1.28125,0.59375
0.86916,1.28125,0.65625
1.10362,1.28125,0.71875
0.740128,1.28125,0.78125
-0.243752,1.28125,0.84375
-0.932089,1.28125,0.90625
-0.635477,1.28125,0.96875
-0.119269,1.28125,1.03125
0.108583,1.28125,1.09375
-0.229554,1.28125,1.15625
-0.645838,1.28125,1.21875
-0.947353,1.28125,1.28125
-0.908509,1.28125,1.34375
-0.699526,1.28125,1.40625
-0.526153,1.28125,1.46875
-0.38072,1.28125,1.53125
-0.266438,1.28125,1.59375
-0.18009,1.28125,1.65625
-0.110203,1.28125,1.71875
-0.0525032,1.28125,1.78125
0,1.34375,0.03125
0,1.34375,0.09375
0.0464089,1.34375,0.15625
0.100137,1.34375,0.21875
0.160956,1.34375,0.28125
0.231877,1.34375,0.34375
0.317213,1.34375,0.40625
0.423227,1.34375,0.46875
0.555681,1.34375,0.53125
0.729889,1.34375,0.59375
0.949559,1.34375,0.65625
1.20924,1.34375,0.71875
1.17391,1.34375,0.78125
0.60133,1.34375,0.84375
-0.0438769,1.34375,0.90625
-0.325046,1.34375,0.96875
-0.279589,1.34375,1.03125
-0.304558,1.34375,1.09375
-0.651507,1.34375,1.15625
-1.00884,1.34375,1.21875
-1.06186,1.34375,1.28125
-0.901505,1.34375,1.34375
-0.721235,1.34375,1.40625
-0.560564,1.34375,1.46875
-0.412733,1.34375,1.53125
-0.307791,1.34375,1.59375
-0.21764,1.34375,1.65625
-0.137451,1.34375,1.71875
-0.0746773,1.34375,1.78125
0,1.40625,0.03125
0,1.40625,0.09375
0.0521738,1.40625,0.15625
0.113108,1.40625,0.21875
0.182016,1.40625,0.28125
0.262363,1.40625,0.34375
0.35571,1.40625,0.40625
0.462986,1.40625,0.46875
0.60148,1.40625,0.53125
0.775416,1.40625,0.59375
0.980366,1.40625,0.65625
1.23786,1.40625,0.71875
1.38528,1.40625,0.78125
1.23877,1.40625,0.84375
0.775832,1.40625,0.90625
0.195965,1.40625,0.96875
-0.294651,1.40625,1.03125
-0.712718,1.40625,1.09375
-1.05623,1.40625,1.15625
-1.15877,1.40625,1.21875
-1.05747,1.40625,1.28125
-0.882461,1.40625,1.34375
-0.71527,1.40625,1.40625
-0.571969,1.40625,1.46875
-0.436994,1.40625,1.53125
-0.325246,1.40625,1.59375
-0.229486,1.40625,1.65625
-0.148766,1.40625,1.71875
-0.0817363,1.40625,1.78125
0,1.46875,0.03125
0,1.46875,0.09375
0.0582297,1.46875,0.15625
0.12178,1.46875,0.21875
0.193054,1.46875,0.28125
0.275636,1.46875,0.34375
0.371808,1.46875,0.40625
0.482822,1.46875,0.46875
0.61729,1.46875,0.53125
0.773957,1.46875,0.59375
0.957364,1.46875,0.65625
1.1937,1.46875,0.71875
1.42579,1.46875,0.78125
1.44921,1.46875,0.84375
1.11625,1.46875,0.90625
0.521383,1.46875,0.96875
-0.209118,1.46875,1.03125
-0.775131,1.46875,1.09375
-1.08195,1.46875,1.15625
-1.12832,1.46875,1.21875
-1.01315,1.46875,1.28125
-0.841369,1.46875,1.34375
-0.688788,1.46875,1.40625
-0.545874,1.46875,1.46875
-0.42975,1.46875,1.53125
-0.326131,1.46875,1.59375
-0.232411,1.46875,1.65625
-0.147783,1.46875,1.71875
-0.0684736,1.46875,1.78125
0,1.53125,0.03125
0,1.53125,0.09375
0.0629622,1.53125,0.15625
0.127835,1.53125,0.21875
0.199183,1.53125,0.28125
0.279699,1.53125,0.34375
0.373074,1.53125,0.40625
0.480464,1.53125,0.46875
0.599017,1.53125,0.53125
0.733501,1.53125,0.59375
0.895035,1.53125,0.65625
1.07051,1.53125,0.71875
1.26971,1.53125,0.78125
1.37252,1.53125,0.84375
1.11324,1.53125,0.90625
0.507495,1.53125,0.96875
-0.125429,1.53125,1.03125
-0.658582,1.53125,1.09375
-0.953081,1.53125,1.15625
-0.985999,1.53125,1.21875
-0.895017,1.53125,1.28125
-0.761602,1.53125,1.34375
-0.636075,1.53125,1.40625
-0.517235,1.53125,1.46875
-0.410192,1.53125,1.53125
-0.309873,1.53125,1.59375
-0.220455,1.53125,1.65625
-0.138388,1.53125,1.71875
-0.0669274,1.53125,1.78125
0,1.59375,0.03125
0,1.59375,0.09375
0.0620033,1.59375,0.15625
0.129538,1.59375,0.21875
0.202875,1.59375,0.28125
0.276449,1.59375,0.34375
0.356402,1.59375,0.40625
0.451206,1.59375,0.46875
0.557513,1.59375,0.53125
0.673438,1.59375,0.59375
0.80078,1.59375,0.65625
0.915354,1.59375,0.71875
1.01662,1.59375,0.78125
1.05222,1.59375,0.84375
0.899249,1.59375,0.90625
0.466815,1.59375,0.96875
-0.0555902,1.59375,1.03125
-0.528101,1.59375,1.09375
-0.767096,1.59375,1.15625
-0.806572,1.59375,1.21875
-0.761272,1.59375,1.28125
-0.67264,1.59375,1.34375
-0.563412,1.59375,1.40625
-0.463034,1.59375,1.46875
-0.375359,1.59375,1.53125
-0.29027,1.59375,1.59375
-0.208598,1.59375,1.65625
-0.130179,1.59375,1.71875
-0.0525761,1.59375,1.78125
0,1.65625,0.03125
0,1.65625,0.09375
0.0623937,1.65625,0.15625
0.127166,1.65625,0.21875
0.19142,1.65625,0.28125
0.259131,1.65625,0.34375
0.333169,1.65625,0.40625
0.41374,1.65625,0.46875
0.501899,1.65625,0.53125
0.5913,1.65625,0.59375
0.675788,1.65625,0.65625
0.754726,1.65625,0.71875
0.787708,1.65625,0.78125
0.756841,1.65625,0.84375
0.624088,1.65625,0.90625
0.347949,1.65625,0.96875
-0.0470944,1.65625,1.03125
-0.388614,1.65625,1.09375
-0.57311,1.65625,1.15625
-0.62602,1.65625,1.21875
-0.609836,1.65625,1.28125
-0.562379,1.65625,1.34375
-0.489529,1.65625,1.40625
-0.412168,1.65625,1.46875
-0.337587,1.65625,1.53125
-0.262192,1.65625,1.59375
-0.187718,1.65625,1.65625
-0.115609,1.65625,1.71875
-0.0410279,1.65625,1.78125
0,1.71875,0.03125
0,1.71875,0.09375
0.0606096,1.71875,0.15625
0.116954,1.71875,0.21875
0.176197,1.71875,0.28125
0.239933,1.71875,0.34375
0.304933,1.71875,0.40625
0.369307,1.71875,0.46875
0.435653,1.71875,0.53125
0.502409,1.71875,0.59375
0.560797,1.71875,0.65625
0.600727,1.71875,0.71875
0.60302,1.71875,0.78125
0.546055,1.71875,0.84375
0.419812,1.71875,0.90625
0.217279,1.71875,0.96875
-0.0370455,1.71875,1.03125
-0.271974,1.71875,1.09375
-0.421084,1.71875,1.15625
-0.475544,1.71875,1.21875
-0.478739,1.71875,1.28125
-0.457681,1.71875,1.34375
-0.417942,1.71875,1.40625
-0.361513,1.71875,1.46875
-0.298532,1.71875,1.53125
-0.236446,1.71875,1.59375
-0.175297,1.71875,1.65625
-0.111198,1.71875,1.71875
-0.0473129,1.71875,1.78125
0,1.78125,0.03125
0,1.78125,0.09375
0.0547943,1.78125,0.15625
0.108371,1.78125,0.21875
0.163336,1.78125,0.28125
0.218108,1.78125,0.34375
0.272713,1.78125,0.40625
0.324165,1.78125,0.46875
0.371974,1.78125,0.53125
0.416442,1.78125,0.59375
0.449482,1.78125,0.65625
0.462068,1.78125,0.71875
0.446868,1.78125,0.78125
0.391065,1.78125,0.84375
0.286686,1.78125,0.90625
0.127592,1.78125,0.96875
-0.0355378,1.78125,1.03125
-0.186883,1.78125,1.09375
-0.2961,1.78125,1.15625
-0.357269,1.78125,1.21875
-0.37743,1.78125,1.28125
-0.368248,1.78125,1.34375
-0.343966,1.78125,1.40625
-0.306222,1.78125,1.46875
-0.259621,1.78125,1.53125
-0.209606,1.78125,1.59375
-0.158261,1.78125,1.65625
-0.105393,1.78125,1.71875
-0.0472555,1.78125,1.78125
