0,0.015625,0.015625
0,0.015625,0.046875
0,0.015625,0.078125
0,0.015625,0.109375
0,0.015625,0.140625
0,0.015625,0.171875
0,0.015625,0.203125
0,0.015625,0.234375
0,0.015625,0.265625
0,0.015625,0.296875
0,0.015625,0.328125
0,0.015625,0.359375
0,0.015625,0.390625
0,0.015625,0.421875
0,0.015625,0.453125
0,0.015625,0.484375
0,0.015625,0.515625
0,0.015625,0.546875
0,0.015625,0.578125
0,0.015625,0.609375
0,0.015625,0.640625
0,0.015625,0.671875
0,0.015625,0.703125
0,0.015625,0.734375
0,0.015625,0.765625
0,0.015625,0.796875
0,0.015625,0.828125
0,0.015625,0.859375
0,0.015625,0.890625
0,0.015625,0.921875
0,0.015625,0.953125
0,0.015625,0.984375
0,0.015625,1.01563
0,0.015625,1.04688
0,0.015625,1.07813
0,0.015625,1.10938
0,0.015625,1.14063
0,0.015625,1.17188
0,0.015625,1.20313
0,0.015625,1.23438
0,0.015625,1.26563
0,0.015625,1.29688
0,0.015625,1.32813
0,0.015625,1.35938
0,0.015625,1.39063
0,0.015625,1.42188
0,0.015625,1.45313
0,0.015625,1.48438
0,0.015625,1.51563
0,0.015625,1.54688
0,0.015625,1.57813
0,0.015625,1.60938
0,0.015625,1.64063
0,0.015625,1.67188
0,0.015625,1.70313
0,0.015625,1.73438
0,0.015625,1.76563
0,0.015625,1.79688
0,0.015625,1.82813
0,0.015625,1.85938
0,0.015625,1.89063
0,0.046875,0.015625
0.0078094,0.046875,0.046875
-0.0587997,0.046875,0.078125
-0.0808651,0.046875,0.109375
-0.126536,0.046875,0.140625
-0.198641,0.046875,0.171875
-0.375624,0.046875,0.203125
-0.205427,0.046875,0.234375
-0.125833,0.046875,0.265625
-0.370929,0.046875,0.296875
-0.409872,0.046875,0.328125
-0.316322,0.046875,0.359375
-0.505591,0.046875,0.390625
-0.522574,0.046875,0.421875
-0.258573,0.046875,0.453125
-0.219429,0.046875,0.484375
-0.458553,0.046875,0.515625
-0.583848,0.046875,0.546875
-0.548051,0.046875,0.578125
-0.492614,0.046875,0.609375
-0.788672,0.046875,0.640625
-0.628344,0.046875,0.671875
-0.254105,0.046875,0.703125
-0.798252,0.046875,0.734375
-0.392884,0.046875,0.765625
-0.429779,0.046875,0.796875
-0.54656,0.046875,0.828125
-0.393654,0.046875,0.859375
-0.318053,0.046875,0.890625
-0.354924,0.046875,0.921875
-0.218824,0.046875,0.953125
-0.283414,0.046875,0.984375
-0.170751,0.046875,1.01563
-0.0358056,0.046875,1.04688
0.0583299,0.046875,1.07813
0.158154,0.046875,1.10938
0.155208,0.046875,1.14063
0.0896798,0.046875,1.17188
0.202268,0.046875,1.20313
0.179283,0.046875,1.23438
0.39802,0.046875,1.26563
0.388811,0.046875,1.29688
0.401995,0.046875,1.32813
0.469531,0.046875,1.35938
0.369305,0.046875,1.39063
0.374063,0.046875,1.42188
0.625866,0.046875,1.45313
0.492558,0.046875,1.48438
0.129148,0.046875,1.51563
0.680683,0.046875,1.54688
0.498974,0.046875,1.57813
0.307996,0.046875,1.60938
0.224711,0.046875,1.64063
0.341073,0.046875,1.67188
0.193488,0.046875,1.70313
0.143925,0.046875,1.73438
0.195117,0.046875,1.76563
0.161219,0.046875,1.79688
0.194836,0.046875,1.82813
0.0982537,0.046875,1.85938
0.0860126,0.046875,1.89063
0,0.078125,0.015625
-0.0164182,0.078125,0.046875
-0.0112575,0.078125,0.078125
-0.0678973,0.078125,0.109375
-0.148287,0.078125,0.140625
-0.189466,0.078125,0.171875
-0.141607,0.078125,0.203125
-0.202587,0.078125,0.234375
-0.33234,0.078125,0.265625
-0.368543,0.078125,0.296875
-0.254821,0.078125,0.328125
-0.353138,0.078125,0.359375
-0.409939,0.078125,0.390625
-0.469603,0.078125,0.421875
-0.506915,0.078125,0.453125
-0.519918,0.078125,0.484375
-0.605517,0.078125,0.515625
-0.625859,0.078125,0.546875
-0.807498,0.078125,0.578125
-0.715564,0.078125,0.609375
-0.460878,0.078125,0.640625
-0.502913,0.078125,0.671875
-0.739642,0.078125,0.703125
-0.512823,0.078125,0.734375
-0.52925,0.078125,0.765625
-0.432068,0.078125,0.796875
-0.39322,0.078125,0.828125
-0.30289,0.078125,0.859375
-0.289724,0.078125,0.890625
-0.170516,0.078125,0.921875
-0.143307,0.078125,0.953125
-0.0405889,0.078125,0.984375
0.0313329,0.078125,1.01563
0.10028,0.078125,1.04688
0.230676,0.078125,1.07813
0.175537,0.078125,1.10938
0.242891,0.078125,1.14063
0.391377,0.078125,1.17188
0.383221,0.078125,1.20313
0.502049,0.078125,1.23438
0.400172,0.078125,1.26563
0.496598,0.078125,1.29688
0.401828,0.078125,1.32813
0.629552,0.078125,1.35938
0.583711,0.078125,1.39063
0.589303,0.078125,1.42188
0.354607,0.078125,1.45313
0.362691,0.078125,1.48438
0.554911,0.078125,1.51563
0.337369,0.078125,1.54688
0.433578,0.078125,1.57813
0.410047,0.078125,1.60938
0.337404,0.078125,1.64063
0.333798,0.078125,1.67188
0.372182,0.078125,1.70313
0.277349,0.078125,1.73438
0.228999,0.078125,1.76563
0.180567,0.078125,1.79688
0.11795,0.078125,1.82813
0.0993294,0.078125,1.85938
0.071275,0.078125,1.89063
0,0.109375,0.015625
-0.00265741,0.109375,0.046875
-0.0376735,0.109375,0.078125
-0.104784,0.109375,0.109375
-0.177853,0.109375,0.140625
-0.235942,0.109375,0.171875
-0.256283,0.109375,0.203125
-0.294412,0.109375,0.234375
-0.368704,0.109375,0.265625
-0.438383,0.109375,0.296875
-0.453328,0.109375,0.328125
-0.470931,0.109375,0.359375
-0.495351,0.109375,0.390625
-0.527047,0.109375,0.421875
-0.593277,0.109375,0.453125
-0.692574,0.109375,0.484375
-0.793978,0.109375,0.515625
-0.843468,0.109375,0.546875
-0.888086,0.109375,0.578125
-0.840577,0.109375,0.609375
-0.750968,0.109375,0.640625
-0.724869,0.109375,0.671875
-0.784779,0.109375,0.703125
-0.740157,0.109375,0.734375
-0.663584,0.109375,0.765625
-0.521176,0.109375,0.796875
-0.506479,0.109375,0.828125
-0.43336,0.109375,0.859375
-0.35418,0.109375,0.890625
-0.259209,0.109375,0.921875
-0.185888,0.109375,0.953125
-0.0530609,0.109375,0.984375
0.0455249,0.109375,1.01563
0.171091,0.109375,1.04688
0.298406,0.109375,1.07813
0.325315,0.109375,1.10938
0.354428,0.109375,1.14063
0.440812,0.109375,1.17188
0.577447,0.109375,1.20313
0.68024,0.109375,1.23438
0.707713,0.109375,1.26563
0.670324,0.109375,1.29688
0.682667,0.109375,1.32813
0.77493,0.109375,1.35938
0.753847,0.109375,1.39063
0.694125,0.109375,1.42188
0.591499,0.109375,1.45313
0.525007,0.109375,1.48438
0.55245,0.109375,1.51563
0.52354,0.109375,1.54688
0.527147,0.109375,1.57813
0.508271,0.109375,1.60938
0.492419,0.109375,1.64063
0.423823,0.109375,1.67188
0.4208,0.109375,1.70313
0.358359,0.109375,1.73438
0.302155,0.109375,1.76563
0.268482,0.109375,1.79688
0.195223,0.109375,1.82813
0.136048,0.109375,1.85938
0.0886958,0.109375,1.89063
0,0.140625,0.015625
0.00268912,0.140625,0.046875
-0.0651925,0.140625,0.078125
-0.115727,0.140625,0.109375
-0.186627,0.140625,0.140625
-0.243423,0.140625,0.171875
-0.256458,0.140625,0.203125
-0.277259,0.140625,0.234375
-0.350424,0.140625,0.265625
-0.420924,0.140625,0.296875
-0.476511,0.140625,0.328125
-0.473464,0.140625,0.359375
-0.544263,0.140625,0.390625
-0.658109,0.140625,0.421875
-0.686496,0.140625,0.453125
-0.719295,0.140625,0.484375
-0.684532,0.140625,0.515625
-0.65456,0.140625,0.546875
-0.699753,0.140625,0.578125
-0.718832,0.140625,0.609375
-0.674334,0.140625,0.640625
-0.692267,0.140625,0.671875
-0.772083,0.140625,0.703125
-0.731938,0.140625,0.734375
-0.615855,0.140625,0.765625
-0.558412,0.140625,0.796875
-0.512658,0.140625,0.828125
-0.474876,0.140625,0.859375
-0.344993,0.140625,0.890625
-0.260909,0.140625,0.921875
-0.178205,0.140625,0.953125
-0.055433,0.140625,0.984375
0.0251642,0.140625,1.01563
0.160214,0.140625,1.04688
0.293696,0.140625,1.07813
0.3263,0.140625,1.10938
0.357294,0.140625,1.14063
0.499122,0.140625,1.17188
0.599975,0.140625,1.20313
0.698342,0.140625,1.23438
0.717873,0.140625,1.26563
0.692165,0.140625,1.29688
0.751908,0.140625,1.32813
0.735149,0.140625,1.35938
0.673955,0.140625,1.39063
0.658709,0.140625,1.42188
0.641548,0.140625,1.45313
0.641503,0.140625,1.48438
0.614113,0.140625,1.51563
0.596095,0.140625,1.54688
0.578113,0.140625,1.57813
0.531625,0.140625,1.60938
0.485707,0.140625,1.64063
0.410525,0.140625,1.67188
0.366492,0.140625,1.70313
0.314122,0.140625,1.73438
0.26895,0.140625,1.76563
0.253321,0.140625,1.79688
0.18773,0.140625,1.82813
0.119386,0.140625,1.85938
0.100158,0.140625,1.89063
0,0.171875,0.015625
-0.0389931,0.171875,0.046875
-0.0590647,0.171875,0.078125
-0.096143,0.171875,0.109375
-0.156963,0.171875,0.140625
-0.206766,0.171875,0.171875
-0.221389,0.171875,0.203125
-0.282758,0.171875,0.234375
-0.372986,0.171875,0.265625
-0.466804,0.171875,0.296875
-0.523221,0.171875,0.328125
-0.563648,0.171875,0.359375
-0.673887,0.171875,0.390625
-0.697325,0.171875,0.421875
-0.75011,0.171875,0.453125
-0.767007,0.171875,0.484375
-0.724399,0.171875,0.515625
-0.712677,0.171875,0.546875
-0.716134,0.171875,0.578125
-0.669038,0.171875,0.609375
-0.5872,0.171875,0.640625
-0.679815,0.171875,0.671875
-0.726614,0.171875,0.703125
-0.73962,0.171875,0.734375
-0.705363,0.171875,0.765625
-0.671907,0.171875,0.796875
-0.553935,0.171875,0.828125
-0.43109,0.171875,0.859375
-0.324041,0.171875,0.890625
-0.272247,0.171875,0.921875
-0.207772,0.171875,0.953125
-0.0782799,0.171875,0.984375
0.0103813,0.171875,1.01563
0.153658,0.171875,1.04688
0.251419,0.171875,1.07813
0.310012,0.171875,1.10938
0.40423,0.171875,1.14063
0.455373,0.171875,1.17188
0.573118,0.171875,1.20313
0.670846,0.171875,1.23438
0.658813,0.171875,1.26563
0.672824,0.171875,1.29688
0.676227,0.171875,1.32813
0.657789,0.171875,1.35938
0.624816,0.171875,1.39063
0.662843,0.171875,1.42188
0.697656,0.171875,1.45313
0.69809,0.171875,1.48438
0.67186,0.171875,1.51563
0.624091,0.171875,1.54688
0.583044,0.171875,1.57813
0.564439,0.171875,1.60938
0.492486,0.171875,1.64063
0.448772,0.171875,1.67188
0.396267,0.171875,1.70313
0.309994,0.171875,1.73438
0.29553,0.171875,1.76563
0.23965,0.171875,1.79688
0.17491,0.171875,1.82813
0.106273,0.171875,1.85938
0.100102,0.171875,1.89063
0,0.203125,0.015625
-0.0567532,0.203125,0.046875
-0.00199759,0.203125,0.078125
-0.0936441,0.203125,0.109375
-0.17508,0.203125,0.140625
-0.20431,0.203125,0.171875
-0.247178,0.203125,0.203125
-0.296932,0.203125,0.234375
-0.371742,0.203125,0.265625
-0.463358,0.203125,0.296875
-0.475965,0.203125,0.328125
-0.519668,0.203125,0.359375
-0.521233,0.203125,0.390625
-0.552028,0.203125,0.421875
-0.645726,0.203125,0.453125
-0.660815,0.203125,0.484375
-0.675157,0.203125,0.515625
-0.751459,0.203125,0.546875
-0.8032,0.203125,0.578125
-0.759987,0.203125,0.609375
-0.784051,0.203125,0.640625
-0.771433,0.203125,0.671875
-0.69882,0.203125,0.703125
-0.700977,0.203125,0.734375
-0.692552,0.203125,0.765625
-0.620816,0.203125,0.796875
-0.581445,0.203125,0.828125
-0.484498,0.203125,0.859375
-0.376751,0.203125,0.890625
-0.26674,0.203125,0.921875
-0.229668,0.203125,0.953125
-0.125426,0.203125,0.984375
0.0611454,0.203125,1.01563
0.137348,0.203125,1.04688
0.27019,0.203125,1.07813
0.382167,0.203125,1.10938
0.395888,0.203125,1.14063
0.482148,0.203125,1.17188
0.6404,0.203125,1.20313
0.656935,0.203125,1.23438
0.636301,0.203125,1.26563
0.645343,0.203125,1.29688
0.658546,0.203125,1.32813
0.725115,0.203125,1.35938
0.739969,0.203125,1.39063
0.70048,0.203125,1.42188
0.699264,0.203125,1.45313
0.67394,0.203125,1.48438
0.675206,0.203125,1.51563
0.62214,0.203125,1.54688
0.502995,0.203125,1.57813
0.469014,0.203125,1.60938
0.48702,0.203125,1.64063
0.420703,0.203125,1.67188
0.378951,0.203125,1.70313
0.314785,0.203125,1.73438
0.28461,0.203125,1.76563
0.235772,0.203125,1.79688
0.188141,0.203125,1.82813
0.14858,0.203125,1.85938
0.0830725,0.203125,1.89063
0,0.234375,0.015625
0.00958276,0.234375,0.046875
-0.0851579,0.234375,0.078125
-0.106222,0.234375,0.109375
-0.130686,0.234375,0.140625
-0.174401,0.234375,0.171875
-0.240093,0.234375,0.203125
-0.274089,0.234375,0.234375
-0.371137,0.234375,0.265625
-0.426233,0.234375,0.296875
-0.439018,0.234375,0.328125
-0.436481,0.234375,0.359375
-0.462516,0.234375,0.390625
-0.530433,0.234375,0.421875
-0.556933,0.234375,0.453125
-0.575297,0.234375,0.484375
-0.618878,0.234375,0.515625
-0.747886,0.234375,0.546875
-0.830204,0.234375,0.578125
-0.829868,0.234375,0.609375
-0.794342,0.234375,0.640625
-0.77915,0.234375,0.671875
-0.808049,0.234375,0.703125
-0.803526,0.234375,0.734375
-0.711729,0.234375,0.765625
-0.643175,0.234375,0.796875
-0.577043,0.234375,0.828125
-0.462724,0.234375,0.859375
-0.379729,0.234375,0.890625
-0.375789,0.234375,0.921875
-0.282749,0.234375,0.953125
-0.116272,0.234375,0.984375
0.0114487,0.234375,1.01563
0.0868001,0.234375,1.04688
0.25004,0.234375,1.07813
0.381551,0.234375,1.10938
0.425433,0.234375,1.14063
0.612309,0.234375,1.17188
0.647374,0.234375,1.20313
0.698856,0.234375,1.23438
0.70084,0.234375,1.26563
0.654344,0.234375,1.29688
0.704875,0.234375,1.32813
0.76767,0.234375,1.35938
0.742008,0.234375,1.39063
0.665942,0.234375,1.42188
0.622576,0.234375,1.45313
0.672853,0.234375,1.48438
0.663686,0.234375,1.51563
0.59855,0.234375,1.54688
0.531888,0.234375,1.57813
0.435022,0.234375,1.60938
0.433637,0.234375,1.64063
0.430569,0.234375,1.67188
0.36636,0.234375,1.70313
0.314861,0.234375,1.73438
0.266986,0.234375,1.76563
0.194576,0.234375,1.79688
0.160968,0.234375,1.82813
0.124434,0.234375,1.85938
0.048109,0.234375,1.89063
0,0.265625,0.015625
-0.0724995,0.265625,0.046875
-0.0270177,0.265625,0.078125
-0.0995059,0.265625,0.109375
-0.167481,0.265625,0.140625
-0.210943,0.265625,0.171875
-0.266258,0.265625,0.203125
-0.330949,0.265625,0.234375
-0.407438,0.265625,0.265625
-0.418727,0.265625,0.296875
-0.361017,0.265625,0.328125
-0.420973,0.265625,0.359375
-0.514108,0.265625,0.390625
-0.551234,0.265625,0.421875
-0.632579,0.265625,0.453125
-0.63567,0.265625,0.484375
-0.670428,0.265625,0.515625
-0.724893,0.265625,0.546875
-0.680005,0.265625,0.578125
-0.682099,0.265625,0.609375
-0.737401,0.265625,0.640625
-0.764699,0.265625,0.671875
-0.757416,0.265625,0.703125
-0.785144,0.265625,0.734375
-0.745349,0.265625,0.765625
-0.777203,0.265625,0.796875
-0.601559,0.265625,0.828125
-0.552326,0.265625,0.859375
-0.436696,0.265625,0.890625
-0.356558,0.265625,0.921875
-0.203889,0.265625,0.953125
-0.0518605,0.265625,0.984375
-0.0338137,0.265625,1.01563
0.13885,0.265625,1.04688
0.162181,0.265625,1.07813
0.33484,0.265625,1.10938
0.500724,0.265625,1.14063
0.48977,0.265625,1.17188
0.561403,0.265625,1.20313
0.688607,0.265625,1.23438
0.789098,0.265625,1.26563
0.881935,0.265625,1.29688
0.885786,0.265625,1.32813
0.894349,0.265625,1.35938
0.86009,0.265625,1.39063
0.795809,0.265625,1.42188
0.768479,0.265625,1.45313
0.759727,0.265625,1.48438
0.705331,0.265625,1.51563
0.593344,0.265625,1.54688
0.559047,0.265625,1.57813
0.562477,0.265625,1.60938
0.475357,0.265625,1.64063
0.449339,0.265625,1.67188
0.443497,0.265625,1.70313
0.351113,0.265625,1.73438
0.258828,0.265625,1.76563
0.217394,0.265625,1.79688
0.196442,0.265625,1.82813
0.108725,0.265625,1.85938
0.0615756,0.265625,1.89063
0,0.296875,0.015625
-0.0014801,0.296875,0.046875
-0.0721319,0.296875,0.078125
-0.159992,0.296875,0.109375
-0.141002,0.296875,0.140625
-0.16554,0.296875,0.171875
-0.284548,0.296875,0.203125
-0.356734,0.296875,0.234375
-0.358038,0.296875,0.265625
-0.329768,0.296875,0.296875
-0.43452,0.296875,0.328125
-0.568406,0.296875,0.359375
-0.533942,0.296875,0.390625
-0.558116,0.296875,0.421875
-0.548913,0.296875,0.453125
-0.573584,0.296875,0.484375
-0.631479,0.296875,0.515625
-0.569752,0.296875,0.546875
-0.571062,0.296875,0.578125
-0.671764,0.296875,0.609375
-0.798794,0.296875,0.640625
-0.744621,0.296875,0.671875
-0.691787,0.296875,0.703125
-0.661013,0.296875,0.734375
-0.670715,0.296875,0.765625
-0.734363,0.296875,0.796875
-0.645118,0.296875,0.828125
-0.550189,0.296875,0.859375
-0.430934,0.296875,0.890625
-0.449197,0.296875,0.921875
-0.233129,0.296875,0.953125
-0.0600287,0.296875,0.984375
0.0160276,0.296875,1.01563
0.153744,0.296875,1.04688
0.153128,0.296875,1.07813
0.269325,0.296875,1.10938
0.525462,0.296875,1.14063
0.561257,0.296875,1.17188
0.657827,0.296875,1.20313
0.737994,0.296875,1.23438
0.883568,0.296875,1.26563
0.861817,0.296875,1.29688
0.807927,0.296875,1.32813
0.807797,0.296875,1.35938
0.790066,0.296875,1.39063
0.814569,0.296875,1.42188
0.76558,0.296875,1.45313
0.722582,0.296875,1.48438
0.719951,0.296875,1.51563
0.699517,0.296875,1.54688
0.620015,0.296875,1.57813
0.586766,0.296875,1.60938
0.593437,0.296875,1.64063
0.514637,0.296875,1.67188
0.433385,0.296875,1.70313
0.337765,0.296875,1.73438
0.26624,0.296875,1.76563
0.231757,0.296875,1.79688
0.128122,0.296875,1.82813
0.0866469,0.296875,1.85938
0.0354577,0.296875,1.89063
0,0.328125,0.015625
-0.108706,0.328125,0.046875
-0.0776755,0.328125,0.078125
-0.0618128,0.328125,0.109375
-0.0977188,0.328125,0.140625
-0.203083,0.328125,0.171875
-0.26946,0.328125,0.203125
-0.351466,0.328125,0.234375
-0.384167,0.328125,0.265625
-0.431361,0.328125,0.296875
-0.541473,0.328125,0.328125
-0.44828,0.328125,0.359375
-0.456564,0.328125,0.390625
-0.451616,0.328125,0.421875
-0.494737,0.328125,0.453125
-0.618651,0.328125,0.484375
-0.618525,0.328125,0.515625
-0.65457,0.328125,0.546875
-0.749398,0.328125,0.578125
-0.83187,0.328125,0.609375
-0.80407,0.328125,0.640625
-0.684237,0.328125,0.671875
-0.682782,0.328125,0.703125
-0.710966,0.328125,0.734375
-0.821847,0.328125,0.765625
-0.731661,0.328125,0.796875
-0.729968,0.328125,0.828125
-0.703715,0.328125,0.859375
-0.712837,0.328125,0.890625
-0.496828,0.328125,0.921875
-0.265069,0.328125,0.953125
-0.24993,0.328125,0.984375
0.0400212,0.328125,1.01563
0.133828,0.328125,1.04688
0.13062,0.328125,1.07813
0.400139,0.328125,1.10938
0.531006,0.328125,1.14063
0.601004,0.328125,1.17188
0.667608,0.328125,1.20313
0.742363,0.328125,1.23438
0.660201,0.328125,1.26563
0.632205,0.328125,1.29688
0.707439,0.328125,1.32813
0.693174,0.328125,1.35938
0.665719,0.328125,1.39063
0.705931,0.328125,1.42188
0.620457,0.328125,1.45313
0.640797,0.328125,1.48438
0.658751,0.328125,1.51563
0.57907,0.328125,1.54688
0.579878,0.328125,1.57813
0.542867,0.328125,1.60938
0.517179,0.328125,1.64063
0.488893,0.328125,1.67188
0.38741,0.328125,1.70313
0.337429,0.328125,1.73438
0.311289,0.328125,1.76563
0.247105,0.328125,1.79688
0.185998,0.328125,1.82813
0.11542,0.328125,1.85938
0.0320471,0.328125,1.89063
0,0.359375,0.015625
-0.0977921,0.359375,0.046875
-0.0834976,0.359375,0.078125
-0.069038,0.359375,0.109375
-0.178449,0.359375,0.140625
-0.225926,0.359375,0.171875
-0.219302,0.359375,0.203125
-0.311087,0.359375,0.234375
-0.294803,0.359375,0.265625
-0.332525,0.359375,0.296875
-0.421266,0.359375,0.328125
-0.361337,0.359375,0.359375
-0.38138,0.359375,0.390625
-0.496876,0.359375,0.421875
-0.582659,0.359375,0.453125
-0.524047,0.359375,0.484375
-0.605627,0.359375,0.515625
-0.748449,0.359375,0.546875
-0.856839,0.359375,0.578125
-0.895878,0.359375,0.609375
-0.822254,0.359375,0.640625
-0.79315,0.359375,0.671875
-0.873867,0.359375,0.703125
-0.88376,0.359375,0.734375
-0.849463,0.359375,0.765625
-0.741867,0.359375,0.796875
-0.739092,0.359375,0.828125
-0.734468,0.359375,0.859375
-0.557274,0.359375,0.890625
-0.538118,0.359375,0.921875
-0.440701,0.359375,0.953125
-0.309822,0.359375,0.984375
-0.118512,0.359375,1.01563
0.0709631,0.359375,1.04688
0.288175,0.359375,1.07813
0.362594,0.359375,1.10938
0.517799,0.359375,1.14063
0.736095,0.359375,1.17188
0.800505,0.359375,1.20313
0.741994,0.359375,1.23438
0.806659,0.359375,1.26563
0.854076,0.359375,1.29688
0.796566,0.359375,1.32813
0.761711,0.359375,1.35938
0.854731,0.359375,1.39063
0.857158,0.359375,1.42188
0.75877,0.359375,1.45313
0.759295,0.359375,1.48438
0.792861,0.359375,1.51563
0.655548,0.359375,1.54688
0.552913,0.359375,1.57813
0.572669,0.359375,1.60938
0.46502,0.359375,1.64063
0.368669,0.359375,1.67188
0.394396,0.359375,1.70313
0.292102,0.359375,1.73438
0.283468,0.359375,1.76563
0.22231,0.359375,1.79688
0.155238,0.359375,1.82813
0.109748,0.359375,1.85938
0.0534868,0.359375,1.89063
0,0.390625,0.015625
-0.222525,0.390625,0.046875
-0.0490143,0.390625,0.078125
-0.11395,0.390625,0.109375
-0.224477,0.390625,0.140625
-0.204994,0.390625,0.171875
-0.185777,0.390625,0.203125
-0.24317,0.390625,0.234375
-0.272717,0.390625,0.265625
-0.37846,0.390625,0.296875
-0.442784,0.390625,0.328125
-0.410564,0.390625,0.359375
-0.545548,0.390625,0.390625
-0.57477,0.390625,0.421875
-0.464479,0.390625,0.453125
-0.466996,0.390625,0.484375
-0.650258,0.390625,0.515625
-0.748188,0.390625,0.546875
-0.845193,0.390625,0.578125
-0.806841,0.390625,0.609375
-0.820931,0.390625,0.640625
-0.913135,0.390625,0.671875
-0.934367,0.390625,0.703125
-0.939639,0.390625,0.734375
-0.795001,0.390625,0.765625
-0.78212,0.390625,0.796875
-0.824992,0.390625,0.828125
-0.907166,0.390625,0.859375
-0.62354,0.390625,0.890625
-0.65116,0.390625,0.921875
-0.351793,0.390625,0.953125
-0.338684,0.390625,0.984375
-0.0407494,0.390625,1.01563
0.136402,0.390625,1.04688
0.233446,0.390625,1.07813
0.252685,0.390625,1.10938
0.54771,0.390625,1.14063
0.703992,0.390625,1.17188
0.899217,0.390625,1.20313
0.928344,0.390625,1.23438
1.00877,0.390625,1.26563
0.972707,0.390625,1.29688
0.90931,0.390625,1.32813
0.980554,0.390625,1.35938
1.01753,0.390625,1.39063
0.955057,0.390625,1.42188
0.874391,0.390625,1.45313
0.87998,0.390625,1.48438
0.775964,0.390625,1.51563
0.71952,0.390625,1.54688
0.704338,0.390625,1.57813
0.597375,0.390625,1.60938
0.529104,0.390625,1.64063
0.460433,0.390625,1.67188
0.44594,0.390625,1.70313
0.303599,0.390625,1.73438
0.230321,0.390625,1.76563
0.217481,0.390625,1.79688
0.146982,0.390625,1.82813
0.0737504,0.390625,1.85938
-0.0122099,0.390625,1.89063
0,0.421875,0.015625
-0.0749323,0.421875,0.046875
-0.113158,0.421875,0.078125
-0.166576,0.421875,0.109375
-0.148709,0.421875,0.140625
-0.177361,0.421875,0.171875
-0.228383,0.421875,0.203125
-0.320873,0.421875,0.234375
-0.441154,0.421875,0.265625
-0.517586,0.421875,0.296875
-0.486738,0.421875,0.328125
-0.523105,0.421875,0.359375
-0.554895,0.421875,0.390625
-0.454779,0.421875,0.421875
-0.519427,0.421875,0.453125
-0.717401,0.421875,0.484375
-0.631364,0.421875,0.515625
-0.669349,0.421875,0.546875
-0.647667,0.421875,0.578125
-0.647736,0.421875,0.609375
-0.762632,0.421875,0.640625
-0.796808,0.421875,0.671875
-0.772983,0.421875,0.703125
-0.796072,0.421875,0.734375
-0.883988,0.421875,0.765625
-0.877487,0.421875,0.796875
-0.980121,0.421875,0.828125
-0.908326,0.421875,0.859375
-0.923074,0.421875,0.890625
-1.02586,0.421875,0.921875
-0.64743,0.421875,0.953125
-0.311102,0.421875,0.984375
-0.0980272,0.421875,1.01563
-0.0310364,0.421875,1.04688
0.154614,0.421875,1.07813
0.325835,0.421875,1.10938
0.588731,0.421875,1.14063
0.7546,0.421875,1.17188
0.907046,0.421875,1.20313
0.945125,0.421875,1.23438
0.92835,0.421875,1.26563
1.09074,0.421875,1.29688
1.09055,0.421875,1.32813
1.14249,0.421875,1.35938
1.18887,0.421875,1.39063
1.12653,0.421875,1.42188
0.980268,0.421875,1.45313
0.914398,0.421875,1.48438
0.760126,0.421875,1.51563
0.696957,0.421875,1.54688
0.607408,0.421875,1.57813
0.501608,0.421875,1.60938
0.375613,0.421875,1.64063
0.383119,0.421875,1.67188
0.455175,0.421875,1.70313
0.455723,0.421875,1.73438
0.429452,0.421875,1.76563
0.266373,0.421875,1.79688
0.134798,0.421875,1.82813
0.0206033,0.421875,1.85938
0.00736058,0.421875,1.89063
0,0.453125,0.015625
-0.195504,0.453125,0.046875
-0.138837,0.453125,0.078125
-0.0119691,0.453125,0.109375
-0.11141,0.453125,0.140625
-0.201633,0.453125,0.171875
-0.340534,0.453125,0.203125
-0.40676,0.453125,0.234375
-0.456552,0.453125,0.265625
-0.409746,0.453125,0.296875
-0.390879,0.453125,0.328125
-0.487008,0.453125,0.359375
-0.441631,0.453125,0.390625
-0.519658,0.453125,0.421875
-0.656789,0.453125,0.453125
-0.596304,0.453125,0.484375
-0.617649,0.453125,0.515625
-0.619237,0.453125,0.546875
-0.709148,0.453125,0.578125
-0.809347,0.453125,0.609375
-0.784294,0.453125,0.640625
-0.834494,0.453125,0.671875
-0.817688,0.453125,0.703125
-0.774843,0.453125,0.734375
-0.990423,0.453125,0.765625
-1.04238,0.453125,0.796875
-0.91338,0.453125,0.828125
-0.570324,0.453125,0.859375
-0.950687,0.453125,0.890625
-0.759352,0.453125,0.921875
-0.426526,0.453125,0.953125
-0.351937,0.453125,0.984375
-0.530708,0.453125,1.01563
0.0451689,0.453125,1.04688
0.344294,0.453125,1.07813
0.651253,0.453125,1.10938
0.562601,0.453125,1.14063
0.840418,0.453125,1.17188
1.2166,0.453125,1.20313
1.0164,0.453125,1.23438
1.13206,0.453125,1.26563
1.19671,0.453125,1.29688
1.1263,0.453125,1.32813
1.16858,0.453125,1.35938
1.20373,0.453125,1.39063
1.11023,0.453125,1.42188
1.05523,0.453125,1.45313
0.967367,0.453125,1.48438
0.946815,0.453125,1.51563
0.882354,0.453125,1.54688
0.696233,0.453125,1.57813
0.64992,0.453125,1.60938
0.508023,0.453125,1.64063
0.550579,0.453125,1.67188
0.517977,0.453125,1.70313
0.414323,0.453125,1.73438
0.378429,0.453125,1.76563
0.383464,0.453125,1.79688
0.303391,0.453125,1.82813
0.201532,0.453125,1.85938
0.0397773,0.453125,1.89063
0,0.484375,0.015625
-0.209159,0.484375,0.046875
-0.121746,0.484375,0.078125
-0.00621808,0.484375,0.109375
-0.23114,0.484375,0.140625
-0.277226,0.484375,0.171875
-0.366882,0.484375,0.203125
-0.33307,0.484375,0.234375
-0.419827,0.484375,0.265625
-0.446564,0.484375,0.296875
-0.529211,0.484375,0.328125
-0.586771,0.484375,0.359375
-0.473381,0.484375,0.390625
-0.584529,0.484375,0.421875
-0.534019,0.484375,0.453125
-0.502823,0.484375,0.484375
-0.591998,0.484375,0.515625
-0.613056,0.484375,0.546875
-0.716732,0.484375,0.578125
-0.717785,0.484375,0.609375
-0.828159,0.484375,0.640625
-1.03049,0.484375,0.671875
-0.90733,0.484375,0.703125
-0.797453,0.484375,0.734375
-1.04975,0.484375,0.765625
-1.23288,0.484375,0.796875
-1.34293,0.484375,0.828125
-1.44158,0.484375,0.859375
-1.26174,0.484375,0.890625
-0.868405,0.484375,0.921875
-0.773463,0.484375,0.953125
-0.423433,0.484375,0.984375
-0.268638,0.484375,1.01563
0.511562,0.484375,1.04688
0.544437,0.484375,1.07813
0.620151,0.484375,1.10938
1.14307,0.484375,1.14063
1.80915,0.484375,1.17188
1.71706,0.484375,1.20313
1.56095,0.484375,1.23438
1.63953,0.484375,1.26563
1.63081,0.484375,1.29688
1.55033,0.484375,1.32813
1.49734,0.484375,1.35938
1.41424,0.484375,1.39063
1.17708,0.484375,1.42188
0.996271,0.484375,1.45313
1.02888,0.484375,1.48438
1.04883,0.484375,1.51563
0.986722,0.484375,1.54688
0.966295,0.484375,1.57813
1.00249,0.484375,1.60938
0.865666,0.484375,1.64063
0.826809,0.484375,1.67188
0.727843,0.484375,1.70313
0.719091,0.484375,1.73438
0.652665,0.484375,1.76563
0.589366,0.484375,1.79688
0.390042,0.484375,1.82813
0.29932,0.484375,1.85938
0.118158,0.484375,1.89063
0,0.515625,0.015625
-0.319412,0.515625,0.046875
-0.0662647,0.515625,0.078125
-0.177179,0.515625,0.109375
-0.261637,0.515625,0.140625
-0.353871,0.515625,0.171875
-0.386858,0.515625,0.203125
-0.371716,0.515625,0.234375
-0.504982,0.515625,0.265625
-0.680519,0.515625,0.296875
-0.750025,0.515625,0.328125
-0.643745,0.515625,0.359375
-0.64865,0.515625,0.390625
-0.947257,0.515625,0.421875
-0.682605,0.515625,0.453125
-0.774993,0.515625,0.484375
-0.680766,0.515625,0.515625
-0.702682,0.515625,0.546875
-0.771011,0.515625,0.578125
-0.854916,0.515625,0.609375
-0.950165,0.515625,0.640625
-1.00545,0.515625,0.671875
-0.964285,0.515625,0.703125
-1.06908,0.515625,0.734375
-1.48666,0.515625,0.765625
-1.48926,0.515625,0.796875
-1.27303,0.515625,0.828125
-1.28763,0.515625,0.859375
-1.29028,0.515625,0.890625
-1.46983,0.515625,0.921875
-1.45467,0.515625,0.953125
-0.898217,0.515625,0.984375
-0.403827,0.515625,1.01563
-0.0388112,0.515625,1.04688
0.761331,0.515625,1.07813
1.00758,0.515625,1.10938
1.93373,0.515625,1.14063
1.76401,0.515625,1.17188
1.65938,0.515625,1.20313
1.93399,0.515625,1.23438
2.05359,0.515625,1.26563
2.00596,0.515625,1.29688
1.92168,0.515625,1.32813
1.71568,0.515625,1.35938
1.48645,0.515625,1.39063
1.51312,0.515625,1.42188
1.4092,0.515625,1.45313
1.23778,0.515625,1.48438
1.16295,0.515625,1.51563
1.28806,0.515625,1.54688
1.2911,0.515625,1.57813
1.14594,0.515625,1.60938
1.16946,0.515625,1.64063
1.05858,0.515625,1.67188
0.931833,0.515625,1.70313
0.936129,0.515625,1.73438
0.853718,0.515625,1.76563
0.785873,0.515625,1.79688
0.647292,0.515625,1.82813
0.600456,0.515625,1.85938
0.395118,0.515625,1.89063
0,0.546875,0.015625
-0.214225,0.546875,0.046875
-0.244248,0.546875,0.078125
-0.352028,0.546875,0.109375
-0.36194,0.546875,0.140625
-0.313859,0.546875,0.171875
-0.359827,0.546875,0.203125
-0.555726,0.546875,0.234375
-0.690308,0.546875,0.265625
-0.767919,0.546875,0.296875
-0.795516,0.546875,0.328125
-0.848791,0.546875,0.359375
-1.1376,0.546875,0.390625
-1.1807,0.546875,0.421875
-1.2139,0.546875,0.453125
-1.26729,0.546875,0.484375
-1.10528,0.546875,0.515625
-1.24407,0.546875,0.546875
-1.21978,0.546875,0.578125
-1.11022,0.546875,0.609375
-0.975325,0.546875,0.640625
-1.01362,0.546875,0.671875
-1.20771,0.546875,0.703125
-1.38247,0.546875,0.734375
-1.69244,0.546875,0.765625
-1.83212,0.546875,0.796875
-2.01337,0.546875,0.828125
-1.84236,0.546875,0.859375
-1.84487,0.546875,0.890625
-2.06214,0.546875,0.921875
-1.55012,0.546875,0.953125
-0.896281,0.546875,0.984375
-0.222273,0.546875,1.01563
-0.688729,0.546875,1.04688
0.546348,0.546875,1.07813
1.18161,0.546875,1.10938
1.7804,0.546875,1.14063
1.63321,0.546875,1.17188
2.05854,0.546875,1.20313
2.51972,0.546875,1.23438
2.44718,0.546875,1.26563
2.20544,0.546875,1.29688
2.19122,0.546875,1.32813
1.97242,0.546875,1.35938
1.97551,0.546875,1.39063
1.80556,0.546875,1.42188
1.58787,0.546875,1.45313
1.58843,0.546875,1.48438
1.7285,0.546875,1.51563
1.51437,0.546875,1.54688
1.56449,0.546875,1.57813
1.42338,0.546875,1.60938
1.42905,0.546875,1.64063
1.23013,0.546875,1.67188
1.1493,0.546875,1.70313
1.16456,0.546875,1.73438
1.09069,0.546875,1.76563
0.953655,0.546875,1.79688
0.980098,0.546875,1.82813
1.1088,0.546875,1.85938
1.05349,0.546875,1.89063
0,0.578125,0.015625
-0.301067,0.578125,0.046875
-0.409276,0.578125,0.078125
-0.33853,0.578125,0.109375
-0.352021,0.578125,0.140625
-0.52427,0.578125,0.171875
-0.697367,0.578125,0.203125
-0.761521,0.578125,0.234375
-0.826482,0.578125,0.265625
-1.06018,0.578125,0.296875
-1.12471,0.578125,0.328125
-1.11173,0.578125,0.359375
-1.11545,0.578125,0.390625
-1.1446,0.578125,0.421875
-1.48743,0.578125,0.453125
-1.28152,0.578125,0.484375
-1.43909,0.578125,0.515625
-1.59459,0.578125,0.546875
-1.54043,0.578125,0.578125
-1.13285,0.578125,0.609375
-1.07591,0.578125,0.640625
-1.30474,0.578125,0.671875
-1.17218,0.578125,0.703125
-1.19207,0.578125,0.734375
-1.29882,0.578125,0.765625
-1.52829,0.578125,0.796875
-1.84227,0.578125,0.828125
-2.22243,0.578125,0.859375
-3.13065,0.578125,0.890625
-2.69935,0.578125,0.921875
-1.65265,0.578125,0.953125
-1.23303,0.578125,0.984375
-1.12919,0.578125,1.01563
-0.52836,0.578125,1.04688
1.04861,0.578125,1.07813
1.84009,0.578125,1.10938
1.65484,0.578125,1.14063
2.17419,0.578125,1.17188
2.17227,0.578125,1.20313
2.55352,0.578125,1.23438
2.24974,0.578125,1.26563
2.19357,0.578125,1.29688
2.38679,0.578125,1.32813
2.30374,0.578125,1.35938
2.38097,0.578125,1.39063
2.15107,0.578125,1.42188
1.86089,0.578125,1.45313
1.80562,0.578125,1.48438
1.99497,0.578125,1.51563
1.72157,0.578125,1.54688
1.56791,0.578125,1.57813
1.47848,0.578125,1.60938
1.39367,0.578125,1.64063
1.11887,0.578125,1.67188
1.25137,0.578125,1.70313
1.19554,0.578125,1.73438
1.08589,0.578125,1.76563
1.10453,0.578125,1.79688
1.09452,0.578125,1.82813
1.40247,0.578125,1.85938
1.85563,0.578125,1.89063
0,0.609375,0.015625
-0.379815,0.609375,0.046875
-0.257669,0.609375,0.078125
-0.29514,0.609375,0.109375
-0.642782,0.609375,0.140625
-0.89381,0.609375,0.171875
-0.828341,0.609375,0.203125
-0.902203,0.609375,0.234375
-1.30837,0.609375,0.265625
-1.35459,0.609375,0.296875
-1.17993,0.609375,0.328125
-1.41478,0.609375,0.359375
-1.38388,0.609375,0.390625
-1.30785,0.609375,0.421875
-1.47739,0.609375,0.453125
-1.68581,0.609375,0.484375
-1.8756,0.609375,0.515625
-1.5363,0.609375,0.546875
-1.15735,0.609375,0.578125
-0.718477,0.609375,0.609375
-0.933767,0.609375,0.640625
-0.808207,0.609375,0.671875
-0.597702,0.609375,0.703125
-0.723469,0.609375,0.734375
-0.612679,0.609375,0.765625
-1.01716,0.609375,0.796875
-1.70453,0.609375,0.828125
-2.52466,0.609375,0.859375
-3.18632,0.609375,0.890625
-2.19223,0.609375,0.921875
-1.80333,0.609375,0.953125
-1.8814,0.609375,0.984375
-1.4933,0.609375,1.01563
-0.405954,0.609375,1.04688
0.872242,0.609375,1.07813
1.65024,0.609375,1.10938
1.90618,0.609375,1.14063
2.03259,0.609375,1.17188
1.91588,0.609375,1.20313
2.14392,0.609375,1.23438
1.70266,0.609375,1.26563
1.78507,0.609375,1.29688
1.76706,0.609375,1.32813
1.97326,0.609375,1.35938
1.96474,0.609375,1.39063
1.69766,0.609375,1.42188
1.97416,0.609375,1.45313
2.03474,0.609375,1.48438
1.91108,0.609375,1.51563
1.80848,0.609375,1.54688
1.64561,0.609375,1.57813
1.69945,0.609375,1.60938
1.46639,0.609375,1.64063
1.19399,0.609375,1.67188
1.23022,0.609375,1.70313
1.29746,0.609375,1.73438
1.01654,0.609375,1.76563
1.02455,0.609375,1.79688
0.874363,0.609375,1.82813
1.18737,0.609375,1.85938
2.19009,0.609375,1.89063
0,0.640625,0.015625
-0.555422,0.640625,0.046875
-0.302339,0.640625,0.078125
-0.439897,0.640625,0.109375
-0.592732,0.640625,0.140625
-0.538327,0.640625,0.171875
-0.527319,0.640625,0.203125
-0.796786,0.640625,0.234375
-1.05658,0.640625,0.265625
-1.07895,0.640625,0.296875
-1.33479,0.640625,0.328125
-1.51601,0.640625,0.359375
-1.19239,0.640625,0.390625
-1.10445,0.640625,0.421875
-1.29341,0.640625,0.453125
-1.37237,0.640625,0.484375
-0.952528,0.640625,0.515625
-0.410814,0.640625,0.546875
-0.150179,0.640625,0.578125
0.0610867,0.640625,0.609375
0.219952,0.640625,0.640625
0.448128,0.640625,0.671875
0.307465,0.640625,0.703125
0.194149,0.640625,0.734375
0.491611,0.640625,0.765625
-0.382469,0.640625,0.796875
-1.86642,0.640625,0.828125
-3.94566,0.640625,0.859375
-3.89925,0.640625,0.890625
-3.65927,0.640625,0.921875
-3.59415,0.640625,0.953125
-2.23402,0.640625,0.984375
0.0851765,0.640625,1.01563
-1.04998,0.640625,1.04688
0.998466,0.640625,1.07813
2.67659,0.640625,1.10938
2.96198,0.640625,1.14063
1.94864,0.640625,1.17188
1.85887,0.640625,1.20313
1.71535,0.640625,1.23438
1.23141,0.640625,1.26563
1.23534,0.640625,1.29688
1.04901,0.640625,1.32813
1.02,0.640625,1.35938
1.0772,0.640625,1.39063
1.07848,0.640625,1.42188
1.19181,0.640625,1.45313
1.35492,0.640625,1.48438
1.33809,0.640625,1.51563
1.41649,0.640625,1.54688
1.48945,0.640625,1.57813
1.34808,0.640625,1.60938
1.34296,0.640625,1.64063
1.21905,0.640625,1.67188
1.05321,0.640625,1.70313
1.03401,0.640625,1.73438
0.886811,0.640625,1.76563
0.653964,0.640625,1.79688
0.368289,0.640625,1.82813
0.992085,0.640625,1.85938
1.60449,0.640625,1.89063
0,0.671875,0.015625
-0.218366,0.671875,0.046875
-0.346954,0.671875,0.078125
-0.241461,0.671875,0.109375
-0.196828,0.671875,0.140625
-0.202544,0.671875,0.171875
-0.270507,0.671875,0.203125
-0.46106,0.671875,0.234375
-0.507927,0.671875,0.265625
-0.562249,0.671875,0.296875
-0.483467,0.671875,0.328125
-0.210594,0.671875,0.359375
-0.220985,0.671875,0.390625
-0.344463,0.671875,0.421875
-0.16621,0.671875,0.453125
-0.0867271,0.671875,0.484375
0.100607,0.671875,0.515625
0.514313,0.671875,0.546875
0.769518,0.671875,0.578125
0.977711,0.671875,0.609375
1.12384,0.671875,0.640625
1.18492,0.671875,0.671875
1.26154,0.671875,0.703125
1.56934,0.671875,0.734375
1.96479,0.671875,0.765625
0.877411,0.671875,0.796875
-1.134,0.671875,0.828125
-7.00168,0.671875,0.859375
-12.3923,0.671875,0.890625
-8.39788,0.671875,0.921875
-5.81648,0.671875,0.953125
-1.98941,0.671875,0.984375
1.58845,0.671875,1.01563
7.14883,0.671875,1.04688
10.5465,0.671875,1.07813
11.255,0.671875,1.10938
4.38045,0.671875,1.14063
3.06539,0.671875,1.17188
2.5405,0.671875,1.20313
2.28678,0.671875,1.23438
1.50135,0.671875,1.26563
1.20657,0.671875,1.29688
0.721687,0.671875,1.32813
0.672737,0.671875,1.35938
0.347481,0.671875,1.39063
0.288282,0.671875,1.42188
0.32538,0.671875,1.45313
0.452246,0.671875,1.48438
0.557156,0.671875,1.51563
0.465361,0.671875,1.54688
0.43799,0.671875,1.57813
0.293919,0.671875,1.60938
0.426776,0.671875,1.64063
0.428169,0.671875,1.67188
0.34019,0.671875,1.70313
0.3549,0.671875,1.73438
0.323668,0.671875,1.76563
0.171198,0.671875,1.79688
0.0983191,0.671875,1.82813
0.265935,0.671875,1.85938
0.056381,0.671875,1.89063
0,0.703125,0.015625
-0.588156,0.703125,0.046875
-0.175617,0.703125,0.078125
-0.132121,0.703125,0.109375
-0.0160737,0.703125,0.140625
0.034059,0.703125,0.171875
-0.0422487,0.703125,0.203125
-0.104515,0.703125,0.234375
-0.0805998,0.703125,0.265625
0.00825977,0.703125,0.296875
0.196924,0.703125,0.328125
0.201767,0.703125,0.359375
0.102455,0.703125,0.390625
0.210573,0.703125,0.421875
0.289772,0.703125,0.453125
0.410416,0.703125,0.484375
0.641649,0.703125,0.515625
0.987913,0.703125,0.546875
1.2816,0.703125,0.578125
1.21465,0.703125,0.609375
1.50372,0.703125,0.640625
1.96227,0.703125,0.671875
1.98351,0.703125,0.703125
2.30906,0.703125,0.734375
2.21727,0.703125,0.765625
2.6343,0.703125,0.796875
1.16416,0.703125,0.828125
1.19458,0.703125,0.859375
73.4551,0.703125,0.890625
51.3735,0.703125,0.921875
27.2524,0.703125,0.953125
0.408488,0.703125,0.984375
-20.4825,0.703125,1.01563
-49.4167,0.703125,1.04688
-70.0574,0.703125,1.07813
-79.7592,0.703125,1.10938
5.84188,0.703125,1.14063
2.1988,0.703125,1.17188
2.26904,0.703125,1.20313
1.90478,0.703125,1.23438
1.09361,0.703125,1.26563
0.879955,0.703125,1.29688
0.326626,0.703125,1.32813
0.0841446,0.703125,1.35938
-0.00964355,0.703125,1.39063
0.0513687,0.703125,1.42188
-0.0398235,0.703125,1.45313
-0.143776,0.703125,1.48438
-0.168194,0.703125,1.51563
-0.194889,0.703125,1.54688
-0.170116,0.703125,1.57813
0.0246201,0.703125,1.60938
-0.081727,0.703125,1.64063
-0.0898132,0.703125,1.67188
-0.175921,0.703125,1.70313
-0.0532322,0.703125,1.73438
-0.101444,0.703125,1.76563
-0.123075,0.703125,1.79688
0.0993137,0.703125,1.82813
-0.437251,0.703125,1.85938
-1.21745,0.703125,1.89063
0,0.734375,0.015625
-0.381757,0.734375,0.046875
-0.188044,0.734375,0.078125
-0.13283,0.734375,0.109375
-0.0481036,0.734375,0.140625
0.0655608,0.734375,0.171875
-0.0985551,0.734375,0.203125
-0.0569787,0.734375,0.234375
0.117532,0.734375,0.265625
0.0158319,0.734375,0.296875
0.0300751,0.734375,0.328125
0.165224,0.734375,0.359375
0.257931,0.734375,0.390625
0.278126,0.734375,0.421875
0.297346,0.734375,0.453125
0.667799,0.734375,0.484375
0.60796,0.734375,0.515625
0.966618,0.734375,0.546875
1.41704,0.734375,0.578125
1.40431,0.734375,0.609375
1.76734,0.734375,0.640625
2.82888,0.734375,0.671875
2.85602,0.734375,0.703125
2.69711,0.734375,0.734375
2.87833,0.734375,0.765625
0.334122,0.734375,0.796875
8.87582,0.734375,0.828125
100.904,0.734375,0.859375
14.0936,0.734375,0.890625
7.72708,0.734375,0.921875
1.72035,0.734375,0.953125
-4.52472,0.734375,0.984375
-7.74939,0.734375,1.01563
-18.3226,0.734375,1.04688
-27.2791,0.734375,1.07813
-12.5038,0.734375,1.10938
-92.9238,0.734375,1.14063
4.37076,0.734375,1.17188
2.36346,0.734375,1.20313
1.57323,0.734375,1.23438
0.188286,0.734375,1.26563
-0.262432,0.734375,1.29688
-0.492325,0.734375,1.32813
-0.187714,0.734375,1.35938
-0.318775,0.734375,1.39063
-0.487032,0.734375,1.42188
-0.407454,0.734375,1.45313
-0.262915,0.734375,1.48438
-0.378544,0.734375,1.51563
-0.098196,0.734375,1.54688
0.00121307,0.734375,1.57813
-0.0740547,0.734375,1.60938
-0.309949,0.734375,1.64063
-0.126432,0.734375,1.67188
-0.127932,0.734375,1.70313
-0.256229,0.734375,1.73438
-0.0928802,0.734375,1.76563
-0.0411887,0.734375,1.79688
0.0263777,0.734375,1.82813
-0.849222,0.734375,1.85938
-1.96024,0.734375,1.89063
0,0.765625,0.015625
-0.346769,0.765625,0.046875
-0.30593,0.765625,0.078125
-0.00874829,0.765625,0.109375
0.0273006,0.765625,0.140625
-0.0629158,0.765625,0.171875
-0.108959,0.765625,0.203125
-0.0381198,0.765625,0.234375
0.0356178,0.765625,0.265625
-0.0513048,0.765625,0.296875
0.00694752,0.765625,0.328125
0.231667,0.765625,0.359375
0.143433,0.765625,0.390625
0.273371,0.765625,0.421875
0.581059,0.765625,0.453125
0.616331,0.765625,0.484375
0.495472,0.765625,0.515625
1.16937,0.765625,0.546875
1.10421,0.765625,0.578125
1.80341,0.765625,0.609375
2.41335,0.765625,0.640625
3.39824,0.765625,0.671875
3.58949,0.765625,0.703125
4.74802,0.765625,0.734375
1.22526,0.765625,0.765625
10.3325,0.765625,0.796875
152.432,0.765625,0.828125
0,0.765625,0.859375
0,0.765625,0.890625
0,0.765625,0.921875
0,0.765625,0.953125
0,0.765625,0.984375
0,0.765625,1.01563
0,0.765625,1.04688
-36.6741,0.765625,1.07813
-41.8861,0.765625,1.10938
-10.9457,0.765625,1.14063
-100.289,0.765625,1.17188
4.78017,0.765625,1.20313
0.0207138,0.765625,1.23438
-0.236477,0.765625,1.26563
-0.301182,0.765625,1.29688
-0.736259,0.765625,1.32813
-0.288349,0.765625,1.35938
-0.767639,0.765625,1.39063
-0.63323,0.765625,1.42188
-0.559233,0.765625,1.45313
-0.475739,0.765625,1.48438
-0.378214,0.765625,1.51563
-0.134045,0.765625,1.54688
-0.224627,0.765625,1.57813
-0.213852,0.765625,1.60938
-0.176126,0.765625,1.64063
-0.248316,0.765625,1.67188
-0.205362,0.765625,1.70313
-0.216127,0.765625,1.73438
-0.023694,0.765625,1.76563
-0.123207,0.765625,1.79688
-0.100075,0.765625,1.82813
-1.2364,0.765625,1.85938
-2.39085,0.765625,1.89063
0,0.796875,0.015625
-0.400905,0.796875,0.046875
-0.228142,0.796875,0.078125
-0.0131967,0.796875,0.109375
-0.0751293,0.796875,0.140625
-0.0780959,0.796875,0.171875
0.0642748,0.796875,0.203125
0.0287786,0.796875,0.234375
-0.0376806,0.796875,0.265625
0.103582,0.796875,0.296875
0.188527,0.796875,0.328125
0.0678339,0.796875,0.359375
-0.0154953,0.796875,0.390625
0.459676,0.796875,0.421875
0.499668,0.796875,0.453125
0.251511,0.796875,0.484375
0.71174,0.796875,0.515625
1.05897,0.796875,0.546875
1.6868,0.796875,0.578125
2.56335,0.796875,0.609375
2.90937,0.796875,0.640625
3.90211,0.796875,0.671875
4.66799,0.796875,0.703125
0.154503,0.796875,0.734375
6.57286,0.796875,0.765625
177.421,0.796875,0.796875
0,0.796875,0.828125
0,0.796875,0.859375
0,0.796875,0.890625
0,0.796875,0.921875
0,0.796875,0.953125
0,0.796875,0.984375
0,0.796875,1.01563
0,0.796875,1.04688
0,0.796875,1.07813
-54.0619,0.796875,1.10938
-45.9982,0.796875,1.14063
-9.55325,0.796875,1.17188
-98.4157,0.796875,1.20313
-2.60014,0.796875,1.23438
-1.46804,0.796875,1.26563
-1.05878,0.796875,1.29688
-1.04898,0.796875,1.32813
-1.16088,0.796875,1.35938
-1.07378,0.796875,1.39063
-0.658318,0.796875,1.42188
-0.751242,0.796875,1.45313
-0.472548,0.796875,1.48438
-0.505659,0.796875,1.51563
-0.37541,0.796875,1.54688
-0.29768,0.796875,1.57813
-0.331073,0.796875,1.60938
-0.238083,0.796875,1.64063
-0.19673,0.796875,1.67188
-0.211904,0.796875,1.70313
-0.207222,0.796875,1.73438
-0.136418,0.796875,1.76563
-0.0783539,0.796875,1.79688
-0.01403,0.796875,1.82813
-1.53429,0.796875,1.85938
-2.75552,0.796875,1.89063
0,0.828125,0.015625
-0.488463,0.828125,0.046875
-0.235933,0.828125,0.078125
-0.0217683,0.828125,0.109375
-0.0859895,0.828125,0.140625
-0.0545318,0.828125,0.171875
-0.0268345,0.828125,0.203125
-0.135609,0.828125,0.234375
-0.0705557,0.828125,0.265625
0.142884,0.828125,0.296875
0.154292,0.828125,0.328125
-0.0300016,0.828125,0.359375
0.116983,0.828125,0.390625
0.304713,0.828125,0.421875
0.247149,0.828125,0.453125
0.376001,0.828125,0.484375
0.70875,0.828125,0.515625
0.902845,0.828125,0.546875
1.54512,0.828125,0.578125
2.06461,0.828125,0.609375
3.57744,0.828125,0.640625
5.50579,0.828125,0.671875
4.18771,0.828125,0.703125
6.87822,0.828125,0.734375
204.253,0.828125,0.765625
0,0.828125,0.796875
0,0.828125,0.828125
0,0.828125,0.859375
0,0.828125,0.890625
0,0.828125,0.921875
0,0.828125,0.953125
0,0.828125,0.984375
0,0.828125,1.01563
0,0.828125,1.04688
0,0.828125,1.07813
0,0.828125,1.10938
-70.1484,0.828125,1.14063
-54.3436,0.828125,1.17188
-5.62746,0.828125,1.20313
-19.2971,0.828125,1.23438
-4.95808,0.828125,1.26563
-3.08799,0.828125,1.29688
-2.3509,0.828125,1.32813
-1.91089,0.828125,1.35938
-1.48643,0.828125,1.39063
-1.11097,0.828125,1.42188
-0.827291,0.828125,1.45313
-0.683617,0.828125,1.48438
-0.569883,0.828125,1.51563
-0.380294,0.828125,1.54688
-0.34244,0.828125,1.57813
-0.33016,0.828125,1.60938
-0.180646,0.828125,1.64063
-0.100813,0.828125,1.67188
-0.201922,0.828125,1.70313
-0.0677834,0.828125,1.73438
-0.119834,0.828125,1.76563
-0.0775285,0.828125,1.79688
0.00672007,0.828125,1.82813
-1.81018,0.828125,1.85938
-3.63956,0.828125,1.89063
0,0.859375,0.015625
-0.304681,0.859375,0.046875
-0.2587,0.859375,0.078125
-0.112961,0.859375,0.109375
-0.116013,0.859375,0.140625
-0.0999744,0.859375,0.171875
-0.0928302,0.859375,0.203125
-0.158883,0.859375,0.234375
-0.0414724,0.859375,0.265625
-0.0427179,0.859375,0.296875
-0.105222,0.859375,0.328125
-0.177217,0.859375,0.359375
0.0989637,0.859375,0.390625
0.211582,0.859375,0.421875
0.0608482,0.859375,0.453125
0.177219,0.859375,0.484375
0.389162,0.859375,0.515625
0.77747,0.859375,0.546875
1.21458,0.859375,0.578125
2.10445,0.859375,0.609375
3.6288,0.859375,0.640625
5.03325,0.859375,0.671875
9.67715,0.859375,0.703125
168.602,0.859375,0.734375
0,0.859375,0.765625
0,0.859375,0.796875
0,0.859375,0.828125
0,0.859375,0.859375
0,0.859375,0.890625
0,0.859375,0.921875
0,0.859375,0.953125
0,0.859375,0.984375
0,0.859375,1.01563
0,0.859375,1.04688
0,0.859375,1.07813
0,0.859375,1.10938
0,0.859375,1.14063
-104.283,0.859375,1.17188
-39.9681,0.859375,1.20313
-58.1065,0.859375,1.23438
3.13472,0.859375,1.26563
-2.93747,0.859375,1.29688
-3.23741,0.859375,1.32813
-2.42889,0.859375,1.35938
-1.35056,0.859375,1.39063
-1.10566,0.859375,1.42188
-1.04823,0.859375,1.45313
-0.682165,0.859375,1.48438
-0.408751,0.859375,1.51563
-0.449309,0.859375,1.54688
-0.407687,0.859375,1.57813
-0.301991,0.859375,1.60938
-0.244561,0.859375,1.64063
-0.175436,0.859375,1.67188
-0.184116,0.859375,1.70313
-0.160672,0.859375,1.73438
-0.24573,0.859375,1.76563
-0.159625,0.859375,1.79688
0.0100622,0.859375,1.82813
-2.2174,0.859375,1.85938
-5.20089,0.859375,1.89063
0,0.890625,0.015625
-0.501866,0.890625,0.046875
-0.329657,0.890625,0.078125
-0.101119,0.890625,0.109375
-0.0545241,0.890625,0.140625
-0.141849,0.890625,0.171875
-0.0409589,0.890625,0.203125
-0.0143747,0.890625,0.234375
-0.0059371,0.890625,0.265625
-0.161241,0.890625,0.296875
-0.117099,0.890625,0.328125
-0.109848,0.890625,0.359375
-0.0625906,0.890625,0.390625
-0.0613022,0.890625,0.421875
-0.215777,0.890625,0.453125
0.0185318,0.890625,0.484375
0.266228,0.890625,0.515625
0.0437555,0.890625,0.546875
0.276037,0.890625,0.578125
1.52071,0.890625,0.609375
1.20895,0.890625,0.640625
-2.79271,0.890625,0.671875
174.868,0.890625,0.703125
23.2045,0.890625,0.734375
0,0.890625,0.765625
0,0.890625,0.796875
0,0.890625,0.828125
0,0.890625,0.859375
0,0.890625,0.890625
0,0.890625,0.921875
0,0.890625,0.953125
0,0.890625,0.984375
0,0.890625,1.01563
0,0.890625,1.04688
0,0.890625,1.07813
0,0.890625,1.10938
0,0.890625,1.14063
-72.7483,0.890625,1.17188
-73.331,0.890625,1.20313
-5.53227,0.890625,1.23438
-23.5909,0.890625,1.26563
-8.11316,0.890625,1.29688
-4.02345,0.890625,1.32813
-2.63605,0.890625,1.35938
-1.40496,0.890625,1.39063
-1.03619,0.890625,1.42188
-1.06709,0.890625,1.45313
-0.675076,0.890625,1.48438
-0.5029,0.890625,1.51563
-0.657373,0.890625,1.54688
-0.383481,0.890625,1.57813
-0.347533,0.890625,1.60938
-0.32585,0.890625,1.64063
-0.300903,0.890625,1.67188
-0.276152,0.890625,1.70313
-0.268116,0.890625,1.73438
-0.227843,0.890625,1.76563
-0.162337,0.890625,1.79688
0.185311,0.890625,1.82813
-2.38673,0.890625,1.85938
-5.70392,0.890625,1.89063
0,0.921875,0.015625
-0.469092,0.921875,0.046875
-0.190516,0.921875,0.078125
-0.0831863,0.921875,0.109375
-0.129289,0.921875,0.140625
-0.0121922,0.921875,0.171875
-0.061944,0.921875,0.203125
-0.0833597,0.921875,0.234375
-0.0530007,0.921875,0.265625
-0.108097,0.921875,0.296875
-0.0196166,0.921875,0.328125
0.00767088,0.921875,0.359375
0.0326977,0.921875,0.390625
-0.182844,0.921875,0.421875
-0.15375,0.921875,0.453125
-0.000932693,0.921875,0.484375
0.0773487,0.921875,0.515625
-0.0870028,0.921875,0.546875
-0.0127811,0.921875,0.578125
1.01072,0.921875,0.609375
0.0413513,0.921875,0.640625
-1.60463,0.921875,0.671875
184.175,0.921875,0.703125
16.0011,0.921875,0.734375
0,0.921875,0.765625
0,0.921875,0.796875
0,0.921875,0.828125
0,0.921875,0.859375
0,0.921875,0.890625
0,0.921875,0.921875
0,0.921875,0.953125
0,0.921875,0.984375
0,0.921875,1.01563
0,0.921875,1.04688
0,0.921875,1.07813
0,0.921875,1.10938
0,0.921875,1.14063
0,0.921875,1.17188
-114.347,0.921875,1.20313
-53.6812,0.921875,1.23438
-5.48056,0.921875,1.26563
-5.29506,0.921875,1.29688
-3.08579,0.921875,1.32813
-2.17687,0.921875,1.35938
-1.74035,0.921875,1.39063
-1.46426,0.921875,1.42188
-0.884236,0.921875,1.45313
-0.801242,0.921875,1.48438
-0.636143,0.921875,1.51563
-0.626564,0.921875,1.54688
-0.290307,0.921875,1.57813
-0.300016,0.921875,1.60938
-0.340914,0.921875,1.64063
-0.163743,0.921875,1.67188
-0.120488,0.921875,1.70313
-0.0740533,0.921875,1.73438
-0.0628381,0.921875,1.76563
-0.0872879,0.921875,1.79688
0.0620301,0.921875,1.82813
-2.70363,0.921875,1.85938
-5.48158,0.921875,1.89063
0,0.953125,0.015625
-0.358208,0.953125,0.046875
-0.185126,0.953125,0.078125
-0.117959,0.953125,0.109375
-0.103091,0.953125,0.140625
-0.0743055,0.953125,0.171875
-0.206965,0.953125,0.203125
-0.111273,0.953125,0.234375
-0.174709,0.953125,0.265625
-0.077281,0.953125,0.296875
-0.0292659,0.953125,0.328125
-0.084908,0.953125,0.359375
-0.141002,0.953125,0.390625
-0.306839,0.953125,0.421875
-0.0205793,0.953125,0.453125
-0.0178952,0.953125,0.484375
-0.197769,0.953125,0.515625
-0.481651,0.953125,0.546875
0.0329409,0.953125,0.578125
-0.0683098,0.953125,0.609375
-1.32534,0.953125,0.640625
4.47109,0.953125,0.671875
173.904,0.953125,0.703125
10.7499,0.953125,0.734375
0,0.953125,0.765625
0,0.953125,0.796875
0,0.953125,0.828125
0,0.953125,0.859375
0,0.953125,0.890625
0,0.953125,0.921875
0,0.953125,0.953125
0,0.953125,0.984375
0,0.953125,1.01563
0,0.953125,1.04688
0,0.953125,1.07813
0,0.953125,1.10938
0,0.953125,1.14063
0,0.953125,1.17188
-99.0827,0.953125,1.20313
-71.2796,0.953125,1.23438
-7.71318,0.953125,1.26563
-4.84421,0.953125,1.29688
-2.9944,0.953125,1.32813
-2.4678,0.953125,1.35938
-1.5798,0.953125,1.39063
-1.11245,0.953125,1.42188
-0.970894,0.953125,1.45313
-0.9176,0.953125,1.48438
-0.534621,0.953125,1.51563
-0.433201,0.953125,1.54688
-0.317289,0.953125,1.57813
-0.199142,0.953125,1.60938
-0.242741,0.953125,1.64063
-0.129303,0.953125,1.67188
-0.0987024,0.953125,1.70313
-0.135065,0.953125,1.73438
-0.139703,0.953125,1.76563
-0.178383,0.953125,1.79688
-0.0686648,0.953125,1.82813
-2.77742,0.953125,1.85938
-5.56218,0.953125,1.89063
0,0.984375,0.015625
-0.19097,0.984375,0.046875
-0.212922,0.984375,0.078125
-0.131338,0.984375,0.109375
-0.0824918,0.984375,0.140625
-0.095726,0.984375,0.171875
-0.163401,0.984375,0.203125
-0.179794,0.984375,0.234375
-0.211738,0.984375,0.265625
-0.0869284,0.984375,0.296875
-0.268558,0.984375,0.328125
-0.224006,0.984375,0.359375
-0.205308,0.984375,0.390625
-0.269454,0.984375,0.421875
-0.139814,0.984375,0.453125
-0.263261,0.984375,0.484375
-0.329588,0.984375,0.515625
-0.405686,0.984375,0.546875
0.0346789,0.984375,0.578125
-0.470141,0.984375,0.609375
-0.0650024,0.984375,0.640625
9.4216,0.984375,0.671875
170.768,0.984375,0.703125
7.93895,0.984375,0.734375
0,0.984375,0.765625
0,0.984375,0.796875
0,0.984375,0.828125
0,0.984375,0.859375
0,0.984375,0.890625
0,0.984375,0.921875
0,0.984375,0.953125
0,0.984375,0.984375
0,0.984375,1.01563
0,0.984375,1.04688
0,0.984375,1.07813
0,0.984375,1.10938
0,0.984375,1.14063
0,0.984375,1.17188
-82.3237,0.984375,1.20313
-86.5456,0.984375,1.23438
-10.4243,0.984375,1.26563
-4.38635,0.984375,1.29688
-3.03596,0.984375,1.32813
-1.95469,0.984375,1.35938
-1.2123,0.984375,1.39063
-0.805072,0.984375,1.42188
-0.679375,0.984375,1.45313
-0.650059,0.984375,1.48438
-0.451671,0.984375,1.51563
-0.44439,0.984375,1.54688
-0.304694,0.984375,1.57813
-0.17646,0.984375,1.60938
-0.231884,0.984375,1.64063
-0.230682,0.984375,1.67188
-0.176779,0.984375,1.70313
-0.248186,0.984375,1.73438
-0.153164,0.984375,1.76563
-0.10316,0.984375,1.79688
0.00741673,0.984375,1.82813
-2.69044,0.984375,1.85938
-5.88114,0.984375,1.89063
0,1.01563,0.015625
-0.171234,1.01563,0.046875
-0.192601,1.01563,0.078125
-0.15094,1.01563,0.109375
-0.175568,1.01563,0.140625
-0.141984,1.01563,0.171875
-0.131604,1.01563,0.203125
-0.121961,1.01563,0.234375
-0.102027,1.01563,0.265625
-0.212982,1.01563,0.296875
-0.341083,1.01563,0.328125
-0.184118,1.01563,0.359375
-0.320118,1.01563,0.390625
-0.21124,1.01563,0.421875
-0.146982,1.01563,0.453125
-0.358765,1.01563,0.484375
-0.234286,1.01563,0.515625
-0.0828862,1.01563,0.546875
0.125277,1.01563,0.578125
-0.332016,1.01563,0.609375
1.06843,1.01563,0.640625
14.8034,1.01563,0.671875
157.27,1.01563,0.703125
5.27972,1.01563,0.734375
0,1.01563,0.765625
0,1.01563,0.796875
0,1.01563,0.828125
0,1.01563,0.859375
0,1.01563,0.890625
0,1.01563,0.921875
0,1.01563,0.953125
0,1.01563,0.984375
0,1.01563,1.01563
0,1.01563,1.04688
0,1.01563,1.07813
0,1.01563,1.10938
0,1.01563,1.14063
0,1.01563,1.17188
-72.5244,1.01563,1.20313
-99.9128,1.01563,1.23438
-19.3358,1.01563,1.26563
-3.0685,1.01563,1.29688
-1.79242,1.01563,1.32813
-1.21778,1.01563,1.35938
-0.876256,1.01563,1.39063
-0.63961,1.01563,1.42188
-0.59424,1.01563,1.45313
-0.599174,1.01563,1.48438
-0.384628,1.01563,1.51563
-0.349699,1.01563,1.54688
-0.205922,1.01563,1.57813
-0.169012,1.01563,1.60938
-0.22088,1.01563,1.64063
-0.241153,1.01563,1.67188
-0.253166,1.01563,1.70313
-0.1325,1.01563,1.73438
-0.0557567,1.01563,1.76563
-0.0883077,1.01563,1.79688
0.0396986,1.01563,1.82813
-2.72941,1.01563,1.85938
-6.07387,1.01563,1.89063
0,1.04688,0.015625
-0.133606,1.04688,0.046875
-0.180532,1.04688,0.078125
-0.171127,1.04688,0.109375
-0.187074,1.04688,0.140625
-0.191034,1.04688,0.171875
-0.198683,1.04688,0.203125
-0.174195,1.04688,0.234375
-0.146268,1.04688,0.265625
-0.245295,1.04688,0.296875
-0.253461,1.04688,0.328125
-0.135419,1.04688,0.359375
-0.325073,1.04688,0.390625
-0.298513,1.04688,0.421875
-0.37347,1.04688,0.453125
-0.368111,1.04688,0.484375
-0.17581,1.04688,0.515625
0.0102983,1.04688,0.546875
0.192595,1.04688,0.578125
0.585268,1.04688,0.609375
2.9599,1.04688,0.640625
14.8839,1.04688,0.671875
155.148,1.04688,0.703125
5.42776,1.04688,0.734375
-1.54674,1.04688,0.765625
0,1.04688,0.796875
0,1.04688,0.828125
0,1.04688,0.859375
0,1.04688,0.890625
0,1.04688,0.921875
0,1.04688,0.953125
0,1.04688,0.984375
0,1.04688,1.01563
0,1.04688,1.04688
0,1.04688,1.07813
0,1.04688,1.10938
0,1.04688,1.14063
0,1.04688,1.17188
-71.5193,1.04688,1.20313
-104.392,1.04688,1.23438
0.310478,1.04688,1.26563
-2.35361,1.04688,1.29688
-0.512149,1.04688,1.32813
-0.747778,1.04688,1.35938
-0.409069,1.04688,1.39063
-0.546338,1.04688,1.42188
-0.627649,1.04688,1.45313
-0.284774,1.04688,1.48438
-0.226201,1.04688,1.51563
-0.240528,1.04688,1.54688
-0.124308,1.04688,1.57813
-0.218471,1.04688,1.60938
-0.282327,1.04688,1.64063
-0.207256,1.04688,1.67188
-0.132504,1.04688,1.70313
-0.0694061,1.04688,1.73438
-0.0835704,1.04688,1.76563
-0.109184,1.04688,1.79688
0.0222547,1.04688,1.82813
-2.90194,1.04688,1.85938
-5.70889,1.04688,1.89063
0,1.07813,0.015625
-0.127771,1.07813,0.046875
-0.172677,1.07813,0.078125
-0.155554,1.07813,0.109375
-0.125694,1.07813,0.140625
-0.150599,1.07813,0.171875
-0.155248,1.07813,0.203125
-0.127258,1.07813,0.234375
-0.165125,1.07813,0.265625
-0.262602,1.07813,0.296875
-0.245131,1.07813,0.328125
-0.196028,1.07813,0.359375
-0.321005,1.07813,0.390625
-0.372387,1.07813,0.421875
-0.452938,1.07813,0.453125
-0.33426,1.07813,0.484375
-0.278096,1.07813,0.515625
-0.159403,1.07813,0.546875
0.190883,1.07813,0.578125
0.907236,1.07813,0.609375
1.7127,1.07813,0.640625
15.1322,1.07813,0.671875
146.509,1.07813,0.703125
6.02645,1.07813,0.734375
13.1288,1.07813,0.765625
-9.68026,1.07813,0.796875
0,1.07813,0.828125
0,1.07813,0.859375
0,1.07813,0.890625
0,1.07813,0.921875
0,1.07813,0.953125
0,1.07813,0.984375
0,1.07813,1.01563
0,1.07813,1.04688
0,1.07813,1.07813
0,1.07813,1.10938
0,1.07813,1.14063
-20.6762,1.07813,1.17188
-77.0434,1.07813,1.20313
-50.4961,1.07813,1.23438
-8.77865,1.07813,1.26563
0.490864,1.07813,1.29688
0.29174,1.07813,1.32813
-0.177204,1.07813,1.35938
-0.147087,1.07813,1.39063
-0.325761,1.07813,1.42188
-0.29076,1.07813,1.45313
-0.104875,1.07813,1.48438
-0.200588,1.07813,1.51563
-0.217909,1.07813,1.54688
-0.139883,1.07813,1.57813
-0.173568,1.07813,1.60938
-0.127519,1.07813,1.64063
-0.103127,1.07813,1.67188
-0.0792444,1.07813,1.70313
-0.0971951,1.07813,1.73438
-0.112669,1.07813,1.76563
-0.103316,1.07813,1.79688
-0.0522445,1.07813,1.82813
-3.05085,1.07813,1.85938
-5.92523,1.07813,1.89063
0,1.10938,0.015625
-0.120135,1.10938,0.046875
-0.165533,1.10938,0.078125
-0.112457,1.10938,0.109375
-0.103498,1.10938,0.140625
-0.133691,1.10938,0.171875
-0.143659,1.10938,0.203125
-0.115724,1.10938,0.234375
-0.191508,1.10938,0.265625
-0.259623,1.10938,0.296875
-0.26192,1.10938,0.328125
-0.266425,1.10938,0.359375
-0.333732,1.10938,0.390625
-0.351356,1.10938,0.421875
-0.378898,1.10938,0.453125
-0.33447,1.10938,0.484375
-0.297749,1.10938,0.515625
-0.168403,1.10938,0.546875
0.172841,1.10938,0.578125
0.92174,1.10938,0.609375
2.39251,1.10938,0.640625
12.3036,1.10938,0.671875
72.6065,1.10938,0.703125
71.7315,1.10938,0.734375
6.04241,1.10938,0.765625
7.62091,1.10938,0.796875
-5.23794,1.10938,0.828125
0,1.10938,0.859375
0,1.10938,0.890625
0,1.10938,0.921875
0,1.10938,0.953125
0,1.10938,0.984375
0,1.10938,1.01563
0,1.10938,1.04688
0,1.10938,1.07813
0,1.10938,1.10938
0,1.10938,1.14063
-37.4168,1.10938,1.17188
-65.5982,1.10938,1.20313
-25.041,1.10938,1.23438
-9.77285,1.10938,1.26563
2.09501,1.10938,1.29688
0.0674591,1.10938,1.32813
0.145838,1.10938,1.35938
0.0456476,1.10938,1.39063
-0.0427399,1.10938,1.42188
0.0859041,1.10938,1.45313
-0.0445223,1.10938,1.48438
-0.141505,1.10938,1.51563
-0.171571,1.10938,1.54688
-0.138849,1.10938,1.57813
-0.0262972,1.10938,1.60938
-0.0595378,1.10938,1.64063
-0.146645,1.10938,1.67188
-0.118389,1.10938,1.70313
-0.081946,1.10938,1.73438
-0.114085,1.10938,1.76563
-0.0916258,1.10938,1.79688
-0.0226547,1.10938,1.82813
-3.09895,1.10938,1.85938
-6.36515,1.10938,1.89063
0,1.14063,0.015625
-0.0457144,1.14063,0.046875
-0.131617,1.14063,0.078125
-0.106575,1.14063,0.109375
-0.127367,1.14063,0.140625
-0.155159,1.14063,0.171875
-0.175643,1.14063,0.203125
-0.13425,1.14063,0.234375
-0.177794,1.14063,0.265625
-0.222438,1.14063,0.296875
-0.230195,1.14063,0.328125
-0.19625,1.14063,0.359375
-0.260645,1.14063,0.390625
-0.356712,1.14063,0.421875
-0.33901,1.14063,0.453125
-0.193868,1.14063,0.484375
-0.134709,1.14063,0.515625
0.091712,1.14063,0.546875
0.528691,1.14063,0.578125
1.45629,1.14063,0.609375
3.53556,1.14063,0.640625
11.547,1.14063,0.671875
53.7778,1.14063,0.703125
78.899,1.14063,0.734375
8.92466,1.14063,0.765625
-5.12152,1.14063,0.796875
-6.00275,1.14063,0.828125
-4.85041,1.14063,0.859375
0,1.14063,0.890625
0,1.14063,0.921875
0,1.14063,0.953125
0,1.14063,0.984375
0,1.14063,1.01563
0,1.14063,1.04688
0,1.14063,1.07813
0,1.14063,1.10938
-1.22475,1.14063,1.14063
-49.5573,1.14063,1.17188
-44.1444,1.14063,1.20313
-25.5873,1.14063,1.23438
-8.9563,1.14063,1.26563
-1.69284,1.14063,1.29688
0.190578,1.14063,1.32813
0.234385,1.14063,1.35938
-0.0611992,1.14063,1.39063
0.212083,1.14063,1.42188
0.236497,1.14063,1.45313
-0.129677,1.14063,1.48438
-0.144892,1.14063,1.51563
-0.104381,1.14063,1.54688
-0.0547481,1.14063,1.57813
0.00834703,1.14063,1.60938
-0.0951762,1.14063,1.64063
-0.139807,1.14063,1.67188
-0.0386302,1.14063,1.70313
-0.0572821,1.14063,1.73438
-0.106515,1.14063,1.76563
-0.0675137,1.14063,1.79688
0.076931,1.14063,1.82813
-2.94571,1.14063,1.85938
-6.57898,1.14063,1.89063
0,1.17188,0.015625
0.00599456,1.17188,0.046875
-0.113318,1.17188,0.078125
-0.125522,1.17188,0.109375
-0.124077,1.17188,0.140625
-0.161471,1.17188,0.171875
-0.167917,1.17188,0.203125
-0.177455,1.17188,0.234375
-0.259909,1.17188,0.265625
-0.236863,1.17188,0.296875
-0.156773,1.17188,0.328125
-0.177096,1.17188,0.359375
-0.228464,1.17188,0.390625
-0.371495,1.17188,0.421875
-0.333277,1.17188,0.453125
-0.322364,1.17188,0.484375
-0.220023,1.17188,0.515625
0.174812,1.17188,0.546875
0.54282,1.17188,0.578125
1.48207,1.17188,0.609375
3.2867,1.17188,0.640625
6.85391,1.17188,0.671875
44.5154,1.17188,0.703125
65.6287,1.17188,0.734375
41.8787,1.17188,0.765625
3.64283,1.17188,0.796875
-4.90391,1.17188,0.828125
-20.5069,1.17188,0.859375
-27.139,1.17188,0.890625
-30.369,1.17188,0.921875
-22.429,1.17188,0.953125
0,1.17188,0.984375
9.07241,1.17188,1.01563
26.2265,1.17188,1.04688
24.8637,1.17188,1.07813
22.3245,1.17188,1.10938
-8.71373,1.17188,1.14063
-48.2559,1.17188,1.17188
-50.3992,1.17188,1.20313
-22.0669,1.17188,1.23438
-5.96827,1.17188,1.26563
-2.87811,1.17188,1.29688
-0.707897,1.17188,1.32813
-0.246214,1.17188,1.35938
0.14756,1.17188,1.39063
0.0940485,1.17188,1.42188
-0.0206528,1.17188,1.45313
-0.13107,1.17188,1.48438
-0.0928669,1.17188,1.51563
-0.0836096,1.17188,1.54688
-0.029541,1.17188,1.57813
0.0221839,1.17188,1.60938
-0.103663,1.17188,1.64063
-0.0278547,1.17188,1.67188
0.0213366,1.17188,1.70313
-0.104788,1.17188,1.73438
-0.111378,1.17188,1.76563
-0.0834246,1.17188,1.79688
0.0604854,1.17188,1.82813
-2.93482,1.17188,1.85938
-6.68867,1.17188,1.89063
0,1.20313,0.015625
0.0319629,1.20313,0.046875
-0.0961744,1.20313,0.078125
-0.128308,1.20313,0.109375
-0.114295,1.20313,0.140625
-0.135443,1.20313,0.171875
-0.197716,1.20313,0.203125
-0.182941,1.20313,0.234375
-0.160107,1.20313,0.265625
-0.177826,1.20313,0.296875
-0.151375,1.20313,0.328125
-0.222613,1.20313,0.359375
-0.288882,1.20313,0.390625
-0.337169,1.20313,0.421875
-0.375256,1.20313,0.453125
-0.127179,1.20313,0.484375
0.0420885,1.20313,0.515625
0.278348,1.20313,0.546875
0.623421,1.20313,0.578125
1.25492,1.20313,0.609375
2.86489,1.20313,0.640625
5.92264,1.20313,0.671875
24.8326,1.20313,0.703125
60.2738,1.20313,0.734375
66.8238,1.20313,0.765625
29.9621,1.20313,0.796875
-4.50311,1.20313,0.828125
-1.82904,1.20313,0.859375
-13.1029,1.20313,0.890625
-13.5646,1.20313,0.921875
-12.3466,1.20313,0.953125
-11.2598,1.20313,0.984375
4.87582,1.20313,1.01563
3.46653,1.20313,1.04688
13.5796,1.20313,1.07813
12.6046,1.20313,1.10938
-21.7614,1.20313,1.14063
-59.2758,1.20313,1.17188
-45.0291,1.20313,1.20313
-14.3058,1.20313,1.23438
-7.19535,1.20313,1.26563
-2.92815,1.20313,1.29688
-1.2781,1.20313,1.32813
-0.541904,1.20313,1.35938
-0.28159,1.20313,1.39063
-0.169918,1.20313,1.42188
0.11417,1.20313,1.45313
0.0491686,1.20313,1.48438
0.0811234,1.20313,1.51563
0.116347,1.20313,1.54688
0.052587,1.20313,1.57813
0.040689,1.20313,1.60938
-0.0780325,1.20313,1.64063
-0.0229533,1.20313,1.67188
-0.0476422,1.20313,1.70313
-0.0253191,1.20313,1.73438
-0.0790696,1.20313,1.76563
-0.0612618,1.20313,1.79688
-0.00119984,1.20313,1.82813
-3.26269,1.20313,1.85938
-6.33421,1.20313,1.89063
0,1.23438,0.015625
0.0791943,1.23438,0.046875
-0.0723304,1.23438,0.078125
-0.0823354,1.23438,0.109375
-0.0667952,1.23438,0.140625
-0.100885,1.23438,0.171875
-0.15201,1.23438,0.203125
-0.152049,1.23438,0.234375
-0.144033,1.23438,0.265625
-0.159373,1.23438,0.296875
-0.154482,1.23438,0.328125
-0.285203,1.23438,0.359375
-0.151853,1.23438,0.390625
-0.10562,1.23438,0.421875
-0.294876,1.23438,0.453125
0.0460052,1.23438,0.484375
0.0701742,1.23438,0.515625
0.096386,1.23438,0.546875
0.683449,1.23438,0.578125
1.3171,1.23438,0.609375
2.36214,1.23438,0.640625
3.79368,1.23438,0.671875
10.2622,1.23438,0.703125
48.3329,1.23438,0.734375
68.6156,1.23438,0.765625
34.6389,1.23438,0.796875
22.8689,1.23438,0.828125
13.5301,1.23438,0.859375
15.3293,1.23438,0.890625
10.0991,1.23438,0.921875
14.0396,1.23438,0.953125
2.94556,1.23438,0.984375
-8.79808,1.23438,1.01563
-16.931,1.23438,1.04688
-17.8385,1.23438,1.07813
-21.8759,1.23438,1.10938
-45.9434,1.23438,1.14063
-64.6709,1.23438,1.17188
-37.197,1.23438,1.20313
-11.1636,1.23438,1.23438
-6.63427,1.23438,1.26563
-2.59169,1.23438,1.29688
-1.20591,1.23438,1.32813
-0.558834,1.23438,1.35938
-0.535728,1.23438,1.39063
-0.22447,1.23438,1.42188
0.0675678,1.23438,1.45313
0.000734329,1.23438,1.48438
0.060133,1.23438,1.51563
-0.0624323,1.23438,1.54688
0.0496311,1.23438,1.57813
0.0696135,1.23438,1.60938
-0.0376639,1.23438,1.64063
-0.0215578,1.23438,1.67188
0.0138421,1.23438,1.70313
-0.0174835,1.23438,1.73438
-0.0691614,1.23438,1.76563
-0.0608474,1.23438,1.79688
-0.062274,1.23438,1.82813
-3.55332,1.23438,1.85938
-6.18082,1.23438,1.89063
0,1.26563,0.015625
0.140571,1.26563,0.046875
-0.015491,1.26563,0.078125
-0.0524193,1.26563,0.109375
-0.0856466,1.26563,0.140625
-0.144447,1.26563,0.171875
-0.167551,1.26563,0.203125
-0.218786,1.26563,0.234375
-0.16233,1.26563,0.265625
-0.124016,1.26563,0.296875
-0.13428,1.26563,0.328125
-0.252084,1.26563,0.359375
-0.127084,1.26563,0.390625
-0.0645151,1.26563,0.421875
-0.123085,1.26563,0.453125
0.0172081,1.26563,0.484375
0.0932121,1.26563,0.515625
0.230034,1.26563,0.546875
0.688025,1.26563,0.578125
1.27683,1.26563,0.609375
1.61279,1.26563,0.640625
2.82548,1.26563,0.671875
5.35897,1.26563,0.703125
28.2117,1.26563,0.734375
52.328,1.26563,0.765625
43.7687,1.26563,0.796875
38.6624,1.26563,0.828125
39.4002,1.26563,0.859375
34.1098,1.26563,0.890625
28.8265,1.26563,0.921875
13.2496,1.26563,0.953125
0.642166,1.26563,0.984375
-10.2485,1.26563,1.01563
-22.2053,1.26563,1.04688
-23.8072,1.26563,1.07813
-34.3489,1.26563,1.10938
-59.5336,1.26563,1.14063
-59.3252,1.26563,1.17188
-29.8612,1.26563,1.20313
-8.97868,1.26563,1.23438
-4.19118,1.26563,1.26563
-2.07844,1.26563,1.29688
-0.868258,1.26563,1.32813
-0.653643,1.26563,1.35938
-0.326992,1.26563,1.39063
0.0850353,1.26563,1.42188
0.181501,1.26563,1.45313
0.113963,1.26563,1.48438
-0.0282488,1.26563,1.51563
-0.0788908,1.26563,1.54688
0.0924959,1.26563,1.57813
0.0552931,1.26563,1.60938
0.0131564,1.26563,1.64063
0.044661,1.26563,1.67188
0.0438962,1.26563,1.70313
-0.0662317,1.26563,1.73438
-0.0430207,1.26563,1.76563
-0.0570436,1.26563,1.79688
-0.0174624,1.26563,1.82813
-3.63591,1.26563,1.85938
-6.91499,1.26563,1.89063
0,1.29688,0.015625
0.142587,1.29688,0.046875
-0.00721204,1.29688,0.078125
-0.0905793,1.29688,0.109375
-0.162279,1.29688,0.140625
-0.12507,1.29688,0.171875
-0.121102,1.29688,0.203125
-0.0950489,1.29688,0.234375
-0.0701838,1.29688,0.265625
-0.169811,1.29688,0.296875
-0.243455,1.29688,0.328125
-0.188519,1.29688,0.359375
-0.0509043,1.29688,0.390625
0.0363092,1.29688,0.421875
-0.141402,1.29688,0.453125
-0.134418,1.29688,0.484375
0.248041,1.29688,0.515625
0.358841,1.29688,0.546875
0.269758,1.29688,0.578125
0.738262,1.29688,0.609375
1.47592,1.29688,0.640625
2.97825,1.29688,0.671875
4.34657,1.29688,0.703125
11.6803,1.29688,0.734375
30.0409,1.29688,0.765625
39.3971,1.29688,0.796875
40.3043,1.29688,0.828125
45.8901,1.29688,0.859375
44.9984,1.29688,0.890625
33.5383,1.29688,0.921875
17.3012,1.29688,0.953125
0.717301,1.29688,0.984375
-16.2218,1.29688,1.01563
-27.9235,1.29688,1.04688
-34.5455,1.29688,1.07813
-51.5379,1.29688,1.10938
-59.0975,1.29688,1.14063
-40.6639,1.29688,1.17188
-15.0211,1.29688,1.20313
-3.71784,1.29688,1.23438
-1.3705,1.29688,1.26563
-1.28635,1.29688,1.29688
-0.690063,1.29688,1.32813
-0.257832,1.29688,1.35938
-0.14603,1.29688,1.39063
0.0871639,1.29688,1.42188
0.0682602,1.29688,1.45313
-0.00748634,1.29688,1.48438
0.0627279,1.29688,1.51563
0.0826759,1.29688,1.54688
0.122003,1.29688,1.57813
0.103076,1.29688,1.60938
0.0220251,1.29688,1.64063
0.0884514,1.29688,1.67188
0.0116405,1.29688,1.70313
-0.0334482,1.29688,1.73438
-0.00675178,1.29688,1.76563
0.00420499,1.29688,1.79688
0.0484867,1.29688,1.82813
-3.68401,1.29688,1.85938
-7.97919,1.29688,1.89063
0,1.32813,0.015625
0.184459,1.32813,0.046875
-0.0502287,1.32813,0.078125
-0.0961248,1.32813,0.109375
-0.122977,1.32813,0.140625
-0.0803666,1.32813,0.171875
-0.0398285,1.32813,0.203125
-0.0619826,1.32813,0.234375
-0.160653,1.32813,0.265625
-0.161067,1.32813,0.296875
-0.159669,1.32813,0.328125
-0.042469,1.32813,0.359375
-0.0860577,1.32813,0.390625
-0.0964508,1.32813,0.421875
-0.120317,1.32813,0.453125
-0.048152,1.32813,0.484375
0.323795,1.32813,0.515625
0.188276,1.32813,0.546875
0.259789,1.32813,0.578125
0.983982,1.32813,0.609375
1.83369,1.32813,0.640625
2.87886,1.32813,0.671875
4.10306,1.32813,0.703125
6.17714,1.32813,0.734375
13.8705,1.32813,0.765625
28.3514,1.32813,0.796875
36.8239,1.32813,0.828125
35.976,1.32813,0.859375
37.894,1.32813,0.890625
34.7266,1.32813,0.921875
18.9398,1.32813,0.953125
-2.01897,1.32813,0.984375
-20.399,1.32813,1.01563
-31.2821,1.32813,1.04688
-42.7633,1.32813,1.07813
-50.3212,1.32813,1.10938
-38.1922,1.32813,1.14063
-18.4345,1.32813,1.17188
-4.73262,1.32813,1.20313
-2.14114,1.32813,1.23438
-1.24797,1.32813,1.26563
-0.629444,1.32813,1.29688
-0.264311,1.32813,1.32813
-0.150541,1.32813,1.35938
-0.0895271,1.32813,1.39063
0.152514,1.32813,1.42188
0.215998,1.32813,1.45313
-0.0114098,1.32813,1.48438
0.071064,1.32813,1.51563
0.0451517,1.32813,1.54688
0.0716066,1.32813,1.57813
0.00588036,1.32813,1.60938
0.0536847,1.32813,1.64063
0.0196471,1.32813,1.67188
-0.104965,1.32813,1.70313
-0.0297465,1.32813,1.73438
0.0899725,1.32813,1.76563
0.0468724,1.32813,1.79688
0.0884726,1.32813,1.82813
-3.96217,1.32813,1.85938
-9.20491,1.32813,1.89063
0,1.35938,0.015625
0.150273,1.35938,0.046875
0.00704718,1.35938,0.078125
-0.0137299,1.35938,0.109375
-0.0323944,1.35938,0.140625
-0.0834341,1.35938,0.171875
-0.0730834,1.35938,0.203125
-0.153287,1.35938,0.234375
-0.0657539,1.35938,0.265625
-0.0629215,1.35938,0.296875
-0.0512934,1.35938,0.328125
-0.144877,1.35938,0.359375
-0.13959,1.35938,0.390625
0.0197067,1.35938,0.421875
-0.0496483,1.35938,0.453125
-0.0889549,1.35938,0.484375
0.136045,1.35938,0.515625
0.404627,1.35938,0.546875
0.545618,1.35938,0.578125
1.14664,1.35938,0.609375
1.6882,1.35938,0.640625
2.14568,1.35938,0.671875
3.45934,1.35938,0.703125
5.15787,1.35938,0.734375
8.48786,1.35938,0.765625
16.6817,1.35938,0.796875
26.2904,1.35938,0.828125
29.8507,1.35938,0.859375
31.2363,1.35938,0.890625
28.4644,1.35938,0.921875
14.7071,1.35938,0.953125
-3.89284,1.35938,0.984375
-19.1702,1.35938,1.01563
-29.3902,1.35938,1.04688
-34.7949,1.35938,1.07813
-31.1325,1.35938,1.10938
-20.1104,1.35938,1.14063
-9.53234,1.35938,1.17188
-3.28205,1.35938,1.20313
-1.52298,1.35938,1.23438
-0.9104,1.35938,1.26563
-0.216059,1.35938,1.29688
-0.0851307,1.35938,1.32813
-0.388885,1.35938,1.35938
-0.0130444,1.35938,1.39063
0.248312,1.35938,1.42188
-0.0600681,1.35938,1.45313
0.0751886,1.35938,1.48438
0.00407028,1.35938,1.51563
-0.0217562,1.35938,1.54688
0.0437489,1.35938,1.57813
-0.0260162,1.35938,1.60938
0.110601,1.35938,1.64063
0.0356736,1.35938,1.67188
-0.00212383,1.35938,1.70313
0.0124378,1.35938,1.73438
0.0206621,1.35938,1.76563
0.112824,1.35938,1.79688
0.266032,1.35938,1.82813
-4.06491,1.35938,1.85938
-9.12746,1.35938,1.89063
0,1.39063,0.015625
0.199845,1.39063,0.046875
0.0774451,1.39063,0.078125
-0.0157028,1.39063,0.109375
-0.0455594,1.39063,0.140625
-0.103318,1.39063,0.171875
-0.107938,1.39063,0.203125
-0.0540385,1.39063,0.234375
0.0230007,1.39063,0.265625
-0.0977368,1.39063,0.296875
-0.0626755,1.39063,0.328125
-0.119478,1.39063,0.359375
0.0803185,1.39063,0.390625
0.0500994,1.39063,0.421875
-0.0661297,1.39063,0.453125
0.0266418,1.39063,0.484375
0.264666,1.39063,0.515625
0.494719,1.39063,0.546875
0.695799,1.39063,0.578125
0.937487,1.39063,0.609375
1.31801,1.39063,0.640625
2.19395,1.39063,0.671875
3.45091,1.39063,0.703125
4.98401,1.39063,0.734375
5.97676,1.39063,0.765625
10.0243,1.39063,0.796875
16.8749,1.39063,0.828125
21.3971,1.39063,0.859375
22.0312,1.39063,0.890625
19.5745,1.39063,0.921875
7.91153,1.39063,0.953125
-5.70661,1.39063,0.984375
-18.8496,1.39063,1.01563
-25.6624,1.39063,1.04688
-24.607,1.39063,1.07813
-20.857,1.39063,1.10938
-12.1542,1.39063,1.14063
-3.90215,1.39063,1.17188
-2.1811,1.39063,1.20313
-1.22188,1.39063,1.23438
-0.665749,1.39063,1.26563
-0.043457,1.39063,1.29688
-0.513653,1.39063,1.32813
-0.191267,1.39063,1.35938
0.112446,1.39063,1.39063
-0.00349045,1.39063,1.42188
-0.121374,1.39063,1.45313
0.0707893,1.39063,1.48438
0.0782385,1.39063,1.51563
0.15748,1.39063,1.54688
0.0744982,1.39063,1.57813
0.161049,1.39063,1.60938
0.059886,1.39063,1.64063
0.00918627,1.39063,1.67188
0.0114355,1.39063,1.70313
0.0319571,1.39063,1.73438
0.0493121,1.39063,1.76563
0.0596237,1.39063,1.79688
0.0716138,1.39063,1.82813
-3.95592,1.39063,1.85938
-8.08486,1.39063,1.89063
0,1.42188,0.015625
0.346795,1.42188,0.046875
0.0900154,1.42188,0.078125
-0.037788,1.42188,0.109375
-0.0390849,1.42188,0.140625
-0.0484829,1.42188,0.171875
-0.0607791,1.42188,0.203125
-0.0497432,1.42188,0.234375
-0.0267096,1.42188,0.265625
-0.0645604,1.42188,0.296875
-0.100718,1.42188,0.328125
0.0366793,1.42188,0.359375
0.0590715,1.42188,0.390625
-0.0605173,1.42188,0.421875
-0.0281267,1.42188,0.453125
0.31934,1.42188,0.484375
0.225723,1.42188,0.515625
0.311638,1.42188,0.546875
0.732607,1.42188,0.578125
0.654144,1.42188,0.609375
1.32771,1.42188,0.640625
2.16216,1.42188,0.671875
3.34646,1.42188,0.703125
4.30901,1.42188,0.734375
5.79675,1.42188,0.765625
7.8588,1.42188,0.796875
10.6548,1.42188,0.828125
15.5188,1.42188,0.859375
15.0809,1.42188,0.890625
11.532,1.42188,0.921875
4.29933,1.42188,0.953125
-8.05419,1.42188,0.984375
-18.5274,1.42188,1.01563
-19.752,1.42188,1.04688
-17.1789,1.42188,1.07813
-14.4492,1.42188,1.10938
-8.10127,1.42188,1.14063
-3.29934,1.42188,1.17188
-2.19284,1.42188,1.20313
-1.25441,1.42188,1.23438
-0.734474,1.42188,1.26563
-0.635933,1.42188,1.29688
-0.43079,1.42188,1.32813
0.175711,1.42188,1.35938
0.0124416,1.42188,1.39063
-0.00949669,1.42188,1.42188
0.207335,1.42188,1.45313
0.168206,1.42188,1.48438
-0.0169506,1.42188,1.51563
0.0203152,1.42188,1.54688
0.173544,1.42188,1.57813
0.104746,1.42188,1.60938
-0.00303745,1.42188,1.64063
0.0445309,1.42188,1.67188
0.0708127,1.42188,1.70313
0.0961561,1.42188,1.73438
0.026484,1.42188,1.76563
-0.0524998,1.42188,1.79688
-0.0153828,1.42188,1.82813
-3.77477,1.42188,1.85938
-7.46112,1.42188,1.89063
0,1.45313,0.015625
0.341935,1.45313,0.046875
-0.000659227,1.45313,0.078125
-0.0926355,1.45313,0.109375
-0.0328159,1.45313,0.140625
-0.013628,1.45313,0.171875
0.0361776,1.45313,0.203125
-0.0353484,1.45313,0.234375
-0.0627317,1.45313,0.265625
-0.0486488,1.45313,0.296875
0.00528145,1.45313,0.328125
0.0103769,1.45313,0.359375
-0.192012,1.45313,0.390625
0.0571299,1.45313,0.421875
0.22275,1.45313,0.453125
0.289623,1.45313,0.484375
0.290901,1.45313,0.515625
0.436403,1.45313,0.546875
0.580906,1.45313,0.578125
0.638248,1.45313,0.609375
1.5519,1.45313,0.640625
1.76723,1.45313,0.671875
2.97415,1.45313,0.703125
3.99104,1.45313,0.734375
5.65127,1.45313,0.765625
7.31552,1.45313,0.796875
9.13596,1.45313,0.828125
11.4909,1.45313,0.859375
10.7398,1.45313,0.890625
6.98844,1.45313,0.921875
3.64093,1.45313,0.953125
-8.52045,1.45313,0.984375
-16.5607,1.45313,1.01563
-16.4196,1.45313,1.04688
-13.7906,1.45313,1.07813
-11.2482,1.45313,1.10938
-5.35786,1.45313,1.14063
-3.33781,1.45313,1.17188
-2.36934,1.45313,1.20313
-1.36155,1.45313,1.23438
-0.865044,1.45313,1.26563
-0.442366,1.45313,1.29688
-0.112516,1.45313,1.32813
-0.0671844,1.45313,1.35938
-0.0428467,1.45313,1.39063
0.0731659,1.45313,1.42188
0.129366,1.45313,1.45313
0.0221815,1.45313,1.48438
0.00103188,1.45313,1.51563
0.124222,1.45313,1.54688
0.164609,1.45313,1.57813
-0.0237455,1.45313,1.60938
0.0311918,1.45313,1.64063
0.0649385,1.45313,1.67188
0.103242,1.45313,1.70313
-0.0188813,1.45313,1.73438
-0.10803,1.45313,1.76563
-0.050529,1.45313,1.79688
0.0239837,1.45313,1.82813
-3.67889,1.45313,1.85938
-7.15397,1.45313,1.89063
0,1.48438,0.015625
0.370443,1.48438,0.046875
0.0744781,1.48438,0.078125
-0.075074,1.48438,0.109375
-0.00250268,1.48438,0.140625
0.0419574,1.48438,0.171875
-0.052825,1.48438,0.203125
-0.0605092,1.48438,0.234375
-0.0542254,1.48438,0.265625
0.0573316,1.48438,0.296875
-0.0178099,1.48438,0.328125
-0.0119791,1.48438,0.359375
0.0658598,1.48438,0.390625
0.13636,1.48438,0.421875
0.246249,1.48438,0.453125
0.124018,1.48438,0.484375
0.230137,1.48438,0.515625
0.195965,1.48438,0.546875
0.59565,1.48438,0.578125
1.12481,1.48438,0.609375
1.13009,1.48438,0.640625
1.78543,1.48438,0.671875
2.63975,1.48438,0.703125
3.02275,1.48438,0.734375
4.78798,1.48438,0.765625
6.49293,1.48438,0.796875
7.88417,1.48438,0.828125
7.55249,1.48438,0.859375
7.55652,1.48438,0.890625
6.37416,1.48438,0.921875
2.52796,1.48438,0.953125
-7.56673,1.48438,0.984375
-13.9965,1.48438,1.01563
-11.7209,1.48438,1.04688
-11.0371,1.48438,1.07813
-8.37864,1.48438,1.10938
-3.76329,1.48438,1.14063
-3.22391,1.48438,1.17188
-2.65229,1.48438,1.20313
-1.33832,1.48438,1.23438
-0.770298,1.48438,1.26563
-0.507339,1.48438,1.29688
-0.153505,1.48438,1.32813
-0.209465,1.48438,1.35938
0.102385,1.48438,1.39063
0.0744057,1.48438,1.42188
0.0298233,1.48438,1.45313
0.0462599,1.48438,1.48438
0.171108,1.48438,1.51563
0.234055,1.48438,1.54688
0.0793695,1.48438,1.57813
0.011488,1.48438,1.60938
0.0580111,1.48438,1.64063
0.0842104,1.48438,1.67188
0.0300083,1.48438,1.70313
0.0313129,1.48438,1.73438
0.018302,1.48438,1.76563
-0.0967641,1.48438,1.79688
-0.386085,1.48438,1.82813
-3.7907,1.48438,1.85938
-6.97082,1.48438,1.89063
0,1.51563,0.015625
0.269125,1.51563,0.046875
0.121006,1.51563,0.078125
0.0327771,1.51563,0.109375
0.11812,1.51563,0.140625
0.0287132,1.51563,0.171875
-0.0629396,1.51563,0.203125
-0.010181,1.51563,0.234375
-0.0377021,1.51563,0.265625
0.0288405,1.51563,0.296875
-0.0670109,1.51563,0.328125
0.00177479,1.51563,0.359375
0.123987,1.51563,0.390625
0.189548,1.51563,0.421875
0.202466,1.51563,0.453125
0.125909,1.51563,0.484375
0.295353,1.51563,0.515625
0.42786,1.51563,0.546875
0.693344,1.51563,0.578125
0.760536,1.51563,0.609375
1.11649,1.51563,0.640625
1.84605,1.51563,0.671875
2.054,1.51563,0.703125
2.57573,1.51563,0.734375
3.69475,1.51563,0.765625
4.65486,1.51563,0.796875
5.31673,1.51563,0.828125
5.39337,1.51563,0.859375
5.50992,1.51563,0.890625
5.53848,1.51563,0.921875
-0.319941,1.51563,0.953125
-6.81777,1.51563,0.984375
-8.69419,1.51563,1.01563
-8.70119,1.51563,1.04688
-9.04843,1.51563,1.07813
-5.93407,1.51563,1.10938
-3.95557,1.51563,1.14063
-3.47967,1.51563,1.17188
-2.18248,1.51563,1.20313
-1.10868,1.51563,1.23438
-0.53013,1.51563,1.26563
-0.588348,1.51563,1.29688
-0.165714,1.51563,1.32813
-0.147846,1.51563,1.35938
0.121464,1.51563,1.39063
0.136267,1.51563,1.42188
0.11675,1.51563,1.45313
0.223064,1.51563,1.48438
0.0880814,1.51563,1.51563
0.0266476,1.51563,1.54688
0.0107479,1.51563,1.57813
0.114242,1.51563,1.60938
0.0534143,1.51563,1.64063
-0.0117035,1.51563,1.67188
-0.0561013,1.51563,1.70313
0.0367689,1.51563,1.73438
0.0640955,1.51563,1.76563
-0.0902767,1.51563,1.79688
-0.531142,1.51563,1.82813
-4.33698,1.51563,1.85938
-7.96001,1.51563,1.89063
0,1.54688,0.015625
0.378388,1.54688,0.046875
0.124459,1.54688,0.078125
0.0651945,1.54688,0.109375
0.0147564,1.54688,0.140625
-0.0248282,1.54688,0.171875
0.0422177,1.54688,0.203125
-0.0121255,1.54688,0.234375
0.0259275,1.54688,0.265625
-0.0429797,1.54688,0.296875
0.0118294,1.54688,0.328125
0.0911732,1.54688,0.359375
0.0747662,1.54688,0.390625
0.0296993,1.54688,0.421875
0.0305033,1.54688,0.453125
0.184975,1.54688,0.484375
0.272031,1.54688,0.515625
0.445961,1.54688,0.546875
0.734125,1.54688,0.578125
0.627951,1.54688,0.609375
1.12191,1.54688,0.640625
1.59063,1.54688,0.671875
1.93892,1.54688,0.703125
2.54002,1.54688,0.734375
2.99739,1.54688,0.765625
3.47109,1.54688,0.796875
3.5673,1.54688,0.828125
4.48602,1.54688,0.859375
4.19883,1.54688,0.890625
2.58978,1.54688,0.921875
-1.17617,1.54688,0.953125
-4.76465,1.54688,0.984375
-7.19478,1.54688,1.01563
-7.45059,1.54688,1.04688
-6.58762,1.54688,1.07813
-4.51722,1.54688,1.10938
-3.67369,1.54688,1.14063
-2.50726,1.54688,1.17188
-1.35144,1.54688,1.20313
-1.08399,1.54688,1.23438
-0.587643,1.54688,1.26563
-0.336683,1.54688,1.29688
-0.210594,1.54688,1.32813
-0.12125,1.54688,1.35938
0.0424194,1.54688,1.39063
0.147421,1.54688,1.42188
-0.0570526,1.54688,1.45313
0.0825548,1.54688,1.48438
0.0619907,1.54688,1.51563
0.0255356,1.54688,1.54688
0.0687027,1.54688,1.57813
0.0909414,1.54688,1.60938
0.089427,1.54688,1.64063
0.0469818,1.54688,1.67188
0.0664086,1.54688,1.70313
0.0712051,1.54688,1.73438
0.00231409,1.54688,1.76563
-0.102413,1.54688,1.79688
-0.235557,1.54688,1.82813
-5.15627,1.54688,1.85938
-10.3662,1.54688,1.89063
0,1.57813,0.015625
0.38894,1.57813,0.046875
0.125069,1.57813,0.078125
0.0682118,1.57813,0.109375
-0.024828,1.57813,0.140625
-0.0396307,1.57813,0.171875
-0.01717,1.57813,0.203125
-0.0132837,1.57813,0.234375
0.05408,1.57813,0.265625
0.0140448,1.57813,0.296875
0.0609598,1.57813,0.328125
0.0783472,1.57813,0.359375
0.0413561,1.57813,0.390625
0.134044,1.57813,0.421875
0.0885105,1.57813,0.453125
0.244409,1.57813,0.484375
0.240971,1.57813,0.515625
0.472795,1.57813,0.546875
0.51709,1.57813,0.578125
0.586136,1.57813,0.609375
1.16384,1.57813,0.640625
1.24215,1.57813,0.671875
1.61958,1.57813,0.703125
2.20104,1.57813,0.734375
2.45185,1.57813,0.765625
2.63308,1.57813,0.796875
2.74285,1.57813,0.828125
3.32009,1.57813,0.859375
2.91573,1.57813,0.890625
1.13852,1.57813,0.921875
-1.30538,1.57813,0.953125
-3.37024,1.57813,0.984375
-4.87908,1.57813,1.01563
-5.60832,1.57813,1.04688
-5.1458,1.57813,1.07813
-3.8441,1.57813,1.10938
-2.92872,1.57813,1.14063
-1.76417,1.57813,1.17188
-1.30654,1.57813,1.20313
-0.97723,1.57813,1.23438
-0.518156,1.57813,1.26563
-0.261755,1.57813,1.29688
-0.216068,1.57813,1.32813
0.00736809,1.57813,1.35938
-0.0840797,1.57813,1.39063
-0.0442524,1.57813,1.42188
0.0429707,1.57813,1.45313
-0.00583458,1.57813,1.48438
0.0592537,1.57813,1.51563
0.00525951,1.57813,1.54688
0.0628138,1.57813,1.57813
0.0580425,1.57813,1.60938
0.100543,1.57813,1.64063
0.0773067,1.57813,1.67188
0.0021925,1.57813,1.70313
0.0392179,1.57813,1.73438
0.0675025,1.57813,1.76563
0.000473976,1.57813,1.79688
-0.0331359,1.57813,1.82813
-5.72508,1.57813,1.85938
-12.2959,1.57813,1.89063
0,1.60938,0.015625
0.335538,1.60938,0.046875
0.151571,1.60938,0.078125
0.0375428,1.60938,0.109375
-0.0302312,1.60938,0.140625
0.00862384,1.60938,0.171875
0.0236053,1.60938,0.203125
0.0780911,1.60938,0.234375
-0.0353646,1.60938,0.265625
0.0339632,1.60938,0.296875
0.115936,1.60938,0.328125
0.131975,1.60938,0.359375
0.155521,1.60938,0.390625
0.211193,1.60938,0.421875
0.25102,1.60938,0.453125
0.285493,1.60938,0.484375
0.230362,1.60938,0.515625
0.434239,1.60938,0.546875
0.433676,1.60938,0.578125
0.64459,1.60938,0.609375
1.00148,1.60938,0.640625
0.875748,1.60938,0.671875
1.34505,1.60938,0.703125
1.67743,1.60938,0.734375
1.82164,1.60938,0.765625
1.82543,1.60938,0.796875
2.05063,1.60938,0.828125
2.12116,1.60938,0.859375
1.57984,1.60938,0.890625
0.324821,1.60938,0.921875
-0.847191,1.60938,0.953125
-2.66365,1.60938,0.984375
-3.89205,1.60938,1.01563
-4.58879,1.60938,1.04688
-3.71158,1.60938,1.07813
-3.15406,1.60938,1.10938
-2.15677,1.60938,1.14063
-1.74226,1.60938,1.17188
-1.30045,1.60938,1.20313
-0.926453,1.60938,1.23438
-0.737438,1.60938,1.26563
-0.383141,1.60938,1.29688
-0.121008,1.60938,1.32813
-0.197163,1.60938,1.35938
-0.156803,1.60938,1.39063
0.0102167,1.60938,1.42188
0.0145092,1.60938,1.45313
-0.0741739,1.60938,1.48438
0.108154,1.60938,1.51563
0.0522146,1.60938,1.54688
0.0590363,1.60938,1.57813
0.149594,1.60938,1.60938
0.0572982,1.60938,1.64063
0.0344028,1.60938,1.67188
0.0241799,1.60938,1.70313
-0.00433922,1.60938,1.73438
-0.0223293,1.60938,1.76563
-0.0422144,1.60938,1.79688
0.0999961,1.60938,1.82813
-5.97905,1.60938,1.85938
-12.8787,1.60938,1.89063
0,1.64063,0.015625
0.315072,1.64063,0.046875
0.297687,1.64063,0.078125
0.118106,1.64063,0.109375
-0.0578034,1.64063,0.140625
0.0357161,1.64063,0.171875
-0.0132866,1.64063,0.203125
0.0439196,1.64063,0.234375
-0.0259047,1.64063,0.265625
0.0700717,1.64063,0.296875
0.0966744,1.64063,0.328125
0.0473013,1.64063,0.359375
0.166999,1.64063,0.390625
0.104218,1.64063,0.421875
0.188127,1.64063,0.453125
0.235676,1.64063,0.484375
0.342008,1.64063,0.515625
0.497065,1.64063,0.546875
0.415424,1.64063,0.578125
0.537287,1.64063,0.609375
0.819038,1.64063,0.640625
0.714163,1.64063,0.671875
0.84634,1.64063,0.703125
1.30284,1.64063,0.734375
1.47426,1.64063,0.765625
1.16055,1.64063,0.796875
1.37717,1.64063,0.828125
1.28,1.64063,0.859375
0.779829,1.64063,0.890625
0.154457,1.64063,0.921875
-0.805235,1.64063,0.953125
-2.46765,1.64063,0.984375
-3.2871,1.64063,1.01563
-2.73202,1.64063,1.04688
-2.66988,1.64063,1.07813
-2.27271,1.64063,1.10938
-1.65314,1.64063,1.14063
-1.60788,1.64063,1.17188
-1.20641,1.64063,1.20313
-0.975504,1.64063,1.23438
-0.660318,1.64063,1.26563
-0.44343,1.64063,1.29688
-0.216986,1.64063,1.32813
-0.12689,1.64063,1.35938
-0.100431,1.64063,1.39063
-0.0196419,1.64063,1.42188
0.0388641,1.64063,1.45313
0.0112171,1.64063,1.48438
0.0783215,1.64063,1.51563
0.173838,1.64063,1.54688
0.0684261,1.64063,1.57813
-0.0141964,1.64063,1.60938
-0.00578356,1.64063,1.64063
0.0450315,1.64063,1.67188
-0.0109115,1.64063,1.70313
-0.00361443,1.64063,1.73438
0.0100315,1.64063,1.76563
0.076771,1.64063,1.79688
-0.144539,1.64063,1.82813
-6.30695,1.64063,1.85938
-11.8352,1.64063,1.89063
0,1.67188,0.015625
0.452031,1.67188,0.046875
0.155916,1.67188,0.078125
0.0323582,1.67188,0.109375
0.0280397,1.67188,0.140625
0.0655866,1.67188,0.171875
0.117563,1.67188,0.203125
0.0813484,1.67188,0.234375
0.0749435,1.67188,0.265625
0.0313249,1.67188,0.296875
0.077312,1.67188,0.328125
0.0282583,1.67188,0.359375
0.0791903,1.67188,0.390625
0.149975,1.67188,0.421875
0.169079,1.67188,0.453125
0.161927,1.67188,0.484375
0.249727,1.67188,0.515625
0.371796,1.67188,0.546875
0.297336,1.67188,0.578125
0.643772,1.67188,0.609375
0.73866,1.67188,0.640625
0.593424,1.67188,0.671875
0.715574,1.67188,0.703125
1.16095,1.67188,0.734375
1.24343,1.67188,0.765625
1.04375,1.67188,0.796875
1.3597,1.67188,0.828125
1.36067,1.67188,0.859375
0.530376,1.67188,0.890625
0.0225959,1.67188,0.921875
-0.614232,1.67188,0.953125
-1.93274,1.67188,0.984375
-2.32375,1.67188,1.01563
-2.01995,1.67188,1.04688
-2.42309,1.67188,1.07813
-1.87765,1.67188,1.10938
-1.19364,1.67188,1.14063
-0.997327,1.67188,1.17188
-0.874552,1.67188,1.20313
-0.651824,1.67188,1.23438
-0.314862,1.67188,1.26563
-0.232574,1.67188,1.29688
-0.192933,1.67188,1.32813
-0.146871,1.67188,1.35938
-0.0722055,1.67188,1.39063
-0.089098,1.67188,1.42188
0.0445175,1.67188,1.45313
-0.00541115,1.67188,1.48438
0.020052,1.67188,1.51563
0.0571451,1.67188,1.54688
-0.0427485,1.67188,1.57813
-0.0488896,1.67188,1.60938
0.0465441,1.67188,1.64063
0.0523496,1.67188,1.67188
0.0683236,1.67188,1.70313
0.142009,1.67188,1.73438
0.0672724,1.67188,1.76563
0.039201,1.67188,1.79688
-0.530402,1.67188,1.82813
-6.46409,1.67188,1.85938
-11.5784,1.67188,1.89063
0,1.70313,0.015625
0.38759,1.70313,0.046875
0.181605,1.70313,0.078125
0.0757524,1.70313,0.109375
0.0590851,1.70313,0.140625
0.0052371,1.70313,0.171875
0.0661299,1.70313,0.203125
-0.0254545,1.70313,0.234375
0.0931773,1.70313,0.265625
0.0563059,1.70313,0.296875
0.0606689,1.70313,0.328125
0.032784,1.70313,0.359375
0.126473,1.70313,0.390625
0.199365,1.70313,0.421875
0.167285,1.70313,0.453125
0.22199,1.70313,0.484375
0.334275,1.70313,0.515625
0.319069,1.70313,0.546875
0.289031,1.70313,0.578125
0.57082,1.70313,0.609375
0.624876,1.70313,0.640625
0.57435,1.70313,0.671875
0.669559,1.70313,0.703125
0.888167,1.70313,0.734375
0.96521,1.70313,0.765625
0.837723,1.70313,0.796875
0.89911,1.70313,0.828125
0.568961,1.70313,0.859375
0.011816,1.70313,0.890625
-0.245489,1.70313,0.921875
-1.20039,1.70313,0.953125
-1.56815,1.70313,0.984375
-1.47744,1.70313,1.01563
-1.818,1.70313,1.04688
-1.86544,1.70313,1.07813
-1.23658,1.70313,1.10938
-1.03895,1.70313,1.14063
-0.952561,1.70313,1.17188
-0.642009,1.70313,1.20313
-0.441481,1.70313,1.23438
-0.293208,1.70313,1.26563
-0.24201,1.70313,1.29688
-0.123326,1.70313,1.32813
-0.118862,1.70313,1.35938
-0.0122185,1.70313,1.39063
-0.0816031,1.70313,1.42188
-0.0693293,1.70313,1.45313
-0.0196753,1.70313,1.48438
0.0778255,1.70313,1.51563
0.0126543,1.70313,1.54688
-0.00938606,1.70313,1.57813
0.0296645,1.70313,1.60938
0.0977578,1.70313,1.64063
0.0804105,1.70313,1.67188
0.136023,1.70313,1.70313
0.0769849,1.70313,1.73438
-0.00917101,1.70313,1.76563
0.0183327,1.70313,1.79688
-0.376078,1.70313,1.82813
-6.7125,1.70313,1.85938
-13.1854,1.70313,1.89063
0,1.73438,0.015625
0.366087,1.73438,0.046875
0.137726,1.73438,0.078125
0.0260935,1.73438,0.109375
0.0215864,1.73438,0.140625
-0.00226092,1.73438,0.171875
-0.00119376,1.73438,0.203125
-0.0256381,1.73438,0.234375
0.0659652,1.73438,0.265625
0.107808,1.73438,0.296875
0.0327091,1.73438,0.328125
0.134358,1.73438,0.359375
0.146361,1.73438,0.390625
0.0732183,1.73438,0.421875
0.163578,1.73438,0.453125
0.219244,1.73438,0.484375
0.268169,1.73438,0.515625
0.218893,1.73438,0.546875
0.338787,1.73438,0.578125
0.400263,1.73438,0.609375
0.38026,1.73438,0.640625
0.46637,1.73438,0.671875
0.524847,1.73438,0.703125
0.590437,1.73438,0.734375
0.647818,1.73438,0.765625
0.399758,1.73438,0.796875
0.237123,1.73438,0.828125
0.247515,1.73438,0.859375
0.121971,1.73438,0.890625
-0.530042,1.73438,0.921875
-0.860172,1.73438,0.953125
-0.65091,1.73438,0.984375
-1.32216,1.73438,1.01563
-1.41757,1.73438,1.04688
-1.08206,1.73438,1.07813
-0.976401,1.73438,1.10938
-1.08879,1.73438,1.14063
-0.750087,1.73438,1.17188
-0.573106,1.73438,1.20313
-0.595671,1.73438,1.23438
-0.357006,1.73438,1.26563
-0.268818,1.73438,1.29688
-0.139776,1.73438,1.32813
-0.0272503,1.73438,1.35938
-0.0598049,1.73438,1.39063
-0.0357876,1.73438,1.42188
-0.0118847,1.73438,1.45313
0.0203524,1.73438,1.48438
0.0387783,1.73438,1.51563
0.0893068,1.73438,1.54688
0.0270963,1.73438,1.57813
0.0310149,1.73438,1.60938
0.0229077,1.73438,1.64063
-0.0137477,1.73438,1.67188
0.0762024,1.73438,1.70313
-0.00542402,1.73438,1.73438
0.0603209,1.73438,1.76563
0.00901723,1.73438,1.79688
-0.0365436,1.73438,1.82813
-7.12744,1.73438,1.85938
-14.1476,1.73438,1.89063
0,1.76563,0.015625
0.279263,1.76563,0.046875
0.178191,1.76563,0.078125
-0.00416362,1.76563,0.109375
-0.00690317,1.76563,0.140625
-0.00621414,1.76563,0.171875
0.00469255,1.76563,0.203125
0.0611024,1.76563,0.234375
0.0486789,1.76563,0.265625
0.069828,1.76563,0.296875
0.0834703,1.76563,0.328125
0.124171,1.76563,0.359375
0.0631447,1.76563,0.390625
0.105783,1.76563,0.421875
0.227386,1.76563,0.453125
0.145338,1.76563,0.484375
0.201752,1.76563,0.515625
0.222787,1.76563,0.546875
0.22525,1.76563,0.578125
0.299594,1.76563,0.609375
0.334795,1.76563,0.640625
0.406955,1.76563,0.671875
0.398127,1.76563,0.703125
0.434464,1.76563,0.734375
0.420404,1.76563,0.765625
0.282221,1.76563,0.796875
0.333287,1.76563,0.828125
0.42755,1.76563,0.859375
-0.0572748,1.76563,0.890625
-0.390366,1.76563,0.921875
-0.304735,1.76563,0.953125
-0.757332,1.76563,0.984375
-0.851365,1.76563,1.01563
-0.728364,1.76563,1.04688
-0.917048,1.76563,1.07813
-1.09326,1.76563,1.10938
-0.775884,1.76563,1.14063
-0.404636,1.76563,1.17188
-0.561231,1.76563,1.20313
-0.500669,1.76563,1.23438
-0.266812,1.76563,1.26563
-0.221955,1.76563,1.29688
-0.157499,1.76563,1.32813
-0.0513754,1.76563,1.35938
-0.113933,1.76563,1.39063
-0.0365353,1.76563,1.42188
-0.0324078,1.76563,1.45313
0.00812054,1.76563,1.48438
0.0693378,1.76563,1.51563
0.108619,1.76563,1.54688
-0.0220957,1.76563,1.57813
-0.0237312,1.76563,1.60938
0.0353594,1.76563,1.64063
0.00167847,1.76563,1.67188
0.0573292,1.76563,1.70313
-0.011477,1.76563,1.73438
0.03264,1.76563,1.76563
-0.0826283,1.76563,1.79688
-0.22093,1.76563,1.82813
-7.24568,1.76563,1.85938
-13.8732,1.76563,1.89063
0,1.79688,0.015625
0.32106,1.79688,0.046875
0.18761,1.79688,0.078125
0.0278649,1.79688,0.109375
0.0520248,1.79688,0.140625
0.0731401,1.79688,0.171875
0.104433,1.79688,0.203125
0.08463,1.79688,0.234375
0.0273147,1.79688,0.265625
0.00780869,1.79688,0.296875
0.0720787,1.79688,0.328125
0.0940142,1.79688,0.359375
0.0387435,1.79688,0.390625
0.166817,1.79688,0.421875
0.285833,1.79688,0.453125
0.130515,1.79688,0.484375
0.172379,1.79688,0.515625
0.231645,1.79688,0.546875
0.238659,1.79688,0.578125
0.265801,1.79688,0.609375
0.301337,1.79688,0.640625
0.406191,1.79688,0.671875
0.33098,1.79688,0.703125
0.283785,1.79688,0.734375
0.256605,1.79688,0.765625
0.275508,1.79688,0.796875
0.210183,1.79688,0.828125
0.229759,1.79688,0.859375
-0.11479,1.79688,0.890625
-0.372968,1.79688,0.921875
-0.463134,1.79688,0.953125
-0.629605,1.79688,0.984375
-0.503036,1.79688,1.01563
-0.715047,1.79688,1.04688
-0.853878,1.79688,1.07813
-0.710937,1.79688,1.10938
-0.380985,1.79688,1.14063
-0.398355,1.79688,1.17188
-0.471028,1.79688,1.20313
-0.31885,1.79688,1.23438
-0.208926,1.79688,1.26563
-0.173756,1.79688,1.29688
-0.125698,1.79688,1.32813
-0.077363,1.79688,1.35938
-0.084466,1.79688,1.39063
-0.0280161,1.79688,1.42188
-0.00571346,1.79688,1.45313
-0.000359535,1.79688,1.48438
-0.00617981,1.79688,1.51563
0.00602007,1.79688,1.54688
0.011138,1.79688,1.57813
0.0408802,1.79688,1.60938
0.0672359,1.79688,1.64063
-0.0154428,1.79688,1.67188
0.0217724,1.79688,1.70313
0.0109615,1.79688,1.73438
0.0540314,1.79688,1.76563
-0.0260487,1.79688,1.79688
-0.476584,1.79688,1.82813
-7.5775,1.79688,1.85938
-13.4055,1.79688,1.89063
0,1.82813,0.015625
0.316499,1.82813,0.046875
0.164132,1.82813,0.078125
0.0558927,1.82813,0.109375
0.0719452,1.82813,0.140625
0.0712686,1.82813,0.171875
0.0575354,1.82813,0.203125
0.0332632,1.82813,0.234375
0.0732894,1.82813,0.265625
0.0795765,1.82813,0.296875
0.0979695,1.82813,0.328125
0.0596881,1.82813,0.359375
0.0177522,1.82813,0.390625
0.213109,1.82813,0.421875
0.171147,1.82813,0.453125
0.0504675,1.82813,0.484375
0.226157,1.82813,0.515625
0.193486,1.82813,0.546875
0.168686,1.82813,0.578125
0.253838,1.82813,0.609375
0.248013,1.82813,0.640625
0.279293,1.82813,0.671875
0.218265,1.82813,0.703125
0.162725,1.82813,0.734375
0.186137,1.82813,0.765625
0.206743,1.82813,0.796875
0.206946,1.82813,0.828125
0.0718126,1.82813,0.859375
-0.150373,1.82813,0.890625
-0.283942,1.82813,0.921875
-0.410689,1.82813,0.953125
-0.457138,1.82813,0.984375
-0.609636,1.82813,1.01563
-0.552881,1.82813,1.04688
-0.677267,1.82813,1.07813
-0.592402,1.82813,1.10938
-0.31522,1.82813,1.14063
-0.395828,1.82813,1.17188
-0.355932,1.82813,1.20313
-0.238763,1.82813,1.23438
-0.205246,1.82813,1.26563
-0.184275,1.82813,1.29688
-0.132233,1.82813,1.32813
-0.020936,1.82813,1.35938
0.014781,1.82813,1.39063
-0.0599689,1.82813,1.42188
0.0161304,1.82813,1.45313
-0.0696745,1.82813,1.48438
-0.0149732,1.82813,1.51563
0.0493841,1.82813,1.54688
0.0666056,1.82813,1.57813
-0.0112176,1.82813,1.60938
0.00234413,1.82813,1.64063
0.042233,1.82813,1.67188
0.0129313,1.82813,1.70313
0.0131159,1.82813,1.73438
0.0218496,1.82813,1.76563
-0.086411,1.82813,1.79688
-0.453807,1.82813,1.82813
-8.03852,1.82813,1.85938
-13.7991,1.82813,1.89063
0,1.85938,0.015625
0.364464,1.85938,0.046875
0.183064,1.85938,0.078125
0.0871099,1.85938,0.109375
0.030118,1.85938,0.140625
0.0158494,1.85938,0.171875
0.0331776,1.85938,0.203125
0.0814798,1.85938,0.234375
0.0686054,1.85938,0.265625
0.0796113,1.85938,0.296875
0.0681996,1.85938,0.328125
0.0378885,1.85938,0.359375
0.0736852,1.85938,0.390625
0.157649,1.85938,0.421875
0.0782237,1.85938,0.453125
0.114222,1.85938,0.484375
0.217698,1.85938,0.515625
0.173631,1.85938,0.546875
0.185505,1.85938,0.578125
0.221686,1.85938,0.609375
0.20717,1.85938,0.640625
0.226014,1.85938,0.671875
0.178688,1.85938,0.703125
0.154256,1.85938,0.734375
0.240377,1.85938,0.765625
0.0842552,1.85938,0.796875
0.0790467,1.85938,0.828125
-0.0939455,1.85938,0.859375
-0.0334516,1.85938,0.890625
-0.241592,1.85938,0.921875
-0.435843,1.85938,0.953125
-0.285294,1.85938,0.984375
-0.26753,1.85938,1.01563
-0.425001,1.85938,1.04688
-0.509892,1.85938,1.07813
-0.369089,1.85938,1.10938
-0.383156,1.85938,1.14063
-0.44461,1.85938,1.17188
-0.308652,1.85938,1.20313
-0.204186,1.85938,1.23438
-0.196809,1.85938,1.26563
-0.164162,1.85938,1.29688
-0.0971584,1.85938,1.32813
-0.0793848,1.85938,1.35938
-0.0654173,1.85938,1.39063
-0.0552244,1.85938,1.42188
0.00493717,1.85938,1.45313
-0.0332646,1.85938,1.48438
-0.00977945,1.85938,1.51563
0.0101132,1.85938,1.54688
0.0431614,1.85938,1.57813
-0.0459876,1.85938,1.60938
0.0393009,1.85938,1.64063
0.0578842,1.85938,1.67188
-0.038898,1.85938,1.70313
0.0152509,1.85938,1.73438
-0.0236852,1.85938,1.76563
-0.0290329,1.85938,1.79688
-0.243296,1.85938,1.82813
-8.46651,1.85938,1.85938
-14.2327,1.85938,1.89063
0,1.89063,0.015625
0.360997,1.89063,0.046875
0.160085,1.89063,0.078125
0.0761551,1.89063,0.109375
0.0417445,1.89063,0.140625
0.114375,1.89063,0.171875
0.0708346,1.89063,0.203125
0.102416,1.89063,0.234375
0.0776529,1.89063,0.265625
0.137635,1.89063,0.296875
0.150325,1.89063,0.328125
0.171408,1.89063,0.359375
0.199457,1.89063,0.390625
0.194814,1.89063,0.421875
0.175815,1.89063,0.453125
0.274787,1.89063,0.484375
0.316067,1.89063,0.515625
0.264033,1.89063,0.546875
0.278162,1.89063,0.578125
0.297373,1.89063,0.609375
0.3403,1.89063,0.640625
0.389524,1.89063,0.671875
0.370972,1.89063,0.703125
0.32406,1.89063,0.734375
0.28571,1.89063,0.765625
0.133677,1.89063,0.796875
0.19376,1.89063,0.828125
0.176967,1.89063,0.859375
0.0261974,1.89063,0.890625
-0.175708,1.89063,0.921875
-0.128368,1.89063,0.953125
-0.239713,1.89063,0.984375
-0.225332,1.89063,1.01563
-0.459161,1.89063,1.04688
-0.443546,1.89063,1.07813
-0.379008,1.89063,1.10938
-0.436405,1.89063,1.14063
-0.373542,1.89063,1.17188
-0.385449,1.89063,1.20313
-0.34171,1.89063,1.23438
-0.347806,1.89063,1.26563
-0.290211,1.89063,1.29688
-0.251142,1.89063,1.32813
-0.270409,1.89063,1.35938
-0.211296,1.89063,1.39063
-0.131232,1.89063,1.42188
-0.158588,1.89063,1.45313
-0.104609,1.89063,1.48438
-0.123258,1.89063,1.51563
-0.0901318,1.89063,1.54688
-0.0413551,1.89063,1.57813
-0.108203,1.89063,1.60938
-0.0586486,1.89063,1.64063
0.0059557,1.89063,1.67188
-0.0641475,1.89063,1.70313
0.0163941,1.89063,1.73438
-0.00281048,1.89063,1.76563
0.0421054,1.89063,1.79688
-0.199679,1.89063,1.82813
-8.60702,1.89063,1.85938
-14.5152,1.89063,1.89063
