0,0.03125,0.03125
0,0.03125,0.09375
0,0.03125,0.15625
0,0.03125,0.21875
0,0.03125,0.28125
0,0.03125,0.34375
0,0.03125,0.40625
0,0.03125,0.46875
0,0.03125,0.53125
0,0.03125,0.59375
0,0.03125,0.65625
0,0.03125,0.71875
0,0.03125,0.78125
0,0.03125,0.84375
0,0.03125,0.90625
0,0.03125,0.96875
0,0.03125,1.03125
0,0.03125,1.09375
0,0.03125,1.15625
0,0.03125,1.21875
0,0.03125,1.28125
0,0.03125,1.34375
0,0.03125,1.40625
0,0.03125,1.46875
0,0.03125,1.53125
0,0.03125,1.59375
0,0.03125,1.65625
0,0.03125,1.71875
0,0.03125,1.78125
0,0.09375,0.03125
-0.00582564,0.09375,0.09375
-0.078775,0.09375,0.15625
-0.113364,0.09375,0.21875
-0.193941,0.09375,0.28125
-0.338432,0.09375,0.34375
-0.380509,0.09375,0.40625
-0.464053,0.09375,0.46875
-0.535526,0.09375,0.53125
-0.458891,0.09375,0.59375
-0.474124,0.09375,0.65625
-0.435417,0.09375,0.71875
-0.413841,0.09375,0.78125
-0.321662,0.09375,0.84375
-0.17669,0.09375,0.90625
0.059359,0.09375,0.96875
0.129621,0.09375,1.03125
0.348903,0.09375,1.09375
0.358705,0.09375,1.15625
0.587951,0.09375,1.21875
0.614986,0.09375,1.28125
0.617876,0.09375,1.34375
0.536754,0.09375,1.40625
0.626832,0.09375,1.46875
0.537584,0.09375,1.53125
0.489147,0.09375,1.59375
0.348256,0.09375,1.65625
0.249824,0.09375,1.71875
0.183995,0.09375,1.78125
0,0.15625,0.03125
0.0438942,0.15625,0.09375
-0.0703303,0.15625,0.15625
-0.209547,0.15625,0.21875
-0.320671,0.15625,0.28125
-0.362864,0.15625,0.34375
-0.432949,0.15625,0.40625
-0.501352,0.15625,0.46875
-0.579326,0.15625,0.53125
-0.638094,0.15625,0.59375
-0.634196,0.15625,0.65625
-0.643177,0.15625,0.71875
-0.514236,0.15625,0.78125
-0.434602,0.15625,0.84375
-0.267591,0.15625,0.90625
-0.139033,0.15625,0.96875
0.0909974,0.15625,1.03125
0.231194,0.15625,1.09375
0.450886,0.15625,1.15625
0.532312,0.15625,1.21875
0.671472,0.15625,1.28125
0.741635,0.15625,1.34375
0.727137,0.15625,1.40625
0.637886,0.15625,1.46875
0.620334,0.15625,1.53125
0.458049,0.15625,1.59375
0.390363,0.15625,1.65625
0.279404,0.15625,1.71875
0.206434,0.15625,1.78125
0,0.21875,0.03125
0.0275123,0.21875,0.09375
-0.0847504,0.21875,0.15625
-0.230425,0.21875,0.21875
-0.303965,0.21875,0.28125
-0.412731,0.21875,0.34375
-0.573347,0.21875,0.40625
-0.651546,0.21875,0.46875
-0.735312,0.21875,0.53125
-0.811729,0.21875,0.59375
-0.806722,0.21875,0.65625
-0.837952,0.21875,0.71875
-0.781036,0.21875,0.78125
-0.596379,0.21875,0.84375
-0.354964,0.21875,0.90625
-0.139921,0.21875,0.96875
0.0151115,0.21875,1.03125
0.30181,0.21875,1.09375
0.481043,0.21875,1.15625
0.636308,0.21875,1.21875
0.774684,0.21875,1.28125
0.804913,0.21875,1.34375
0.803637,0.21875,1.40625
0.734478,0.21875,1.46875
0.692784,0.21875,1.53125
0.611776,0.21875,1.59375
0.422534,0.21875,1.65625
0.33222,0.21875,1.71875
0.221104,0.21875,1.78125
0,0.28125,0.03125
0.162195,0.28125,0.09375
-0.154818,0.28125,0.15625
-0.272486,0.28125,0.21875
-0.279243,0.28125,0.28125
-0.461559,0.28125,0.34375
-0.582578,0.28125,0.40625
-0.641144,0.28125,0.46875
-0.706767,0.28125,0.53125
-0.787822,0.28125,0.59375
-0.852325,0.28125,0.65625
-0.845301,0.28125,0.71875
-0.893936,0.28125,0.78125
-0.788522,0.28125,0.84375
-0.619914,0.28125,0.90625
-0.329628,0.28125,0.96875
0.0748664,0.28125,1.03125
0.38875,0.28125,1.09375
0.594666,0.28125,1.15625
0.820724,0.28125,1.21875
0.952024,0.28125,1.28125
0.991918,0.28125,1.34375
0.891118,0.28125,1.40625
0.816969,0.28125,1.46875
0.732984,0.28125,1.53125
0.659268,0.28125,1.59375
0.474193,0.28125,1.65625
0.317354,0.28125,1.71875
0.242505,0.28125,1.78125
0,0.34375,0.03125
-0.0488574,0.34375,0.09375
-0.212018,0.34375,0.15625
-0.207414,0.34375,0.21875
-0.25084,0.34375,0.28125
-0.40386,0.34375,0.34375
-0.485199,0.34375,0.40625
-0.601425,0.34375,0.46875
-0.695333,0.34375,0.53125
-0.855329,0.34375,0.59375
-0.971842,0.34375,0.65625
-1.00392,0.34375,0.71875
-1.05635,0.34375,0.78125
-0.91237,0.34375,0.84375
-0.816481,0.34375,0.90625
-0.556557,0.34375,0.96875
-0.110857,0.34375,1.03125
0.449548,0.34375,1.09375
0.746789,0.34375,1.15625
0.954678,0.34375,1.21875
1.18219,0.34375,1.28125
1.17147,0.34375,1.34375
1.09077,0.34375,1.40625
0.94773,0.34375,1.46875
0.847061,0.34375,1.53125
0.736042,0.34375,1.59375
0.492491,0.34375,1.65625
0.381213,0.34375,1.71875
0.27248,0.34375,1.78125
0,0.40625,0.03125
0.177626,0.40625,0.09375
-0.200313,0.40625,0.15625
-0.239251,0.40625,0.21875
-0.312254,0.40625,0.28125
-0.364381,0.40625,0.34375
-0.459723,0.40625,0.40625
-0.553641,0.40625,0.46875
-0.620325,0.40625,0.53125
-0.753831,0.40625,0.59375
-0.904722,0.40625,0.65625
-1.1285,0.40625,0.71875
-1.34258,0.40625,0.78125
-1.50761,0.40625,0.84375
-1.29313,0.40625,0.90625
-0.492343,0.40625,0.96875
-0.119597,0.40625,1.03125
0.233766,0.40625,1.09375
0.895843,0.40625,1.15625
1.35744,0.40625,1.21875
1.41344,0.40625,1.28125
1.33936,0.40625,1.34375
1.35418,0.40625,1.40625
1.23791,0.40625,1.46875
0.984945,0.40625,1.53125
0.816754,0.40625,1.59375
0.618878,0.40625,1.65625
0.39817,0.40625,1.71875
0.153448,0.40625,1.78125
0,0.46875,0.03125
-0.157927,0.46875,0.09375
-0.176743,0.46875,0.15625
-0.220831,0.46875,0.21875
-0.341853,0.46875,0.28125
-0.311296,0.46875,0.34375
-0.40156,0.46875,0.40625
-0.463544,0.46875,0.46875
-0.475962,0.46875,0.53125
-0.666949,0.46875,0.59375
-0.840886,0.46875,0.65625
-1.09173,0.46875,0.71875
-1.41867,0.46875,0.78125
-1.86986,0.46875,0.84375
-1.8977,0.46875,0.90625
-1.33003,0.46875,0.96875
-0.310072,0.46875,1.03125
1.17042,0.46875,1.09375
1.92953,0.46875,1.15625
2.04061,0.46875,1.21875
2.03255,0.46875,1.28125
1.79062,0.46875,1.34375
1.51149,0.46875,1.40625
1.28882,0.46875,1.46875
1.11496,0.46875,1.53125
0.868128,0.46875,1.59375
0.685042,0.46875,1.65625
0.556555,0.46875,1.71875
0.332592,0.46875,1.78125
0,0.53125,0.03125
-0.0494706,0.53125,0.09375
-0.338308,0.53125,0.15625
-0.251346,0.53125,0.21875
-0.225367,0.53125,0.28125
-0.330301,0.53125,0.34375
-0.526032,0.53125,0.40625
-0.285174,0.53125,0.46875
-0.322565,0.53125,0.53125
-0.433517,0.53125,0.59375
-0.650146,0.53125,0.65625
-1.01291,0.53125,0.71875
-1.95066,0.53125,0.78125
-2.94932,0.53125,0.84375
-2.66068,0.53125,0.90625
-2.01571,0.53125,0.96875
-0.418195,0.53125,1.03125
1.48727,0.53125,1.09375
2.6319,0.53125,1.15625
2.70638,0.53125,1.21875
2.49181,0.53125,1.28125
1.94427,0.53125,1.34375
1.75393,0.53125,1.40625
1.43138,0.53125,1.46875
1.09588,0.53125,1.53125
0.74958,0.53125,1.59375
0.827851,0.53125,1.65625
0.638081,0.53125,1.71875
0.445159,0.53125,1.78125
0,0.59375,0.03125
-0.614146,0.59375,0.09375
-0.214114,0.59375,0.15625
-0.0892196,0.59375,0.21875
-0.421601,0.59375,0.28125
-0.546621,0.59375,0.34375
-0.225134,0.59375,0.40625
-0.12657,0.59375,0.46875
-0.254101,0.59375,0.53125
-0.0958996,0.59375,0.59375
-0.152152,0.59375,0.65625
-0.503799,0.59375,0.71875
-2.1874,0.59375,0.78125
-5.81559,0.59375,0.84375
-8.12508,0.59375,0.90625
-3.22584,0.59375,0.96875
2.98508,0.59375,1.03125
6.92961,0.59375,1.09375
4.02618,0.59375,1.15625
3.51423,0.59375,1.21875
2.82019,0.59375,1.28125
2.03785,0.59375,1.34375
1.74387,0.59375,1.40625
1.51387,0.59375,1.46875
1.06817,0.59375,1.53125
0.740186,0.59375,1.59375
0.917596,0.59375,1.65625
0.931156,0.59375,1.71875
0.983856,0.59375,1.78125
0,0.65625,0.03125
-0.225751,0.65625,0.09375
-0.347901,0.65625,0.15625
-0.417712,0.65625,0.21875
-0.780172,0.65625,0.28125
-0.302032,0.65625,0.34375
-0.213071,0.65625,0.40625
-0.320439,0.65625,0.46875
0.381771,0.65625,0.53125
1.01503,0.65625,0.59375
1.44073,0.65625,0.65625
1.66649,0.65625,0.71875
-1.14733,0.65625,0.78125
-4.86405,0.65625,0.84375
23.1997,0.65625,0.90625
6.20664,0.65625,0.96875
-15.2009,0.65625,1.03125
-29.6339,0.65625,1.09375
8.5443,0.65625,1.15625
3.55252,0.65625,1.21875
2.69762,0.65625,1.28125
1.66619,0.65625,1.34375
1.44097,0.65625,1.40625
1.20306,0.65625,1.46875
0.579405,0.65625,1.53125
0.666183,0.65625,1.59375
0.565628,0.65625,1.65625
0.588148,0.65625,1.71875
0.964395,0.65625,1.78125
0,0.71875,0.03125
-0.380885,0.71875,0.09375
-0.324686,0.71875,0.15625
-0.589197,0.71875,0.21875
-0.30331,0.71875,0.28125
0.00496769,0.71875,0.34375
-0.241886,0.71875,0.40625
0.428703,0.71875,0.46875
1.40431,0.71875,0.53125
2.49669,0.71875,0.59375
3.36699,0.71875,0.65625
2.10217,0.71875,0.71875
4.2679,0.71875,0.78125
49.445,0.71875,0.84375
5.77427,0.71875,0.90625
-4.51774,0.71875,0.96875
-16.2454,0.71875,1.03125
-9.524,0.71875,1.09375
-47.1229,0.71875,1.15625
6.43447,0.71875,1.21875
1.91145,0.71875,1.28125
0.3246,0.71875,1.34375
-0.0473499,0.71875,1.40625
0.1641,0.71875,1.46875
0.137852,0.71875,1.53125
0.219049,0.71875,1.59375
-0.00778723,0.71875,1.65625
0.0743032,0.71875,1.71875
0.178878,0.71875,1.78125
0,0.78125,0.03125
-0.369617,0.78125,0.09375
-0.277133,0.78125,0.15625
-0.383683,0.78125,0.21875
-0.0582643,0.78125,0.28125
-0.104226,0.78125,0.34375
0.300833,0.78125,0.40625
0.743014,0.78125,0.46875
1.99784,0.78125,0.53125
3.81229,0.78125,0.59375
3.92979,0.78125,0.65625
9.43275,0.78125,0.71875
82.9745,0.78125,0.78125
0,0.78125,0.84375
0,0.78125,0.90625
0,0.78125,0.96875
-21.7702,0.78125,1.03125
-22.5412,0.78125,1.09375
-7.23085,0.78125,1.15625
-51.7701,0.78125,1.21875
-0.908787,0.78125,1.28125
-2.09345,0.78125,1.34375
-1.4765,0.78125,1.40625
-1.21829,0.78125,1.46875
-0.754155,0.78125,1.53125
-0.465657,0.78125,1.59375
-0.224273,0.78125,1.65625
-0.290638,0.78125,1.71875
-0.748076,0.78125,1.78125
0,0.84375,0.03125
-0.410544,0.84375,0.09375
-0.340527,0.84375,0.15625
-0.184381,0.84375,0.21875
-0.0719309,0.84375,0.28125
-0.0492496,0.84375,0.34375
-0.0456548,0.84375,0.40625
0.708797,0.84375,0.46875
1.63614,0.84375,0.53125
2.62764,0.84375,0.59375
8.87454,0.84375,0.65625
76.0443,0.84375,0.71875
0,0.84375,0.78125
0,0.84375,0.84375
0,0.84375,0.90625
0,0.84375,0.96875
0,0.84375,1.03125
-31.8189,0.84375,1.09375
-31.9121,0.84375,1.15625
-2.88223,0.84375,1.21875
-13.8413,0.84375,1.28125
-4.79123,0.84375,1.34375
-2.7239,0.84375,1.40625
-1.32537,0.84375,1.46875
-0.538877,0.84375,1.53125
-0.604472,0.84375,1.59375
-0.431117,0.84375,1.65625
-0.842631,0.84375,1.71875
-1.20045,0.84375,1.78125
0,0.90625,0.03125
-0.532118,0.90625,0.09375
-0.357187,0.90625,0.15625
-0.176805,0.90625,0.21875
-0.180142,0.90625,0.28125
-0.311715,0.90625,0.34375
-0.506534,0.90625,0.40625
0.157349,0.90625,0.46875
-0.296319,0.90625,0.53125
-0.809958,0.90625,0.59375
85.2915,0.90625,0.65625
11.9234,0.90625,0.71875
0,0.90625,0.78125
0,0.90625,0.84375
0,0.90625,0.90625
0,0.90625,0.96875
0,0.90625,1.03125
0,0.90625,1.09375
-57.4728,0.90625,1.15625
-20.2924,0.90625,1.21875
-7.96671,0.90625,1.28125
-4.91819,0.90625,1.34375
-2.41305,0.90625,1.40625
-1.58592,0.90625,1.46875
-0.848051,0.90625,1.53125
-0.632607,0.90625,1.59375
-0.499331,0.90625,1.65625
-0.973685,0.90625,1.71875
-1.46843,0.90625,1.78125
0,0.96875,0.03125
-0.400821,0.96875,0.09375
-0.297597,0.96875,0.15625
-0.162283,0.96875,0.21875
-0.228293,0.96875,0.28125
-0.5223,0.96875,0.34375
-0.548185,0.96875,0.40625
-0.608732,0.96875,0.46875
-1.95298,0.96875,0.53125
0.641057,0.96875,0.59375
85.0367,0.96875,0.65625
10.8968,0.96875,0.71875
0,0.96875,0.78125
0,0.96875,0.84375
0,0.96875,0.90625
0,0.96875,0.96875
0,0.96875,1.03125
0,0.96875,1.09375
-47.1856,0.96875,1.15625
-33.3182,0.96875,1.21875
-7.80535,0.96875,1.28125
-4.77678,0.96875,1.34375
-1.67198,0.96875,1.40625
-1.45584,0.96875,1.46875
-0.63571,0.96875,1.53125
-0.534399,0.96875,1.59375
-0.474985,0.96875,1.65625
-1.09636,0.96875,1.71875
-1.93092,0.96875,1.78125
0,1.03125,0.03125
-0.39394,1.03125,0.09375
-0.404425,1.03125,0.15625
-0.3547,1.03125,0.21875
-0.356313,1.03125,0.28125
-0.537447,1.03125,0.34375
-0.509986,1.03125,0.40625
-0.568602,1.03125,0.46875
-1.50187,1.03125,0.53125
2.1182,1.03125,0.59375
86.3326,1.03125,0.65625
7.14073,1.03125,0.71875
-1.87036,1.03125,0.78125
0,1.03125,0.84375
0,1.03125,0.90625
0,1.03125,0.96875
0,1.03125,1.03125
0,1.03125,1.09375
-28.9701,1.03125,1.15625
-51.1657,1.03125,1.21875
-13.1571,1.03125,1.28125
-2.55634,1.03125,1.34375
-1.05301,1.03125,1.40625
-1.27782,1.03125,1.46875
-0.621263,1.03125,1.53125
-0.609593,1.03125,1.59375
-0.455203,1.03125,1.65625
-1.24144,1.03125,1.71875
-2.30454,1.03125,1.78125
0,1.09375,0.03125
-0.421023,1.09375,0.09375
-0.363791,1.09375,0.15625
-0.392005,1.09375,0.21875
-0.497201,1.09375,0.28125
-0.652482,1.09375,0.34375
-0.689559,1.09375,0.40625
-0.83117,1.09375,0.46875
-1.92957,1.09375,0.53125
5.67982,1.09375,0.59375
72.6491,1.09375,0.65625
-5.78555,1.09375,0.71875
1.48599,1.09375,0.78125
-10.3505,1.09375,0.84375
0,1.09375,0.90625
0,1.09375,0.96875
0,1.09375,1.03125
0,1.09375,1.09375
-24.7251,1.09375,1.15625
-61.8244,1.09375,1.21875
-8.36465,1.09375,1.28125
-3.08247,1.09375,1.34375
-0.430512,1.09375,1.40625
-0.632171,1.09375,1.46875
-0.287588,1.09375,1.53125
-0.240916,1.09375,1.59375
-0.166387,1.09375,1.65625
-1.37943,1.09375,1.71875
-2.7866,1.09375,1.78125
0,1.15625,0.03125
-0.303,1.15625,0.09375
-0.313054,1.15625,0.15625
-0.365881,1.15625,0.21875
-0.462335,1.15625,0.28125
-0.561407,1.15625,0.34375
-0.596884,1.15625,0.40625
-0.279011,1.15625,0.46875
0.298411,1.15625,0.53125
7.56727,1.15625,0.59375
30.5468,1.15625,0.65625
40.3216,1.15625,0.71875
3.93475,1.15625,0.78125
3.68105,1.15625,0.84375
-8.29663,1.15625,0.90625
-4.32899,1.15625,0.96875
4.4719,1.15625,1.03125
2.02033,1.15625,1.09375
-20.7134,1.15625,1.15625
-27.8658,1.15625,1.21875
-7.17047,1.15625,1.28125
-0.041544,1.15625,1.34375
0.788742,1.15625,1.40625
0.369794,1.15625,1.46875
0.358476,1.15625,1.53125
0.152654,1.15625,1.59375
0.0514665,1.15625,1.65625
-1.56655,1.15625,1.71875
-3.14544,1.15625,1.78125
0,1.21875,0.03125
-0.238659,1.21875,0.09375
-0.289655,1.21875,0.15625
-0.335306,1.21875,0.21875
-0.380861,1.21875,0.28125
-0.479428,1.21875,0.34375
-0.461979,1.21875,0.40625
-0.227297,1.21875,0.46875
0.266889,1.21875,0.53125
5.4897,1.21875,0.59375
26.0888,1.21875,0.65625
47.4907,1.21875,0.71875
12.5538,1.21875,0.78125
5.25295,1.21875,0.84375
-1.43728,1.21875,0.90625
-2.2976,1.21875,0.96875
-7.20339,1.21875,1.03125
-13.1207,1.21875,1.09375
-23.2484,1.21875,1.15625
-26.3166,1.21875,1.21875
-9.95117,1.21875,1.28125
2.3686,1.21875,1.34375
1.68058,1.21875,1.40625
0.973506,1.21875,1.46875
0.43292,1.21875,1.53125
0.0126348,1.21875,1.59375
0.0316408,1.21875,1.65625
-1.62928,1.21875,1.71875
-3.25116,1.21875,1.78125
0,1.28125,0.03125
-0.196857,1.28125,0.09375
-0.165924,1.28125,0.15625
-0.328572,1.28125,0.21875
-0.363592,1.28125,0.28125
-0.48645,1.28125,0.34375
-0.497393,1.28125,0.40625
-0.388467,1.28125,0.46875
-0.235583,1.28125,0.53125
1.68318,1.28125,0.59375
22.0694,1.28125,0.65625
36.8501,1.28125,0.71875
26.5843,1.28125,0.78125
11.4648,1.28125,0.84375
9.08517,1.28125,0.90625
1.25311,1.28125,0.96875
-7.06047,1.28125,1.03125
-31.0196,1.28125,1.09375
-28.1197,1.28125,1.15625
-22.4924,1.28125,1.21875
-9.1522,1.28125,1.28125
0.327206,1.28125,1.34375
0.261003,1.28125,1.40625
0.7616,1.28125,1.46875
0.377945,1.28125,1.53125
-0.0384293,1.28125,1.59375
0.0174143,1.28125,1.65625
-1.87814,1.28125,1.71875
-3.68046,1.28125,1.78125
0,1.34375,0.03125
-0.0558353,1.34375,0.09375
-0.163486,1.34375,0.15625
-0.27491,1.34375,0.21875
-0.31431,1.34375,0.28125
-0.32386,1.34375,0.34375
-0.390985,1.34375,0.40625
-0.267918,1.34375,0.46875
0.0399847,1.34375,0.53125
0.250018,1.34375,0.59375
12.7383,1.34375,0.65625
27.315,1.34375,0.71875
27.5096,1.34375,0.78125
24.8643,1.34375,0.84375
14.5386,1.34375,0.90625
1.0372,1.34375,0.96875
-14.5734,1.34375,1.03125
-32.8352,1.34375,1.09375
-26.4005,1.34375,1.15625
-12.3732,1.34375,1.21875
-3.47504,1.34375,1.28125
0.0793333,1.34375,1.34375
0.0767012,1.34375,1.40625
0.601388,1.34375,1.46875
-0.0366049,1.34375,1.53125
0.23406,1.34375,1.59375
0.288301,1.34375,1.65625
-1.95313,1.34375,1.71875
-3.83354,1.34375,1.78125
0,1.40625,0.03125
0.0484968,1.40625,0.09375
-0.053586,1.40625,0.15625
-0.208664,1.40625,0.21875
-0.301066,1.40625,0.28125
-0.215126,1.40625,0.34375
-0.329118,1.40625,0.40625
0.0213733,1.40625,0.46875
0.226395,1.40625,0.53125
0.244145,1.40625,0.59375
5.57032,1.40625,0.65625
17.419,1.40625,0.71875
24.5405,1.40625,0.78125
23.1676,1.40625,0.84375
14.3599,1.40625,0.90625
-1.8802,1.40625,0.96875
-18.7662,1.40625,1.03125
-24.8421,1.40625,1.09375
-15.165,1.40625,1.15625
-5.77214,1.40625,1.21875
-1.00481,1.40625,1.28125
0.0668783,1.40625,1.34375
0.12284,1.40625,1.40625
0.262679,1.40625,1.46875
0.203304,1.40625,1.53125
0.2873,1.40625,1.59375
0.0293508,1.40625,1.65625
-1.8549,1.40625,1.71875
-3.56475,1.40625,1.78125
0,1.46875,0.03125
0.0660687,1.46875,0.09375
0.0620793,1.46875,0.15625
-0.0762721,1.46875,0.21875
-0.123387,1.46875,0.28125
-0.129014,1.46875,0.34375
-0.0527496,1.46875,0.40625
0.208978,1.46875,0.46875
0.199262,1.46875,0.53125
0.583013,1.46875,0.59375
3.0155,1.46875,0.65625
9.37094,1.46875,0.71875
17.7483,1.46875,0.78125
18.14,1.46875,0.84375
8.46018,1.46875,0.90625
-7.49965,1.46875,0.96875
-17.0484,1.46875,1.03125
-15.798,1.46875,1.09375
-9.58714,1.46875,1.15625
-3.00382,1.46875,1.21875
-0.38432,1.46875,1.28125
-0.227183,1.46875,1.34375
0.459694,1.46875,1.40625
0.229969,1.46875,1.46875
0.364649,1.46875,1.53125
0.240496,1.46875,1.59375
0.0220909,1.46875,1.65625
-1.93859,1.46875,1.71875
-4.07014,1.46875,1.78125
0,1.53125,0.03125
0.219399,1.53125,0.09375
0.133988,1.53125,0.15625
0.0309954,1.53125,0.21875
0.0529747,1.53125,0.28125
-0.0553541,1.53125,0.34375
0.00582933,1.53125,0.40625
0.168025,1.53125,0.46875
0.358127,1.53125,0.53125
1.15884,1.53125,0.59375
2.37138,1.53125,0.65625
5.0504,1.53125,0.71875
10.0452,1.53125,0.78125
10.713,1.53125,0.84375
2.53195,1.53125,0.90625
-5.8929,1.53125,0.96875
-12.421,1.53125,1.03125
-11.3753,1.53125,1.09375
-5.80272,1.53125,1.15625
-1.95164,1.53125,1.21875
-0.159669,1.53125,1.28125
0.224338,1.53125,1.34375
0.686586,1.53125,1.40625
0.267727,1.53125,1.46875
0.395224,1.53125,1.53125
0.156014,1.53125,1.59375
-0.0485916,1.53125,1.65625
-2.509,1.53125,1.71875
-4.70403,1.53125,1.78125
0,1.59375,0.03125
0.43388,1.59375,0.09375
0.213334,1.59375,0.15625
0.103494,1.59375,0.21875
-0.000208378,1.59375,0.28125
-0.0681982,1.59375,0.34375
0.125298,1.59375,0.40625
0.272435,1.59375,0.46875
0.636553,1.59375,0.53125
1.15215,1.59375,0.59375
2.03078,1.59375,0.65625
3.30031,1.59375,0.71875
4.8172,1.59375,0.78125
5.52769,1.59375,0.84375
0.894601,1.59375,0.90625
-4.93349,1.59375,0.96875
-9.29093,1.59375,1.03125
-7.2562,1.59375,1.09375
-3.35745,1.59375,1.15625
-1.43573,1.59375,1.21875
-0.138051,1.59375,1.28125
0.447735,1.59375,1.34375
0.444014,1.59375,1.40625
0.048492,1.59375,1.46875
0.251538,1.59375,1.53125
0.170871,1.59375,1.59375
-0.0278747,1.59375,1.65625
-2.95242,1.59375,1.71875
-5.04874,1.59375,1.78125
0,1.65625,0.03125
0.447869,1.65625,0.09375
0.247976,1.65625,0.15625
0.048391,1.65625,0.21875
0.0721726,1.65625,0.28125
0.160258,1.65625,0.34375
0.223217,1.65625,0.40625
0.304561,1.65625,0.46875
0.665748,1.65625,0.53125
0.92417,1.65625,0.59375
1.83262,1.65625,0.65625
2.36984,1.65625,0.71875
2.48924,1.65625,0.78125
2.29073,1.65625,0.84375
0.505273,1.65625,0.90625
-3.99651,1.65625,0.96875
-5.78695,1.65625,1.03125
-4.47741,1.65625,1.09375
-2.429,1.65625,1.15625
-0.947307,1.65625,1.21875
-0.00554609,1.65625,1.28125
0.164953,1.65625,1.34375
0.0450521,1.65625,1.40625
0.0878768,1.65625,1.46875
0.133806,1.65625,1.53125
0.0959332,1.65625,1.59375
-0.126847,1.65625,1.65625
-3.51536,1.65625,1.71875
-6.28059,1.65625,1.78125
0,1.71875,0.03125
0.386293,1.71875,0.09375
0.252496,1.71875,0.15625
0.108481,1.71875,0.21875
0.189935,1.71875,0.28125
0.232272,1.71875,0.34375
0.274355,1.71875,0.40625
0.336531,1.71875,0.46875
0.651524,1.71875,0.53125
0.894691,1.71875,0.59375
1.10709,1.71875,0.65625
1.52935,1.71875,0.71875
1.28858,1.71875,0.78125
0.787028,1.71875,0.84375
-0.356407,1.71875,0.90625
-2.60685,1.71875,0.96875
-3.60967,1.71875,1.03125
-2.91569,1.71875,1.09375
-1.59104,1.71875,1.15625
-0.779147,1.71875,1.21875
-0.207136,1.71875,1.28125
-0.0972743,1.71875,1.34375
-0.0399284,1.71875,1.40625
0.167068,1.71875,1.46875
0.0811005,1.71875,1.53125
0.0892889,1.71875,1.59375
-0.00166917,1.71875,1.65625
-3.94505,1.71875,1.71875
-7.22376,1.71875,1.78125
0,1.78125,0.03125
0.393496,1.78125,0.09375
0.306604,1.78125,0.15625
0.17853,1.78125,0.21875
0.191692,1.78125,0.28125
0.293916,1.78125,0.34375
0.448292,1.78125,0.40625
0.55182,1.78125,0.46875
0.848164,1.78125,0.53125
1.01577,1.78125,0.59375
1.0233,1.78125,0.65625
1.18428,1.78125,0.71875
0.94806,1.78125,0.78125
0.361136,1.78125,0.84375
-0.728431,1.78125,0.90625
-1.49118,1.78125,0.96875
-2.27054,1.78125,1.03125
-2.0203,1.78125,1.09375
-1.43503,1.78125,1.15625
-1.03924,1.78125,1.21875
-0.558802,1.78125,1.28125
-0.304381,1.78125,1.34375
-0.220763,1.78125,1.40625
-0.0777712,1.78125,1.46875
-0.0774229,1.78125,1.53125
-0.0317371,1.78125,1.59375
-0.108707,1.78125,1.65625
-4.34346,1.78125,1.71875
-7.83547,1.78125,1.78125
