0,0.015625,0.015625
0,0.015625,0.046875
0,0.015625,0.078125
0,0.015625,0.109375
0,0.015625,0.140625
0,0.015625,0.171875
0,0.015625,0.203125
0,0.015625,0.234375
0,0.015625,0.265625
0,0.015625,0.296875
0,0.015625,0.328125
0,0.015625,0.359375
0,0.015625,0.390625
0,0.015625,0.421875
0,0.015625,0.453125
0,0.015625,0.484375
0,0.015625,0.515625
0,0.015625,0.546875
0,0.015625,0.578125
0,0.015625,0.609375
0,0.015625,0.640625
0,0.015625,0.671875
0,0.015625,0.703125
0,0.015625,0.734375
0,0.015625,0.765625
0,0.015625,0.796875
0,0.015625,0.828125
0,0.015625,0.859375
0,0.015625,0.890625
0,0.015625,0.921875
0,0.015625,0.953125
0,0.015625,0.984375
0,0.015625,1.01563
0,0.015625,1.04688
0,0.015625,1.07813
0,0.015625,1.10938
0,0.015625,1.14063
0,0.015625,1.17188
0,0.015625,1.20313
0,0.015625,1.23438
0,0.015625,1.26563
0,0.015625,1.29688
0,0.015625,1.32813
0,0.015625,1.35938
0,0.015625,1.39063
0,0.015625,1.42188
0,0.015625,1.45313
0,0.015625,1.48438
0,0.015625,1.51563
0,0.015625,1.54688
0,0.015625,1.57813
0,0.015625,1.60938
0,0.015625,1.64063
0,0.015625,1.67188
0,0.015625,1.70313
0,0.015625,1.73438
0,0.015625,1.76563
0,0.015625,1.79688
0,0.015625,1.82813
0,0.015625,1.85938
0,0.015625,1.89063
0,0.046875,0.015625
0.0130458,0.046875,0.046875
-0.0580984,0.046875,0.078125
-0.0244391,0.046875,0.109375
-0.0209049,0.046875,0.140625
-0.111118,0.046875,0.171875
-0.18209,0.046875,0.203125
-0.219534,0.046875,0.234375
-0.352234,0.046875,0.265625
-0.347208,0.046875,0.296875
-0.362025,0.046875,0.328125
-0.585083,0.046875,0.359375
-0.247036,0.046875,0.390625
-0.290866,0.046875,0.421875
-0.273602,0.046875,0.453125
-0.415457,0.046875,0.484375
-0.725852,0.046875,0.515625
-0.263743,0.046875,0.546875
-0.294583,0.046875,0.578125
-0.323807,0.046875,0.609375
-0.0317281,0.046875,0.640625
-0.718765,0.046875,0.671875
-0.488389,0.046875,0.703125
-0.409109,0.046875,0.734375
-0.34565,0.046875,0.765625
-0.335643,0.046875,0.796875
-0.239016,0.046875,0.828125
-0.190517,0.046875,0.859375
-0.0851543,0.046875,0.890625
-0.0277038,0.046875,0.921875
0.035363,0.046875,0.953125
0.124927,0.046875,0.984375
0.189027,0.046875,1.01563
0.261345,0.046875,1.04688
0.35977,0.046875,1.07813
0.326006,0.046875,1.10938
0.357743,0.046875,1.14063
0.583086,0.046875,1.17188
0.340427,0.046875,1.20313
0.421624,0.046875,1.23438
0.236308,0.046875,1.26563
0.437351,0.046875,1.29688
0.727394,0.046875,1.32813
0.570348,0.046875,1.35938
0.38496,0.046875,1.39063
0.788302,0.046875,1.42188
0.731516,0.046875,1.45313
0.691814,0.046875,1.48438
0.524215,0.046875,1.51563
0.542923,0.046875,1.54688
0.699041,0.046875,1.57813
0.490787,0.046875,1.60938
0.399079,0.046875,1.64063
0.395351,0.046875,1.67188
0.384366,0.046875,1.70313
0.313068,0.046875,1.73438
0.17416,0.046875,1.76563
0.112773,0.046875,1.79688
0.0549905,0.046875,1.82813
0.103838,0.046875,1.85938
0.0882815,0.046875,1.89063
0,0.078125,0.015625
-0.0197225,0.078125,0.046875
-0.0104734,0.078125,0.078125
-0.0629511,0.078125,0.109375
-0.131273,0.078125,0.140625
-0.15178,0.078125,0.171875
-0.191495,0.078125,0.203125
-0.211547,0.078125,0.234375
-0.273049,0.078125,0.265625
-0.366163,0.078125,0.296875
-0.450653,0.078125,0.328125
-0.371692,0.078125,0.359375
-0.497862,0.078125,0.390625
-0.457078,0.078125,0.421875
-0.690593,0.078125,0.453125
-0.710018,0.078125,0.484375
-0.53654,0.078125,0.515625
-0.611738,0.078125,0.546875
-0.536474,0.078125,0.578125
-0.474523,0.078125,0.609375
-0.700568,0.078125,0.640625
-0.447225,0.078125,0.671875
-0.567161,0.078125,0.703125
-0.584283,0.078125,0.734375
-0.588991,0.078125,0.765625
-0.522846,0.078125,0.796875
-0.485805,0.078125,0.828125
-0.41841,0.078125,0.859375
-0.353283,0.078125,0.890625
-0.253644,0.078125,0.921875
-0.162604,0.078125,0.953125
-0.0748213,0.078125,0.984375
0.0183873,0.078125,1.01563
0.109479,0.078125,1.04688
0.102462,0.078125,1.07813
0.19092,0.078125,1.10938
0.270412,0.078125,1.14063
0.354387,0.078125,1.17188
0.392244,0.078125,1.20313
0.376576,0.078125,1.23438
0.594969,0.078125,1.26563
0.579621,0.078125,1.29688
0.391316,0.078125,1.32813
0.448121,0.078125,1.35938
0.624699,0.078125,1.39063
0.504389,0.078125,1.42188
0.560447,0.078125,1.45313
0.366387,0.078125,1.48438
0.361263,0.078125,1.51563
0.527991,0.078125,1.54688
0.433977,0.078125,1.57813
0.414963,0.078125,1.60938
0.385652,0.078125,1.64063
0.258966,0.078125,1.67188
0.312148,0.078125,1.70313
0.287851,0.078125,1.73438
0.230022,0.078125,1.76563
0.158725,0.078125,1.79688
0.181694,0.078125,1.82813
0.096165,0.078125,1.85938
0.0559451,0.078125,1.89063
0,0.109375,0.015625
0.0170088,0.109375,0.046875
-0.0507086,0.109375,0.078125
-0.103566,0.109375,0.109375
-0.161567,0.109375,0.140625
-0.214699,0.109375,0.171875
-0.223603,0.109375,0.203125
-0.294492,0.109375,0.234375
-0.404205,0.109375,0.265625
-0.459581,0.109375,0.296875
-0.534075,0.109375,0.328125
-0.593512,0.109375,0.359375
-0.620482,0.109375,0.390625
-0.697255,0.109375,0.421875
-0.834383,0.109375,0.453125
-0.845785,0.109375,0.484375
-0.767215,0.109375,0.515625
-0.68528,0.109375,0.546875
-0.642498,0.109375,0.578125
-0.679999,0.109375,0.609375
-0.752332,0.109375,0.640625
-0.712352,0.109375,0.671875
-0.726319,0.109375,0.703125
-0.724853,0.109375,0.734375
-0.706681,0.109375,0.765625
-0.657434,0.109375,0.796875
-0.623788,0.109375,0.828125
-0.506863,0.109375,0.859375
-0.440769,0.109375,0.890625
-0.329915,0.109375,0.921875
-0.211575,0.109375,0.953125
-0.094978,0.109375,0.984375
-0.0154326,0.109375,1.01563
0.115545,0.109375,1.04688
0.15446,0.109375,1.07813
0.27738,0.109375,1.10938
0.421436,0.109375,1.14063
0.463929,0.109375,1.17188
0.515461,0.109375,1.20313
0.539647,0.109375,1.23438
0.617426,0.109375,1.26563
0.633512,0.109375,1.29688
0.637459,0.109375,1.32813
0.676043,0.109375,1.35938
0.669683,0.109375,1.39063
0.698524,0.109375,1.42188
0.698736,0.109375,1.45313
0.587649,0.109375,1.48438
0.562614,0.109375,1.51563
0.60001,0.109375,1.54688
0.585493,0.109375,1.57813
0.513097,0.109375,1.60938
0.460769,0.109375,1.64063
0.386593,0.109375,1.67188
0.364199,0.109375,1.70313
0.36044,0.109375,1.73438
0.314241,0.109375,1.76563
0.241504,0.109375,1.79688
0.190435,0.109375,1.82813
0.144148,0.109375,1.85938
0.109718,0.109375,1.89063
0,0.140625,0.015625
-0.020349,0.140625,0.046875
-0.0435066,0.140625,0.078125
-0.0958597,0.140625,0.109375
-0.171922,0.140625,0.140625
-0.214688,0.140625,0.171875
-0.240391,0.140625,0.203125
-0.328847,0.140625,0.234375
-0.388798,0.140625,0.265625
-0.438812,0.140625,0.296875
-0.507578,0.140625,0.328125
-0.518873,0.140625,0.359375
-0.523583,0.140625,0.390625
-0.570821,0.140625,0.421875
-0.577121,0.140625,0.453125
-0.600129,0.140625,0.484375
-0.646436,0.140625,0.515625
-0.646044,0.140625,0.546875
-0.718061,0.140625,0.578125
-0.778079,0.140625,0.609375
-0.76003,0.140625,0.640625
-0.69283,0.140625,0.671875
-0.696545,0.140625,0.703125
-0.647157,0.140625,0.734375
-0.616105,0.140625,0.765625
-0.577358,0.140625,0.796875
-0.53596,0.140625,0.828125
-0.457501,0.140625,0.859375
-0.372471,0.140625,0.890625
-0.314498,0.140625,0.921875
-0.23718,0.140625,0.953125
-0.139592,0.140625,0.984375
0.0174115,0.140625,1.01563
0.174249,0.140625,1.04688
0.21178,0.140625,1.07813
0.351477,0.140625,1.10938
0.414998,0.140625,1.14063
0.453053,0.140625,1.17188
0.530778,0.140625,1.20313
0.624305,0.140625,1.23438
0.673888,0.140625,1.26563
0.696632,0.140625,1.29688
0.681878,0.140625,1.32813
0.654229,0.140625,1.35938
0.674083,0.140625,1.39063
0.763773,0.140625,1.42188
0.744478,0.140625,1.45313
0.66296,0.140625,1.48438
0.630229,0.140625,1.51563
0.606483,0.140625,1.54688
0.554286,0.140625,1.57813
0.452965,0.140625,1.60938
0.385585,0.140625,1.64063
0.351149,0.140625,1.67188
0.348914,0.140625,1.70313
0.341201,0.140625,1.73438
0.291369,0.140625,1.76563
0.239661,0.140625,1.79688
0.187326,0.140625,1.82813
0.151401,0.140625,1.85938
0.111621,0.140625,1.89063
0,0.171875,0.015625
0.0209746,0.171875,0.046875
-0.0465042,0.171875,0.078125
-0.106299,0.171875,0.109375
-0.181329,0.171875,0.140625
-0.191411,0.171875,0.171875
-0.23459,0.171875,0.203125
-0.274419,0.171875,0.234375
-0.342144,0.171875,0.265625
-0.449748,0.171875,0.296875
-0.505944,0.171875,0.328125
-0.519392,0.171875,0.359375
-0.500062,0.171875,0.390625
-0.489456,0.171875,0.421875
-0.540719,0.171875,0.453125
-0.626374,0.171875,0.484375
-0.659652,0.171875,0.515625
-0.712181,0.171875,0.546875
-0.748293,0.171875,0.578125
-0.772228,0.171875,0.609375
-0.761814,0.171875,0.640625
-0.735385,0.171875,0.671875
-0.726098,0.171875,0.703125
-0.712393,0.171875,0.734375
-0.7131,0.171875,0.765625
-0.690919,0.171875,0.796875
-0.55618,0.171875,0.828125
-0.476321,0.171875,0.859375
-0.417813,0.171875,0.890625
-0.314416,0.171875,0.921875
-0.260262,0.171875,0.953125
-0.0573564,0.171875,0.984375
0.0647152,0.171875,1.01563
0.120193,0.171875,1.04688
0.205814,0.171875,1.07813
0.292458,0.171875,1.10938
0.345704,0.171875,1.14063
0.429019,0.171875,1.17188
0.545648,0.171875,1.20313
0.665613,0.171875,1.23438
0.722773,0.171875,1.26563
0.725376,0.171875,1.29688
0.679809,0.171875,1.32813
0.685373,0.171875,1.35938
0.685485,0.171875,1.39063
0.699102,0.171875,1.42188
0.68327,0.171875,1.45313
0.656448,0.171875,1.48438
0.633703,0.171875,1.51563
0.590582,0.171875,1.54688
0.540402,0.171875,1.57813
0.478961,0.171875,1.60938
0.430916,0.171875,1.64063
0.424887,0.171875,1.67188
0.394642,0.171875,1.70313
0.375032,0.171875,1.73438
0.291388,0.171875,1.76563
0.231959,0.171875,1.79688
0.171714,0.171875,1.82813
0.12408,0.171875,1.85938
0.0952733,0.171875,1.89063
0,0.203125,0.015625
0.00180149,0.203125,0.046875
-0.0525957,0.203125,0.078125
-0.11843,0.203125,0.109375
-0.153394,0.203125,0.140625
-0.172399,0.203125,0.171875
-0.205717,0.203125,0.203125
-0.277123,0.203125,0.234375
-0.394038,0.203125,0.265625
-0.490787,0.203125,0.296875
-0.533416,0.203125,0.328125
-0.544599,0.203125,0.359375
-0.565022,0.203125,0.390625
-0.616807,0.203125,0.421875
-0.674687,0.203125,0.453125
-0.636889,0.203125,0.484375
-0.692665,0.203125,0.515625
-0.791689,0.203125,0.546875
-0.779724,0.203125,0.578125
-0.767763,0.203125,0.609375
-0.760375,0.203125,0.640625
-0.758412,0.203125,0.671875
-0.734846,0.203125,0.703125
-0.738493,0.203125,0.734375
-0.74535,0.203125,0.765625
-0.704823,0.203125,0.796875
-0.689235,0.203125,0.828125
-0.56251,0.203125,0.859375
-0.425895,0.203125,0.890625
-0.341351,0.203125,0.921875
-0.276377,0.203125,0.953125
-0.0540687,0.203125,0.984375
-0.0319596,0.203125,1.01563
0.0830267,0.203125,1.04688
0.177554,0.203125,1.07813
0.264821,0.203125,1.10938
0.369036,0.203125,1.14063
0.465206,0.203125,1.17188
0.556304,0.203125,1.20313
0.639891,0.203125,1.23438
0.685411,0.203125,1.26563
0.703668,0.203125,1.29688
0.721775,0.203125,1.32813
0.766454,0.203125,1.35938
0.790874,0.203125,1.39063
0.751063,0.203125,1.42188
0.699654,0.203125,1.45313
0.661777,0.203125,1.48438
0.659592,0.203125,1.51563
0.642879,0.203125,1.54688
0.627236,0.203125,1.57813
0.590631,0.203125,1.60938
0.532332,0.203125,1.64063
0.494613,0.203125,1.67188
0.435737,0.203125,1.70313
0.319395,0.203125,1.73438
0.272228,0.203125,1.76563
0.222772,0.203125,1.79688
0.176892,0.203125,1.82813
0.142143,0.203125,1.85938
0.0987846,0.203125,1.89063
0,0.234375,0.015625
-0.031167,0.234375,0.046875
-0.0669398,0.234375,0.078125
-0.077141,0.234375,0.109375
-0.128381,0.234375,0.140625
-0.177474,0.234375,0.171875
-0.229725,0.234375,0.203125
-0.299412,0.234375,0.234375
-0.416033,0.234375,0.265625
-0.459993,0.234375,0.296875
-0.492095,0.234375,0.328125
-0.505317,0.234375,0.359375
-0.55221,0.234375,0.390625
-0.576471,0.234375,0.421875
-0.538261,0.234375,0.453125
-0.613405,0.234375,0.484375
-0.770157,0.234375,0.515625
-0.755445,0.234375,0.546875
-0.767385,0.234375,0.578125
-0.7334,0.234375,0.609375
-0.810586,0.234375,0.640625
-0.87965,0.234375,0.671875
-0.854831,0.234375,0.703125
-0.758581,0.234375,0.734375
-0.649799,0.234375,0.765625
-0.588277,0.234375,0.796875
-0.640698,0.234375,0.828125
-0.543393,0.234375,0.859375
-0.441494,0.234375,0.890625
-0.414783,0.234375,0.921875
-0.233158,0.234375,0.953125
-0.175839,0.234375,0.984375
-0.0947925,0.234375,1.01563
0.10823,0.234375,1.04688
0.220165,0.234375,1.07813
0.385223,0.234375,1.10938
0.431888,0.234375,1.14063
0.52201,0.234375,1.17188
0.538914,0.234375,1.20313
0.590809,0.234375,1.23438
0.620027,0.234375,1.26563
0.61481,0.234375,1.29688
0.708435,0.234375,1.32813
0.85181,0.234375,1.35938
0.893928,0.234375,1.39063
0.830612,0.234375,1.42188
0.726764,0.234375,1.45313
0.680567,0.234375,1.48438
0.627082,0.234375,1.51563
0.609368,0.234375,1.54688
0.618186,0.234375,1.57813
0.558862,0.234375,1.60938
0.539957,0.234375,1.64063
0.416272,0.234375,1.67188
0.364348,0.234375,1.70313
0.313284,0.234375,1.73438
0.272885,0.234375,1.76563
0.23142,0.234375,1.79688
0.155938,0.234375,1.82813
0.140393,0.234375,1.85938
0.11577,0.234375,1.89063
0,0.265625,0.015625
0.0480547,0.265625,0.046875
-0.0548295,0.265625,0.078125
-0.105659,0.265625,0.109375
-0.18084,0.265625,0.140625
-0.180309,0.265625,0.171875
-0.234807,0.265625,0.203125
-0.307698,0.265625,0.234375
-0.3678,0.265625,0.265625
-0.37294,0.265625,0.296875
-0.473687,0.265625,0.328125
-0.522858,0.265625,0.359375
-0.579291,0.265625,0.390625
-0.542933,0.265625,0.421875
-0.566263,0.265625,0.453125
-0.71685,0.265625,0.484375
-0.665943,0.265625,0.515625
-0.609525,0.265625,0.546875
-0.669569,0.265625,0.578125
-0.767566,0.265625,0.609375
-0.867005,0.265625,0.640625
-0.90103,0.265625,0.671875
-0.84233,0.265625,0.703125
-0.761764,0.265625,0.734375
-0.692232,0.265625,0.765625
-0.708786,0.265625,0.796875
-0.668026,0.265625,0.828125
-0.565165,0.265625,0.859375
-0.522146,0.265625,0.890625
-0.4139,0.265625,0.921875
-0.277243,0.265625,0.953125
-0.238067,0.265625,0.984375
-0.010412,0.265625,1.01563
0.118439,0.265625,1.04688
0.314212,0.265625,1.07813
0.29264,0.265625,1.10938
0.358509,0.265625,1.14063
0.496694,0.265625,1.17188
0.579492,0.265625,1.20313
0.651764,0.265625,1.23438
0.666218,0.265625,1.26563
0.656412,0.265625,1.29688
0.755529,0.265625,1.32813
0.863989,0.265625,1.35938
0.867469,0.265625,1.39063
0.81398,0.265625,1.42188
0.70737,0.265625,1.45313
0.66723,0.265625,1.48438
0.591011,0.265625,1.51563
0.560248,0.265625,1.54688
0.57448,0.265625,1.57813
0.497917,0.265625,1.60938
0.40729,0.265625,1.64063
0.352622,0.265625,1.67188
0.329527,0.265625,1.70313
0.327163,0.265625,1.73438
0.263243,0.265625,1.76563
0.205591,0.265625,1.79688
0.181227,0.265625,1.82813
0.136088,0.265625,1.85938
0.106788,0.265625,1.89063
0,0.296875,0.015625
-0.0485864,0.296875,0.046875
-0.0485333,0.296875,0.078125
-0.111136,0.296875,0.109375
-0.135589,0.296875,0.140625
-0.156758,0.296875,0.171875
-0.207669,0.296875,0.203125
-0.31093,0.296875,0.234375
-0.324415,0.296875,0.265625
-0.474568,0.296875,0.296875
-0.538961,0.296875,0.328125
-0.47346,0.296875,0.359375
-0.473407,0.296875,0.390625
-0.496619,0.296875,0.421875
-0.620556,0.296875,0.453125
-0.603644,0.296875,0.484375
-0.618093,0.296875,0.515625
-0.666018,0.296875,0.546875
-0.704212,0.296875,0.578125
-0.809389,0.296875,0.609375
-0.804896,0.296875,0.640625
-0.771865,0.296875,0.671875
-0.695857,0.296875,0.703125
-0.603403,0.296875,0.734375
-0.540319,0.296875,0.765625
-0.667919,0.296875,0.796875
-0.657109,0.296875,0.828125
-0.638268,0.296875,0.859375
-0.502946,0.296875,0.890625
-0.36036,0.296875,0.921875
-0.328635,0.296875,0.953125
-0.205118,0.296875,0.984375
0.113327,0.296875,1.01563
0.170163,0.296875,1.04688
0.15884,0.296875,1.07813
0.157507,0.296875,1.10938
0.495118,0.296875,1.14063
0.605574,0.296875,1.17188
0.679102,0.296875,1.20313
0.736549,0.296875,1.23438
0.756464,0.296875,1.26563
0.773275,0.296875,1.29688
0.764927,0.296875,1.32813
0.732185,0.296875,1.35938
0.767223,0.296875,1.39063
0.741907,0.296875,1.42188
0.769084,0.296875,1.45313
0.758961,0.296875,1.48438
0.729965,0.296875,1.51563
0.696521,0.296875,1.54688
0.606994,0.296875,1.57813
0.545301,0.296875,1.60938
0.471847,0.296875,1.64063
0.381063,0.296875,1.67188
0.389433,0.296875,1.70313
0.327473,0.296875,1.73438
0.263021,0.296875,1.76563
0.154386,0.296875,1.79688
0.162051,0.296875,1.82813
0.130694,0.296875,1.85938
0.0742587,0.296875,1.89063
0,0.328125,0.015625
0.0329032,0.328125,0.046875
-0.119672,0.328125,0.078125
-0.121062,0.328125,0.109375
-0.154904,0.328125,0.140625
-0.179332,0.328125,0.171875
-0.22337,0.328125,0.203125
-0.317569,0.328125,0.234375
-0.390929,0.328125,0.265625
-0.42373,0.328125,0.296875
-0.309454,0.328125,0.328125
-0.343055,0.328125,0.359375
-0.458899,0.328125,0.390625
-0.60683,0.328125,0.421875
-0.610458,0.328125,0.453125
-0.632529,0.328125,0.484375
-0.656623,0.328125,0.515625
-0.626171,0.328125,0.546875
-0.682596,0.328125,0.578125
-0.708356,0.328125,0.609375
-0.74465,0.328125,0.640625
-0.75161,0.328125,0.671875
-0.791444,0.328125,0.703125
-0.811476,0.328125,0.734375
-0.764995,0.328125,0.765625
-0.778764,0.328125,0.796875
-0.643219,0.328125,0.828125
-0.641411,0.328125,0.859375
-0.489776,0.328125,0.890625
-0.418695,0.328125,0.921875
-0.204183,0.328125,0.953125
-0.0917366,0.328125,0.984375
-0.0336426,0.328125,1.01563
0.111841,0.328125,1.04688
0.0257778,0.328125,1.07813
0.345325,0.328125,1.10938
0.561664,0.328125,1.14063
0.526819,0.328125,1.17188
0.65169,0.328125,1.20313
0.65463,0.328125,1.23438
0.752638,0.328125,1.26563
0.833329,0.328125,1.29688
0.796135,0.328125,1.32813
0.77937,0.328125,1.35938
0.759109,0.328125,1.39063
0.706602,0.328125,1.42188
0.788817,0.328125,1.45313
0.754495,0.328125,1.48438
0.738276,0.328125,1.51563
0.67119,0.328125,1.54688
0.579073,0.328125,1.57813
0.489279,0.328125,1.60938
0.437513,0.328125,1.64063
0.424062,0.328125,1.67188
0.397178,0.328125,1.70313
0.337116,0.328125,1.73438
0.260163,0.328125,1.76563
0.243066,0.328125,1.79688
0.149017,0.328125,1.82813
0.097373,0.328125,1.85938
0.0708422,0.328125,1.89063
0,0.359375,0.015625
0.0162735,0.359375,0.046875
-0.133112,0.359375,0.078125
-0.143208,0.359375,0.109375
-0.174591,0.359375,0.140625
-0.200627,0.359375,0.171875
-0.231217,0.359375,0.203125
-0.232309,0.359375,0.234375
-0.338311,0.359375,0.265625
-0.341362,0.359375,0.296875
-0.393767,0.359375,0.328125
-0.483325,0.359375,0.359375
-0.518457,0.359375,0.390625
-0.542945,0.359375,0.421875
-0.541065,0.359375,0.453125
-0.620579,0.359375,0.484375
-0.581,0.359375,0.515625
-0.644776,0.359375,0.546875
-0.708266,0.359375,0.578125
-0.723209,0.359375,0.609375
-0.761678,0.359375,0.640625
-0.796231,0.359375,0.671875
-0.83137,0.359375,0.703125
-0.817421,0.359375,0.734375
-0.79782,0.359375,0.765625
-0.785471,0.359375,0.796875
-0.82026,0.359375,0.828125
-0.866269,0.359375,0.859375
-0.554787,0.359375,0.890625
-0.418913,0.359375,0.921875
-0.388961,0.359375,0.953125
-0.358869,0.359375,0.984375
-0.0513898,0.359375,1.01563
-0.0250578,0.359375,1.04688
0.0804577,0.359375,1.07813
0.392333,0.359375,1.10938
0.472241,0.359375,1.14063
0.501224,0.359375,1.17188
0.598324,0.359375,1.20313
0.742666,0.359375,1.23438
0.851865,0.359375,1.26563
0.793272,0.359375,1.29688
0.804525,0.359375,1.32813
0.891077,0.359375,1.35938
0.918407,0.359375,1.39063
0.924383,0.359375,1.42188
0.849623,0.359375,1.45313
0.714829,0.359375,1.48438
0.649016,0.359375,1.51563
0.604925,0.359375,1.54688
0.537776,0.359375,1.57813
0.582602,0.359375,1.60938
0.448464,0.359375,1.64063
0.438343,0.359375,1.67188
0.357051,0.359375,1.70313
0.336333,0.359375,1.73438
0.261043,0.359375,1.76563
0.191898,0.359375,1.79688
0.15672,0.359375,1.82813
0.14338,0.359375,1.85938
0.0373857,0.359375,1.89063
0,0.390625,0.015625
-0.0731993,0.390625,0.046875
-0.0984094,0.390625,0.078125
-0.118489,0.390625,0.109375
-0.10783,0.390625,0.140625
-0.150879,0.390625,0.171875
-0.218145,0.390625,0.203125
-0.280883,0.390625,0.234375
-0.295101,0.390625,0.265625
-0.385268,0.390625,0.296875
-0.467484,0.390625,0.328125
-0.438906,0.390625,0.359375
-0.447676,0.390625,0.390625
-0.509987,0.390625,0.421875
-0.60463,0.390625,0.453125
-0.548163,0.390625,0.484375
-0.579317,0.390625,0.515625
-0.764935,0.390625,0.546875
-0.824484,0.390625,0.578125
-0.848209,0.390625,0.609375
-0.803869,0.390625,0.640625
-0.856787,0.390625,0.671875
-0.966259,0.390625,0.703125
-0.79808,0.390625,0.734375
-0.72647,0.390625,0.765625
-0.750876,0.390625,0.796875
-0.786101,0.390625,0.828125
-0.742362,0.390625,0.859375
-0.605151,0.390625,0.890625
-0.6243,0.390625,0.921875
-0.579647,0.390625,0.953125
-0.370531,0.390625,0.984375
-0.198775,0.390625,1.01563
-0.109288,0.390625,1.04688
0.145366,0.390625,1.07813
0.234123,0.390625,1.10938
0.647327,0.390625,1.14063
0.709675,0.390625,1.17188
0.700612,0.390625,1.20313
0.923813,0.390625,1.23438
0.901182,0.390625,1.26563
0.931869,0.390625,1.29688
1.01017,0.390625,1.32813
0.98562,0.390625,1.35938
0.907732,0.390625,1.39063
0.949928,0.390625,1.42188
0.917149,0.390625,1.45313
0.851858,0.390625,1.48438
0.700475,0.390625,1.51563
0.67264,0.390625,1.54688
0.65572,0.390625,1.57813
0.601775,0.390625,1.60938
0.55496,0.390625,1.64063
0.477995,0.390625,1.67188
0.403973,0.390625,1.70313
0.37222,0.390625,1.73438
0.276368,0.390625,1.76563
0.196987,0.390625,1.79688
0.140711,0.390625,1.82813
0.118164,0.390625,1.85938
0.0181925,0.390625,1.89063
0,0.421875,0.015625
0.0545874,0.421875,0.046875
-0.144771,0.421875,0.078125
-0.0500398,0.421875,0.109375
-0.090559,0.421875,0.140625
-0.214319,0.421875,0.171875
-0.265456,0.421875,0.203125
-0.261993,0.421875,0.234375
-0.331691,0.421875,0.265625
-0.456319,0.421875,0.296875
-0.384872,0.421875,0.328125
-0.514078,0.421875,0.359375
-0.522735,0.421875,0.390625
-0.532634,0.421875,0.421875
-0.63735,0.421875,0.453125
-0.563756,0.421875,0.484375
-0.615728,0.421875,0.515625
-0.742917,0.421875,0.546875
-0.803937,0.421875,0.578125
-0.738803,0.421875,0.609375
-0.679396,0.421875,0.640625
-0.742735,0.421875,0.671875
-0.837153,0.421875,0.703125
-0.905926,0.421875,0.734375
-0.995545,0.421875,0.765625
-0.952416,0.421875,0.796875
-1.10176,0.421875,0.828125
-0.930613,0.421875,0.859375
-0.845189,0.421875,0.890625
-0.808827,0.421875,0.921875
-0.650251,0.421875,0.953125
-0.505421,0.421875,0.984375
-0.274068,0.421875,1.01563
0.181728,0.421875,1.04688
0.343012,0.421875,1.07813
0.541821,0.421875,1.10938
0.614051,0.421875,1.14063
0.771287,0.421875,1.17188
0.816361,0.421875,1.20313
0.88872,0.421875,1.23438
0.986226,0.421875,1.26563
0.974984,0.421875,1.29688
0.960092,0.421875,1.32813
0.979115,0.421875,1.35938
0.961965,0.421875,1.39063
1.00105,0.421875,1.42188
0.924115,0.421875,1.45313
0.892994,0.421875,1.48438
0.781493,0.421875,1.51563
0.636768,0.421875,1.54688
0.657727,0.421875,1.57813
0.548872,0.421875,1.60938
0.582012,0.421875,1.64063
0.470094,0.421875,1.67188
0.347828,0.421875,1.70313
0.382953,0.421875,1.73438
0.318288,0.421875,1.76563
0.207544,0.421875,1.79688
0.191732,0.421875,1.82813
0.0353017,0.421875,1.85938
-0.0458368,0.421875,1.89063
0,0.453125,0.015625
-0.123674,0.453125,0.046875
-0.0451828,0.453125,0.078125
-0.106895,0.453125,0.109375
-0.174624,0.453125,0.140625
-0.216663,0.453125,0.171875
-0.252807,0.453125,0.203125
-0.307425,0.453125,0.234375
-0.36027,0.453125,0.265625
-0.315331,0.453125,0.296875
-0.425411,0.453125,0.328125
-0.562458,0.453125,0.359375
-0.623924,0.453125,0.390625
-0.609888,0.453125,0.421875
-0.691361,0.453125,0.453125
-0.734457,0.453125,0.484375
-0.6977,0.453125,0.515625
-0.793359,0.453125,0.546875
-0.789083,0.453125,0.578125
-0.746369,0.453125,0.609375
-0.703918,0.453125,0.640625
-0.801874,0.453125,0.671875
-0.831995,0.453125,0.703125
-0.816732,0.453125,0.734375
-0.837824,0.453125,0.765625
-0.877485,0.453125,0.796875
-0.955126,0.453125,0.828125
-0.750951,0.453125,0.859375
-1.02692,0.453125,0.890625
-1.06358,0.453125,0.921875
-0.720261,0.453125,0.953125
-0.53009,0.453125,0.984375
0.0236158,0.453125,1.01563
0.18669,0.453125,1.04688
0.328478,0.453125,1.07813
0.500038,0.453125,1.10938
0.820975,0.453125,1.14063
0.917147,0.453125,1.17188
1.01972,0.453125,1.20313
1.09651,0.453125,1.23438
1.14722,0.453125,1.26563
1.1053,0.453125,1.29688
1.16106,0.453125,1.32813
1.16185,0.453125,1.35938
1.12117,0.453125,1.39063
1.12769,0.453125,1.42188
1.07296,0.453125,1.45313
0.891205,0.453125,1.48438
0.80789,0.453125,1.51563
0.676167,0.453125,1.54688
0.655741,0.453125,1.57813
0.716068,0.453125,1.60938
0.601023,0.453125,1.64063
0.532857,0.453125,1.67188
0.560847,0.453125,1.70313
0.448391,0.453125,1.73438
0.328813,0.453125,1.76563
0.336334,0.453125,1.79688
0.261938,0.453125,1.82813
0.0819886,0.453125,1.85938
-0.0139982,0.453125,1.89063
0,0.484375,0.015625
-0.0328674,0.484375,0.046875
-0.0546975,0.484375,0.078125
-0.144893,0.484375,0.109375
-0.209664,0.484375,0.140625
-0.256143,0.484375,0.171875
-0.369166,0.484375,0.203125
-0.41576,0.484375,0.234375
-0.323277,0.484375,0.265625
-0.443954,0.484375,0.296875
-0.720653,0.484375,0.328125
-0.657837,0.484375,0.359375
-0.596281,0.484375,0.390625
-0.557322,0.484375,0.421875
-0.644325,0.484375,0.453125
-0.656226,0.484375,0.484375
-0.669502,0.484375,0.515625
-0.774073,0.484375,0.546875
-0.715569,0.484375,0.578125
-0.714235,0.484375,0.609375
-0.691593,0.484375,0.640625
-0.90905,0.484375,0.671875
-1.08124,0.484375,0.703125
-1.32304,0.484375,0.734375
-1.1575,0.484375,0.765625
-1.39553,0.484375,0.796875
-1.42789,0.484375,0.828125
-1.00798,0.484375,0.859375
-1.2496,0.484375,0.890625
-0.908314,0.484375,0.921875
-0.701479,0.484375,0.953125
-1.0417,0.484375,0.984375
-0.508553,0.484375,1.01563
0.252439,0.484375,1.04688
0.582764,0.484375,1.07813
0.810903,0.484375,1.10938
1.45605,0.484375,1.14063
1.47168,0.484375,1.17188
1.59487,0.484375,1.20313
1.6315,0.484375,1.23438
1.51787,0.484375,1.26563
1.50506,0.484375,1.29688
1.46407,0.484375,1.32813
1.39544,0.484375,1.35938
1.35296,0.484375,1.39063
1.282,0.484375,1.42188
1.16868,0.484375,1.45313
1.03893,0.484375,1.48438
0.91426,0.484375,1.51563
0.895174,0.484375,1.54688
0.878604,0.484375,1.57813
0.925838,0.484375,1.60938
0.71279,0.484375,1.64063
0.735645,0.484375,1.67188
0.742768,0.484375,1.70313
0.561777,0.484375,1.73438
0.559438,0.484375,1.76563
0.4915,0.484375,1.79688
0.333509,0.484375,1.82813
0.313444,0.484375,1.85938
0.0452325,0.484375,1.89063
0,0.515625,0.015625
-0.217896,0.515625,0.046875
-0.0842123,0.515625,0.078125
-0.19204,0.515625,0.109375
-0.301942,0.515625,0.140625
-0.323174,0.515625,0.171875
-0.425703,0.515625,0.203125
-0.405318,0.515625,0.234375
-0.490586,0.515625,0.265625
-0.675632,0.515625,0.296875
-0.635664,0.515625,0.328125
-0.568781,0.515625,0.359375
-0.783488,0.515625,0.390625
-0.718728,0.515625,0.421875
-0.622054,0.515625,0.453125
-0.778753,0.515625,0.484375
-0.701998,0.515625,0.515625
-0.775471,0.515625,0.546875
-0.700748,0.515625,0.578125
-0.503763,0.515625,0.609375
-0.692696,0.515625,0.640625
-0.847305,0.515625,0.671875
-1.11782,0.515625,0.703125
-1.3081,0.515625,0.734375
-1.37721,0.515625,0.765625
-1.67027,0.515625,0.796875
-1.55818,0.515625,0.828125
-1.63091,0.515625,0.859375
-1.54113,0.515625,0.890625
-1.39328,0.515625,0.921875
-1.44459,0.515625,0.953125
-1.20254,0.515625,0.984375
-0.315221,0.515625,1.01563
0.20232,0.515625,1.04688
0.719654,0.515625,1.07813
1.36842,0.515625,1.10938
1.31057,0.515625,1.14063
1.53055,0.515625,1.17188
1.9717,0.515625,1.20313
2.13281,0.515625,1.23438
2.16876,0.515625,1.26563
2.25928,0.515625,1.29688
1.98367,0.515625,1.32813
1.74032,0.515625,1.35938
1.593,0.515625,1.39063
1.5204,0.515625,1.42188
1.27612,0.515625,1.45313
1.36801,0.515625,1.48438
1.28063,0.515625,1.51563
1.242,0.515625,1.54688
1.17787,0.515625,1.57813
0.951971,0.515625,1.60938
0.712451,0.515625,1.64063
0.835574,0.515625,1.67188
0.982845,0.515625,1.70313
0.916615,0.515625,1.73438
0.972372,0.515625,1.76563
0.863501,0.515625,1.79688
0.799859,0.515625,1.82813
0.632274,0.515625,1.85938
0.362901,0.515625,1.89063
0,0.546875,0.015625
0.117525,0.546875,0.046875
-0.25407,0.546875,0.078125
-0.277593,0.546875,0.109375
-0.37467,0.546875,0.140625
-0.44937,0.546875,0.171875
-0.513618,0.546875,0.203125
-0.50345,0.546875,0.234375
-0.600125,0.546875,0.265625
-0.579332,0.546875,0.296875
-0.655145,0.546875,0.328125
-0.929853,0.546875,0.359375
-1.24514,0.546875,0.390625
-1.12026,0.546875,0.421875
-1.02586,0.546875,0.453125
-0.973022,0.546875,0.484375
-0.800991,0.546875,0.515625
-0.992813,0.546875,0.546875
-0.858315,0.546875,0.578125
-1.06129,0.546875,0.609375
-1.09701,0.546875,0.640625
-0.887709,0.546875,0.671875
-1.16586,0.546875,0.703125
-1.17134,0.546875,0.734375
-1.21337,0.546875,0.765625
-1.31916,0.546875,0.796875
-1.57456,0.546875,0.828125
-1.69138,0.546875,0.859375
-1.51378,0.546875,0.890625
-2.19744,0.546875,0.921875
-1.58969,0.546875,0.953125
-1.03501,0.546875,0.984375
-0.0916939,0.546875,1.01563
0.00387096,0.546875,1.04688
0.792274,0.546875,1.07813
0.996679,0.546875,1.10938
1.39811,0.546875,1.14063
1.80333,0.546875,1.17188
2.06016,0.546875,1.20313
2.42038,0.546875,1.23438
2.6034,0.546875,1.26563
2.67168,0.546875,1.29688
2.42055,0.546875,1.32813
2.24751,0.546875,1.35938
2.19754,0.546875,1.39063
1.99502,0.546875,1.42188
1.76724,0.546875,1.45313
1.66862,0.546875,1.48438
1.53917,0.546875,1.51563
1.49961,0.546875,1.54688
1.42671,0.546875,1.57813
1.22638,0.546875,1.60938
1.21952,0.546875,1.64063
1.12069,0.546875,1.67188
1.15096,0.546875,1.70313
1.14099,0.546875,1.73438
1.07853,0.546875,1.76563
1.06486,0.546875,1.79688
1.19149,0.546875,1.82813
1.32264,0.546875,1.85938
1.15389,0.546875,1.89063
0,0.578125,0.015625
-0.208592,0.578125,0.046875
-0.15118,0.578125,0.078125
-0.226269,0.578125,0.109375
-0.381725,0.578125,0.140625
-0.70051,0.578125,0.171875
-0.719121,0.578125,0.203125
-0.840601,0.578125,0.234375
-0.858312,0.578125,0.265625
-0.87467,0.578125,0.296875
-1.06553,0.578125,0.328125
-1.22181,0.578125,0.359375
-1.32279,0.578125,0.390625
-1.44667,0.578125,0.421875
-1.22487,0.578125,0.453125
-1.23446,0.578125,0.484375
-1.09148,0.578125,0.515625
-1.19678,0.578125,0.546875
-1.67597,0.578125,0.578125
-1.59712,0.578125,0.609375
-1.13573,0.578125,0.640625
-1.03102,0.578125,0.671875
-1.44336,0.578125,0.703125
-1.58198,0.578125,0.734375
-1.27903,0.578125,0.765625
-1.30095,0.578125,0.796875
-1.6367,0.578125,0.828125
-1.7368,0.578125,0.859375
-2.39291,0.578125,0.890625
-2.17579,0.578125,0.921875
-1.24702,0.578125,0.953125
-1.47349,0.578125,0.984375
-1.35702,0.578125,1.01563
-0.436996,0.578125,1.04688
0.786606,0.578125,1.07813
1.18727,0.578125,1.10938
1.90981,0.578125,1.14063
1.88964,0.578125,1.17188
2.03866,0.578125,1.20313
2.29959,0.578125,1.23438
2.33127,0.578125,1.26563
2.16954,0.578125,1.29688
2.11931,0.578125,1.32813
2.23175,0.578125,1.35938
2.3996,0.578125,1.39063
2.21881,0.578125,1.42188
2.2253,0.578125,1.45313
2.09267,0.578125,1.48438
1.82603,0.578125,1.51563
1.59879,0.578125,1.54688
1.68701,0.578125,1.57813
1.61919,0.578125,1.60938
1.70252,0.578125,1.64063
1.39898,0.578125,1.67188
1.50941,0.578125,1.70313
1.39209,0.578125,1.73438
1.0677,0.578125,1.76563
0.964478,0.578125,1.79688
1.0219,0.578125,1.82813
1.36981,0.578125,1.85938
1.53534,0.578125,1.89063
0,0.609375,0.015625
-0.0334802,0.609375,0.046875
-0.250891,0.609375,0.078125
-0.423579,0.609375,0.109375
-0.754377,0.609375,0.140625
-0.826775,0.609375,0.171875
-0.876057,0.609375,0.203125
-1.19269,0.609375,0.234375
-1.32604,0.609375,0.265625
-1.4066,0.609375,0.296875
-1.31774,0.609375,0.328125
-1.35574,0.609375,0.359375
-1.47397,0.609375,0.390625
-1.49865,0.609375,0.421875
-1.43688,0.609375,0.453125
-1.26223,0.609375,0.484375
-1.11549,0.609375,0.515625
-1.60945,0.609375,0.546875
-1.60847,0.609375,0.578125
-0.941898,0.609375,0.609375
-0.677607,0.609375,0.640625
-0.7048,0.609375,0.671875
-0.771961,0.609375,0.703125
-0.742592,0.609375,0.734375
-0.787148,0.609375,0.765625
-1.20092,0.609375,0.796875
-2.07139,0.609375,0.828125
-2.45345,0.609375,0.859375
-2.28894,0.609375,0.890625
-2.4816,0.609375,0.921875
-2.78614,0.609375,0.953125
-1.62277,0.609375,0.984375
-1.93198,0.609375,1.01563
-0.689277,0.609375,1.04688
0.554504,0.609375,1.07813
1.72338,0.609375,1.10938
2.1893,0.609375,1.14063
2.0988,0.609375,1.17188
1.81566,0.609375,1.20313
1.88436,0.609375,1.23438
1.76909,0.609375,1.26563
1.89235,0.609375,1.29688
1.9994,0.609375,1.32813
1.95545,0.609375,1.35938
2.08264,0.609375,1.39063
2.14184,0.609375,1.42188
2.10065,0.609375,1.45313
1.76107,0.609375,1.48438
1.82009,0.609375,1.51563
1.80248,0.609375,1.54688
1.88492,0.609375,1.57813
1.81426,0.609375,1.60938
1.82332,0.609375,1.64063
1.69297,0.609375,1.67188
1.61831,0.609375,1.70313
1.34978,0.609375,1.73438
1.08785,0.609375,1.76563
0.897881,0.609375,1.79688
0.818033,0.609375,1.82813
1.02188,0.609375,1.85938
1.7932,0.609375,1.89063
0,0.640625,0.015625
-0.23531,0.640625,0.046875
-0.398338,0.640625,0.078125
-0.465893,0.640625,0.109375
-0.379536,0.640625,0.140625
-0.536801,0.640625,0.171875
-0.801532,0.640625,0.203125
-1.01878,0.640625,0.234375
-1.28097,0.640625,0.265625
-1.06469,0.640625,0.296875
-1.0439,0.640625,0.328125
-1.29401,0.640625,0.359375
-1.30516,0.640625,0.390625
-1.31247,0.640625,0.421875
-1.1479,0.640625,0.453125
-0.986298,0.640625,0.484375
-1.06203,0.640625,0.515625
-0.681953,0.640625,0.546875
-0.153435,0.640625,0.578125
-0.0718822,0.640625,0.609375
0.289928,0.640625,0.640625
0.340778,0.640625,0.671875
0.514095,0.640625,0.703125
0.53027,0.640625,0.734375
-0.131023,0.640625,0.765625
-0.924065,0.640625,0.796875
-2.12883,0.640625,0.828125
-3.18213,0.640625,0.859375
-2.4547,0.640625,0.890625
-4.46426,0.640625,0.921875
-3.53125,0.640625,0.953125
-1.92683,0.640625,0.984375
-1.58056,0.640625,1.01563
-0.805073,0.640625,1.04688
1.03716,0.640625,1.07813
2.82827,0.640625,1.10938
3.22992,0.640625,1.14063
2.77211,0.640625,1.17188
1.9649,0.640625,1.20313
1.75653,0.640625,1.23438
1.27185,0.640625,1.26563
1.17233,0.640625,1.29688
1.05142,0.640625,1.32813
1.02943,0.640625,1.35938
1.06487,0.640625,1.39063
1.35896,0.640625,1.42188
1.26351,0.640625,1.45313
1.22931,0.640625,1.48438
1.32748,0.640625,1.51563
1.25996,0.640625,1.54688
1.25701,0.640625,1.57813
1.48571,0.640625,1.60938
1.43153,0.640625,1.64063
1.40791,0.640625,1.67188
1.15619,0.640625,1.70313
1.06697,0.640625,1.73438
0.838434,0.640625,1.76563
0.677813,0.640625,1.79688
0.438797,0.640625,1.82813
0.758835,0.640625,1.85938
1.44716,0.640625,1.89063
0,0.671875,0.015625
-0.312091,0.671875,0.046875
-0.199171,0.671875,0.078125
-0.127144,0.671875,0.109375
-0.175909,0.671875,0.140625
-0.296018,0.671875,0.171875
-0.370614,0.671875,0.203125
-0.417836,0.671875,0.234375
-0.423606,0.671875,0.265625
-0.305893,0.671875,0.296875
-0.432315,0.671875,0.328125
-0.553453,0.671875,0.359375
-0.54874,0.671875,0.390625
-0.430145,0.671875,0.421875
-0.345943,0.671875,0.453125
-0.220131,0.671875,0.484375
0.166759,0.671875,0.515625
0.68218,0.671875,0.546875
0.677624,0.671875,0.578125
1.01394,0.671875,0.609375
1.06157,0.671875,0.640625
1.3301,0.671875,0.671875
1.32828,0.671875,0.703125
1.34264,0.671875,0.734375
1.21414,0.671875,0.765625
0.784283,0.671875,0.796875
-1.78493,0.671875,0.828125
-8.92053,0.671875,0.859375
-12.9229,0.671875,0.890625
-8.49062,0.671875,0.921875
-2.35023,0.671875,0.953125
2.39095,0.671875,0.984375
5.46863,0.671875,1.01563
5.65791,0.671875,1.04688
6.89526,0.671875,1.07813
7.58784,0.671875,1.10938
4.03383,0.671875,1.14063
3.31398,0.671875,1.17188
1.96019,0.671875,1.20313
1.57047,0.671875,1.23438
1.17221,0.671875,1.26563
0.808548,0.671875,1.29688
0.438877,0.671875,1.32813
0.264668,0.671875,1.35938
0.131443,0.671875,1.39063
0.509199,0.671875,1.42188
0.155184,0.671875,1.45313
0.295919,0.671875,1.48438
0.266903,0.671875,1.51563
0.397823,0.671875,1.54688
0.480186,0.671875,1.57813
0.522442,0.671875,1.60938
0.542493,0.671875,1.64063
0.471434,0.671875,1.67188
0.176208,0.671875,1.70313
0.335236,0.671875,1.73438
0.322414,0.671875,1.76563
0.22785,0.671875,1.79688
0.0497155,0.671875,1.82813
0.288124,0.671875,1.85938
0.247066,0.671875,1.89063
0,0.703125,0.015625
-0.295933,0.703125,0.046875
-0.0256584,0.703125,0.078125
0.0414491,0.703125,0.109375
-0.0855637,0.703125,0.140625
-0.0213766,0.703125,0.171875
0.0278754,0.703125,0.203125
-0.0801392,0.703125,0.234375
-0.0051384,0.703125,0.265625
0.0468569,0.703125,0.296875
0.0818796,0.703125,0.328125
0.096055,0.703125,0.359375
0.0774775,0.703125,0.390625
0.207657,0.703125,0.421875
0.38435,0.703125,0.453125
0.479391,0.703125,0.484375
0.684992,0.703125,0.515625
1.09893,0.703125,0.546875
1.12512,0.703125,0.578125
1.31043,0.703125,0.609375
1.2541,0.703125,0.640625
1.85222,0.703125,0.671875
2.06923,0.703125,0.703125
2.34624,0.703125,0.734375
2.81651,0.703125,0.765625
3.25769,0.703125,0.796875
1.66417,0.703125,0.828125
3.0701,0.703125,0.859375
73.4841,0.703125,0.890625
50.9179,0.703125,0.921875
29.1442,0.703125,0.953125
3.3813,0.703125,0.984375
-22.9671,0.703125,1.01563
-46.8985,0.703125,1.04688
-66.9529,0.703125,1.07813
-76.3609,0.703125,1.10938
4.12151,0.703125,1.14063
3.32752,0.703125,1.17188
1.84673,0.703125,1.20313
1.34535,0.703125,1.23438
1.00543,0.703125,1.26563
0.714909,0.703125,1.29688
0.227264,0.703125,1.32813
0.0883751,0.703125,1.35938
0.176739,0.703125,1.39063
-0.110918,0.703125,1.42188
-0.0921001,0.703125,1.45313
-0.112249,0.703125,1.48438
-0.183674,0.703125,1.51563
-0.0708332,0.703125,1.54688
-0.198563,0.703125,1.57813
-0.0538788,0.703125,1.60938
0.0253868,0.703125,1.64063
-0.10197,0.703125,1.67188
-0.154465,0.703125,1.70313
-0.0748758,0.703125,1.73438
-0.140396,0.703125,1.76563
-0.164705,0.703125,1.79688
-0.0309401,0.703125,1.82813
-0.25055,0.703125,1.85938
-0.724021,0.703125,1.89063
0,0.734375,0.015625
-0.329262,0.734375,0.046875
-0.253982,0.734375,0.078125
-0.118258,0.734375,0.109375
-0.0452495,0.734375,0.140625
-0.0237551,0.734375,0.171875
-0.00684977,0.734375,0.203125
0.0164561,0.734375,0.234375
0.0169392,0.734375,0.265625
0.101081,0.734375,0.296875
0.125213,0.734375,0.328125
0.104355,0.734375,0.359375
0.278311,0.734375,0.390625
0.313976,0.734375,0.421875
0.533897,0.734375,0.453125
0.501665,0.734375,0.484375
0.617962,0.734375,0.515625
1.10459,0.734375,0.546875
1.13585,0.734375,0.578125
1.15613,0.734375,0.609375
1.93714,0.734375,0.640625
2.49138,0.734375,0.671875
2.65534,0.734375,0.703125
2.88356,0.734375,0.734375
3.53209,0.734375,0.765625
-1.13187,0.734375,0.796875
8.13497,0.734375,0.828125
100.522,0.734375,0.859375
11.8947,0.734375,0.890625
8.52793,0.734375,0.921875
3.50801,0.734375,0.953125
-5.02235,0.734375,0.984375
-7.47551,0.734375,1.01563
-16.4979,0.734375,1.04688
-25.917,0.734375,1.07813
-15.3554,0.734375,1.10938
-89.7448,0.734375,1.14063
1.74097,0.734375,1.17188
1.51365,0.734375,1.20313
1.91242,0.734375,1.23438
1.31639,0.734375,1.26563
0.5541,0.734375,1.29688
-0.204876,0.734375,1.32813
-0.181522,0.734375,1.35938
-0.126682,0.734375,1.39063
-0.317696,0.734375,1.42188
-0.266045,0.734375,1.45313
-0.331224,0.734375,1.48438
-0.186193,0.734375,1.51563
-0.124676,0.734375,1.54688
-0.131697,0.734375,1.57813
-0.0910196,0.734375,1.60938
-0.169011,0.734375,1.64063
-0.194619,0.734375,1.67188
-0.0607157,0.734375,1.70313
-0.0926208,0.734375,1.73438
-0.14344,0.734375,1.76563
-0.0888786,0.734375,1.79688
0.0207748,0.734375,1.82813
-0.666264,0.734375,1.85938
-1.32093,0.734375,1.89063
0,0.765625,0.015625
-0.345104,0.765625,0.046875
-0.335961,0.765625,0.078125
-0.0673513,0.765625,0.109375
-0.130455,0.765625,0.140625
-0.0108786,0.765625,0.171875
-0.151072,0.765625,0.203125
-0.0531259,0.765625,0.234375
-0.0591445,0.765625,0.265625
0.0177059,0.765625,0.296875
0.0873175,0.765625,0.328125
0.132638,0.765625,0.359375
0.246898,0.765625,0.390625
0.293826,0.765625,0.421875
0.406427,0.765625,0.453125
0.722387,0.765625,0.484375
0.689386,0.765625,0.515625
0.839767,0.765625,0.546875
1.41868,0.765625,0.578125
2.13186,0.765625,0.609375
3.10001,0.765625,0.640625
3.52065,0.765625,0.671875
2.62056,0.765625,0.703125
2.76093,0.765625,0.734375
0.147156,0.765625,0.765625
1.8884,0.765625,0.796875
159.228,0.765625,0.828125
0,0.765625,0.859375
0,0.765625,0.890625
0,0.765625,0.921875
0,0.765625,0.953125
0,0.765625,0.984375
0,0.765625,1.01563
0,0.765625,1.04688
-35.1936,0.765625,1.07813
-40.3493,0.765625,1.10938
-14.0758,0.765625,1.14063
-95.6439,0.765625,1.17188
3.65392,0.765625,1.20313
0.235886,0.765625,1.23438
0.0509911,0.765625,1.26563
-0.437725,0.765625,1.29688
-0.490578,0.765625,1.32813
-0.317787,0.765625,1.35938
-0.437767,0.765625,1.39063
-0.455584,0.765625,1.42188
-0.450357,0.765625,1.45313
-0.433277,0.765625,1.48438
-0.211824,0.765625,1.51563
-0.332151,0.765625,1.54688
-0.26865,0.765625,1.57813
-0.123793,0.765625,1.60938
-0.200345,0.765625,1.64063
-0.228097,0.765625,1.67188
-0.155982,0.765625,1.70313
-0.103559,0.765625,1.73438
-0.153609,0.765625,1.76563
-0.0697222,0.765625,1.79688
-0.0799804,0.765625,1.82813
-1.13833,0.765625,1.85938
-2.15663,0.765625,1.89063
0,0.796875,0.015625
-0.524391,0.796875,0.046875
-0.131416,0.796875,0.078125
0.0266478,0.796875,0.109375
-0.0867608,0.796875,0.140625
-0.0268359,0.796875,0.171875
-0.071722,0.796875,0.203125
0.0380163,0.796875,0.234375
-0.00647449,0.796875,0.265625
0.0124149,0.796875,0.296875
0.109211,0.796875,0.328125
0.0664577,0.796875,0.359375
0.151608,0.796875,0.390625
0.391619,0.796875,0.421875
0.451221,0.796875,0.453125
0.455017,0.796875,0.484375
0.739532,0.796875,0.515625
0.842247,0.796875,0.546875
1.88822,0.796875,0.578125
2.74066,0.796875,0.609375
3.58458,0.796875,0.640625
4.10818,0.796875,0.671875
4.64154,0.796875,0.703125
-3.34256,0.796875,0.734375
2.96675,0.796875,0.765625
183.523,0.796875,0.796875
0,0.796875,0.828125
0,0.796875,0.859375
0,0.796875,0.890625
0,0.796875,0.921875
0,0.796875,0.953125
0,0.796875,0.984375
0,0.796875,1.01563
0,0.796875,1.04688
0,0.796875,1.07813
-49.9305,0.796875,1.10938
-47.6805,0.796875,1.14063
-11.3539,0.796875,1.17188
-95.9977,0.796875,1.20313
-0.532303,0.796875,1.23438
-1.59399,0.796875,1.26563
-2.06724,0.796875,1.29688
-1.31149,0.796875,1.32813
-0.974373,0.796875,1.35938
-0.921661,0.796875,1.39063
-0.900669,0.796875,1.42188
-0.759413,0.796875,1.45313
-0.460707,0.796875,1.48438
-0.405836,0.796875,1.51563
-0.35318,0.796875,1.54688
-0.266475,0.796875,1.57813
-0.2614,0.796875,1.60938
-0.28018,0.796875,1.64063
-0.206755,0.796875,1.67188
-0.199988,0.796875,1.70313
-0.205963,0.796875,1.73438
-0.163929,0.796875,1.76563
-0.1126,0.796875,1.79688
-0.0894728,0.796875,1.82813
-1.43981,0.796875,1.85938
-3.0904,0.796875,1.89063
0,0.828125,0.015625
-0.254566,0.828125,0.046875
-0.233557,0.828125,0.078125
-0.0768529,0.828125,0.109375
-0.0336356,0.828125,0.140625
-0.0836434,0.828125,0.171875
-0.0131922,0.828125,0.203125
-0.126362,0.828125,0.234375
-0.0422988,0.828125,0.265625
0.091785,0.828125,0.296875
0.0963879,0.828125,0.328125
0.00111008,0.828125,0.359375
0.109739,0.828125,0.390625
0.274937,0.828125,0.421875
0.36504,0.828125,0.453125
0.294691,0.828125,0.484375
0.720827,0.828125,0.515625
0.835873,0.828125,0.546875
1.56594,0.828125,0.578125
2.54118,0.828125,0.609375
4.03993,0.828125,0.640625
6.15526,0.828125,0.671875
6.16858,0.828125,0.703125
9.6198,0.828125,0.734375
210.289,0.828125,0.765625
0,0.828125,0.796875
0,0.828125,0.828125
0,0.828125,0.859375
0,0.828125,0.890625
0,0.828125,0.921875
0,0.828125,0.953125
0,0.828125,0.984375
0,0.828125,1.01563
0,0.828125,1.04688
0,0.828125,1.07813
0,0.828125,1.10938
-64.4844,0.828125,1.14063
-59.6831,0.828125,1.17188
-3.0507,0.828125,1.20313
-18.4616,0.828125,1.23438
-4.7265,0.828125,1.26563
-3.14442,0.828125,1.29688
-1.84628,0.828125,1.32813
-1.37309,0.828125,1.35938
-1.59374,0.828125,1.39063
-1.19984,0.828125,1.42188
-0.654549,0.828125,1.45313
-0.277451,0.828125,1.48438
-0.437458,0.828125,1.51563
-0.468909,0.828125,1.54688
-0.3604,0.828125,1.57813
-0.413651,0.828125,1.60938
-0.292134,0.828125,1.64063
-0.250422,0.828125,1.67188
-0.175201,0.828125,1.70313
-0.148891,0.828125,1.73438
-0.0871263,0.828125,1.76563
-0.0554848,0.828125,1.79688
0.133472,0.828125,1.82813
-1.73296,0.828125,1.85938
-3.88087,0.828125,1.89063
0,0.859375,0.015625
-0.40949,0.859375,0.046875
-0.242682,0.859375,0.078125
-0.118244,0.859375,0.109375
-0.138811,0.859375,0.140625
-0.190568,0.859375,0.171875
-0.0902891,0.859375,0.203125
-0.0883179,0.859375,0.234375
-0.0458479,0.859375,0.265625
0.00444889,0.859375,0.296875
-0.106224,0.859375,0.328125
-0.118773,0.859375,0.359375
-0.050806,0.859375,0.390625
0.178181,0.859375,0.421875
0.0888157,0.859375,0.453125
0.2328,0.859375,0.484375
0.40456,0.859375,0.515625
0.834578,0.859375,0.546875
1.10082,0.859375,0.578125
2.00236,0.859375,0.609375
3.78082,0.859375,0.640625
5.24753,0.859375,0.671875
13.3757,0.859375,0.703125
168.862,0.859375,0.734375
0,0.859375,0.765625
0,0.859375,0.796875
0,0.859375,0.828125
0,0.859375,0.859375
0,0.859375,0.890625
0,0.859375,0.921875
0,0.859375,0.953125
0,0.859375,0.984375
0,0.859375,1.01563
0,0.859375,1.04688
0,0.859375,1.07813
0,0.859375,1.10938
0,0.859375,1.14063
-99.8668,0.859375,1.17188
-41.048,0.859375,1.20313
-58.6499,0.859375,1.23438
-0.487812,0.859375,1.26563
-2.75117,0.859375,1.29688
-2.23232,0.859375,1.32813
-2.28689,0.859375,1.35938
-1.99663,0.859375,1.39063
-1.34951,0.859375,1.42188
-0.74675,0.859375,1.45313
-0.766867,0.859375,1.48438
-0.576937,0.859375,1.51563
-0.579897,0.859375,1.54688
-0.554214,0.859375,1.57813
-0.354142,0.859375,1.60938
-0.172688,0.859375,1.64063
-0.0741987,0.859375,1.67188
-0.0554004,0.859375,1.70313
-0.113834,0.859375,1.73438
-0.183128,0.859375,1.76563
-0.147393,0.859375,1.79688
-0.00419784,0.859375,1.82813
-2.34888,0.859375,1.85938
-4.86361,0.859375,1.89063
0,0.890625,0.015625
-0.346629,0.890625,0.046875
-0.203903,0.890625,0.078125
-0.136925,0.890625,0.109375
-0.128931,0.890625,0.140625
-0.111976,0.890625,0.171875
-0.0786748,0.890625,0.203125
-0.0875742,0.890625,0.234375
-0.153131,0.890625,0.265625
-0.0908689,0.890625,0.296875
-0.0883856,0.890625,0.328125
-0.20577,0.890625,0.359375
-0.0392809,0.890625,0.390625
0.163531,0.890625,0.421875
-0.170233,0.890625,0.453125
0.0369225,0.890625,0.484375
0.02843,0.890625,0.515625
0.529347,0.890625,0.546875
0.667015,0.890625,0.578125
0.946688,0.890625,0.609375
1.51104,0.890625,0.640625
-0.258276,0.890625,0.671875
174.91,0.890625,0.703125
19.1331,0.890625,0.734375
0,0.890625,0.765625
0,0.890625,0.796875
0,0.890625,0.828125
0,0.890625,0.859375
0,0.890625,0.890625
0,0.890625,0.921875
0,0.890625,0.953125
0,0.890625,0.984375
0,0.890625,1.01563
0,0.890625,1.04688
0,0.890625,1.07813
0,0.890625,1.10938
0,0.890625,1.14063
-66.2956,0.890625,1.17188
-75.4705,0.890625,1.20313
-7.80702,0.890625,1.23438
-21.677,0.890625,1.26563
-7.39352,0.890625,1.29688
-4.26429,0.890625,1.32813
-2.74355,0.890625,1.35938
-1.70807,0.890625,1.39063
-0.962383,0.890625,1.42188
-0.882122,0.890625,1.45313
-0.827782,0.890625,1.48438
-0.513092,0.890625,1.51563
-0.307866,0.890625,1.54688
-0.317251,0.890625,1.57813
-0.215229,0.890625,1.60938
-0.251212,0.890625,1.64063
-0.217998,0.890625,1.67188
-0.210033,0.890625,1.70313
-0.301316,0.890625,1.73438
-0.25866,0.890625,1.76563
-0.130314,0.890625,1.79688
0.17242,0.890625,1.82813
-2.47204,0.890625,1.85938
-5.32641,0.890625,1.89063
0,0.921875,0.015625
-0.3634,0.921875,0.046875
-0.245356,0.921875,0.078125
-0.140797,0.921875,0.109375
-0.0804665,0.921875,0.140625
-0.0709255,0.921875,0.171875
-0.0670719,0.921875,0.203125
-0.091404,0.921875,0.234375
-0.0450625,0.921875,0.265625
-0.0922608,0.921875,0.296875
-0.0333323,0.921875,0.328125
-0.163059,0.921875,0.359375
-0.0586271,0.921875,0.390625
0.04356,0.921875,0.421875
-0.204682,0.921875,0.453125
-0.137005,0.921875,0.484375
0.033927,0.921875,0.515625
-0.255473,0.921875,0.546875
0.0725393,0.921875,0.578125
0.25186,0.921875,0.609375
0.860083,0.921875,0.640625
2.94486,0.921875,0.671875
182.192,0.921875,0.703125
15.3766,0.921875,0.734375
0,0.921875,0.765625
0,0.921875,0.796875
0,0.921875,0.828125
0,0.921875,0.859375
0,0.921875,0.890625
0,0.921875,0.921875
0,0.921875,0.953125
0,0.921875,0.984375
0,0.921875,1.01563
0,0.921875,1.04688
0,0.921875,1.07813
0,0.921875,1.10938
0,0.921875,1.14063
0,0.921875,1.17188
-108.584,0.921875,1.20313
-55.0499,0.921875,1.23438
-6.23969,0.921875,1.26563
-7.97101,0.921875,1.29688
-3.98077,0.921875,1.32813
-2.38636,0.921875,1.35938
-1.35747,0.921875,1.39063
-0.972521,0.921875,1.42188
-1.04131,0.921875,1.45313
-0.677586,0.921875,1.48438
-0.46592,0.921875,1.51563
-0.434543,0.921875,1.54688
-0.524476,0.921875,1.57813
-0.480382,0.921875,1.60938
-0.253775,0.921875,1.64063
-0.271358,0.921875,1.67188
-0.196056,0.921875,1.70313
-0.142246,0.921875,1.73438
-0.13378,0.921875,1.76563
-0.0160184,0.921875,1.79688
0.124079,0.921875,1.82813
-2.25805,0.921875,1.85938
-5.12,0.921875,1.89063
0,0.953125,0.015625
-0.375377,0.953125,0.046875
-0.160227,0.953125,0.078125
-0.143781,0.953125,0.109375
-0.131493,0.953125,0.140625
-0.16186,0.953125,0.171875
-0.115995,0.953125,0.203125
-0.1436,0.953125,0.234375
-0.16296,0.953125,0.265625
-0.0310342,0.953125,0.296875
-0.120022,0.953125,0.328125
-0.136696,0.953125,0.359375
0.0396442,0.953125,0.390625
-0.203628,0.953125,0.421875
-0.275615,0.953125,0.453125
-0.156557,0.953125,0.484375
-0.144808,0.953125,0.515625
-0.506284,0.953125,0.546875
-0.00660801,0.953125,0.578125
0.104349,0.953125,0.609375
-0.461492,0.953125,0.640625
7.19149,0.953125,0.671875
172.431,0.953125,0.703125
13.2646,0.953125,0.734375
0,0.953125,0.765625
0,0.953125,0.796875
0,0.953125,0.828125
0,0.953125,0.859375
0,0.953125,0.890625
0,0.953125,0.921875
0,0.953125,0.953125
0,0.953125,0.984375
0,0.953125,1.01563
0,0.953125,1.04688
0,0.953125,1.07813
0,0.953125,1.10938
0,0.953125,1.14063
0,0.953125,1.17188
-92.3868,0.953125,1.20313
-71.7714,0.953125,1.23438
-9.65467,0.953125,1.26563
-4.63484,0.953125,1.29688
-1.6746,0.953125,1.32813
-1.75445,0.953125,1.35938
-1.4071,0.953125,1.39063
-1.16839,0.953125,1.42188
-0.755446,0.953125,1.45313
-0.710502,0.953125,1.48438
-0.577585,0.953125,1.51563
-0.398247,0.953125,1.54688
-0.328998,0.953125,1.57813
-0.323592,0.953125,1.60938
-0.148184,0.953125,1.64063
-0.119967,0.953125,1.67188
-0.147736,0.953125,1.70313
-0.1169,0.953125,1.73438
-0.144277,0.953125,1.76563
-0.171381,0.953125,1.79688
-0.0522647,0.953125,1.82813
-2.15485,0.953125,1.85938
-4.68682,0.953125,1.89063
0,0.984375,0.015625
-0.335148,0.984375,0.046875
-0.18629,0.984375,0.078125
-0.138876,0.984375,0.109375
-0.0846269,0.984375,0.140625
-0.133215,0.984375,0.171875
-0.108432,0.984375,0.203125
-0.148783,0.984375,0.234375
-0.189001,0.984375,0.265625
-0.201977,0.984375,0.296875
-0.239757,0.984375,0.328125
-0.207378,0.984375,0.359375
-0.182548,0.984375,0.390625
-0.225778,0.984375,0.421875
-0.240001,0.984375,0.453125
-0.148542,0.984375,0.484375
-0.556569,0.984375,0.515625
-0.406623,0.984375,0.546875
-0.128853,0.984375,0.578125
0.513154,0.984375,0.609375
1.77954,0.984375,0.640625
10.0379,0.984375,0.671875
175.182,0.984375,0.703125
10.757,0.984375,0.734375
0,0.984375,0.765625
0,0.984375,0.796875
0,0.984375,0.828125
0,0.984375,0.859375
0,0.984375,0.890625
0,0.984375,0.921875
0,0.984375,0.953125
0,0.984375,0.984375
0,0.984375,1.01563
0,0.984375,1.04688
0,0.984375,1.07813
0,0.984375,1.10938
0,0.984375,1.14063
0,0.984375,1.17188
-74.9583,0.984375,1.20313
-87.5114,0.984375,1.23438
-10.6128,0.984375,1.26563
-3.12855,0.984375,1.29688
-2.02246,0.984375,1.32813
-1.15545,0.984375,1.35938
-1.34889,0.984375,1.39063
-1.03873,0.984375,1.42188
-0.825527,0.984375,1.45313
-0.660718,0.984375,1.48438
-0.481627,0.984375,1.51563
-0.357985,0.984375,1.54688
-0.244318,0.984375,1.57813
-0.294649,0.984375,1.60938
-0.201097,0.984375,1.64063
-0.156976,0.984375,1.67188
-0.237832,0.984375,1.70313
-0.244791,0.984375,1.73438
-0.175427,0.984375,1.76563
-0.202071,0.984375,1.79688
-0.102861,0.984375,1.82813
-2.30772,0.984375,1.85938
-4.47744,0.984375,1.89063
0,1.01563,0.015625
-0.315869,1.01563,0.046875
-0.205821,1.01563,0.078125
-0.150846,1.01563,0.109375
-0.169886,1.01563,0.140625
-0.115484,1.01563,0.171875
-0.115804,1.01563,0.203125
-0.170907,1.01563,0.234375
-0.145166,1.01563,0.265625
-0.305559,1.01563,0.296875
-0.256865,1.01563,0.328125
-0.198033,1.01563,0.359375
-0.312927,1.01563,0.390625
-0.29089,1.01563,0.421875
-0.348068,1.01563,0.453125
-0.208037,1.01563,0.484375
-0.432252,1.01563,0.515625
-0.395584,1.01563,0.546875
-0.300327,1.01563,0.578125
0.303452,1.01563,0.609375
1.51983,1.01563,0.640625
17.7092,1.01563,0.671875
164.919,1.01563,0.703125
8.98346,1.01563,0.734375
0,1.01563,0.765625
0,1.01563,0.796875
0,1.01563,0.828125
0,1.01563,0.859375
0,1.01563,0.890625
0,1.01563,0.921875
0,1.01563,0.953125
0,1.01563,0.984375
0,1.01563,1.01563
0,1.01563,1.04688
0,1.01563,1.07813
0,1.01563,1.10938
0,1.01563,1.14063
0,1.01563,1.17188
-64.0686,1.01563,1.20313
-86.8755,1.01563,1.23438
-14.95,1.01563,1.26563
-2.10132,1.01563,1.29688
-1.90687,1.01563,1.32813
-0.835671,1.01563,1.35938
-1.13538,1.01563,1.39063
-0.744557,1.01563,1.42188
-0.567189,1.01563,1.45313
-0.573609,1.01563,1.48438
-0.492164,1.01563,1.51563
-0.466804,1.01563,1.54688
-0.329119,1.01563,1.57813
-0.29669,1.01563,1.60938
-0.22724,1.01563,1.64063
-0.182783,1.01563,1.67188
-0.251156,1.01563,1.70313
-0.176182,1.01563,1.73438
-0.1353,1.01563,1.76563
-0.185633,1.01563,1.79688
-0.152208,1.01563,1.82813
-2.67472,1.01563,1.85938
-4.96291,1.01563,1.89063
0,1.04688,0.015625
-0.319273,1.04688,0.046875
-0.182403,1.04688,0.078125
-0.145678,1.04688,0.109375
-0.204915,1.04688,0.140625
-0.148101,1.04688,0.171875
-0.155857,1.04688,0.203125
-0.167373,1.04688,0.234375
-0.196071,1.04688,0.265625
-0.290068,1.04688,0.296875
-0.215879,1.04688,0.328125
-0.273004,1.04688,0.359375
-0.363284,1.04688,0.390625
-0.468717,1.04688,0.421875
-0.502524,1.04688,0.453125
-0.400898,1.04688,0.484375
-0.285299,1.04688,0.515625
-0.425406,1.04688,0.546875
-0.224685,1.04688,0.578125
0.437839,1.04688,0.609375
1.5012,1.04688,0.640625
19.1936,1.04688,0.671875
158.604,1.04688,0.703125
12.6559,1.04688,0.734375
5.71666,1.04688,0.765625
0,1.04688,0.796875
0,1.04688,0.828125
0,1.04688,0.859375
0,1.04688,0.890625
0,1.04688,0.921875
0,1.04688,0.953125
0,1.04688,0.984375
0,1.04688,1.01563
0,1.04688,1.04688
0,1.04688,1.07813
0,1.04688,1.10938
0,1.04688,1.14063
0,1.04688,1.17188
-59.538,1.04688,1.20313
-113.226,1.04688,1.23438
-13.5456,1.04688,1.26563
-6.46843,1.04688,1.29688
-1.85045,1.04688,1.32813
-0.881535,1.04688,1.35938
-0.766321,1.04688,1.39063
-0.376957,1.04688,1.42188
-0.409807,1.04688,1.45313
-0.297647,1.04688,1.48438
-0.238768,1.04688,1.51563
-0.232545,1.04688,1.54688
-0.0924305,1.04688,1.57813
-0.183275,1.04688,1.60938
-0.250529,1.04688,1.64063
-0.16456,1.04688,1.67188
-0.18616,1.04688,1.70313
-0.173229,1.04688,1.73438
-0.179655,1.04688,1.76563
-0.16673,1.04688,1.79688
-0.0342531,1.04688,1.82813
-2.88925,1.04688,1.85938
-5.54106,1.04688,1.89063
0,1.07813,0.015625
-0.28853,1.07813,0.046875
-0.162364,1.07813,0.078125
-0.160337,1.07813,0.109375
-0.172625,1.07813,0.140625
-0.170639,1.07813,0.171875
-0.150426,1.07813,0.203125
-0.160656,1.07813,0.234375
-0.207709,1.07813,0.265625
-0.246585,1.07813,0.296875
-0.212682,1.07813,0.328125
-0.284665,1.07813,0.359375
-0.401163,1.07813,0.390625
-0.490215,1.07813,0.421875
-0.575714,1.07813,0.453125
-0.422651,1.07813,0.484375
-0.416195,1.07813,0.515625
-0.852187,1.07813,0.546875
-0.409558,1.07813,0.578125
0.512902,1.07813,0.609375
0.761239,1.07813,0.640625
15.7616,1.07813,0.671875
145.543,1.07813,0.703125
2.53846,1.07813,0.734375
20.13,1.07813,0.765625
-14.1641,1.07813,0.796875
0,1.07813,0.828125
0,1.07813,0.859375
0,1.07813,0.890625
0,1.07813,0.921875
0,1.07813,0.953125
0,1.07813,0.984375
0,1.07813,1.01563
0,1.07813,1.04688
0,1.07813,1.07813
0,1.07813,1.10938
0,1.07813,1.14063
-12.0606,1.07813,1.17188
-57.8179,1.07813,1.20313
-64.9686,1.07813,1.23438
-11.9483,1.07813,1.26563
-1.80603,1.07813,1.29688
-0.532071,1.07813,1.32813
-0.49843,1.07813,1.35938
-0.508492,1.07813,1.39063
-0.363353,1.07813,1.42188
-0.493206,1.07813,1.45313
-0.290343,1.07813,1.48438
-0.114045,1.07813,1.51563
-0.196902,1.07813,1.54688
-0.150415,1.07813,1.57813
-0.187227,1.07813,1.60938
-0.174645,1.07813,1.64063
-0.0925806,1.07813,1.67188
-0.131154,1.07813,1.70313
-0.147303,1.07813,1.73438
-0.121426,1.07813,1.76563
-0.111175,1.07813,1.79688
-0.0138838,1.07813,1.82813
-2.99095,1.07813,1.85938
-6.16673,1.07813,1.89063
0,1.10938,0.015625
-0.285243,1.10938,0.046875
-0.160015,1.10938,0.078125
-0.126718,1.10938,0.109375
-0.124513,1.10938,0.140625
-0.15474,1.10938,0.171875
-0.141446,1.10938,0.203125
-0.159624,1.10938,0.234375
-0.212613,1.10938,0.265625
-0.253685,1.10938,0.296875
-0.244298,1.10938,0.328125
-0.269141,1.10938,0.359375
-0.323063,1.10938,0.390625
-0.30619,1.10938,0.421875
-0.436785,1.10938,0.453125
-0.297865,1.10938,0.484375
-0.281242,1.10938,0.515625
-0.4373,1.10938,0.546875
0.182773,1.10938,0.578125
1.52997,1.10938,0.609375
2.73059,1.10938,0.640625
12.4086,1.10938,0.671875
51.825,1.10938,0.703125
80.2845,1.10938,0.734375
-0.22583,1.10938,0.765625
24.3325,1.10938,0.796875
-9.14233,1.10938,0.828125
0,1.10938,0.859375
0,1.10938,0.890625
0,1.10938,0.921875
0,1.10938,0.953125
0,1.10938,0.984375
0,1.10938,1.01563
0,1.10938,1.04688
0,1.10938,1.07813
0,1.10938,1.10938
0,1.10938,1.14063
-25.4396,1.10938,1.17188
-53.3442,1.10938,1.20313
-51.1393,1.10938,1.23438
-19.6494,1.10938,1.26563
-1.11253,1.10938,1.29688
-0.444717,1.10938,1.32813
-0.141738,1.10938,1.35938
-0.352054,1.10938,1.39063
-0.221937,1.10938,1.42188
-0.442056,1.10938,1.45313
-0.395792,1.10938,1.48438
-0.210263,1.10938,1.51563
-0.380387,1.10938,1.54688
-0.281068,1.10938,1.57813
-0.222165,1.10938,1.60938
-0.178809,1.10938,1.64063
-0.132992,1.10938,1.67188
-0.0980982,1.10938,1.70313
-0.0973373,1.10938,1.73438
-0.06532,1.10938,1.76563
-0.0814571,1.10938,1.79688
-0.0346694,1.10938,1.82813
-3.37751,1.10938,1.85938
-6.78917,1.10938,1.89063
0,1.14063,0.015625
-0.296852,1.14063,0.046875
-0.121583,1.14063,0.078125
-0.101421,1.14063,0.109375
-0.124251,1.14063,0.140625
-0.134265,1.14063,0.171875
-0.158788,1.14063,0.203125
-0.174498,1.14063,0.234375
-0.185573,1.14063,0.265625
-0.249825,1.14063,0.296875
-0.217965,1.14063,0.328125
-0.190162,1.14063,0.359375
-0.254009,1.14063,0.390625
-0.284775,1.14063,0.421875
-0.393071,1.14063,0.453125
-0.193062,1.14063,0.484375
0.00113964,1.14063,0.515625
-0.0423698,1.14063,0.546875
0.541062,1.14063,0.578125
1.82551,1.14063,0.609375
3.55797,1.14063,0.640625
11.4899,1.14063,0.671875
35.7299,1.14063,0.703125
64.119,1.14063,0.734375
36.737,1.14063,0.765625
1.91979,1.14063,0.796875
9.55112,1.14063,0.828125
-2.91257,1.14063,0.859375
0,1.14063,0.890625
0,1.14063,0.921875
0,1.14063,0.953125
0,1.14063,0.984375
0,1.14063,1.01563
0,1.14063,1.04688
0,1.14063,1.07813
0,1.14063,1.10938
3.58396,1.14063,1.14063
-25.6552,1.14063,1.17188
-53.5762,1.14063,1.20313
-44.1428,1.14063,1.23438
-18.1532,1.14063,1.26563
-1.19081,1.14063,1.29688
-0.465824,1.14063,1.32813
-0.459764,1.14063,1.35938
-0.268359,1.14063,1.39063
-0.0622663,1.14063,1.42188
-0.164779,1.14063,1.45313
-0.0938683,1.14063,1.48438
-0.094934,1.14063,1.51563
-0.163686,1.14063,1.54688
-0.0821321,1.14063,1.57813
-0.117934,1.14063,1.60938
-0.114129,1.14063,1.64063
-0.141839,1.14063,1.67188
-0.106461,1.14063,1.70313
-0.116843,1.14063,1.73438
-0.0864702,1.14063,1.76563
-0.0797005,1.14063,1.79688
0.0576075,1.14063,1.82813
-3.70198,1.14063,1.85938
-7.16923,1.14063,1.89063
0,1.17188,0.015625
-0.261045,1.17188,0.046875
-0.0961061,1.17188,0.078125
-0.142524,1.17188,0.109375
-0.138082,1.17188,0.140625
-0.112147,1.17188,0.171875
-0.151732,1.17188,0.203125
-0.186764,1.17188,0.234375
-0.175238,1.17188,0.265625
-0.168597,1.17188,0.296875
-0.196414,1.17188,0.328125
-0.197436,1.17188,0.359375
-0.325226,1.17188,0.390625
-0.310839,1.17188,0.421875
-0.436818,1.17188,0.453125
-0.21237,1.17188,0.484375
0.0299234,1.17188,0.515625
-0.0488834,1.17188,0.546875
0.769403,1.17188,0.578125
1.80258,1.17188,0.609375
4.44366,1.17188,0.640625
8.08882,1.17188,0.671875
28.6121,1.17188,0.703125
50.4096,1.17188,0.734375
40.819,1.17188,0.765625
13.2128,1.17188,0.796875
0.362319,1.17188,0.828125
-8.58207,1.17188,0.859375
-17.8293,1.17188,0.890625
-24.3077,1.17188,0.921875
-16.2349,1.17188,0.953125
0,1.17188,0.984375
13.1673,1.17188,1.01563
25.4445,1.17188,1.04688
27.4052,1.17188,1.07813
25.2937,1.17188,1.10938
11.7595,1.17188,1.14063
-32.5655,1.17188,1.17188
-65.3851,1.17188,1.20313
-37.4382,1.17188,1.23438
-7.21557,1.17188,1.26563
-1.58984,1.17188,1.29688
-0.411257,1.17188,1.32813
-0.027441,1.17188,1.35938
0.0512238,1.17188,1.39063
-0.0209608,1.17188,1.42188
0.0127888,1.17188,1.45313
0.0838966,1.17188,1.48438
0.00683308,1.17188,1.51563
0.0788069,1.17188,1.54688
0.0365825,1.17188,1.57813
-0.0450306,1.17188,1.60938
0.0203743,1.17188,1.64063
-0.0315509,1.17188,1.67188
-0.0294631,1.17188,1.70313
-0.0606186,1.17188,1.73438
-0.0412768,1.17188,1.76563
-0.0117438,1.17188,1.79688
0.122402,1.17188,1.82813
-3.9018,1.17188,1.85938
-7.92801,1.17188,1.89063
0,1.20313,0.015625
-0.24213,1.20313,0.046875
-0.0914865,1.20313,0.078125
-0.122601,1.20313,0.109375
-0.117684,1.20313,0.140625
-0.108224,1.20313,0.171875
-0.163315,1.20313,0.203125
-0.198749,1.20313,0.234375
-0.142364,1.20313,0.265625
-0.181079,1.20313,0.296875
-0.271712,1.20313,0.328125
-0.16691,1.20313,0.359375
-0.19704,1.20313,0.390625
-0.186877,1.20313,0.421875
-0.239214,1.20313,0.453125
-0.0726137,1.20313,0.484375
0.27532,1.20313,0.515625
0.39073,1.20313,0.546875
1.0295,1.20313,0.578125
1.89886,1.20313,0.609375
3.95977,1.20313,0.640625
6.39332,1.20313,0.671875
18.2194,1.20313,0.703125
43.0323,1.20313,0.734375
48.626,1.20313,0.765625
25.5343,1.20313,0.796875
-0.0381001,1.20313,0.828125
-2.65882,1.20313,0.859375
-9.59596,1.20313,0.890625
-9.75467,1.20313,0.921875
-11.9293,1.20313,0.953125
-7.28747,1.20313,0.984375
4.82769,1.20313,1.01563
7.7637,1.20313,1.04688
13.7204,1.20313,1.07813
22.8816,1.20313,1.10938
-8.26734,1.20313,1.14063
-51.795,1.20313,1.17188
-59.3286,1.20313,1.20313
-26.8455,1.20313,1.23438
-6.15294,1.20313,1.26563
-2.2844,1.20313,1.29688
-1.26619,1.20313,1.32813
-0.272417,1.20313,1.35938
-0.0824261,1.20313,1.39063
-0.0558624,1.20313,1.42188
0.088644,1.20313,1.45313
-0.0380621,1.20313,1.48438
-0.0947075,1.20313,1.51563
0.0611162,1.20313,1.54688
-0.00965023,1.20313,1.57813
-0.0584493,1.20313,1.60938
-0.0228577,1.20313,1.64063
-0.113126,1.20313,1.67188
-0.0748358,1.20313,1.70313
-0.0619402,1.20313,1.73438
-0.0221564,1.20313,1.76563
0.0163318,1.20313,1.79688
0.167587,1.20313,1.82813
-3.93242,1.20313,1.85938
-8.34771,1.20313,1.89063
0,1.23438,0.015625
-0.250256,1.23438,0.046875
0.000222385,1.23438,0.078125
-0.072225,1.23438,0.109375
-0.143174,1.23438,0.140625
-0.145524,1.23438,0.171875
-0.172994,1.23438,0.203125
-0.159359,1.23438,0.234375
-0.131848,1.23438,0.265625
-0.196312,1.23438,0.296875
-0.156008,1.23438,0.328125
-0.078156,1.23438,0.359375
-0.120906,1.23438,0.390625
-0.174156,1.23438,0.421875
-0.202125,1.23438,0.453125
-0.0168114,1.23438,0.484375
0.346899,1.23438,0.515625
0.372917,1.23438,0.546875
0.792376,1.23438,0.578125
1.44282,1.23438,0.609375
3.22787,1.23438,0.640625
5.42063,1.23438,0.671875
10.4017,1.23438,0.703125
36.0923,1.23438,0.734375
48.0833,1.23438,0.765625
30.6017,1.23438,0.796875
20.6717,1.23438,0.828125
10.2638,1.23438,0.859375
13.8015,1.23438,0.890625
7.20947,1.23438,0.921875
13.7801,1.23438,0.953125
3.09194,1.23438,0.984375
-10.6604,1.23438,1.01563
-16.1044,1.23438,1.04688
-18.0821,1.23438,1.07813
-21.915,1.23438,1.10938
-41.9738,1.23438,1.14063
-65.9715,1.23438,1.17188
-51.2587,1.23438,1.20313
-19.8443,1.23438,1.23438
-4.91452,1.23438,1.26563
-2.30878,1.23438,1.29688
-1.0988,1.23438,1.32813
-0.339703,1.23438,1.35938
-0.348934,1.23438,1.39063
-0.0480785,1.23438,1.42188
0.166859,1.23438,1.45313
-0.0113764,1.23438,1.48438
0.00120544,1.23438,1.51563
-0.0518532,1.23438,1.54688
-0.1427,1.23438,1.57813
-0.00346422,1.23438,1.60938
0.0111313,1.23438,1.64063
-0.0414872,1.23438,1.67188
-0.00201082,1.23438,1.70313
-0.0433662,1.23438,1.73438
-0.0493474,1.23438,1.76563
-0.055413,1.23438,1.79688
0.0433283,1.23438,1.82813
-3.93845,1.23438,1.85938
-8.08023,1.23438,1.89063
0,1.26563,0.015625
-0.132327,1.26563,0.046875
-0.0496379,1.26563,0.078125
-0.100204,1.26563,0.109375
-0.143315,1.26563,0.140625
-0.118645,1.26563,0.171875
-0.0895104,1.26563,0.203125
-0.122283,1.26563,0.234375
-0.185471,1.26563,0.265625
-0.133367,1.26563,0.296875
-0.167074,1.26563,0.328125
-0.144494,1.26563,0.359375
-0.164395,1.26563,0.390625
-0.157774,1.26563,0.421875
-0.00926971,1.26563,0.453125
-0.0357885,1.26563,0.484375
0.168327,1.26563,0.515625
0.558832,1.26563,0.546875
0.613388,1.26563,0.578125
1.48496,1.26563,0.609375
2.21049,1.26563,0.640625
3.713,1.26563,0.671875
6.53415,1.26563,0.703125
23.1689,1.26563,0.734375
40.8571,1.26563,0.765625
41.8285,1.26563,0.796875
34.6128,1.26563,0.828125
30.3746,1.26563,0.859375
31.0463,1.26563,0.890625
22.8066,1.26563,0.921875
12.2701,1.26563,0.953125
1.1708,1.26563,0.984375
-10.0326,1.26563,1.01563
-20.6832,1.26563,1.04688
-28.609,1.26563,1.07813
-38.1645,1.26563,1.10938
-55.6214,1.26563,1.14063
-64.9075,1.26563,1.17188
-40.6905,1.26563,1.20313
-13.1663,1.26563,1.23438
-3.35352,1.26563,1.26563
-1.81628,1.26563,1.29688
-0.892281,1.26563,1.32813
-0.471991,1.26563,1.35938
-0.165945,1.26563,1.39063
0.112093,1.26563,1.42188
0.0539188,1.26563,1.45313
0.078351,1.26563,1.48438
0.0337925,1.26563,1.51563
-0.0761604,1.26563,1.54688
0.0231705,1.26563,1.57813
0.122436,1.26563,1.60938
0.0546637,1.26563,1.64063
-0.00303316,1.26563,1.67188
-0.0258102,1.26563,1.70313
0.000284195,1.26563,1.73438
0.00672817,1.26563,1.76563
-0.0382485,1.26563,1.79688
-0.0640248,1.26563,1.82813
-4.00344,1.26563,1.85938
-7.71722,1.26563,1.89063
0,1.29688,0.015625
-0.117559,1.29688,0.046875
-0.0427713,1.29688,0.078125
-0.112,1.29688,0.109375
-0.111914,1.29688,0.140625
-0.100317,1.29688,0.171875
-0.0376434,1.29688,0.203125
-0.109104,1.29688,0.234375
-0.132995,1.29688,0.265625
-0.136753,1.29688,0.296875
-0.198105,1.29688,0.328125
-0.142527,1.29688,0.359375
-0.0580282,1.29688,0.390625
-0.0816536,1.29688,0.421875
-0.0129833,1.29688,0.453125
0.0414181,1.29688,0.484375
0.252407,1.29688,0.515625
0.562317,1.29688,0.546875
0.594765,1.29688,0.578125
1.16276,1.29688,0.609375
1.51488,1.29688,0.640625
3.51605,1.29688,0.671875
4.70058,1.29688,0.703125
10.266,1.29688,0.734375
27.3693,1.29688,0.765625
41.8132,1.29688,0.796875
39.4501,1.29688,0.828125
39.0734,1.29688,0.859375
41.1364,1.29688,0.890625
34.1321,1.29688,0.921875
21.446,1.29688,0.953125
3.02876,1.29688,0.984375
-13.8445,1.29688,1.01563
-25.8639,1.29688,1.04688
-35.1203,1.29688,1.07813
-48.9718,1.29688,1.10938
-61.6451,1.29688,1.14063
-53.9445,1.29688,1.17188
-23.998,1.29688,1.20313
-5.54972,1.29688,1.23438
-1.77007,1.29688,1.26563
-1.2124,1.29688,1.29688
-0.633251,1.29688,1.32813
-0.369047,1.29688,1.35938
-0.0625935,1.29688,1.39063
-0.048666,1.29688,1.42188
0.00104523,1.29688,1.45313
0.252007,1.29688,1.48438
0.0258112,1.29688,1.51563
0.0548201,1.29688,1.54688
0.238993,1.29688,1.57813
0.127808,1.29688,1.60938
0.00749445,1.29688,1.64063
-0.0291524,1.29688,1.67188
-0.0503559,1.29688,1.70313
0.00667429,1.29688,1.73438
0.0165203,1.29688,1.76563
-0.0240045,1.29688,1.79688
-0.0486715,1.29688,1.82813
-4.01508,1.29688,1.85938
-8.463,1.29688,1.89063
0,1.32813,0.015625
-0.209095,1.32813,0.046875
-0.029798,1.32813,0.078125
-0.0802556,1.32813,0.109375
-0.026655,1.32813,0.140625
-0.078449,1.32813,0.171875
-0.0308583,1.32813,0.203125
-0.128871,1.32813,0.234375
-0.110581,1.32813,0.265625
-0.0792046,1.32813,0.296875
-0.0722361,1.32813,0.328125
-0.0548458,1.32813,0.359375
0.00104809,1.32813,0.390625
-0.124105,1.32813,0.421875
0.12322,1.32813,0.453125
0.057106,1.32813,0.484375
0.120142,1.32813,0.515625
0.375647,1.32813,0.546875
0.58996,1.32813,0.578125
0.984274,1.32813,0.609375
1.65457,1.32813,0.640625
3.21931,1.32813,0.671875
3.39849,1.32813,0.703125
4.47256,1.32813,0.734375
14.8276,1.32813,0.765625
30.3215,1.32813,0.796875
34.6672,1.32813,0.828125
34.4095,1.32813,0.859375
43.6243,1.32813,0.890625
39.8523,1.32813,0.921875
20.204,1.32813,0.953125
0.169347,1.32813,0.984375
-16.559,1.32813,1.01563
-28.9342,1.32813,1.04688
-39.3314,1.32813,1.07813
-48.7712,1.32813,1.10938
-50.194,1.32813,1.14063
-26.7364,1.32813,1.17188
-6.31747,1.32813,1.20313
-3.08785,1.32813,1.23438
-1.1709,1.32813,1.26563
-0.946392,1.32813,1.29688
-0.320766,1.32813,1.32813
-0.223785,1.32813,1.35938
0.217394,1.32813,1.39063
0.0531845,1.32813,1.42188
0.168343,1.32813,1.45313
0.0365601,1.32813,1.48438
-0.0524092,1.32813,1.51563
0.14557,1.32813,1.54688
0.1901,1.32813,1.57813
-0.0124826,1.32813,1.60938
-0.0648541,1.32813,1.64063
-0.00741196,1.32813,1.67188
0.043982,1.32813,1.70313
0.0865135,1.32813,1.73438
0.0152509,1.32813,1.76563
0.012248,1.32813,1.79688
0.102604,1.32813,1.82813
-4.12326,1.32813,1.85938
-9.64002,1.32813,1.89063
0,1.35938,0.015625
-0.146543,1.35938,0.046875
0.0293403,1.35938,0.078125
-0.0754284,1.35938,0.109375
-0.0291336,1.35938,0.140625
-0.0615644,1.35938,0.171875
-0.0584393,1.35938,0.203125
-0.109217,1.35938,0.234375
-0.140056,1.35938,0.265625
-0.107552,1.35938,0.296875
-0.0691576,1.35938,0.328125
-0.0692644,1.35938,0.359375
-0.0520983,1.35938,0.390625
0.0593338,1.35938,0.421875
0.0804157,1.35938,0.453125
-0.106428,1.35938,0.484375
0.0449333,1.35938,0.515625
0.457954,1.35938,0.546875
0.584875,1.35938,0.578125
1.01233,1.35938,0.609375
1.6631,1.35938,0.640625
2.16497,1.35938,0.671875
3.15689,1.35938,0.703125
4.20506,1.35938,0.734375
8.35306,1.35938,0.765625
17.723,1.35938,0.796875
28.5819,1.35938,0.828125
30.2496,1.35938,0.859375
35.4606,1.35938,0.890625
32.2272,1.35938,0.921875
13.0518,1.35938,0.953125
-3.15106,1.35938,0.984375
-16.8709,1.35938,1.01563
-26.5729,1.35938,1.04688
-34.1969,1.35938,1.07813
-33.8413,1.35938,1.10938
-25.9535,1.35938,1.14063
-11.0042,1.35938,1.17188
-2.31789,1.35938,1.20313
-1.30622,1.35938,1.23438
-0.958111,1.35938,1.26563
-0.276489,1.35938,1.29688
-0.25182,1.35938,1.32813
-0.27388,1.35938,1.35938
-0.068821,1.35938,1.39063
0.206316,1.35938,1.42188
0.237299,1.35938,1.45313
0.0283375,1.35938,1.48438
0.0558014,1.35938,1.51563
0.0419226,1.35938,1.54688
0.0730343,1.35938,1.57813
-0.0171404,1.35938,1.60938
-0.0146904,1.35938,1.64063
0.0515146,1.35938,1.67188
0.0530205,1.35938,1.70313
-0.0024519,1.35938,1.73438
-0.00905418,1.35938,1.76563
0.0606382,1.35938,1.79688
0.226392,1.35938,1.82813
-4.06913,1.35938,1.85938
-9.14141,1.35938,1.89063
0,1.39063,0.015625
-0.102232,1.39063,0.046875
0.00775856,1.39063,0.078125
-0.0970889,1.39063,0.109375
0.0168643,1.39063,0.140625
-0.0811882,1.39063,0.171875
-0.14428,1.39063,0.203125
-0.101352,1.39063,0.234375
-0.092371,1.39063,0.265625
-0.0950346,1.39063,0.296875
-0.0721874,1.39063,0.328125
-0.0648947,1.39063,0.359375
-0.0355577,1.39063,0.390625
0.164891,1.39063,0.421875
-0.121821,1.39063,0.453125
0.0262394,1.39063,0.484375
0.325056,1.39063,0.515625
0.568321,1.39063,0.546875
0.5959,1.39063,0.578125
0.838915,1.39063,0.609375
1.49639,1.39063,0.640625
1.89922,1.39063,0.671875
3.43839,1.39063,0.703125
4.39558,1.39063,0.734375
5.62045,1.39063,0.765625
10.9496,1.39063,0.796875
19.344,1.39063,0.828125
22.4351,1.39063,0.859375
23.2674,1.39063,0.890625
21.8862,1.39063,0.921875
8.67097,1.39063,0.953125
-5.94635,1.39063,0.984375
-15.5143,1.39063,1.01563
-24.1006,1.39063,1.04688
-25.6964,1.39063,1.07813
-22.1608,1.39063,1.10938
-14.5901,1.39063,1.14063
-5.26129,1.39063,1.17188
-1.91023,1.39063,1.20313
-1.30599,1.39063,1.23438
-0.849129,1.39063,1.26563
-0.193829,1.39063,1.29688
-0.217043,1.39063,1.32813
0.101112,1.39063,1.35938
0.107029,1.39063,1.39063
0.282892,1.39063,1.42188
0.035778,1.39063,1.45313
0.0723457,1.39063,1.48438
0.00140572,1.39063,1.51563
0.115912,1.39063,1.54688
0.132838,1.39063,1.57813
0.0597353,1.39063,1.60938
0.0313663,1.39063,1.64063
0.0242281,1.39063,1.67188
0.0454955,1.39063,1.70313
0.0384326,1.39063,1.73438
0.0367107,1.39063,1.76563
0.0860453,1.39063,1.79688
0.108266,1.39063,1.82813
-3.89989,1.39063,1.85938
-7.90182,1.39063,1.89063
0,1.42188,0.015625
-0.217142,1.42188,0.046875
0.0691769,1.42188,0.078125
0.0397789,1.42188,0.109375
-0.0533519,1.42188,0.140625
-0.0888724,1.42188,0.171875
-0.0730276,1.42188,0.203125
0.00261307,1.42188,0.234375
-0.00982475,1.42188,0.265625
-0.0775027,1.42188,0.296875
0.00344276,1.42188,0.328125
0.059721,1.42188,0.359375
-0.0132227,1.42188,0.390625
0.0462503,1.42188,0.421875
-0.0323563,1.42188,0.453125
0.23131,1.42188,0.484375
0.370213,1.42188,0.515625
0.329485,1.42188,0.546875
0.635115,1.42188,0.578125
0.943985,1.42188,0.609375
1.68203,1.42188,0.640625
2.04696,1.42188,0.671875
2.88013,1.42188,0.703125
4.57879,1.42188,0.734375
5.4275,1.42188,0.765625
7.46854,1.42188,0.796875
13.0376,1.42188,0.828125
15.6181,1.42188,0.859375
14.8757,1.42188,0.890625
14.7449,1.42188,0.921875
6.06743,1.42188,0.953125
-6.59149,1.42188,0.984375
-16.9895,1.42188,1.01563
-20.9397,1.42188,1.04688
-18.6976,1.42188,1.07813
-16.0132,1.42188,1.10938
-9.68048,1.42188,1.14063
-3.64626,1.42188,1.17188
-1.4898,1.42188,1.20313
-1.48417,1.42188,1.23438
-0.428986,1.42188,1.26563
-0.129358,1.42188,1.29688
-0.237957,1.42188,1.32813
-0.0667229,1.42188,1.35938
0.155991,1.42188,1.39063
0.155659,1.42188,1.42188
0.0730038,1.42188,1.45313
0.16086,1.42188,1.48438
0.0709629,1.42188,1.51563
0.241934,1.42188,1.54688
0.0972109,1.42188,1.57813
0.0164852,1.42188,1.60938
0.0589066,1.42188,1.64063
0.0804353,1.42188,1.67188
0.00157118,1.42188,1.70313
0.0523787,1.42188,1.73438
-0.00242853,1.42188,1.76563
-0.0730231,1.42188,1.79688
-0.152709,1.42188,1.82813
-3.68389,1.42188,1.85938
-6.93323,1.42188,1.89063
0,1.45313,0.015625
-0.00539422,1.45313,0.046875
0.0450632,1.45313,0.078125
-0.0675611,1.45313,0.109375
-0.0186703,1.45313,0.140625
-0.00175953,1.45313,0.171875
0.014782,1.45313,0.203125
-0.00164175,1.45313,0.234375
-0.0180159,1.45313,0.265625
-0.00936079,1.45313,0.296875
-0.0680208,1.45313,0.328125
-0.043375,1.45313,0.359375
-0.0511341,1.45313,0.390625
-0.0277939,1.45313,0.421875
0.14877,1.45313,0.453125
0.245587,1.45313,0.484375
0.338764,1.45313,0.515625
0.367212,1.45313,0.546875
0.673857,1.45313,0.578125
1.03127,1.45313,0.609375
1.47664,1.45313,0.640625
1.56057,1.45313,0.671875
2.80316,1.45313,0.703125
4.32874,1.45313,0.734375
5.28133,1.45313,0.765625
6.87842,1.45313,0.796875
10.628,1.45313,0.828125
11.9644,1.45313,0.859375
9.55316,1.45313,0.890625
10.0318,1.45313,0.921875
3.48664,1.45313,0.953125
-8.23766,1.45313,0.984375
-16.1955,1.45313,1.01563
-15.1319,1.45313,1.04688
-14.7982,1.45313,1.07813
-12.7415,1.45313,1.10938
-6.33968,1.45313,1.14063
-3.10504,1.45313,1.17188
-2.00301,1.45313,1.20313
-1.4766,1.45313,1.23438
-0.551418,1.45313,1.26563
-0.65782,1.45313,1.29688
-0.344559,1.45313,1.32813
0.13109,1.45313,1.35938
-0.0198193,1.45313,1.39063
-0.0785046,1.45313,1.42188
0.147484,1.45313,1.45313
-0.0535469,1.45313,1.48438
-0.0458927,1.45313,1.51563
-0.0439901,1.45313,1.54688
0.0008564,1.45313,1.57813
0.227533,1.45313,1.60938
0.160717,1.45313,1.64063
0.0440211,1.45313,1.67188
0.0299406,1.45313,1.70313
-0.00183153,1.45313,1.73438
-0.0828667,1.45313,1.76563
-0.182605,1.45313,1.79688
-0.285577,1.45313,1.82813
-3.85116,1.45313,1.85938
-6.7081,1.45313,1.89063
0,1.48438,0.015625
-0.00953698,1.48438,0.046875
0.0924902,1.48438,0.078125
-0.00806594,1.48438,0.109375
-0.0383425,1.48438,0.140625
-0.0276265,1.48438,0.171875
-0.0144267,1.48438,0.203125
-0.00872087,1.48438,0.234375
0.0151591,1.48438,0.265625
0.000853539,1.48438,0.296875
0.0534792,1.48438,0.328125
-0.0239134,1.48438,0.359375
0.0189009,1.48438,0.390625
0.0607138,1.48438,0.421875
0.190808,1.48438,0.453125
0.246169,1.48438,0.484375
0.334421,1.48438,0.515625
0.293821,1.48438,0.546875
0.575335,1.48438,0.578125
0.733128,1.48438,0.609375
1.13725,1.48438,0.640625
1.52759,1.48438,0.671875
2.84788,1.48438,0.703125
3.49987,1.48438,0.734375
4.6256,1.48438,0.765625
6.37296,1.48438,0.796875
8.44623,1.48438,0.828125
8.94431,1.48438,0.859375
7.62575,1.48438,0.890625
7.68176,1.48438,0.921875
2.93369,1.48438,0.953125
-7.16663,1.48438,0.984375
-12.15,1.48438,1.01563
-11.8477,1.48438,1.04688
-13.0709,1.48438,1.07813
-9.50203,1.48438,1.10938
-4.71338,1.48438,1.14063
-3.41958,1.48438,1.17188
-2.2947,1.48438,1.20313
-0.876732,1.48438,1.23438
-0.707067,1.48438,1.26563
-0.382513,1.48438,1.29688
-0.0156231,1.48438,1.32813
-0.0391254,1.48438,1.35938
-0.220375,1.48438,1.39063
-0.0173187,1.48438,1.42188
0.16226,1.48438,1.45313
-0.0157948,1.48438,1.48438
0.0339212,1.48438,1.51563
0.0979939,1.48438,1.54688
0.142359,1.48438,1.57813
0.0481644,1.48438,1.60938
0.0922222,1.48438,1.64063
0.0383301,1.48438,1.67188
0.0897298,1.48438,1.70313
-0.0279555,1.48438,1.73438
-0.0424418,1.48438,1.76563
-0.0973387,1.48438,1.79688
-0.360978,1.48438,1.82813
-4.51792,1.48438,1.85938
-8.03069,1.48438,1.89063
0,1.51563,0.015625
-0.0901833,1.51563,0.046875
0.168156,1.51563,0.078125
0.0210478,1.51563,0.109375
0.0301659,1.51563,0.140625
0.0193672,1.51563,0.171875
-0.0746856,1.51563,0.203125
-0.019557,1.51563,0.234375
0.0300527,1.51563,0.265625
0.0276327,1.51563,0.296875
0.0105,1.51563,0.328125
-0.0186996,1.51563,0.359375
0.0522718,1.51563,0.390625
0.105814,1.51563,0.421875
0.231136,1.51563,0.453125
0.148217,1.51563,0.484375
0.377432,1.51563,0.515625
0.403902,1.51563,0.546875
0.479406,1.51563,0.578125
0.798925,1.51563,0.609375
1.1071,1.51563,0.640625
1.31603,1.51563,0.671875
2.12574,1.51563,0.703125
2.78339,1.51563,0.734375
3.48164,1.51563,0.765625
4.68758,1.51563,0.796875
5.52624,1.51563,0.828125
5.82472,1.51563,0.859375
5.51135,1.51563,0.890625
4.41318,1.51563,0.921875
1.74715,1.51563,0.953125
-6.81007,1.51563,0.984375
-8.73703,1.51563,1.01563
-8.7653,1.51563,1.04688
-8.95726,1.51563,1.07813
-5.95067,1.51563,1.10938
-4.2432,1.51563,1.14063
-3.22479,1.51563,1.17188
-1.87387,1.51563,1.20313
-0.992334,1.51563,1.23438
-0.949398,1.51563,1.26563
-0.46081,1.51563,1.29688
-0.130836,1.51563,1.32813
-0.256889,1.51563,1.35938
0.116966,1.51563,1.39063
0.327927,1.51563,1.42188
-0.00755501,1.51563,1.45313
0.056673,1.51563,1.48438
0.159997,1.51563,1.51563
0.104071,1.51563,1.54688
0.153259,1.51563,1.57813
0.101707,1.51563,1.60938
0.063221,1.51563,1.64063
0.0613394,1.51563,1.67188
-0.0189486,1.51563,1.70313
-0.0572844,1.51563,1.73438
0.0693049,1.51563,1.76563
0.000286102,1.51563,1.79688
-0.171978,1.51563,1.82813
-4.99617,1.51563,1.85938
-10.236,1.51563,1.89063
0,1.54688,0.015625
-0.109531,1.54688,0.046875
0.197343,1.54688,0.078125
0.0664634,1.54688,0.109375
0.033412,1.54688,0.140625
-0.0328708,1.54688,0.171875
0.0616183,1.54688,0.203125
-0.00296068,1.54688,0.234375
-0.0145321,1.54688,0.265625
0.0692496,1.54688,0.296875
0.0505552,1.54688,0.328125
0.042695,1.54688,0.359375
0.0592585,1.54688,0.390625
0.054841,1.54688,0.421875
0.188414,1.54688,0.453125
0.175886,1.54688,0.484375
0.345887,1.54688,0.515625
0.423323,1.54688,0.546875
0.456268,1.54688,0.578125
0.91379,1.54688,0.609375
0.781178,1.54688,0.640625
1.30883,1.54688,0.671875
1.93679,1.54688,0.703125
2.54791,1.54688,0.734375
2.74103,1.54688,0.765625
3.37554,1.54688,0.796875
3.89564,1.54688,0.828125
4.24119,1.54688,0.859375
4.37407,1.54688,0.890625
3.03234,1.54688,0.921875
0.12166,1.54688,0.953125
-5.57245,1.54688,0.984375
-6.17495,1.54688,1.01563
-6.48057,1.54688,1.04688
-7.20311,1.54688,1.07813
-5.04964,1.54688,1.10938
-3.591,1.54688,1.14063
-2.53516,1.54688,1.17188
-1.87206,1.54688,1.20313
-1.3055,1.54688,1.23438
-0.788605,1.54688,1.26563
-0.417156,1.54688,1.29688
-0.0123596,1.54688,1.32813
-0.123911,1.54688,1.35938
0.0240993,1.54688,1.39063
-0.0336094,1.54688,1.42188
0.0651493,1.54688,1.45313
0.272089,1.54688,1.48438
0.163553,1.54688,1.51563
0.0929489,1.54688,1.54688
0.0133677,1.54688,1.57813
0.0319433,1.54688,1.60938
0.0925694,1.54688,1.64063
0.0716863,1.54688,1.67188
0.013226,1.54688,1.70313
0.126003,1.54688,1.73438
-0.0184035,1.54688,1.76563
-0.024663,1.54688,1.79688
0.120571,1.54688,1.82813
-5.41687,1.54688,1.85938
-10.5394,1.54688,1.89063
0,1.57813,0.015625
0.148426,1.57813,0.046875
0.0802334,1.57813,0.078125
0.0515558,1.57813,0.109375
-0.0269806,1.57813,0.140625
0.0295954,1.57813,0.171875
0.0212126,1.57813,0.203125
-0.0154572,1.57813,0.234375
0.0858283,1.57813,0.265625
-0.024447,1.57813,0.296875
0.0716524,1.57813,0.328125
0.0796576,1.57813,0.359375
0.0333376,1.57813,0.390625
0.225499,1.57813,0.421875
0.124336,1.57813,0.453125
0.232241,1.57813,0.484375
0.267162,1.57813,0.515625
0.464464,1.57813,0.546875
0.520363,1.57813,0.578125
0.74222,1.57813,0.609375
0.7957,1.57813,0.640625
1.17577,1.57813,0.671875
1.65229,1.57813,0.703125
2.04873,1.57813,0.734375
2.41819,1.57813,0.765625
2.78772,1.57813,0.796875
3.05822,1.57813,0.828125
3.32544,1.57813,0.859375
3.03807,1.57813,0.890625
1.9159,1.57813,0.921875
-1.60034,1.57813,0.953125
-3.59777,1.57813,0.984375
-4.06358,1.57813,1.01563
-5.9026,1.57813,1.04688
-5.41889,1.57813,1.07813
-3.9604,1.57813,1.10938
-3.00585,1.57813,1.14063
-2.00686,1.57813,1.17188
-1.46091,1.57813,1.20313
-0.882698,1.57813,1.23438
-0.417431,1.57813,1.26563
-0.321066,1.57813,1.29688
-0.245813,1.57813,1.32813
-0.203663,1.57813,1.35938
-0.0297661,1.57813,1.39063
-0.0351372,1.57813,1.42188
0.090023,1.57813,1.45313
0.0562658,1.57813,1.48438
0.0220308,1.57813,1.51563
0.036418,1.57813,1.54688
0.0583992,1.57813,1.57813
0.0768318,1.57813,1.60938
0.079731,1.57813,1.64063
0.0313311,1.57813,1.67188
0.0883245,1.57813,1.70313
0.0478129,1.57813,1.73438
0.0462198,1.57813,1.76563
0.0434959,1.57813,1.79688
-0.208827,1.57813,1.82813
-5.87243,1.57813,1.85938
-10.2296,1.57813,1.89063
0,1.60938,0.015625
-0.162801,1.60938,0.046875
0.130093,1.60938,0.078125
0.0622374,1.60938,0.109375
-0.017643,1.60938,0.140625
0.067873,1.60938,0.171875
0.0221529,1.60938,0.203125
0.0964088,1.60938,0.234375
-0.0190229,1.60938,0.265625
0.0136294,1.60938,0.296875
0.121215,1.60938,0.328125
0.0182753,1.60938,0.359375
0.0681868,1.60938,0.390625
0.237022,1.60938,0.421875
0.125766,1.60938,0.453125
0.344084,1.60938,0.484375
0.260724,1.60938,0.515625
0.444408,1.60938,0.546875
0.617397,1.60938,0.578125
0.649382,1.60938,0.609375
0.747501,1.60938,0.640625
0.981588,1.60938,0.671875
1.29455,1.60938,0.703125
1.57176,1.60938,0.734375
2.06657,1.60938,0.765625
2.02035,1.60938,0.796875
2.33881,1.60938,0.828125
2.51162,1.60938,0.859375
1.6126,1.60938,0.890625
0.302403,1.60938,0.921875
-0.868261,1.60938,0.953125
-2.40399,1.60938,0.984375
-3.46085,1.60938,1.01563
-5.02066,1.60938,1.04688
-3.94064,1.60938,1.07813
-3.10536,1.60938,1.10938
-2.38417,1.60938,1.14063
-1.77177,1.60938,1.17188
-1.16314,1.60938,1.20313
-0.920809,1.60938,1.23438
-0.716852,1.60938,1.26563
-0.530558,1.60938,1.29688
-0.363426,1.60938,1.32813
-0.04809,1.60938,1.35938
-0.0716038,1.60938,1.39063
0.0335178,1.60938,1.42188
0.0444603,1.60938,1.45313
0.00295258,1.60938,1.48438
0.117126,1.60938,1.51563
0.125993,1.60938,1.54688
0.112084,1.60938,1.57813
0.0853033,1.60938,1.60938
0.028173,1.60938,1.64063
0.0328817,1.60938,1.67188
0.0897126,1.60938,1.70313
0.0335135,1.60938,1.73438
0.0829988,1.60938,1.76563
-0.0116417,1.60938,1.79688
-0.25733,1.60938,1.82813
-6.35536,1.60938,1.85938
-11.4572,1.60938,1.89063
0,1.64063,0.015625
0.00867152,1.64063,0.046875
0.231975,1.64063,0.078125
0.109091,1.64063,0.109375
-0.0264714,1.64063,0.140625
-0.0245147,1.64063,0.171875
-0.0256047,1.64063,0.203125
0.0539823,1.64063,0.234375
-0.051218,1.64063,0.265625
0.0900807,1.64063,0.296875
0.12746,1.64063,0.328125
0.000808716,1.64063,0.359375
0.169879,1.64063,0.390625
0.111544,1.64063,0.421875
0.147745,1.64063,0.453125
0.319418,1.64063,0.484375
0.287814,1.64063,0.515625
0.361172,1.64063,0.546875
0.495209,1.64063,0.578125
0.49589,1.64063,0.609375
0.634256,1.64063,0.640625
0.914946,1.64063,0.671875
0.896645,1.64063,0.703125
1.38932,1.64063,0.734375
1.67481,1.64063,0.765625
1.3173,1.64063,0.796875
1.58691,1.64063,0.828125
1.34561,1.64063,0.859375
0.634704,1.64063,0.890625
0.0617924,1.64063,0.921875
-0.442911,1.64063,0.953125
-2.11937,1.64063,0.984375
-3.58824,1.64063,1.01563
-3.38202,1.64063,1.04688
-2.44982,1.64063,1.07813
-2.24979,1.64063,1.10938
-2.03035,1.64063,1.14063
-1.5345,1.64063,1.17188
-0.998966,1.64063,1.20313
-0.870178,1.64063,1.23438
-0.599581,1.64063,1.26563
-0.370504,1.64063,1.29688
-0.157059,1.64063,1.32813
-0.0596752,1.64063,1.35938
-0.137877,1.64063,1.39063
0.0250568,1.64063,1.42188
0.026454,1.64063,1.45313
0.112231,1.64063,1.48438
0.130854,1.64063,1.51563
0.0898933,1.64063,1.54688
0.0744362,1.64063,1.57813
0.0100069,1.64063,1.60938
0.00236702,1.64063,1.64063
0.0939612,1.64063,1.67188
0.0343757,1.64063,1.70313
0.0710154,1.64063,1.73438
0.0497494,1.64063,1.76563
-0.0109835,1.64063,1.79688
-0.0909309,1.64063,1.82813
-6.69175,1.64063,1.85938
-11.9087,1.64063,1.89063
0,1.67188,0.015625
-0.0419424,1.67188,0.046875
0.202493,1.67188,0.078125
0.0856894,1.67188,0.109375
0.0339553,1.67188,0.140625
0.0516706,1.67188,0.171875
0.0433061,1.67188,0.203125
0.0147939,1.67188,0.234375
0.0693684,1.67188,0.265625
0.0529327,1.67188,0.296875
0.00999212,1.67188,0.328125
0.0962477,1.67188,0.359375
0.0915289,1.67188,0.390625
0.142217,1.67188,0.421875
0.156153,1.67188,0.453125
0.154103,1.67188,0.484375
0.260617,1.67188,0.515625
0.393361,1.67188,0.546875
0.352089,1.67188,0.578125
0.397166,1.67188,0.609375
0.684861,1.67188,0.640625
0.64509,1.67188,0.671875
0.635252,1.67188,0.703125
1.19184,1.67188,0.734375
1.22914,1.67188,0.765625
0.751974,1.67188,0.796875
1.16988,1.67188,0.828125
1.18808,1.67188,0.859375
0.328473,1.67188,0.890625
-0.154309,1.67188,0.921875
-0.706674,1.67188,0.953125
-1.96574,1.67188,0.984375
-2.69026,1.67188,1.01563
-1.75237,1.67188,1.04688
-1.94534,1.67188,1.07813
-1.90251,1.67188,1.10938
-1.45553,1.67188,1.14063
-0.933315,1.67188,1.17188
-0.803353,1.67188,1.20313
-0.716977,1.67188,1.23438
-0.400269,1.67188,1.26563
-0.330347,1.67188,1.29688
-0.237872,1.67188,1.32813
-0.103054,1.67188,1.35938
-0.118587,1.67188,1.39063
0.0703869,1.67188,1.42188
0.129199,1.67188,1.45313
0.070118,1.67188,1.48438
-0.0658197,1.67188,1.51563
0.00424671,1.67188,1.54688
0.0092926,1.67188,1.57813
-0.0122309,1.67188,1.60938
0.0831542,1.67188,1.64063
0.0895271,1.67188,1.67188
-0.00465918,1.67188,1.70313
-0.0103602,1.67188,1.73438
0.00548983,1.67188,1.76563
0.0306456,1.67188,1.79688
-0.238878,1.67188,1.82813
-6.55987,1.67188,1.85938
-12.5486,1.67188,1.89063
0,1.70313,0.015625
0.0606655,1.70313,0.046875
0.179266,1.70313,0.078125
0.0725478,1.70313,0.109375
0.0483263,1.70313,0.140625
-0.0337508,1.70313,0.171875
0.00198364,1.70313,0.203125
0.10696,1.70313,0.234375
0.0712657,1.70313,0.265625
0.0689406,1.70313,0.296875
0.0167308,1.70313,0.328125
0.109405,1.70313,0.359375
0.0648403,1.70313,0.390625
0.110744,1.70313,0.421875
0.14947,1.70313,0.453125
0.251956,1.70313,0.484375
0.277839,1.70313,0.515625
0.250402,1.70313,0.546875
0.276992,1.70313,0.578125
0.490513,1.70313,0.609375
0.565607,1.70313,0.640625
0.563713,1.70313,0.671875
0.671194,1.70313,0.703125
0.952401,1.70313,0.734375
1.007,1.70313,0.765625
0.638501,1.70313,0.796875
0.696557,1.70313,0.828125
0.639729,1.70313,0.859375
-0.0734463,1.70313,0.890625
-0.31738,1.70313,0.921875
-0.79878,1.70313,0.953125
-1.75308,1.70313,0.984375
-1.45597,1.70313,1.01563
-1.47949,1.70313,1.04688
-1.54708,1.70313,1.07813
-1.36268,1.70313,1.10938
-1.32923,1.70313,1.14063
-0.885512,1.70313,1.17188
-0.704354,1.70313,1.20313
-0.537536,1.70313,1.23438
-0.308689,1.70313,1.26563
-0.276006,1.70313,1.29688
-0.193534,1.70313,1.32813
-0.0105343,1.70313,1.35938
-0.0205717,1.70313,1.39063
-0.0974731,1.70313,1.42188
-0.0411949,1.70313,1.45313
-0.0461102,1.70313,1.48438
0.00296879,1.70313,1.51563
0.0334272,1.70313,1.54688
-0.0365143,1.70313,1.57813
0.0943308,1.70313,1.60938
0.0517802,1.70313,1.64063
0.0396433,1.70313,1.67188
0.101781,1.70313,1.70313
0.0424361,1.70313,1.73438
0.06198,1.70313,1.76563
0.0104067,1.70313,1.79688
-0.359635,1.70313,1.82813
-6.86203,1.70313,1.85938
-13.1264,1.70313,1.89063
0,1.73438,0.015625
-0.0354741,1.73438,0.046875
0.18908,1.73438,0.078125
0.0316156,1.73438,0.109375
0.0423892,1.73438,0.140625
0.0186181,1.73438,0.171875
0.0448785,1.73438,0.203125
0.0696058,1.73438,0.234375
0.0452619,1.73438,0.265625
0.0674334,1.73438,0.296875
0.0237527,1.73438,0.328125
0.0703225,1.73438,0.359375
0.108695,1.73438,0.390625
0.112873,1.73438,0.421875
0.22674,1.73438,0.453125
0.267512,1.73438,0.484375
0.231373,1.73438,0.515625
0.212046,1.73438,0.546875
0.227677,1.73438,0.578125
0.444564,1.73438,0.609375
0.458398,1.73438,0.640625
0.574958,1.73438,0.671875
0.637922,1.73438,0.703125
0.740876,1.73438,0.734375
0.74687,1.73438,0.765625
0.524664,1.73438,0.796875
0.34355,1.73438,0.828125
0.471069,1.73438,0.859375
0.00271416,1.73438,0.890625
-0.571316,1.73438,0.921875
-0.602858,1.73438,0.953125
-1.02394,1.73438,0.984375
-1.18185,1.73438,1.01563
-1.30708,1.73438,1.04688
-1.14641,1.73438,1.07813
-1.2747,1.73438,1.10938
-0.985777,1.73438,1.14063
-0.714432,1.73438,1.17188
-0.639744,1.73438,1.20313
-0.442462,1.73438,1.23438
-0.31103,1.73438,1.26563
-0.218457,1.73438,1.29688
-0.0925026,1.73438,1.32813
-0.0877399,1.73438,1.35938
-0.136666,1.73438,1.39063
-0.0767365,1.73438,1.42188
0.0542049,1.73438,1.45313
0.0551167,1.73438,1.48438
0.0518827,1.73438,1.51563
0.0289974,1.73438,1.54688
0.00925922,1.73438,1.57813
0.0786772,1.73438,1.60938
0.0284095,1.73438,1.64063
0.0380893,1.73438,1.67188
0.0399094,1.73438,1.70313
-0.0226936,1.73438,1.73438
0.0192735,1.73438,1.76563
-0.0215318,1.73438,1.79688
-0.268269,1.73438,1.82813
-7.51754,1.73438,1.85938
-12.5521,1.73438,1.89063
0,1.76563,0.015625
0.024104,1.76563,0.046875
0.175547,1.76563,0.078125
0.0299534,1.76563,0.109375
0.0189016,1.76563,0.140625
0.0225589,1.76563,0.171875
0.0975273,1.76563,0.203125
-0.0222654,1.76563,0.234375
0.0755267,1.76563,0.265625
0.00401449,1.76563,0.296875
0.0703793,1.76563,0.328125
0.142707,1.76563,0.359375
0.109815,1.76563,0.390625
0.134888,1.76563,0.421875
0.31846,1.76563,0.453125
0.272176,1.76563,0.484375
0.139596,1.76563,0.515625
0.177672,1.76563,0.546875
0.308169,1.76563,0.578125
0.313884,1.76563,0.609375
0.317938,1.76563,0.640625
0.397124,1.76563,0.671875
0.373301,1.76563,0.703125
0.427594,1.76563,0.734375
0.406503,1.76563,0.765625
0.35797,1.76563,0.796875
0.426605,1.76563,0.828125
0.208463,1.76563,0.859375
-0.138654,1.76563,0.890625
-0.387265,1.76563,0.921875
-0.34946,1.76563,0.953125
-1.00477,1.76563,0.984375
-0.986091,1.76563,1.01563
-0.815658,1.76563,1.04688
-1.02399,1.76563,1.07813
-1.00912,1.76563,1.10938
-0.71554,1.76563,1.14063
-0.689742,1.76563,1.17188
-0.420375,1.76563,1.20313
-0.317793,1.76563,1.23438
-0.324437,1.76563,1.26563
-0.252631,1.76563,1.29688
-0.195089,1.76563,1.32813
-0.107014,1.76563,1.35938
-0.128898,1.76563,1.39063
-0.0291681,1.76563,1.42188
0.0174942,1.76563,1.45313
0.0201111,1.76563,1.48438
0.0342474,1.76563,1.51563
0.0433674,1.76563,1.54688
0.0646968,1.76563,1.57813
0.0187197,1.76563,1.60938
0.0733914,1.76563,1.64063
0.0477133,1.76563,1.67188
-0.00873375,1.76563,1.70313
0.0204015,1.76563,1.73438
-0.0259249,1.76563,1.76563
-0.0726817,1.76563,1.79688
-0.312937,1.76563,1.82813
-8.0576,1.76563,1.85938
-13.2605,1.76563,1.89063
0,1.79688,0.015625
-0.0188117,1.79688,0.046875
0.172762,1.79688,0.078125
0.0472931,1.79688,0.109375
0.0844231,1.79688,0.140625
0.11818,1.79688,0.171875
0.0574751,1.79688,0.203125
-0.00894594,1.79688,0.234375
0.0847049,1.79688,0.265625
-0.000652313,1.79688,0.296875
0.0988483,1.79688,0.328125
0.0351715,1.79688,0.359375
0.0522313,1.79688,0.390625
0.159726,1.79688,0.421875
0.267626,1.79688,0.453125
0.128723,1.79688,0.484375
0.0995607,1.79688,0.515625
0.217776,1.79688,0.546875
0.292947,1.79688,0.578125
0.234668,1.79688,0.609375
0.259314,1.79688,0.640625
0.309743,1.79688,0.671875
0.270334,1.79688,0.703125
0.295916,1.79688,0.734375
0.269933,1.79688,0.765625
0.343837,1.79688,0.796875
0.313425,1.79688,0.828125
-0.0473676,1.79688,0.859375
-0.0773692,1.79688,0.890625
-0.178813,1.79688,0.921875
-0.448203,1.79688,0.953125
-0.64844,1.79688,0.984375
-0.474671,1.79688,1.01563
-0.82483,1.79688,1.04688
-0.915363,1.79688,1.07813
-0.649418,1.79688,1.10938
-0.688333,1.79688,1.14063
-0.647479,1.79688,1.17188
-0.329763,1.79688,1.20313
-0.300042,1.79688,1.23438
-0.251244,1.79688,1.26563
-0.196657,1.79688,1.29688
-0.153532,1.79688,1.32813
-0.0770836,1.79688,1.35938
-0.159393,1.79688,1.39063
-0.0766535,1.79688,1.42188
-0.0192833,1.79688,1.45313
-0.0245905,1.79688,1.48438
0.0626154,1.79688,1.51563
0.0792394,1.79688,1.54688
0.0780706,1.79688,1.57813
-0.0224943,1.79688,1.60938
0.0463371,1.79688,1.64063
0.0546045,1.79688,1.67188
0.0242472,1.79688,1.70313
0.0183668,1.79688,1.73438
0.0279222,1.79688,1.76563
-0.051697,1.79688,1.79688
-0.22226,1.79688,1.82813
-8.32393,1.79688,1.85938
-14.502,1.79688,1.89063
0,1.82813,0.015625
-0.0884335,1.82813,0.046875
0.154706,1.82813,0.078125
0.0700336,1.82813,0.109375
0.0332344,1.82813,0.140625
0.0636921,1.82813,0.171875
0.0304415,1.82813,0.203125
0.0347018,1.82813,0.234375
0.0649042,1.82813,0.265625
0.087234,1.82813,0.296875
0.117907,1.82813,0.328125
0.0306835,1.82813,0.359375
0.0597258,1.82813,0.390625
0.191473,1.82813,0.421875
0.225374,1.82813,0.453125
0.0871401,1.82813,0.484375
0.170425,1.82813,0.515625
0.265613,1.82813,0.546875
0.205178,1.82813,0.578125
0.221485,1.82813,0.609375
0.24899,1.82813,0.640625
0.298995,1.82813,0.671875
0.284022,1.82813,0.703125
0.282445,1.82813,0.734375
0.25309,1.82813,0.765625
0.182053,1.82813,0.796875
0.127367,1.82813,0.828125
0.0769968,1.82813,0.859375
-0.133296,1.82813,0.890625
-0.187894,1.82813,0.921875
-0.422897,1.82813,0.953125
-0.215501,1.82813,0.984375
-0.485697,1.82813,1.01563
-0.72098,1.82813,1.04688
-0.537266,1.82813,1.07813
-0.413712,1.82813,1.10938
-0.52273,1.82813,1.14063
-0.395415,1.82813,1.17188
-0.325864,1.82813,1.20313
-0.309456,1.82813,1.23438
-0.209439,1.82813,1.26563
-0.15764,1.82813,1.29688
-0.102991,1.82813,1.32813
-0.0822563,1.82813,1.35938
-0.111566,1.82813,1.39063
-0.0678644,1.82813,1.42188
0.00375748,1.82813,1.45313
-0.0102396,1.82813,1.48438
0.0499182,1.82813,1.51563
0.00959301,1.82813,1.54688
0.00640965,1.82813,1.57813
0.0127873,1.82813,1.60938
0.0118747,1.82813,1.64063
-0.0219593,1.82813,1.67188
0.0388827,1.82813,1.70313
0.0741768,1.82813,1.73438
0.0806057,1.82813,1.76563
-0.0840902,1.82813,1.79688
-0.203659,1.82813,1.82813
-7.92852,1.82813,1.85938
-15.6051,1.82813,1.89063
0,1.85938,0.015625
0.00515842,1.85938,0.046875
0.142764,1.85938,0.078125
0.111064,1.85938,0.109375
0.0223174,1.85938,0.140625
0.0295265,1.85938,0.171875
-0.0230958,1.85938,0.203125
0.0732987,1.85938,0.234375
0.115545,1.85938,0.265625
0.12323,1.85938,0.296875
0.0640349,1.85938,0.328125
0.0624399,1.85938,0.359375
0.120695,1.85938,0.390625
0.128408,1.85938,0.421875
0.0726967,1.85938,0.453125
0.116999,1.85938,0.484375
0.232872,1.85938,0.515625
0.17255,1.85938,0.546875
0.191191,1.85938,0.578125
0.166601,1.85938,0.609375
0.170106,1.85938,0.640625
0.217461,1.85938,0.671875
0.224169,1.85938,0.703125
0.231881,1.85938,0.734375
0.146198,1.85938,0.765625
0.124631,1.85938,0.796875
0.12578,1.85938,0.828125
0.0644135,1.85938,0.859375
-0.1345,1.85938,0.890625
-0.183563,1.85938,0.921875
-0.111533,1.85938,0.953125
-0.11274,1.85938,0.984375
-0.411248,1.85938,1.01563
-0.500913,1.85938,1.04688
-0.520578,1.85938,1.07813
-0.401293,1.85938,1.10938
-0.296178,1.85938,1.14063
-0.280594,1.85938,1.17188
-0.338311,1.85938,1.20313
-0.201088,1.85938,1.23438
-0.16198,1.85938,1.26563
-0.113184,1.85938,1.29688
-0.0740728,1.85938,1.32813
-0.0939817,1.85938,1.35938
-0.0819445,1.85938,1.39063
-0.0527897,1.85938,1.42188
-0.00169849,1.85938,1.45313
-0.0210972,1.85938,1.48438
-0.00111103,1.85938,1.51563
0.0196395,1.85938,1.54688
0.0113578,1.85938,1.57813
-0.0508299,1.85938,1.60938
-0.0196733,1.85938,1.64063
0.0357518,1.85938,1.67188
0.0588589,1.85938,1.70313
0.0637856,1.85938,1.73438
0.0232704,1.85938,1.76563
0.0213873,1.85938,1.79688
-0.309123,1.85938,1.82813
-7.64894,1.85938,1.85938
-16.9729,1.85938,1.89063
0,1.89063,0.015625
-0.164027,1.89063,0.046875
0.201025,1.89063,0.078125
0.145615,1.89063,0.109375
0.0800238,1.89063,0.140625
0.100384,1.89063,0.171875
0.0901082,1.89063,0.203125
0.175722,1.89063,0.234375
0.0925817,1.89063,0.265625
0.118487,1.89063,0.296875
0.132059,1.89063,0.328125
0.122952,1.89063,0.359375
0.162547,1.89063,0.390625
0.189216,1.89063,0.421875
0.189095,1.89063,0.453125
0.253649,1.89063,0.484375
0.259918,1.89063,0.515625
0.223497,1.89063,0.546875
0.301473,1.89063,0.578125
0.252737,1.89063,0.609375
0.312388,1.89063,0.640625
0.368653,1.89063,0.671875
0.2849,1.89063,0.703125
0.27201,1.89063,0.734375
0.304017,1.89063,0.765625
0.260266,1.89063,0.796875
0.206756,1.89063,0.828125
0.0907378,1.89063,0.859375
0.0341377,1.89063,0.890625
-0.0815578,1.89063,0.921875
-0.102052,1.89063,0.953125
-0.30134,1.89063,0.984375
-0.344849,1.89063,1.01563
-0.503922,1.89063,1.04688
-0.485872,1.89063,1.07813
-0.375519,1.89063,1.10938
-0.407644,1.89063,1.14063
-0.461719,1.89063,1.17188
-0.368937,1.89063,1.20313
-0.274663,1.89063,1.23438
-0.288505,1.89063,1.26563
-0.265666,1.89063,1.29688
-0.236702,1.89063,1.32813
-0.23795,1.89063,1.35938
-0.233042,1.89063,1.39063
-0.167986,1.89063,1.42188
-0.16773,1.89063,1.45313
-0.173844,1.89063,1.48438
-0.0890145,1.89063,1.51563
-0.0936852,1.89063,1.54688
-0.0843358,1.89063,1.57813
-0.0535941,1.89063,1.60938
-0.0164356,1.89063,1.64063
0.0276189,1.89063,1.67188
-0.0239382,1.89063,1.70313
-0.0180888,1.89063,1.73438
-0.0087297,1.89063,1.76563
0.0578763,1.89063,1.79688
-0.288564,1.89063,1.82813
-8.29644,1.89063,1.85938
-16.3555,1.89063,1.89063
