0,0.015625,0.015625
0,0.015625,0.046875
0,0.015625,0.078125
0,0.015625,0.109375
0,0.015625,0.140625
0,0.015625,0.171875
0,0.015625,0.203125
0,0.015625,0.234375
0,0.015625,0.265625
0,0.015625,0.296875
0,0.015625,0.328125
0,0.015625,0.359375
0,0.015625,0.390625
0,0.015625,0.421875
0,0.015625,0.453125
0,0.015625,0.484375
0,0.015625,0.515625
0,0.015625,0.546875
0,0.015625,0.578125
0,0.015625,0.609375
0,0.015625,0.640625
0,0.015625,0.671875
0,0.015625,0.703125
0,0.015625,0.734375
0,0.015625,0.765625
0,0.015625,0.796875
0,0.015625,0.828125
0,0.015625,0.859375
0,0.015625,0.890625
0,0.015625,0.921875
0,0.015625,0.953125
0,0.015625,0.984375
0,0.015625,1.01563
0,0.015625,1.04688
0,0.015625,1.07813
0,0.015625,1.10938
0,0.015625,1.14063
0,0.015625,1.17188
0,0.015625,1.20313
0,0.015625,1.23438
0,0.015625,1.26563
0,0.015625,1.29688
0,0.015625,1.32813
0,0.015625,1.35938
0,0.015625,1.39063
0,0.015625,1.42188
0,0.015625,1.45313
0,0.015625,1.48438
0,0.015625,1.51563
0,0.015625,1.54688
0,0.015625,1.57813
0,0.015625,1.60938
0,0.015625,1.64063
0,0.015625,1.67188
0,0.015625,1.70313
0,0.015625,1.73438
0,0.015625,1.76563
0,0.015625,1.79688
0,0.015625,1.82813
0,0.015625,1.85938
0,0.015625,1.89063
0,0.046875,0.015625
-0.0548806,0.046875,0.046875
-0.0342349,0.046875,0.078125
-0.0706675,0.046875,0.109375
-0.102267,0.046875,0.140625
-0.242905,0.046875,0.171875
-0.18209,0.046875,0.203125
-0.103826,0.046875,0.234375
-0.34028,0.046875,0.265625
-0.356405,0.046875,0.296875
-0.368659,0.046875,0.328125
-0.236104,0.046875,0.359375
-0.280941,0.046875,0.390625
-0.687893,0.046875,0.421875
-0.774168,0.046875,0.453125
-0.329475,0.046875,0.484375
-0.504439,0.046875,0.515625
-0.490269,0.046875,0.546875
-0.893162,0.046875,0.578125
-0.773228,0.046875,0.609375
-0.659101,0.046875,0.640625
-0.382905,0.046875,0.671875
-0.498923,0.046875,0.703125
-0.894035,0.046875,0.734375
-0.641894,0.046875,0.765625
-0.604239,0.046875,0.796875
-0.757491,0.046875,0.828125
-0.524208,0.046875,0.859375
-0.544656,0.046875,0.890625
-0.348382,0.046875,0.921875
-0.266308,0.046875,0.953125
-0.110725,0.046875,0.984375
-0.107462,0.046875,1.01563
-0.0178784,0.046875,1.04688
0.157946,0.046875,1.07813
0.265639,0.046875,1.10938
0.172044,0.046875,1.14063
0.137428,0.046875,1.17188
0.26311,0.046875,1.20313
0.213152,0.046875,1.23438
0.532114,0.046875,1.26563
0.393406,0.046875,1.29688
0.72729,0.046875,1.32813
0.556837,0.046875,1.35938
0.319201,0.046875,1.39063
0.647306,0.046875,1.42188
0.492169,0.046875,1.45313
0.526368,0.046875,1.48438
0.328821,0.046875,1.51563
0.117486,0.046875,1.54688
0.338093,0.046875,1.57813
0.360221,0.046875,1.60938
0.637105,0.046875,1.64063
0.481233,0.046875,1.67188
0.293197,0.046875,1.70313
0.20134,0.046875,1.73438
0.224464,0.046875,1.76563
0.121075,0.046875,1.79688
0.106424,0.046875,1.82813
0.107578,0.046875,1.85938
0.0474079,0.046875,1.89063
0,0.078125,0.015625
-0.0333385,0.078125,0.046875
-0.0341092,0.078125,0.078125
-0.0686179,0.078125,0.109375
-0.130671,0.078125,0.140625
-0.0898547,0.078125,0.171875
-0.160423,0.078125,0.203125
-0.300079,0.078125,0.234375
-0.19996,0.078125,0.265625
-0.331596,0.078125,0.296875
-0.421263,0.078125,0.328125
-0.384339,0.078125,0.359375
-0.437441,0.078125,0.390625
-0.463544,0.078125,0.421875
-0.428359,0.078125,0.453125
-0.608573,0.078125,0.484375
-0.531137,0.078125,0.515625
-0.621808,0.078125,0.546875
-0.518176,0.078125,0.578125
-0.624055,0.078125,0.609375
-0.537591,0.078125,0.640625
-0.616482,0.078125,0.671875
-0.539585,0.078125,0.703125
-0.540208,0.078125,0.734375
-0.49902,0.078125,0.765625
-0.461046,0.078125,0.796875
-0.425045,0.078125,0.828125
-0.391723,0.078125,0.859375
-0.254444,0.078125,0.890625
-0.208457,0.078125,0.921875
-0.137782,0.078125,0.953125
-0.0775861,0.078125,0.984375
0.016108,0.078125,1.01563
0.104927,0.078125,1.04688
0.191673,0.078125,1.07813
0.26754,0.078125,1.10938
0.338179,0.078125,1.14063
0.399097,0.078125,1.17188
0.329406,0.078125,1.20313
0.437873,0.078125,1.23438
0.49446,0.078125,1.26563
0.69632,0.078125,1.29688
0.455786,0.078125,1.32813
0.536882,0.078125,1.35938
0.74054,0.078125,1.39063
0.522005,0.078125,1.42188
0.618554,0.078125,1.45313
0.592301,0.078125,1.48438
0.474276,0.078125,1.51563
0.527863,0.078125,1.54688
0.377105,0.078125,1.57813
0.358278,0.078125,1.60938
0.266125,0.078125,1.64063
0.315136,0.078125,1.67188
0.294845,0.078125,1.70313
0.259474,0.078125,1.73438
0.212094,0.078125,1.76563
0.200237,0.078125,1.79688
0.162684,0.078125,1.82813
0.0904021,0.078125,1.85938
0.0657295,0.078125,1.89063
0,0.109375,0.015625
0.000877857,0.109375,0.046875
-0.0358165,0.109375,0.078125
-0.0988015,0.109375,0.109375
-0.149424,0.109375,0.140625
-0.177034,0.109375,0.171875
-0.243736,0.109375,0.203125
-0.319841,0.109375,0.234375
-0.383501,0.109375,0.265625
-0.506529,0.109375,0.296875
-0.550788,0.109375,0.328125
-0.523646,0.109375,0.359375
-0.520135,0.109375,0.390625
-0.516699,0.109375,0.421875
-0.587949,0.109375,0.453125
-0.657135,0.109375,0.484375
-0.713532,0.109375,0.515625
-0.802155,0.109375,0.546875
-0.834673,0.109375,0.578125
-0.823419,0.109375,0.609375
-0.673613,0.109375,0.640625
-0.663805,0.109375,0.671875
-0.667302,0.109375,0.703125
-0.670664,0.109375,0.734375
-0.658728,0.109375,0.765625
-0.58239,0.109375,0.796875
-0.558948,0.109375,0.828125
-0.476764,0.109375,0.859375
-0.344183,0.109375,0.890625
-0.260548,0.109375,0.921875
-0.143731,0.109375,0.953125
-0.0644489,0.109375,0.984375
0.0180534,0.109375,1.01563
0.112588,0.109375,1.04688
0.264548,0.109375,1.07813
0.424925,0.109375,1.10938
0.470525,0.109375,1.14063
0.571244,0.109375,1.17188
0.582709,0.109375,1.20313
0.614804,0.109375,1.23438
0.653553,0.109375,1.26563
0.723429,0.109375,1.29688
0.747566,0.109375,1.32813
0.754849,0.109375,1.35938
0.793764,0.109375,1.39063
0.78513,0.109375,1.42188
0.779332,0.109375,1.45313
0.717895,0.109375,1.48438
0.615568,0.109375,1.51563
0.605838,0.109375,1.54688
0.572573,0.109375,1.57813
0.527909,0.109375,1.60938
0.467894,0.109375,1.64063
0.395701,0.109375,1.67188
0.361867,0.109375,1.70313
0.370976,0.109375,1.73438
0.35445,0.109375,1.76563
0.310098,0.109375,1.79688
0.22726,0.109375,1.82813
0.162448,0.109375,1.85938
0.0750703,0.109375,1.89063
0,0.140625,0.015625
-0.0376744,0.140625,0.046875
-0.0471223,0.140625,0.078125
-0.0951475,0.140625,0.109375
-0.139509,0.140625,0.140625
-0.223082,0.140625,0.171875
-0.319388,0.140625,0.203125
-0.383926,0.140625,0.234375
-0.484204,0.140625,0.265625
-0.533557,0.140625,0.296875
-0.473475,0.140625,0.328125
-0.468276,0.140625,0.359375
-0.48789,0.140625,0.390625
-0.52236,0.140625,0.421875
-0.623104,0.140625,0.453125
-0.663319,0.140625,0.484375
-0.759503,0.140625,0.515625
-0.780519,0.140625,0.546875
-0.818431,0.140625,0.578125
-0.891136,0.140625,0.609375
-0.848819,0.140625,0.640625
-0.786948,0.140625,0.671875
-0.726716,0.140625,0.703125
-0.710142,0.140625,0.734375
-0.678108,0.140625,0.765625
-0.637109,0.140625,0.796875
-0.59418,0.140625,0.828125
-0.494811,0.140625,0.859375
-0.368953,0.140625,0.890625
-0.288747,0.140625,0.921875
-0.136243,0.140625,0.953125
-0.0494173,0.140625,0.984375
0.0763917,0.140625,1.01563
0.199421,0.140625,1.04688
0.382864,0.140625,1.07813
0.427837,0.140625,1.10938
0.525634,0.140625,1.14063
0.604723,0.140625,1.17188
0.616507,0.140625,1.20313
0.74409,0.140625,1.23438
0.771532,0.140625,1.26563
0.903059,0.140625,1.29688
0.979402,0.140625,1.32813
0.97967,0.140625,1.35938
0.989707,0.140625,1.39063
0.879533,0.140625,1.42188
0.755672,0.140625,1.45313
0.730239,0.140625,1.48438
0.73303,0.140625,1.51563
0.718452,0.140625,1.54688
0.72562,0.140625,1.57813
0.728709,0.140625,1.60938
0.648422,0.140625,1.64063
0.570165,0.140625,1.67188
0.498692,0.140625,1.70313
0.483304,0.140625,1.73438
0.446087,0.140625,1.76563
0.388421,0.140625,1.79688
0.292838,0.140625,1.82813
0.214974,0.140625,1.85938
0.13981,0.140625,1.89063
0,0.171875,0.015625
0.0226574,0.171875,0.046875
-0.0870125,0.171875,0.078125
-0.11379,0.171875,0.109375
-0.214973,0.171875,0.140625
-0.30233,0.171875,0.171875
-0.327059,0.171875,0.203125
-0.414168,0.171875,0.234375
-0.495134,0.171875,0.265625
-0.458088,0.171875,0.296875
-0.489724,0.171875,0.328125
-0.574359,0.171875,0.359375
-0.598417,0.171875,0.390625
-0.664646,0.171875,0.421875
-0.738942,0.171875,0.453125
-0.81294,0.171875,0.484375
-0.771807,0.171875,0.515625
-0.743926,0.171875,0.546875
-0.812457,0.171875,0.578125
-0.91996,0.171875,0.609375
-0.98743,0.171875,0.640625
-1.03235,0.171875,0.671875
-1.00278,0.171875,0.703125
-0.944625,0.171875,0.734375
-0.768088,0.171875,0.765625
-0.663622,0.171875,0.796875
-0.564073,0.171875,0.828125
-0.470639,0.171875,0.859375
-0.340735,0.171875,0.890625
-0.228844,0.171875,0.921875
-0.135244,0.171875,0.953125
-0.0616243,0.171875,0.984375
0.0875796,0.171875,1.01563
0.201973,0.171875,1.04688
0.338426,0.171875,1.07813
0.402858,0.171875,1.10938
0.49421,0.171875,1.14063
0.524849,0.171875,1.17188
0.684831,0.171875,1.20313
0.831204,0.171875,1.23438
0.934123,0.171875,1.26563
1.07605,0.171875,1.29688
1.11051,0.171875,1.32813
1.08621,0.171875,1.35938
0.940356,0.171875,1.39063
0.855128,0.171875,1.42188
0.854671,0.171875,1.45313
0.862859,0.171875,1.48438
0.913006,0.171875,1.51563
0.931614,0.171875,1.54688
0.877078,0.171875,1.57813
0.781494,0.171875,1.60938
0.742838,0.171875,1.64063
0.728703,0.171875,1.67188
0.691607,0.171875,1.70313
0.649752,0.171875,1.73438
0.558905,0.171875,1.76563
0.497888,0.171875,1.79688
0.441847,0.171875,1.82813
0.373309,0.171875,1.85938
0.249871,0.171875,1.89063
0,0.203125,0.015625
-0.118197,0.203125,0.046875
-0.069029,0.203125,0.078125
-0.146207,0.203125,0.109375
-0.259435,0.203125,0.140625
-0.260857,0.203125,0.171875
-0.347566,0.203125,0.203125
-0.484111,0.203125,0.234375
-0.516589,0.203125,0.265625
-0.605322,0.203125,0.296875
-0.784087,0.203125,0.328125
-0.86516,0.203125,0.359375
-0.883247,0.203125,0.390625
-0.875817,0.203125,0.421875
-0.905959,0.203125,0.453125
-0.954194,0.203125,0.484375
-0.965855,0.203125,0.515625
-0.953682,0.203125,0.546875
-0.898374,0.203125,0.578125
-0.921305,0.203125,0.609375
-0.956853,0.203125,0.640625
-1.0323,0.203125,0.671875
-1.03646,0.203125,0.703125
-0.924308,0.203125,0.734375
-0.823619,0.203125,0.765625
-0.742956,0.203125,0.796875
-0.65501,0.203125,0.828125
-0.599744,0.203125,0.859375
-0.476472,0.203125,0.890625
-0.282141,0.203125,0.921875
-0.118926,0.203125,0.953125
-0.0278756,0.203125,0.984375
0.119912,0.203125,1.01563
0.249827,0.203125,1.04688
0.383439,0.203125,1.07813
0.575941,0.203125,1.10938
0.643686,0.203125,1.14063
0.819002,0.203125,1.17188
0.946375,0.203125,1.20313
1.12892,0.203125,1.23438
1.30308,0.203125,1.26563
1.34551,0.203125,1.29688
1.32168,0.203125,1.32813
1.2486,0.203125,1.35938
1.15483,0.203125,1.39063
1.14162,0.203125,1.42188
1.19064,0.203125,1.45313
1.29492,0.203125,1.48438
1.38497,0.203125,1.51563
1.36499,0.203125,1.54688
1.29316,0.203125,1.57813
1.22358,0.203125,1.60938
1.11441,0.203125,1.64063
1.03452,0.203125,1.67188
0.914941,0.203125,1.70313
0.835255,0.203125,1.73438
0.745268,0.203125,1.76563
0.669255,0.203125,1.79688
0.583484,0.203125,1.82813
0.665063,0.203125,1.85938
0.588257,0.203125,1.89063
0,0.234375,0.015625
-0.00991201,0.234375,0.046875
-0.148494,0.234375,0.078125
-0.279849,0.234375,0.109375
-0.332128,0.234375,0.140625
-0.368639,0.234375,0.171875
-0.533817,0.234375,0.203125
-0.561483,0.234375,0.234375
-0.636376,0.234375,0.265625
-0.89689,0.234375,0.296875
-1.07207,0.234375,0.328125
-1.12101,0.234375,0.359375
-1.11682,0.234375,0.390625
-1.14611,0.234375,0.421875
-1.31577,0.234375,0.453125
-1.37613,0.234375,0.484375
-1.47388,0.234375,0.515625
-1.41191,0.234375,0.546875
-1.34431,0.234375,0.578125
-1.35405,0.234375,0.609375
-1.35141,0.234375,0.640625
-1.30798,0.234375,0.671875
-1.21174,0.234375,0.703125
-1.09585,0.234375,0.734375
-1.0867,0.234375,0.765625
-1.00923,0.234375,0.796875
-1.00497,0.234375,0.828125
-0.869439,0.234375,0.859375
-0.616251,0.234375,0.890625
-0.409416,0.234375,0.921875
-0.233471,0.234375,0.953125
-0.0852851,0.234375,0.984375
0.159575,0.234375,1.01563
0.315809,0.234375,1.04688
0.508688,0.234375,1.07813
0.830768,0.234375,1.10938
1.08967,0.234375,1.14063
1.15722,0.234375,1.17188
1.39475,0.234375,1.20313
1.66695,0.234375,1.23438
1.61726,0.234375,1.26563
1.47746,0.234375,1.29688
1.5209,0.234375,1.32813
1.56396,0.234375,1.35938
1.54317,0.234375,1.39063
1.54908,0.234375,1.42188
1.66133,0.234375,1.45313
1.77828,0.234375,1.48438
1.78034,0.234375,1.51563
1.70111,0.234375,1.54688
1.59541,0.234375,1.57813
1.48231,0.234375,1.60938
1.32328,0.234375,1.64063
1.32107,0.234375,1.67188
1.29081,0.234375,1.70313
1.1115,0.234375,1.73438
1.01941,0.234375,1.76563
1.03251,0.234375,1.79688
1.06591,0.234375,1.82813
1.16348,0.234375,1.85938
1.26214,0.234375,1.89063
0,0.265625,0.015625
-0.113199,0.265625,0.046875
-0.203346,0.265625,0.078125
-0.341898,0.265625,0.109375
-0.446936,0.265625,0.140625
-0.558828,0.265625,0.171875
-0.617647,0.265625,0.203125
-0.698207,0.265625,0.234375
-1.02391,0.265625,0.265625
-1.26465,0.265625,0.296875
-1.23529,0.265625,0.328125
-1.11948,0.265625,0.359375
-1.19024,0.265625,0.390625
-1.42211,0.265625,0.421875
-1.5784,0.265625,0.453125
-1.71945,0.265625,0.484375
-1.784,0.265625,0.515625
-1.90461,0.265625,0.546875
-2.10287,0.265625,0.578125
-1.96717,0.265625,0.609375
-1.76288,0.265625,0.640625
-1.57092,0.265625,0.671875
-1.44859,0.265625,0.703125
-1.42324,0.265625,0.734375
-1.33772,0.265625,0.765625
-1.19388,0.265625,0.796875
-1.21612,0.265625,0.828125
-1.10662,0.265625,0.859375
-0.818986,0.265625,0.890625
-0.628942,0.265625,0.921875
-0.322091,0.265625,0.953125
-0.0330842,0.265625,0.984375
0.0383097,0.265625,1.01563
0.2741,0.265625,1.04688
0.735066,0.265625,1.07813
1.01275,0.265625,1.10938
1.17552,0.265625,1.14063
1.46134,0.265625,1.17188
1.77062,0.265625,1.20313
1.7404,0.265625,1.23438
1.6499,0.265625,1.26563
1.70242,0.265625,1.29688
1.8577,0.265625,1.32813
1.89687,0.265625,1.35938
1.90297,0.265625,1.39063
2.03232,0.265625,1.42188
2.06275,0.265625,1.45313
1.89488,0.265625,1.48438
1.79793,0.265625,1.51563
1.76493,0.265625,1.54688
1.63195,0.265625,1.57813
1.45514,0.265625,1.60938
1.37292,0.265625,1.64063
1.37673,0.265625,1.67188
1.35396,0.265625,1.70313
1.194,0.265625,1.73438
1.11979,0.265625,1.76563
1.08278,0.265625,1.79688
0.954125,0.265625,1.82813
1.15132,0.265625,1.85938
1.78815,0.265625,1.89063
0,0.296875,0.015625
-0.0403891,0.296875,0.046875
-0.246674,0.296875,0.078125
-0.393999,0.296875,0.109375
-0.440412,0.296875,0.140625
-0.570314,0.296875,0.171875
-0.708309,0.296875,0.203125
-0.996477,0.296875,0.234375
-1.16232,0.296875,0.265625
-1.20275,0.296875,0.296875
-1.25823,0.296875,0.328125
-1.37869,0.296875,0.359375
-1.55358,0.296875,0.390625
-1.59474,0.296875,0.421875
-1.60207,0.296875,0.453125
-1.70898,0.296875,0.484375
-1.94222,0.296875,0.515625
-2.33601,0.296875,0.546875
-2.27891,0.296875,0.578125
-2.01972,0.296875,0.609375
-1.72559,0.296875,0.640625
-1.54155,0.296875,0.671875
-1.56573,0.296875,0.703125
-1.53791,0.296875,0.734375
-1.38161,0.296875,0.765625
-1.29222,0.296875,0.796875
-1.06112,0.296875,0.828125
-0.997859,0.296875,0.859375
-0.886529,0.296875,0.890625
-0.591085,0.296875,0.921875
-0.386805,0.296875,0.953125
-0.152574,0.296875,0.984375
-0.0828933,0.296875,1.01563
0.415319,0.296875,1.04688
0.528724,0.296875,1.07813
0.709315,0.296875,1.10938
1.01624,0.296875,1.14063
1.30466,0.296875,1.17188
1.37748,0.296875,1.20313
1.46161,0.296875,1.23438
1.73916,0.296875,1.26563
1.8405,0.296875,1.29688
1.87297,0.296875,1.32813
1.99116,0.296875,1.35938
2.11409,0.296875,1.39063
2.09217,0.296875,1.42188
1.87496,0.296875,1.45313
1.8234,0.296875,1.48438
1.9016,0.296875,1.51563
1.83133,0.296875,1.54688
1.7184,0.296875,1.57813
1.61702,0.296875,1.60938
1.4465,0.296875,1.64063
1.39625,0.296875,1.67188
1.27763,0.296875,1.70313
1.14374,0.296875,1.73438
1.01179,0.296875,1.76563
0.885602,0.296875,1.79688
0.439113,0.296875,1.82813
0.264385,0.296875,1.85938
0.829567,0.296875,1.89063
0,0.328125,0.015625
-0.209381,0.328125,0.046875
-0.245918,0.328125,0.078125
-0.179492,0.328125,0.109375
-0.237469,0.328125,0.140625
-0.445042,0.328125,0.171875
-0.553721,0.328125,0.203125
-0.640393,0.328125,0.234375
-0.621186,0.328125,0.265625
-0.778814,0.328125,0.296875
-1.03056,0.328125,0.328125
-1.13755,0.328125,0.359375
-1.11273,0.328125,0.390625
-1.00527,0.328125,0.421875
-1.04603,0.328125,0.453125
-1.20526,0.328125,0.484375
-1.43152,0.328125,0.515625
-1.50273,0.328125,0.546875
-1.35251,0.328125,0.578125
-1.19472,0.328125,0.609375
-1.05306,0.328125,0.640625
-1.0393,0.328125,0.671875
-1.09087,0.328125,0.703125
-1.00957,0.328125,0.734375
-0.880585,0.328125,0.765625
-0.866969,0.328125,0.796875
-0.716923,0.328125,0.828125
-0.785837,0.328125,0.859375
-0.657086,0.328125,0.890625
-0.423597,0.328125,0.921875
-0.272542,0.328125,0.953125
-0.129507,0.328125,0.984375
-0.167103,0.328125,1.01563
0.169451,0.328125,1.04688
0.148177,0.328125,1.07813
0.288465,0.328125,1.10938
0.541502,0.328125,1.14063
0.581616,0.328125,1.17188
0.627315,0.328125,1.20313
0.89393,0.328125,1.23438
1.05832,0.328125,1.26563
1.0916,0.328125,1.29688
1.1465,0.328125,1.32813
1.22835,0.328125,1.35938
1.29843,0.328125,1.39063
1.13601,0.328125,1.42188
1.06732,0.328125,1.45313
1.22144,0.328125,1.48438
1.26282,0.328125,1.51563
1.23151,0.328125,1.54688
1.18892,0.328125,1.57813
1.13318,0.328125,1.60938
0.97628,0.328125,1.64063
0.893069,0.328125,1.67188
0.850711,0.328125,1.70313
0.801172,0.328125,1.73438
0.654554,0.328125,1.76563
0.5006,0.328125,1.79688
0.353179,0.328125,1.82813
-0.700016,0.328125,1.85938
-1.7842,0.328125,1.89063
0,0.359375,0.015625
-0.165154,0.359375,0.046875
-0.147561,0.359375,0.078125
-0.0385669,0.359375,0.109375
-0.117295,0.359375,0.140625
-0.12,0.359375,0.171875
-0.110688,0.359375,0.203125
-0.100172,0.359375,0.234375
-0.220272,0.359375,0.265625
-0.373382,0.359375,0.296875
-0.292224,0.359375,0.328125
-0.224761,0.359375,0.359375
-0.155583,0.359375,0.390625
-0.187851,0.359375,0.421875
-0.296098,0.359375,0.453125
-0.391169,0.359375,0.484375
-0.413346,0.359375,0.515625
-0.317025,0.359375,0.546875
-0.407251,0.359375,0.578125
-0.320776,0.359375,0.609375
-0.320861,0.359375,0.640625
-0.44402,0.359375,0.671875
-0.385021,0.359375,0.703125
-0.417362,0.359375,0.734375
-0.393539,0.359375,0.765625
-0.303477,0.359375,0.796875
-0.354953,0.359375,0.828125
-0.365144,0.359375,0.859375
-0.386816,0.359375,0.890625
-0.25194,0.359375,0.921875
-0.245753,0.359375,0.953125
-0.272254,0.359375,0.984375
-0.259023,0.359375,1.01563
-0.0448868,0.359375,1.04688
0.0394983,0.359375,1.07813
0.0771294,0.359375,1.10938
0.203047,0.359375,1.14063
0.216384,0.359375,1.17188
0.32409,0.359375,1.20313
0.401036,0.359375,1.23438
0.351693,0.359375,1.26563
0.451009,0.359375,1.29688
0.502811,0.359375,1.32813
0.450805,0.359375,1.35938
0.486879,0.359375,1.39063
0.422266,0.359375,1.42188
0.447763,0.359375,1.45313
0.480648,0.359375,1.48438
0.384708,0.359375,1.51563
0.378758,0.359375,1.54688
0.385913,0.359375,1.57813
0.298725,0.359375,1.60938
0.313976,0.359375,1.64063
0.330484,0.359375,1.67188
0.27452,0.359375,1.70313
0.232906,0.359375,1.73438
0.228634,0.359375,1.76563
0.173847,0.359375,1.79688
0.25079,0.359375,1.82813
-1.87082,0.359375,1.85938
-4.23609,0.359375,1.89063
0,0.390625,0.015625
-0.177606,0.390625,0.046875
-0.121608,0.390625,0.078125
-0.0139134,0.390625,0.109375
0.0324879,0.390625,0.140625
0.0305758,0.390625,0.171875
0.00402498,0.390625,0.203125
0.0469141,0.390625,0.234375
-0.0177631,0.390625,0.265625
-0.0147676,0.390625,0.296875
0.0230675,0.390625,0.328125
-0.0106544,0.390625,0.359375
0.0486975,0.390625,0.390625
0.0213881,0.390625,0.421875
-0.00650692,0.390625,0.453125
0.0353975,0.390625,0.484375
0.0446882,0.390625,0.515625
-0.0124702,0.390625,0.546875
-0.0341721,0.390625,0.578125
-0.0588427,0.390625,0.609375
-0.073597,0.390625,0.640625
-0.114283,0.390625,0.671875
-0.226102,0.390625,0.703125
-0.334005,0.390625,0.734375
-0.399956,0.390625,0.765625
-0.394304,0.390625,0.796875
-0.374915,0.390625,0.828125
-0.303816,0.390625,0.859375
-0.526772,0.390625,0.890625
-0.429934,0.390625,0.921875
-0.446694,0.390625,0.953125
-0.368467,0.390625,0.984375
-0.224539,0.390625,1.01563
-0.0975933,0.390625,1.04688
0.0848446,0.390625,1.07813
0.138849,0.390625,1.10938
0.0785847,0.390625,1.14063
0.231075,0.390625,1.17188
0.450951,0.390625,1.20313
0.267888,0.390625,1.23438
0.260215,0.390625,1.26563
0.396349,0.390625,1.29688
0.341858,0.390625,1.32813
0.313881,0.390625,1.35938
0.310354,0.390625,1.39063
0.257751,0.390625,1.42188
0.209872,0.390625,1.45313
0.187545,0.390625,1.48438
0.182699,0.390625,1.51563
0.161238,0.390625,1.54688
0.175593,0.390625,1.57813
0.0402784,0.390625,1.60938
0.0635433,0.390625,1.64063
0.0286226,0.390625,1.67188
-0.0215673,0.390625,1.70313
0.0922966,0.390625,1.73438
0.0726814,0.390625,1.76563
0.0529714,0.390625,1.79688
0.207696,0.390625,1.82813
-2.64569,0.390625,1.85938
-5.46399,0.390625,1.89063
0,0.421875,0.015625
-0.358472,0.421875,0.046875
-0.0271254,0.421875,0.078125
0.0141108,0.421875,0.109375
0.0284281,0.421875,0.140625
0.0241175,0.421875,0.171875
0.0649872,0.421875,0.203125
0.115586,0.421875,0.234375
0.00779581,0.421875,0.265625
0.0525885,0.421875,0.296875
0.0442696,0.421875,0.328125
0.0992069,0.421875,0.359375
0.0548668,0.421875,0.390625
0.00863743,0.421875,0.421875
-0.00471687,0.421875,0.453125
0.0693922,0.421875,0.484375
0.0930853,0.421875,0.515625
-0.0154705,0.421875,0.546875
-0.0706472,0.421875,0.578125
-0.103439,0.421875,0.609375
-0.0962734,0.421875,0.640625
-0.0650501,0.421875,0.671875
-0.187391,0.421875,0.703125
-0.246143,0.421875,0.734375
-0.228231,0.421875,0.765625
-0.306085,0.421875,0.796875
-0.539149,0.421875,0.828125
-0.604407,0.421875,0.859375
-0.588073,0.421875,0.890625
-0.428492,0.421875,0.921875
-0.538165,0.421875,0.953125
-0.560158,0.421875,0.984375
-0.101065,0.421875,1.01563
-0.160933,0.421875,1.04688
-0.0803347,0.421875,1.07813
0.000101089,0.421875,1.10938
0.198355,0.421875,1.14063
0.447165,0.421875,1.17188
0.383964,0.421875,1.20313
0.377943,0.421875,1.23438
0.387362,0.421875,1.26563
0.389271,0.421875,1.29688
0.303392,0.421875,1.32813
0.309565,0.421875,1.35938
0.268076,0.421875,1.39063
0.216507,0.421875,1.42188
0.177414,0.421875,1.45313
0.182734,0.421875,1.48438
0.178591,0.421875,1.51563
0.158275,0.421875,1.54688
0.0948191,0.421875,1.57813
0.0724745,0.421875,1.60938
0.101051,0.421875,1.64063
0.0326576,0.421875,1.67188
0.0530014,0.421875,1.70313
0.0518847,0.421875,1.73438
0.0259786,0.421875,1.76563
0.061657,0.421875,1.79688
0.105539,0.421875,1.82813
-3.27392,0.421875,1.85938
-6.24822,0.421875,1.89063
0,0.453125,0.015625
-0.26441,0.453125,0.046875
0.0103292,0.453125,0.078125
0.0463243,0.453125,0.109375
0.0518177,0.453125,0.140625
-0.0109534,0.453125,0.171875
0.0171871,0.453125,0.203125
0.032774,0.453125,0.234375
0.00919056,0.453125,0.265625
0.0602484,0.453125,0.296875
0.111873,0.453125,0.328125
0.0997581,0.453125,0.359375
0.0538712,0.453125,0.390625
0.0886593,0.453125,0.421875
0.015996,0.453125,0.453125
0.0987082,0.453125,0.484375
0.0549717,0.453125,0.515625
0.0310879,0.453125,0.546875
0.00623894,0.453125,0.578125
-0.0611954,0.453125,0.609375
-0.0178566,0.453125,0.640625
-0.0760345,0.453125,0.671875
-0.275684,0.453125,0.703125
-0.258488,0.453125,0.734375
-0.250641,0.453125,0.765625
-0.378604,0.453125,0.796875
-0.646257,0.453125,0.828125
-0.796727,0.453125,0.859375
-0.59879,0.453125,0.890625
-0.744057,0.453125,0.921875
-0.627462,0.453125,0.953125
-0.226922,0.453125,0.984375
-0.2848,0.453125,1.01563
-0.548047,0.453125,1.04688
0.0870152,0.453125,1.07813
0.371093,0.453125,1.10938
0.305002,0.453125,1.14063
0.325279,0.453125,1.17188
0.448511,0.453125,1.20313
0.611897,0.453125,1.23438
0.545826,0.453125,1.26563
0.495201,0.453125,1.29688
0.445288,0.453125,1.32813
0.445017,0.453125,1.35938
0.326996,0.453125,1.39063
0.232523,0.453125,1.42188
0.159517,0.453125,1.45313
0.208427,0.453125,1.48438
0.199944,0.453125,1.51563
0.20223,0.453125,1.54688
0.0431566,0.453125,1.57813
0.0347681,0.453125,1.60938
0.0555124,0.453125,1.64063
0.0565033,0.453125,1.67188
0.0758333,0.453125,1.70313
0.0313845,0.453125,1.73438
0.0494862,0.453125,1.76563
0.0869737,0.453125,1.79688
0.119071,0.453125,1.82813
-3.55722,0.453125,1.85938
-6.87681,0.453125,1.89063
0,0.484375,0.015625
-0.210863,0.484375,0.046875
-0.0262846,0.484375,0.078125
0.0558362,0.484375,0.109375
0.00627208,0.484375,0.140625
0.0226436,0.484375,0.171875
0.0119162,0.484375,0.203125
0.00931883,0.484375,0.234375
0.101532,0.484375,0.265625
0.107391,0.484375,0.296875
0.0427771,0.484375,0.328125
-0.017231,0.484375,0.359375
0.0970955,0.484375,0.390625
0.214301,0.484375,0.421875
0.163903,0.484375,0.453125
0.116337,0.484375,0.484375
0.139683,0.484375,0.515625
0.150433,0.484375,0.546875
0.120678,0.484375,0.578125
0.0439262,0.484375,0.609375
0.0669174,0.484375,0.640625
-0.149935,0.484375,0.671875
-0.357216,0.484375,0.703125
-0.359098,0.484375,0.734375
-0.582119,0.484375,0.765625
-0.663223,0.484375,0.796875
-0.653276,0.484375,0.828125
-0.947382,0.484375,0.859375
-0.89408,0.484375,0.890625
-1.01984,0.484375,0.921875
-0.762298,0.484375,0.953125
-0.474371,0.484375,0.984375
-0.289772,0.484375,1.01563
-0.121313,0.484375,1.04688
0.182485,0.484375,1.07813
0.191768,0.484375,1.10938
0.38636,0.484375,1.14063
0.509056,0.484375,1.17188
0.643749,0.484375,1.20313
0.7269,0.484375,1.23438
0.658123,0.484375,1.26563
0.550455,0.484375,1.29688
0.504812,0.484375,1.32813
0.470156,0.484375,1.35938
0.431034,0.484375,1.39063
0.347446,0.484375,1.42188
0.210375,0.484375,1.45313
0.226629,0.484375,1.48438
0.168139,0.484375,1.51563
0.0942993,0.484375,1.54688
0.0553846,0.484375,1.57813
0.0999269,0.484375,1.60938
0.0953112,0.484375,1.64063
0.0352097,0.484375,1.67188
0.0236816,0.484375,1.70313
0.07267,0.484375,1.73438
0.0664029,0.484375,1.76563
0.0353045,0.484375,1.79688
0.200914,0.484375,1.82813
-3.58596,0.484375,1.85938
-7.15034,0.484375,1.89063
0,0.515625,0.015625
-0.143663,0.515625,0.046875
-0.162825,0.515625,0.078125
0.00100684,0.515625,0.109375
-0.0107732,0.515625,0.140625
0.0405011,0.515625,0.171875
0.0288053,0.515625,0.203125
0.0580845,0.515625,0.234375
0.0597987,0.515625,0.265625
0.102533,0.515625,0.296875
0.0420113,0.515625,0.328125
0.0983744,0.515625,0.359375
0.201071,0.515625,0.390625
0.209441,0.515625,0.421875
0.242018,0.515625,0.453125
0.0790682,0.515625,0.484375
0.20533,0.515625,0.515625
0.25799,0.515625,0.546875
0.188715,0.515625,0.578125
0.0982132,0.515625,0.609375
0.0993366,0.515625,0.640625
-0.0769291,0.515625,0.671875
-0.171047,0.515625,0.703125
-0.336767,0.515625,0.734375
-0.521347,0.515625,0.765625
-0.456549,0.515625,0.796875
-1.00897,0.515625,0.828125
-1.22539,0.515625,0.859375
-1.22861,0.515625,0.890625
-1.16704,0.515625,0.921875
-0.661013,0.515625,0.953125
-0.882737,0.515625,0.984375
-0.468788,0.515625,1.01563
-0.208584,0.515625,1.04688
0.02631,0.515625,1.07813
0.534319,0.515625,1.10938
0.615683,0.515625,1.14063
0.602745,0.515625,1.17188
0.812351,0.515625,1.20313
0.702007,0.515625,1.23438
0.602804,0.515625,1.26563
0.507988,0.515625,1.29688
0.426886,0.515625,1.32813
0.389158,0.515625,1.35938
0.335621,0.515625,1.39063
0.272997,0.515625,1.42188
0.326464,0.515625,1.45313
0.262909,0.515625,1.48438
0.0507603,0.515625,1.51563
0.053422,0.515625,1.54688
0.0339699,0.515625,1.57813
0.030386,0.515625,1.60938
0.0977612,0.515625,1.64063
0.0963516,0.515625,1.67188
0.0555182,0.515625,1.70313
-0.0659304,0.515625,1.73438
0.036396,0.515625,1.76563
0.0908895,0.515625,1.79688
0.19037,0.515625,1.82813
-3.65351,0.515625,1.85938
-7.05998,0.515625,1.89063
0,0.546875,0.015625
-0.291166,0.546875,0.046875
-0.192095,0.546875,0.078125
0.0449913,0.546875,0.109375
0.0412292,0.546875,0.140625
-0.00573969,0.546875,0.171875
0.0397658,0.546875,0.203125
0.05756,0.546875,0.234375
0.0837059,0.546875,0.265625
0.153978,0.546875,0.296875
0.120897,0.546875,0.328125
0.14929,0.546875,0.359375
0.150193,0.546875,0.390625
0.28476,0.546875,0.421875
0.139298,0.546875,0.453125
0.171486,0.546875,0.484375
0.392393,0.546875,0.515625
0.362093,0.546875,0.546875
0.21463,0.546875,0.578125
0.254818,0.546875,0.609375
0.233025,0.546875,0.640625
-0.00252724,0.546875,0.671875
-0.170116,0.546875,0.703125
-0.41292,0.546875,0.734375
-0.615503,0.546875,0.765625
-0.687222,0.546875,0.796875
-1.13625,0.546875,0.828125
-1.24482,0.546875,0.859375
-1.19287,0.546875,0.890625
-1.24683,0.546875,0.921875
-1.36328,0.546875,0.953125
-1.45545,0.546875,0.984375
-0.82263,0.546875,1.01563
-0.00239944,0.546875,1.04688
0.221988,0.546875,1.07813
0.667891,0.546875,1.10938
1.1041,0.546875,1.14063
1.05702,0.546875,1.17188
0.993748,0.546875,1.20313
0.778963,0.546875,1.23438
0.773487,0.546875,1.26563
0.732309,0.546875,1.29688
0.574949,0.546875,1.32813
0.534275,0.546875,1.35938
0.331125,0.546875,1.39063
0.194365,0.546875,1.42188
0.262634,0.546875,1.45313
0.136829,0.546875,1.48438
-0.0042305,0.546875,1.51563
0.0952435,0.546875,1.54688
0.124028,0.546875,1.57813
0.0810118,0.546875,1.60938
0.0476179,0.546875,1.64063
0.0131836,0.546875,1.67188
-0.00123692,0.546875,1.70313
0.00369215,0.546875,1.73438
0.043335,0.546875,1.76563
-0.0555887,0.546875,1.79688
-0.0419765,0.546875,1.82813
-3.6505,0.546875,1.85938
-7.03345,0.546875,1.89063
0,0.578125,0.015625
-0.331737,0.578125,0.046875
-0.109667,0.578125,0.078125
0.0598642,0.578125,0.109375
0.0985501,0.578125,0.140625
0.0350351,0.578125,0.171875
0.0341887,0.578125,0.203125
0.0340056,0.578125,0.234375
0.00671721,0.578125,0.265625
0.0604534,0.578125,0.296875
0.125909,0.578125,0.328125
0.209215,0.578125,0.359375
0.276895,0.578125,0.390625
0.19226,0.578125,0.421875
0.176576,0.578125,0.453125
0.402004,0.578125,0.484375
0.401876,0.578125,0.515625
0.469614,0.578125,0.546875
0.318058,0.578125,0.578125
0.342556,0.578125,0.609375
0.340303,0.578125,0.640625
0.173235,0.578125,0.671875
-0.00854301,0.578125,0.703125
-0.211761,0.578125,0.734375
-0.336374,0.578125,0.765625
-1.03211,0.578125,0.796875
-1.51369,0.578125,0.828125
-1.74448,0.578125,0.859375
-1.98464,0.578125,0.890625
-2.13708,0.578125,0.921875
-2.14782,0.578125,0.953125
-1.49233,0.578125,0.984375
-0.585497,0.578125,1.01563
0.171062,0.578125,1.04688
0.357798,0.578125,1.07813
0.764711,0.578125,1.10938
1.24184,0.578125,1.14063
1.33274,0.578125,1.17188
1.09409,0.578125,1.20313
0.997013,0.578125,1.23438
1.0157,0.578125,1.26563
0.845516,0.578125,1.29688
0.593594,0.578125,1.32813
0.446711,0.578125,1.35938
0.401764,0.578125,1.39063
0.468519,0.578125,1.42188
0.223991,0.578125,1.45313
0.00153542,0.578125,1.48438
0.0883121,0.578125,1.51563
0.152347,0.578125,1.54688
0.0718737,0.578125,1.57813
-0.075573,0.578125,1.60938
-0.112776,0.578125,1.64063
0.02563,0.578125,1.67188
-0.0148897,0.578125,1.70313
0.0271215,0.578125,1.73438
-0.109091,0.578125,1.76563
-0.0745316,0.578125,1.79688
0.0362606,0.578125,1.82813
-3.79231,0.578125,1.85938
-6.90505,0.578125,1.89063
0,0.609375,0.015625
-0.266665,0.609375,0.046875
-0.0888585,0.609375,0.078125
0.077345,0.609375,0.109375
0.0386918,0.609375,0.140625
-0.00730181,0.609375,0.171875
0.0539775,0.609375,0.203125
0.0665102,0.609375,0.234375
0.0978441,0.609375,0.265625
0.115408,0.609375,0.296875
0.125027,0.609375,0.328125
0.142733,0.609375,0.359375
0.224417,0.609375,0.390625
0.228569,0.609375,0.421875
0.502318,0.609375,0.453125
0.362795,0.609375,0.484375
0.387632,0.609375,0.515625
0.560478,0.609375,0.546875
0.400047,0.609375,0.578125
0.535046,0.609375,0.609375
0.729654,0.609375,0.640625
0.458632,0.609375,0.671875
0.262991,0.609375,0.703125
0.113384,0.609375,0.734375
-0.306385,0.609375,0.765625
-1.05514,0.609375,0.796875
-1.55035,0.609375,0.828125
-2.0133,0.609375,0.859375
-2.88723,0.609375,0.890625
-2.88384,0.609375,0.921875
-2.42548,0.609375,0.953125
-0.859779,0.609375,0.984375
-0.830998,0.609375,1.01563
-0.901236,0.609375,1.04688
0.182829,0.609375,1.07813
1.44189,0.609375,1.10938
1.9804,0.609375,1.14063
2.22544,0.609375,1.17188
1.90216,0.609375,1.20313
1.62597,0.609375,1.23438
1.40421,0.609375,1.26563
0.814032,0.609375,1.29688
0.46945,0.609375,1.32813
0.306755,0.609375,1.35938
0.383816,0.609375,1.39063
0.101271,0.609375,1.42188
0.0107517,0.609375,1.45313
0.14909,0.609375,1.48438
0.0544701,0.609375,1.51563
0.0418835,0.609375,1.54688
-0.00613308,0.609375,1.57813
-0.134703,0.609375,1.60938
-0.0929918,0.609375,1.64063
0.119125,0.609375,1.67188
-0.0594969,0.609375,1.70313
-0.0741444,0.609375,1.73438
-0.0929794,0.609375,1.76563
-0.0213943,0.609375,1.79688
-0.0610819,0.609375,1.82813
-4.04371,0.609375,1.85938
-7.29959,0.609375,1.89063
0,0.640625,0.015625
-0.381964,0.640625,0.046875
-0.15491,0.640625,0.078125
0.0307863,0.640625,0.109375
-0.00159097,0.640625,0.140625
0.00658488,0.640625,0.171875
0.0506039,0.640625,0.203125
0.0089674,0.640625,0.234375
0.111062,0.640625,0.265625
0.155962,0.640625,0.296875
0.217534,0.640625,0.328125
0.333407,0.640625,0.359375
0.209124,0.640625,0.390625
0.301421,0.640625,0.421875
0.382055,0.640625,0.453125
0.272808,0.640625,0.484375
0.495544,0.640625,0.515625
0.49505,0.640625,0.546875
0.694826,0.640625,0.578125
0.925125,0.640625,0.609375
0.899326,0.640625,0.640625
0.887726,0.640625,0.671875
0.635315,0.640625,0.703125
0.561043,0.640625,0.734375
0.276428,0.640625,0.765625
-0.483566,0.640625,0.796875
-1.51328,0.640625,0.828125
-3.13185,0.640625,0.859375
-4.51032,0.640625,0.890625
-3.6878,0.640625,0.921875
-2.22386,0.640625,0.953125
-1.47127,0.640625,0.984375
-2.14702,0.640625,1.01563
-0.275934,0.640625,1.04688
1.32767,0.640625,1.07813
2.77087,0.640625,1.10938
3.25591,0.640625,1.14063
2.53559,0.640625,1.17188
1.97241,0.640625,1.20313
1.82648,0.640625,1.23438
1.44864,0.640625,1.26563
0.887775,0.640625,1.29688
0.674213,0.640625,1.32813
0.623405,0.640625,1.35938
0.303576,0.640625,1.39063
-0.0765171,0.640625,1.42188
0.0608292,0.640625,1.45313
-0.0875759,0.640625,1.48438
0.0137081,0.640625,1.51563
-0.132942,0.640625,1.54688
-0.0798922,0.640625,1.57813
-0.0046854,0.640625,1.60938
0.0110283,0.640625,1.64063
-0.104894,0.640625,1.67188
-0.0668335,0.640625,1.70313
-0.118338,0.640625,1.73438
-0.0957832,0.640625,1.76563
-0.0949268,0.640625,1.79688
0.0174656,0.640625,1.82813
-3.95021,0.640625,1.85938
-7.63778,0.640625,1.89063
0,0.671875,0.015625
-0.335753,0.671875,0.046875
-0.166387,0.671875,0.078125
-0.0441947,0.671875,0.109375
-0.0483761,0.671875,0.140625
0.0567088,0.671875,0.171875
0.0921917,0.671875,0.203125
0.0520983,0.671875,0.234375
0.057241,0.671875,0.265625
0.0945616,0.671875,0.296875
0.183153,0.671875,0.328125
0.210308,0.671875,0.359375
0.149421,0.671875,0.390625
0.36121,0.671875,0.421875
0.443918,0.671875,0.453125
0.47879,0.671875,0.484375
0.444565,0.671875,0.515625
0.885925,0.671875,0.546875
0.999912,0.671875,0.578125
1.03776,0.671875,0.609375
1.27986,0.671875,0.640625
1.1844,0.671875,0.671875
1.04899,0.671875,0.703125
0.816353,0.671875,0.734375
0.61969,0.671875,0.765625
0.147842,0.671875,0.796875
-1.04005,0.671875,0.828125
-6.1256,0.671875,0.859375
-11.023,0.671875,0.890625
-8.11186,0.671875,0.921875
-4.38049,0.671875,0.953125
-2.23765,0.671875,0.984375
2.98031,0.671875,1.01563
5.83269,0.671875,1.04688
8.59599,0.671875,1.07813
9.2916,0.671875,1.10938
3.20045,0.671875,1.14063
2.5773,0.671875,1.17188
2.24872,0.671875,1.20313
1.56403,0.671875,1.23438
1.04207,0.671875,1.26563
0.766083,0.671875,1.29688
0.493351,0.671875,1.32813
0.41,0.671875,1.35938
0.0655727,0.671875,1.39063
0.0293961,0.671875,1.42188
0.100651,0.671875,1.45313
-0.127199,0.671875,1.48438
0.0154896,0.671875,1.51563
-0.197916,0.671875,1.54688
-0.0907974,0.671875,1.57813
-0.194603,0.671875,1.60938
-0.0973291,0.671875,1.64063
-0.0847197,0.671875,1.67188
-0.0436354,0.671875,1.70313
-0.0788045,0.671875,1.73438
-0.00672436,0.671875,1.76563
-0.0226932,0.671875,1.79688
0.122599,0.671875,1.82813
-3.8294,0.671875,1.85938
-7.52199,0.671875,1.89063
0,0.703125,0.015625
-0.408111,0.703125,0.046875
-0.132313,0.703125,0.078125
-0.0558469,0.703125,0.109375
-0.0552092,0.703125,0.140625
0.079778,0.703125,0.171875
0.0574045,0.703125,0.203125
0.0473256,0.703125,0.234375
0.0448699,0.703125,0.265625
0.134274,0.703125,0.296875
0.171612,0.703125,0.328125
0.211188,0.703125,0.359375
0.327603,0.703125,0.390625
0.329709,0.703125,0.421875
0.568061,0.703125,0.453125
0.615391,0.703125,0.484375
0.727308,0.703125,0.515625
1.01193,0.703125,0.546875
1.15077,0.703125,0.578125
1.2418,0.703125,0.609375
1.65867,0.703125,0.640625
1.64635,0.703125,0.671875
1.63313,0.703125,0.703125
1.48221,0.703125,0.734375
2.03587,0.703125,0.765625
2.07854,0.703125,0.796875
-0.903309,0.703125,0.828125
2.54608,0.703125,0.859375
68.3793,0.703125,0.890625
49.6006,0.703125,0.921875
24.6748,0.703125,0.953125
3.04703,0.703125,0.984375
-21.8239,0.703125,1.01563
-46.7659,0.703125,1.04688
-67.443,0.703125,1.07813
-75.9383,0.703125,1.10938
6.88924,0.703125,1.14063
2.98679,0.703125,1.17188
2.66298,0.703125,1.20313
1.64034,0.703125,1.23438
1.00963,0.703125,1.26563
0.388088,0.703125,1.29688
0.552509,0.703125,1.32813
0.114674,0.703125,1.35938
-0.226448,0.703125,1.39063
-0.0868187,0.703125,1.42188
-0.322275,0.703125,1.45313
-0.280684,0.703125,1.48438
-0.276865,0.703125,1.51563
-0.22356,0.703125,1.54688
-0.157815,0.703125,1.57813
-0.0478888,0.703125,1.60938
-0.103771,0.703125,1.64063
-0.104133,0.703125,1.67188
-0.152155,0.703125,1.70313
-0.113242,0.703125,1.73438
-0.091238,0.703125,1.76563
-0.0176325,0.703125,1.79688
0.100699,0.703125,1.82813
-3.94373,0.703125,1.85938
-7.5696,0.703125,1.89063
0,0.734375,0.015625
-0.352069,0.734375,0.046875
-0.172512,0.734375,0.078125
-0.117383,0.734375,0.109375
0.00678325,0.734375,0.140625
0.0660515,0.734375,0.171875
0.0207152,0.734375,0.203125
0.0587759,0.734375,0.234375
0.0788093,0.734375,0.265625
0.0304742,0.734375,0.296875
0.145624,0.734375,0.328125
0.361132,0.734375,0.359375
0.438867,0.734375,0.390625
0.319856,0.734375,0.421875
0.331872,0.734375,0.453125
0.570698,0.734375,0.484375
1.15434,0.734375,0.515625
0.979761,0.734375,0.546875
1.40289,0.734375,0.578125
1.64369,0.734375,0.609375
1.76166,0.734375,0.640625
2.58633,0.734375,0.671875
2.50793,0.734375,0.703125
2.72277,0.734375,0.734375
3.81203,0.734375,0.765625
-1.64843,0.734375,0.796875
6.07549,0.734375,0.828125
100.718,0.734375,0.859375
13.5765,0.734375,0.890625
5.08408,0.734375,0.921875
3.35921,0.734375,0.953125
-3.51427,0.734375,0.984375
-8.55361,0.734375,1.01563
-16.8989,0.734375,1.04688
-27.321,0.734375,1.07813
-11.4492,0.734375,1.10938
-90.7861,0.734375,1.14063
4.23325,0.734375,1.17188
1.88201,0.734375,1.20313
1.29536,0.734375,1.23438
1.02682,0.734375,1.26563
0.573868,0.734375,1.29688
0.0201187,0.734375,1.32813
-0.301311,0.734375,1.35938
-0.280609,0.734375,1.39063
-0.435207,0.734375,1.42188
-0.548365,0.734375,1.45313
-0.272432,0.734375,1.48438
-0.322767,0.734375,1.51563
-0.10278,0.734375,1.54688
-0.18771,0.734375,1.57813
-0.198933,0.734375,1.60938
-0.307063,0.734375,1.64063
-0.211296,0.734375,1.67188
-0.202773,0.734375,1.70313
-0.178434,0.734375,1.73438
-0.0720606,0.734375,1.76563
-0.0903616,0.734375,1.79688
-0.0437658,0.734375,1.82813
-3.95381,0.734375,1.85938
-7.32327,0.734375,1.89063
0,0.765625,0.015625
-0.312722,0.765625,0.046875
-0.142987,0.765625,0.078125
-0.0862859,0.765625,0.109375
0.0111995,0.765625,0.140625
0.00331521,0.765625,0.171875
0.0564499,0.765625,0.203125
-0.0036788,0.765625,0.234375
0.0368385,0.765625,0.265625
0.0673919,0.765625,0.296875
0.10415,0.765625,0.328125
0.153894,0.765625,0.359375
0.0354242,0.765625,0.390625
0.140802,0.765625,0.421875
0.425191,0.765625,0.453125
1.00733,0.765625,0.484375
0.952393,0.765625,0.515625
1.06219,0.765625,0.546875
1.82187,0.765625,0.578125
2.00612,0.765625,0.609375
2.08283,0.765625,0.640625
2.94287,0.765625,0.671875
3.44313,0.765625,0.703125
3.68705,0.765625,0.734375
-0.504845,0.765625,0.765625
3.41466,0.765625,0.796875
152.776,0.765625,0.828125
0,0.765625,0.859375
0,0.765625,0.890625
0,0.765625,0.921875
0,0.765625,0.953125
0,0.765625,0.984375
0,0.765625,1.01563
0,0.765625,1.04688
-36.2141,0.765625,1.07813
-39.8573,0.765625,1.10938
-10.8874,0.765625,1.14063
-98.7916,0.765625,1.17188
3.9091,0.765625,1.20313
0.754639,0.765625,1.23438
0.0260315,0.765625,1.26563
-0.66626,0.765625,1.29688
-0.700794,0.765625,1.32813
-0.579048,0.765625,1.35938
-0.491798,0.765625,1.39063
-0.658367,0.765625,1.42188
-0.439453,0.765625,1.45313
-0.580399,0.765625,1.48438
-0.465483,0.765625,1.51563
-0.310998,0.765625,1.54688
-0.368392,0.765625,1.57813
-0.260778,0.765625,1.60938
-0.2616,0.765625,1.64063
-0.213668,0.765625,1.67188
-0.140565,0.765625,1.70313
-0.164297,0.765625,1.73438
-0.157198,0.765625,1.76563
-0.136865,0.765625,1.79688
-0.0697131,0.765625,1.82813
-3.96352,0.765625,1.85938
-7.72399,0.765625,1.89063
0,0.796875,0.015625
-0.304387,0.796875,0.046875
-0.200211,0.796875,0.078125
-0.0635964,0.796875,0.109375
-0.0556784,0.796875,0.140625
-0.0472581,0.796875,0.171875
-0.042434,0.796875,0.203125
-0.0312257,0.796875,0.234375
0.0806675,0.796875,0.265625
0.108747,0.796875,0.296875
0.131631,0.796875,0.328125
0.133662,0.796875,0.359375
0.133371,0.796875,0.390625
0.36944,0.796875,0.421875
0.532746,0.796875,0.453125
0.570863,0.796875,0.484375
0.329432,0.796875,0.515625
1.18922,0.796875,0.546875
1.5244,0.796875,0.578125
2.44283,0.796875,0.609375
3.2557,0.796875,0.640625
4.64907,0.796875,0.671875
5.21125,0.796875,0.703125
-0.869488,0.796875,0.734375
2.67858,0.796875,0.765625
178.205,0.796875,0.796875
0,0.796875,0.828125
0,0.796875,0.859375
0,0.796875,0.890625
0,0.796875,0.921875
0,0.796875,0.953125
0,0.796875,0.984375
0,0.796875,1.01563
0,0.796875,1.04688
0,0.796875,1.07813
-50.7912,0.796875,1.10938
-46.3768,0.796875,1.14063
-11.2598,0.796875,1.17188
-96.5794,0.796875,1.20313
-0.526726,0.796875,1.23438
-1.44843,0.796875,1.26563
-1.88273,0.796875,1.29688
-1.34007,0.796875,1.32813
-1.25614,0.796875,1.35938
-0.839714,0.796875,1.39063
-0.839527,0.796875,1.42188
-0.477423,0.796875,1.45313
-0.653988,0.796875,1.48438
-0.393265,0.796875,1.51563
-0.361364,0.796875,1.54688
-0.461171,0.796875,1.57813
-0.317675,0.796875,1.60938
-0.267815,0.796875,1.64063
-0.199157,0.796875,1.67188
-0.116475,0.796875,1.70313
-0.110933,0.796875,1.73438
-0.195961,0.796875,1.76563
-0.122723,0.796875,1.79688
-0.0874739,0.796875,1.82813
-4.00123,0.796875,1.85938
-7.75095,0.796875,1.89063
0,0.828125,0.015625
-0.40533,0.828125,0.046875
-0.157449,0.828125,0.078125
-0.0342481,0.828125,0.109375
-0.0262594,0.828125,0.140625
-0.0363679,0.828125,0.171875
-0.1013,0.828125,0.203125
-0.0740452,0.828125,0.234375
-0.00447226,0.828125,0.265625
0.0217328,0.828125,0.296875
0.0400996,0.828125,0.328125
-0.022171,0.828125,0.359375
0.169784,0.828125,0.390625
0.448521,0.828125,0.421875
0.446009,0.828125,0.453125
0.223269,0.828125,0.484375
0.564908,0.828125,0.515625
1.2864,0.828125,0.546875
1.56653,0.828125,0.578125
2.73289,0.828125,0.609375
3.92635,0.828125,0.640625
6.99666,0.828125,0.671875
5.68266,0.828125,0.703125
7.37024,0.828125,0.734375
203.654,0.828125,0.765625
0,0.828125,0.796875
0,0.828125,0.828125
0,0.828125,0.859375
0,0.828125,0.890625
0,0.828125,0.921875
0,0.828125,0.953125
0,0.828125,0.984375
0,0.828125,1.01563
0,0.828125,1.04688
0,0.828125,1.07813
0,0.828125,1.10938
-65.6338,0.828125,1.14063
-58.436,0.828125,1.17188
-4.38,0.828125,1.20313
-16.2312,0.828125,1.23438
-5.20214,0.828125,1.26563
-2.51857,0.828125,1.29688
-2.53059,0.828125,1.32813
-1.2447,0.828125,1.35938
-1.22795,0.828125,1.39063
-1.2519,0.828125,1.42188
-1.07677,0.828125,1.45313
-0.695581,0.828125,1.48438
-0.556072,0.828125,1.51563
-0.356833,0.828125,1.54688
-0.250564,0.828125,1.57813
-0.283536,0.828125,1.60938
-0.157806,0.828125,1.64063
-0.257455,0.828125,1.67188
-0.195972,0.828125,1.70313
-0.166933,0.828125,1.73438
-0.182531,0.828125,1.76563
-0.135874,0.828125,1.79688
-0.0899918,0.828125,1.82813
-4.11586,0.828125,1.85938
-8.05017,0.828125,1.89063
0,0.859375,0.015625
-0.428737,0.859375,0.046875
-0.180908,0.859375,0.078125
-0.0387514,0.859375,0.109375
-0.0696008,0.859375,0.140625
-0.0853463,0.859375,0.171875
-0.0554624,0.859375,0.203125
-0.0382915,0.859375,0.234375
-0.0425029,0.859375,0.265625
-0.0593281,0.859375,0.296875
0.00353527,0.859375,0.328125
-0.091342,0.859375,0.359375
0.0545588,0.859375,0.390625
0.0481319,0.859375,0.421875
-0.0232925,0.859375,0.453125
-0.00308037,0.859375,0.484375
0.572373,0.859375,0.515625
0.687885,0.859375,0.546875
0.975021,0.859375,0.578125
2.15307,0.859375,0.609375
3.94794,0.859375,0.640625
5.28377,0.859375,0.671875
12.1323,0.859375,0.703125
168.061,0.859375,0.734375
0,0.859375,0.765625
0,0.859375,0.796875
0,0.859375,0.828125
0,0.859375,0.859375
0,0.859375,0.890625
0,0.859375,0.921875
0,0.859375,0.953125
0,0.859375,0.984375
0,0.859375,1.01563
0,0.859375,1.04688
0,0.859375,1.07813
0,0.859375,1.10938
0,0.859375,1.14063
-101.524,0.859375,1.17188
-40.8715,0.859375,1.20313
-59.9435,0.859375,1.23438
2.17338,0.859375,1.26563
-1.82661,0.859375,1.29688
-2.10282,0.859375,1.32813
-1.57988,0.859375,1.35938
-1.96474,0.859375,1.39063
-1.33966,0.859375,1.42188
-0.873657,0.859375,1.45313
-0.545976,0.859375,1.48438
-0.493921,0.859375,1.51563
-0.470172,0.859375,1.54688
-0.4584,0.859375,1.57813
-0.408116,0.859375,1.60938
-0.285915,0.859375,1.64063
-0.362118,0.859375,1.67188
-0.236238,0.859375,1.70313
-0.172182,0.859375,1.73438
-0.182525,0.859375,1.76563
-0.141425,0.859375,1.79688
-0.00307059,0.859375,1.82813
-4.31035,0.859375,1.85938
-8.34577,0.859375,1.89063
0,0.890625,0.015625
-0.399376,0.890625,0.046875
-0.162201,0.890625,0.078125
-0.062315,0.890625,0.109375
-0.12136,0.890625,0.140625
-0.0794927,0.890625,0.171875
-0.0450193,0.890625,0.203125
-0.104635,0.890625,0.234375
-0.0926514,0.890625,0.265625
0.0061481,0.890625,0.296875
-0.0312419,0.890625,0.328125
-0.0745378,0.890625,0.359375
0.0609732,0.890625,0.390625
0.074666,0.890625,0.421875
0.00833178,0.890625,0.453125
-0.0231895,0.890625,0.484375
0.263155,0.890625,0.515625
0.258307,0.890625,0.546875
0.49082,0.890625,0.578125
1.57458,0.890625,0.609375
2.28662,0.890625,0.640625
-1.05916,0.890625,0.671875
175.265,0.890625,0.703125
22.1943,0.890625,0.734375
0,0.890625,0.765625
0,0.890625,0.796875
0,0.890625,0.828125
0,0.890625,0.859375
0,0.890625,0.890625
0,0.890625,0.921875
0,0.890625,0.953125
0,0.890625,0.984375
0,0.890625,1.01563
0,0.890625,1.04688
0,0.890625,1.07813
0,0.890625,1.10938
0,0.890625,1.14063
-67.8602,0.890625,1.17188
-77.7378,0.890625,1.20313
-6.46709,0.890625,1.23438
-22.348,0.890625,1.26563
-8.30258,0.890625,1.29688
-4.61086,0.890625,1.32813
-3.50119,0.890625,1.35938
-2.34698,0.890625,1.39063
-1.2716,0.890625,1.42188
-0.940464,0.890625,1.45313
-0.965503,0.890625,1.48438
-0.951517,0.890625,1.51563
-0.810725,0.890625,1.54688
-0.452615,0.890625,1.57813
-0.358102,0.890625,1.60938
-0.250284,0.890625,1.64063
-0.194125,0.890625,1.67188
-0.186045,0.890625,1.70313
-0.159241,0.890625,1.73438
-0.184654,0.890625,1.76563
-0.14466,0.890625,1.79688
-0.039493,0.890625,1.82813
-4.25093,0.890625,1.85938
-8.4074,0.890625,1.89063
0,0.921875,0.015625
-0.265851,0.921875,0.046875
-0.174316,0.921875,0.078125
-0.125041,0.921875,0.109375
-0.087484,0.921875,0.140625
-0.0596046,0.921875,0.171875
-0.118809,0.921875,0.203125
-0.159114,0.921875,0.234375
-0.0968468,0.921875,0.265625
-0.109722,0.921875,0.296875
-0.164455,0.921875,0.328125
-0.0956335,0.921875,0.359375
-0.0405297,0.921875,0.390625
-0.0731866,0.921875,0.421875
-0.200094,0.921875,0.453125
0.019639,0.921875,0.484375
0.141084,0.921875,0.515625
-0.354672,0.921875,0.546875
0.282537,0.921875,0.578125
0.910459,0.921875,0.609375
0.0949211,0.921875,0.640625
3.28914,0.921875,0.671875
183.998,0.921875,0.703125
13.3794,0.921875,0.734375
0,0.921875,0.765625
0,0.921875,0.796875
0,0.921875,0.828125
0,0.921875,0.859375
0,0.921875,0.890625
0,0.921875,0.921875
0,0.921875,0.953125
0,0.921875,0.984375
0,0.921875,1.01563
0,0.921875,1.04688
0,0.921875,1.07813
0,0.921875,1.10938
0,0.921875,1.14063
0,0.921875,1.17188
-112.633,0.921875,1.20313
-55.1087,0.921875,1.23438
-7.5566,0.921875,1.26563
-6.82693,0.921875,1.29688
-4.85148,0.921875,1.32813
-2.95256,0.921875,1.35938
-1.58748,0.921875,1.39063
-1.5789,0.921875,1.42188
-1.58727,0.921875,1.45313
-1.32151,0.921875,1.48438
-0.964746,0.921875,1.51563
-0.460033,0.921875,1.54688
-0.280733,0.921875,1.57813
-0.280149,0.921875,1.60938
-0.248992,0.921875,1.64063
-0.283119,0.921875,1.67188
-0.271026,0.921875,1.70313
-0.152682,0.921875,1.73438
-0.116593,0.921875,1.76563
-0.164553,0.921875,1.79688
-0.0243306,0.921875,1.82813
-4.1928,0.921875,1.85938
-8.74066,0.921875,1.89063
0,0.953125,0.015625
-0.346621,0.953125,0.046875
-0.166515,0.953125,0.078125
-0.0967991,0.953125,0.109375
-0.10578,0.953125,0.140625
-0.131586,0.953125,0.171875
-0.144322,0.953125,0.203125
-0.134195,0.953125,0.234375
-0.141806,0.953125,0.265625
-0.288162,0.953125,0.296875
-0.209544,0.953125,0.328125
-0.190853,0.953125,0.359375
-0.220881,0.953125,0.390625
-0.172516,0.953125,0.421875
-0.481968,0.953125,0.453125
-0.314617,0.953125,0.484375
-0.300683,0.953125,0.515625
-0.601808,0.953125,0.546875
0.0337715,0.953125,0.578125
-0.0858068,0.953125,0.609375
-0.679199,0.953125,0.640625
10.9474,0.953125,0.671875
168.088,0.953125,0.703125
8.43101,0.953125,0.734375
0,0.953125,0.765625
0,0.953125,0.796875
0,0.953125,0.828125
0,0.953125,0.859375
0,0.953125,0.890625
0,0.953125,0.921875
0,0.953125,0.953125
0,0.953125,0.984375
0,0.953125,1.01563
0,0.953125,1.04688
0,0.953125,1.07813
0,0.953125,1.10938
0,0.953125,1.14063
0,0.953125,1.17188
-98.6011,0.953125,1.20313
-71.8024,0.953125,1.23438
-9.60268,0.953125,1.26563
-7.72658,0.953125,1.29688
-3.789,0.953125,1.32813
-2.28146,0.953125,1.35938
-1.78172,0.953125,1.39063
-1.54942,0.953125,1.42188
-1.18211,0.953125,1.45313
-0.829268,0.953125,1.48438
-0.566747,0.953125,1.51563
-0.377319,0.953125,1.54688
-0.313837,0.953125,1.57813
-0.368928,0.953125,1.60938
-0.38464,0.953125,1.64063
-0.217434,0.953125,1.67188
-0.179144,0.953125,1.70313
-0.139143,0.953125,1.73438
-0.118134,0.953125,1.76563
-0.128634,0.953125,1.79688
-0.0250108,0.953125,1.82813
-4.20702,0.953125,1.85938
-8.54593,0.953125,1.89063
0,0.984375,0.015625
-0.294617,0.984375,0.046875
-0.156836,0.984375,0.078125
-0.122119,0.984375,0.109375
-0.129032,0.984375,0.140625
-0.146979,0.984375,0.171875
-0.173553,0.984375,0.203125
-0.103988,0.984375,0.234375
-0.140355,0.984375,0.265625
-0.271871,0.984375,0.296875
-0.232727,0.984375,0.328125
-0.168907,0.984375,0.359375
-0.206483,0.984375,0.390625
-0.247434,0.984375,0.421875
-0.57878,0.984375,0.453125
-0.296839,0.984375,0.484375
-0.579172,0.984375,0.515625
-0.555697,0.984375,0.546875
-0.00865841,0.984375,0.578125
0.56173,0.984375,0.609375
2.16656,0.984375,0.640625
15.7294,0.984375,0.671875
178.484,0.984375,0.703125
15.2199,0.984375,0.734375
0,0.984375,0.765625
0,0.984375,0.796875
0,0.984375,0.828125
0,0.984375,0.859375
0,0.984375,0.890625
0,0.984375,0.921875
0,0.984375,0.953125
0,0.984375,0.984375
0,0.984375,1.01563
0,0.984375,1.04688
0,0.984375,1.07813
0,0.984375,1.10938
0,0.984375,1.14063
0,0.984375,1.17188
-85.6184,0.984375,1.20313
-84.0237,0.984375,1.23438
-12.9582,0.984375,1.26563
-6.1792,0.984375,1.29688
-2.52963,0.984375,1.32813
-2.22627,0.984375,1.35938
-1.33075,0.984375,1.39063
-1.15386,0.984375,1.42188
-0.79907,0.984375,1.45313
-0.579634,0.984375,1.48438
-0.395962,0.984375,1.51563
-0.463217,0.984375,1.54688
-0.324899,0.984375,1.57813
-0.290531,0.984375,1.60938
-0.259583,0.984375,1.64063
-0.180923,0.984375,1.67188
-0.238732,0.984375,1.70313
-0.178685,0.984375,1.73438
-0.137539,0.984375,1.76563
-0.125544,0.984375,1.79688
-0.0853593,0.984375,1.82813
-4.37635,0.984375,1.85938
-8.40304,0.984375,1.89063
0,1.01563,0.015625
-0.302471,1.01563,0.046875
-0.166287,1.01563,0.078125
-0.135752,1.01563,0.109375
-0.112258,1.01563,0.140625
-0.153414,1.01563,0.171875
-0.187641,1.01563,0.203125
-0.14017,1.01563,0.234375
-0.189019,1.01563,0.265625
-0.297952,1.01563,0.296875
-0.231908,1.01563,0.328125
-0.226946,1.01563,0.359375
-0.25202,1.01563,0.390625
-0.351587,1.01563,0.421875
-0.580629,1.01563,0.453125
-0.389362,1.01563,0.484375
-0.707747,1.01563,0.515625
-0.667696,1.01563,0.546875
-0.624021,1.01563,0.578125
-0.209752,1.01563,0.609375
-0.229899,1.01563,0.640625
23.7562,1.01563,0.671875
171.051,1.01563,0.703125
16.2856,1.01563,0.734375
0,1.01563,0.765625
0,1.01563,0.796875
0,1.01563,0.828125
0,1.01563,0.859375
0,1.01563,0.890625
0,1.01563,0.921875
0,1.01563,0.953125
0,1.01563,0.984375
0,1.01563,1.01563
0,1.01563,1.04688
0,1.01563,1.07813
0,1.01563,1.10938
0,1.01563,1.14063
0,1.01563,1.17188
-79.8435,1.01563,1.20313
-92.9389,1.01563,1.23438
-24.0509,1.01563,1.26563
-3.95434,1.01563,1.29688
-1.81335,1.01563,1.32813
-1.54236,1.01563,1.35938
-0.797469,1.01563,1.39063
-0.711858,1.01563,1.42188
-0.474678,1.01563,1.45313
-0.526331,1.01563,1.48438
-0.388385,1.01563,1.51563
-0.389878,1.01563,1.54688
-0.262138,1.01563,1.57813
-0.192077,1.01563,1.60938
-0.226446,1.01563,1.64063
-0.229199,1.01563,1.67188
-0.224359,1.01563,1.70313
-0.132346,1.01563,1.73438
-0.0865499,1.01563,1.76563
-0.0962889,1.01563,1.79688
-0.015123,1.01563,1.82813
-4.56736,1.01563,1.85938
-8.30355,1.01563,1.89063
0,1.04688,0.015625
-0.274047,1.04688,0.046875
-0.155252,1.04688,0.078125
-0.139678,1.04688,0.109375
-0.121838,1.04688,0.140625
-0.138993,1.04688,0.171875
-0.202317,1.04688,0.203125
-0.179894,1.04688,0.234375
-0.162346,1.04688,0.265625
-0.253917,1.04688,0.296875
-0.276454,1.04688,0.328125
-0.354515,1.04688,0.359375
-0.362844,1.04688,0.390625
-0.405752,1.04688,0.421875
-0.459212,1.04688,0.453125
-0.564228,1.04688,0.484375
-0.760108,1.04688,0.515625
-1.01153,1.04688,0.546875
-0.935453,1.04688,0.578125
-0.806379,1.04688,0.609375
-1.47996,1.04688,0.640625
21.9872,1.04688,0.671875
167.551,1.04688,0.703125
17.8931,1.04688,0.734375
11.8795,1.04688,0.765625
0,1.04688,0.796875
0,1.04688,0.828125
0,1.04688,0.859375
0,1.04688,0.890625
0,1.04688,0.921875
0,1.04688,0.953125
0,1.04688,0.984375
0,1.04688,1.01563
0,1.04688,1.04688
0,1.04688,1.07813
0,1.04688,1.10938
0,1.04688,1.14063
0,1.04688,1.17188
-80.9978,1.04688,1.20313
-113.539,1.04688,1.23438
-1.75654,1.04688,1.26563
-2.63144,1.04688,1.29688
-0.663052,1.04688,1.32813
-0.974353,1.04688,1.35938
-0.537076,1.04688,1.39063
-0.311578,1.04688,1.42188
-0.374267,1.04688,1.45313
-0.40067,1.04688,1.48438
-0.203977,1.04688,1.51563
-0.291437,1.04688,1.54688
-0.225525,1.04688,1.57813
-0.146997,1.04688,1.60938
-0.165256,1.04688,1.64063
-0.128126,1.04688,1.67188
-0.104194,1.04688,1.70313
-0.0764447,1.04688,1.73438
-0.10356,1.04688,1.76563
-0.115467,1.04688,1.79688
-0.0266279,1.04688,1.82813
-4.42667,1.04688,1.85938
-7.91264,1.04688,1.89063
0,1.07813,0.015625
-0.235793,1.07813,0.046875
-0.133567,1.07813,0.078125
-0.132198,1.07813,0.109375
-0.129405,1.07813,0.140625
-0.129715,1.07813,0.171875
-0.195348,1.07813,0.203125
-0.219674,1.07813,0.234375
-0.207587,1.07813,0.265625
-0.310539,1.07813,0.296875
-0.335547,1.07813,0.328125
-0.469306,1.07813,0.359375
-0.437805,1.07813,0.390625
-0.447289,1.07813,0.421875
-0.51751,1.07813,0.453125
-0.768938,1.07813,0.484375
-0.710631,1.07813,0.515625
-0.790459,1.07813,0.546875
-0.725552,1.07813,0.578125
-0.632174,1.07813,0.609375
-2.38379,1.07813,0.640625
15.5073,1.07813,0.671875
150.062,1.07813,0.703125
3.48426,1.07813,0.734375
33.6825,1.07813,0.765625
-7.28888,1.07813,0.796875
0,1.07813,0.828125
0,1.07813,0.859375
0,1.07813,0.890625
0,1.07813,0.921875
0,1.07813,0.953125
0,1.07813,0.984375
0,1.07813,1.01563
0,1.07813,1.04688
0,1.07813,1.07813
0,1.07813,1.10938
0,1.07813,1.14063
-34.7562,1.07813,1.17188
-80.9395,1.07813,1.20313
-54.2142,1.07813,1.23438
-7.73538,1.07813,1.26563
0.928417,1.07813,1.29688
0.937212,1.07813,1.32813
-0.321699,1.07813,1.35938
0.0225716,1.07813,1.39063
-0.159048,1.07813,1.42188
-0.321113,1.07813,1.45313
-0.15142,1.07813,1.48438
-0.0376973,1.07813,1.51563
-0.220067,1.07813,1.54688
-0.215603,1.07813,1.57813
-0.125573,1.07813,1.60938
-0.154667,1.07813,1.64063
-0.168343,1.07813,1.67188
-0.134622,1.07813,1.70313
-0.135602,1.07813,1.73438
-0.155215,1.07813,1.76563
-0.168351,1.07813,1.79688
-0.201564,1.07813,1.82813
-4.46812,1.07813,1.85938
-7.60592,1.07813,1.89063
0,1.10938,0.015625
-0.212643,1.10938,0.046875
-0.121783,1.10938,0.078125
-0.141555,1.10938,0.109375
-0.123062,1.10938,0.140625
-0.12017,1.10938,0.171875
-0.180039,1.10938,0.203125
-0.257167,1.10938,0.234375
-0.224199,1.10938,0.265625
-0.272716,1.10938,0.296875
-0.280637,1.10938,0.328125
-0.392972,1.10938,0.359375
-0.434764,1.10938,0.390625
-0.332155,1.10938,0.421875
-0.541152,1.10938,0.453125
-0.710907,1.10938,0.484375
-0.350399,1.10938,0.515625
-0.46751,1.10938,0.546875
-0.530542,1.10938,0.578125
0.510248,1.10938,0.609375
1.68631,1.10938,0.640625
10.0912,1.10938,0.671875
40.5075,1.10938,0.703125
100.066,1.10938,0.734375
1.93778,1.10938,0.765625
38.4363,1.10938,0.796875
-6.15458,1.10938,0.828125
0,1.10938,0.859375
0,1.10938,0.890625
0,1.10938,0.921875
0,1.10938,0.953125
0,1.10938,0.984375
0,1.10938,1.01563
0,1.10938,1.04688
0,1.10938,1.07813
0,1.10938,1.10938
0,1.10938,1.14063
-62.3319,1.10938,1.17188
-80.0582,1.10938,1.20313
-20.7412,1.10938,1.23438
-7.42448,1.10938,1.26563
3.20104,1.10938,1.29688
0.738499,1.10938,1.32813
0.164196,1.10938,1.35938
0.759398,1.10938,1.39063
-0.0385847,1.10938,1.42188
-0.0153046,1.10938,1.45313
0.19642,1.10938,1.48438
0.0984392,1.10938,1.51563
-0.0646758,1.10938,1.54688
-0.0364404,1.10938,1.57813
-0.0282202,1.10938,1.60938
-0.0630546,1.10938,1.64063
-0.118348,1.10938,1.67188
-0.0817561,1.10938,1.70313
-0.110687,1.10938,1.73438
-0.131735,1.10938,1.76563
-0.197333,1.10938,1.79688
-0.311023,1.10938,1.82813
-4.84121,1.10938,1.85938
-8.53444,1.10938,1.89063
0,1.14063,0.015625
-0.208164,1.14063,0.046875
-0.0620827,1.14063,0.078125
-0.105478,1.14063,0.109375
-0.123607,1.14063,0.140625
-0.143223,1.14063,0.171875
-0.147595,1.14063,0.203125
-0.12581,1.14063,0.234375
-0.167712,1.14063,0.265625
-0.24919,1.14063,0.296875
-0.279932,1.14063,0.328125
-0.316318,1.14063,0.359375
-0.301414,1.14063,0.390625
-0.245326,1.14063,0.421875
-0.500436,1.14063,0.453125
-0.382443,1.14063,0.484375
-0.371383,1.14063,0.515625
-0.558483,1.14063,0.546875
-0.228849,1.14063,0.578125
1.08557,1.14063,0.609375
2.9773,1.14063,0.640625
8.92382,1.14063,0.671875
25.4423,1.14063,0.703125
47.404,1.14063,0.734375
58.9677,1.14063,0.765625
2.95984,1.14063,0.796875
21.2912,1.14063,0.828125
-1.33284,1.14063,0.859375
0,1.14063,0.890625
0,1.14063,0.921875
0,1.14063,0.953125
0,1.14063,0.984375
0,1.14063,1.01563
0,1.14063,1.04688
0,1.14063,1.07813
0,1.14063,1.10938
-16.242,1.14063,1.14063
-77.4833,1.14063,1.17188
-38.4527,1.14063,1.20313
-18.1641,1.14063,1.23438
-9.31857,1.14063,1.26563
-1.36435,1.14063,1.29688
-0.388134,1.14063,1.32813
0.286541,1.14063,1.35938
0.402544,1.14063,1.39063
-0.144226,1.14063,1.42188
0.234879,1.14063,1.45313
0.208179,1.14063,1.48438
-0.0843983,1.14063,1.51563
-0.0201063,1.14063,1.54688
0.0176549,1.14063,1.57813
0.000422001,1.14063,1.60938
-0.04988,1.14063,1.64063
-0.0740027,1.14063,1.67188
-0.0440373,1.14063,1.70313
-0.0229888,1.14063,1.73438
-0.0661522,1.14063,1.76563
-0.0645019,1.14063,1.79688
-0.0576867,1.14063,1.82813
-5.00957,1.14063,1.85938
-9.91972,1.14063,1.89063
0,1.17188,0.015625
-0.154919,1.17188,0.046875
-0.053649,1.17188,0.078125
-0.083802,1.17188,0.109375
-0.149811,1.17188,0.140625
-0.138079,1.17188,0.171875
-0.137414,1.17188,0.203125
-0.150335,1.17188,0.234375
-0.218198,1.17188,0.265625
-0.311899,1.17188,0.296875
-0.242136,1.17188,0.328125
-0.266705,1.17188,0.359375
-0.358311,1.17188,0.390625
-0.343446,1.17188,0.421875
-0.351625,1.17188,0.453125
-0.455597,1.17188,0.484375
-0.392029,1.17188,0.515625
-0.250278,1.17188,0.546875
0.319765,1.17188,0.578125
1.33223,1.17188,0.609375
3.62713,1.17188,0.640625
7.15409,1.17188,0.671875
17.5263,1.17188,0.703125
33.4027,1.17188,0.734375
46.5866,1.17188,0.765625
45.2065,1.17188,0.796875
12.5035,1.17188,0.828125
6.32176,1.17188,0.859375
-9.80618,1.17188,0.890625
-18.6433,1.17188,0.921875
-11.1056,1.17188,0.953125
0,1.17188,0.984375
3.26254,1.17188,1.01563
13.2897,1.17188,1.04688
14.0893,1.17188,1.07813
5.98827,1.17188,1.10938
-55.0367,1.17188,1.14063
-56.9233,1.17188,1.17188
-34.217,1.17188,1.20313
-13.3281,1.17188,1.23438
-4.10094,1.17188,1.26563
-1.16972,1.17188,1.29688
-0.43737,1.17188,1.32813
0.24198,1.17188,1.35938
-0.101025,1.17188,1.39063
0.0444355,1.17188,1.42188
0.342707,1.17188,1.45313
0.0635576,1.17188,1.48438
0.113476,1.17188,1.51563
0.106084,1.17188,1.54688
0.000610352,1.17188,1.57813
0.0332847,1.17188,1.60938
-0.0365038,1.17188,1.64063
-0.0787673,1.17188,1.67188
-0.0221777,1.17188,1.70313
-0.0299616,1.17188,1.73438
-0.128099,1.17188,1.76563
-0.074276,1.17188,1.79688
-0.0139085,1.17188,1.82813
-5.42746,1.17188,1.85938
-11.3627,1.17188,1.89063
0,1.20313,0.015625
-0.107139,1.20313,0.046875
-0.0502403,1.20313,0.078125
-0.106019,1.20313,0.109375
-0.114188,1.20313,0.140625
-0.124647,1.20313,0.171875
-0.185323,1.20313,0.203125
-0.154724,1.20313,0.234375
-0.199818,1.20313,0.265625
-0.206305,1.20313,0.296875
-0.102243,1.20313,0.328125
-0.22311,1.20313,0.359375
-0.334298,1.20313,0.390625
-0.274425,1.20313,0.421875
-0.18371,1.20313,0.453125
-0.228135,1.20313,0.484375
-0.117075,1.20313,0.515625
0.116991,1.20313,0.546875
0.337126,1.20313,0.578125
0.755238,1.20313,0.609375
2.77356,1.20313,0.640625
4.29284,1.20313,0.671875
9.64284,1.20313,0.703125
21.67,1.20313,0.734375
37.8577,1.20313,0.765625
46.5655,1.20313,0.796875
31.4396,1.20313,0.828125
18.755,1.20313,0.859375
14.3438,1.20313,0.890625
10.9559,1.20313,0.921875
1.4077,1.20313,0.953125
-3.0085,1.20313,0.984375
2.98483,1.20313,1.01563
-3.39818,1.20313,1.04688
-3.35726,1.20313,1.07813
-40.3596,1.20313,1.10938
-57.0967,1.20313,1.14063
-44.1262,1.20313,1.17188
-23.3509,1.20313,1.20313
-7.88276,1.20313,1.23438
-2.80843,1.20313,1.26563
-1.1929,1.20313,1.29688
0.338139,1.20313,1.32813
0.583342,1.20313,1.35938
0.139393,1.20313,1.39063
0.444969,1.20313,1.42188
0.393887,1.20313,1.45313
0.0264282,1.20313,1.48438
0.243341,1.20313,1.51563
0.201473,1.20313,1.54688
0.143821,1.20313,1.57813
0.0101833,1.20313,1.60938
0.121007,1.20313,1.64063
0.0778122,1.20313,1.67188
0.076376,1.20313,1.70313
0.00914931,1.20313,1.73438
-0.0582798,1.20313,1.76563
-0.0354877,1.20313,1.79688
0.0334747,1.20313,1.82813
-6.19877,1.20313,1.85938
-11.8486,1.20313,1.89063
0,1.23438,0.015625
-0.0679243,1.23438,0.046875
-0.0624626,1.23438,0.078125
-0.127286,1.23438,0.109375
-0.107721,1.23438,0.140625
-0.121698,1.23438,0.171875
-0.1961,1.23438,0.203125
-0.16724,1.23438,0.234375
-0.119208,1.23438,0.265625
-0.0998888,1.23438,0.296875
-0.14857,1.23438,0.328125
-0.295604,1.23438,0.359375
-0.28888,1.23438,0.390625
-0.292265,1.23438,0.421875
-0.265135,1.23438,0.453125
-0.31758,1.23438,0.484375
-0.212311,1.23438,0.515625
0.0947685,1.23438,0.546875
0.424944,1.23438,0.578125
0.995535,1.23438,0.609375
2.02914,1.23438,0.640625
3.13308,1.23438,0.671875
5.32961,1.23438,0.703125
10.0129,1.23438,0.734375
22.206,1.23438,0.765625
32.2396,1.23438,0.796875
34.4634,1.23438,0.828125
32.7089,1.23438,0.859375
28.2125,1.23438,0.890625
18.0593,1.23438,0.921875
19.1828,1.23438,0.953125
6.53762,1.23438,0.984375
-6.88863,1.23438,1.01563
-19.962,1.23438,1.04688
-35.7765,1.23438,1.07813
-51.8575,1.23438,1.10938
-49.0961,1.23438,1.14063
-28.1391,1.23438,1.17188
-11.8269,1.23438,1.20313
-4.16161,1.23438,1.23438
-2.1757,1.23438,1.26563
-0.341724,1.23438,1.29688
0.289028,1.23438,1.32813
0.115505,1.23438,1.35938
0.591507,1.23438,1.39063
0.685673,1.23438,1.42188
0.0342388,1.23438,1.45313
0.158998,1.23438,1.48438
0.287404,1.23438,1.51563
0.0925255,1.23438,1.54688
0.0533161,1.23438,1.57813
0.00528431,1.23438,1.60938
0.102429,1.23438,1.64063
-0.0178761,1.23438,1.67188
0.152854,1.23438,1.70313
0.0500698,1.23438,1.73438
-0.00798655,1.23438,1.76563
-0.0293975,1.23438,1.79688
0.0315394,1.23438,1.82813
-6.39684,1.23438,1.85938
-10.7146,1.23438,1.89063
0,1.26563,0.015625
-0.0728048,1.26563,0.046875
-0.0458921,1.26563,0.078125
-0.0581388,1.26563,0.109375
-0.0515635,1.26563,0.140625
-0.10724,1.26563,0.171875
-0.0786655,1.26563,0.203125
-0.106082,1.26563,0.234375
-0.0352201,1.26563,0.265625
-0.143383,1.26563,0.296875
-0.257276,1.26563,0.328125
-0.174662,1.26563,0.359375
-0.119132,1.26563,0.390625
-0.20695,1.26563,0.421875
-0.265773,1.26563,0.453125
-0.107937,1.26563,0.484375
0.252411,1.26563,0.515625
0.245758,1.26563,0.546875
0.595726,1.26563,0.578125
0.781736,1.26563,0.609375
1.56528,1.26563,0.640625
2.41589,1.26563,0.671875
3.09304,1.26563,0.703125
5.68703,1.26563,0.734375
10.3617,1.26563,0.765625
19.303,1.26563,0.796875
27.0018,1.26563,0.828125
27.3754,1.26563,0.859375
29.3881,1.26563,0.890625
19.4645,1.26563,0.921875
13.4594,1.26563,0.953125
4.29425,1.26563,0.984375
-11.4566,1.26563,1.01563
-25.1598,1.26563,1.04688
-37.2098,1.26563,1.07813
-41.7418,1.26563,1.10938
-28.0587,1.26563,1.14063
-12.5112,1.26563,1.17188
-7.13556,1.26563,1.20313
-2.25986,1.26563,1.23438
-0.674992,1.26563,1.26563
-0.458508,1.26563,1.29688
-0.382198,1.26563,1.32813
0.150904,1.26563,1.35938
0.626455,1.26563,1.39063
0.448925,1.26563,1.42188
0.293415,1.26563,1.45313
0.284533,1.26563,1.48438
0.162883,1.26563,1.51563
0.278753,1.26563,1.54688
0.0415087,1.26563,1.57813
0.10138,1.26563,1.60938
0.122761,1.26563,1.64063
0.0275416,1.26563,1.67188
0.0693493,1.26563,1.70313
-0.0351796,1.26563,1.73438
0.0112109,1.26563,1.76563
-0.0851126,1.26563,1.79688
-0.323358,1.26563,1.82813
-6.2767,1.26563,1.85938
-10.9108,1.26563,1.89063
0,1.29688,0.015625
-0.103657,1.29688,0.046875
0.0553614,1.29688,0.078125
-0.0209547,1.29688,0.109375
-0.0456109,1.29688,0.140625
-0.0574954,1.29688,0.171875
0.00845623,1.29688,0.203125
-0.0175638,1.29688,0.234375
-0.162129,1.29688,0.265625
-0.268302,1.29688,0.296875
-0.125601,1.29688,0.328125
-0.0298309,1.29688,0.359375
-0.171059,1.29688,0.390625
-0.0912333,1.29688,0.421875
-0.0974312,1.29688,0.453125
0.0168114,1.29688,0.484375
0.145401,1.29688,0.515625
0.174603,1.29688,0.546875
0.542068,1.29688,0.578125
0.957592,1.29688,0.609375
1.4607,1.29688,0.640625
1.63015,1.29688,0.671875
2.46094,1.29688,0.703125
4.11148,1.29688,0.734375
6.02112,1.29688,0.765625
11.7468,1.29688,0.796875
17.2106,1.29688,0.828125
20.1328,1.29688,0.859375
18.3518,1.29688,0.890625
12.3658,1.29688,0.921875
8.05341,1.29688,0.953125
-0.618139,1.29688,0.984375
-10.366,1.29688,1.01563
-19.714,1.29688,1.04688
-25.2434,1.29688,1.07813
-22.536,1.29688,1.10938
-12.9693,1.29688,1.14063
-6.72472,1.29688,1.17188
-3.9157,1.29688,1.20313
-1.72999,1.29688,1.23438
-0.413689,1.29688,1.26563
-0.550327,1.29688,1.29688
0.0687218,1.29688,1.32813
0.414507,1.29688,1.35938
0.268801,1.29688,1.39063
0.0580139,1.29688,1.42188
0.215027,1.29688,1.45313
0.186041,1.29688,1.48438
0.317389,1.29688,1.51563
0.439892,1.29688,1.54688
0.0903015,1.29688,1.57813
0.214053,1.29688,1.60938
0.0400124,1.29688,1.64063
0.200602,1.29688,1.67188
0.0579739,1.29688,1.70313
-0.00577116,1.29688,1.73438
-0.0166006,1.29688,1.76563
-0.025351,1.29688,1.79688
-0.222612,1.29688,1.82813
-6.68545,1.29688,1.85938
-12.9529,1.29688,1.89063
0,1.32813,0.015625
0.145178,1.32813,0.046875
-0.00105745,1.32813,0.078125
-0.0730928,1.32813,0.109375
-0.122517,1.32813,0.140625
-0.107713,1.32813,0.171875
-0.0355039,1.32813,0.203125
-0.0913339,1.32813,0.234375
-0.136831,1.32813,0.265625
-0.0416927,1.32813,0.296875
0.00579548,1.32813,0.328125
-0.18099,1.32813,0.359375
-0.0803537,1.32813,0.390625
0.0281668,1.32813,0.421875
-0.0489817,1.32813,0.453125
0.148245,1.32813,0.484375
0.110504,1.32813,0.515625
0.412849,1.32813,0.546875
0.52495,1.32813,0.578125
0.671387,1.32813,0.609375
0.992035,1.32813,0.640625
1.32574,1.32813,0.671875
2.63943,1.32813,0.703125
3.34388,1.32813,0.734375
4.83488,1.32813,0.765625
8.32912,1.32813,0.796875
9.91784,1.32813,0.828125
12.0249,1.32813,0.859375
10.6373,1.32813,0.890625
5.12161,1.32813,0.921875
1.21648,1.32813,0.953125
-3.97743,1.32813,0.984375
-9.42981,1.32813,1.01563
-15.184,1.32813,1.04688
-15.169,1.32813,1.07813
-11.2423,1.32813,1.10938
-5.59449,1.32813,1.14063
-3.85881,1.32813,1.17188
-2.47913,1.32813,1.20313
-0.656349,1.32813,1.23438
-0.101669,1.32813,1.26563
-0.269081,1.32813,1.29688
0.16856,1.32813,1.32813
0.177055,1.32813,1.35938
0.152197,1.32813,1.39063
0.480701,1.32813,1.42188
0.170366,1.32813,1.45313
0.362631,1.32813,1.48438
0.368309,1.32813,1.51563
0.133147,1.32813,1.54688
0.0249968,1.32813,1.57813
0.119226,1.32813,1.60938
0.1578,1.32813,1.64063
0.111444,1.32813,1.67188
0.0129371,1.32813,1.70313
0.0894003,1.32813,1.73438
0.0304189,1.32813,1.76563
0.124457,1.32813,1.79688
0.208346,1.32813,1.82813
-6.88272,1.32813,1.85938
-14.4814,1.32813,1.89063
0,1.35938,0.015625
0.0373102,1.35938,0.046875
0.0405042,1.35938,0.078125
-0.0398798,1.35938,0.109375
-0.0563943,1.35938,0.140625
-0.0334363,1.35938,0.171875
-0.0226145,1.35938,0.203125
-0.0823483,1.35938,0.234375
-0.0537043,1.35938,0.265625
-0.0590181,1.35938,0.296875
-0.0705194,1.35938,0.328125
-0.0105734,1.35938,0.359375
0.0280476,1.35938,0.390625
-0.046154,1.35938,0.421875
-0.0462275,1.35938,0.453125
0.106196,1.35938,0.484375
0.28055,1.35938,0.515625
0.465639,1.35938,0.546875
0.183517,1.35938,0.578125
0.546181,1.35938,0.609375
0.884525,1.35938,0.640625
1.11056,1.35938,0.671875
1.82686,1.35938,0.703125
2.60487,1.35938,0.734375
3.95836,1.35938,0.765625
5.18521,1.35938,0.796875
5.53946,1.35938,0.828125
5.65924,1.35938,0.859375
5.54519,1.35938,0.890625
1.60507,1.35938,0.921875
-2.07398,1.35938,0.953125
-3.89686,1.35938,0.984375
-9.96622,1.35938,1.01563
-10.7622,1.35938,1.04688
-7.82638,1.35938,1.07813
-6.45227,1.35938,1.10938
-3.61524,1.35938,1.14063
-2.34425,1.35938,1.17188
-1.62653,1.35938,1.20313
-0.613171,1.35938,1.23438
-0.0765438,1.35938,1.26563
0.0918999,1.35938,1.29688
0.13892,1.35938,1.32813
0.357868,1.35938,1.35938
0.429377,1.35938,1.39063
0.404865,1.35938,1.42188
0.315994,1.35938,1.45313
0.315134,1.35938,1.48438
0.217493,1.35938,1.51563
-0.0671654,1.35938,1.54688
0.201834,1.35938,1.57813
0.155884,1.35938,1.60938
0.0838127,1.35938,1.64063
0.0923538,1.35938,1.67188
0.0768814,1.35938,1.70313
0.0697064,1.35938,1.73438
0.106595,1.35938,1.76563
0.212048,1.35938,1.79688
0.21307,1.35938,1.82813
-7.12069,1.35938,1.85938
-14.1238,1.35938,1.89063
0,1.39063,0.015625
0.0330288,1.39063,0.046875
0.0974196,1.39063,0.078125
-0.0425388,1.39063,0.109375
-0.0442152,1.39063,0.140625
-0.00360298,1.39063,0.171875
-0.0989156,1.39063,0.203125
-0.0918899,1.39063,0.234375
0.0108962,1.39063,0.265625
-0.10166,1.39063,0.296875
-0.0660915,1.39063,0.328125
0.156981,1.39063,0.359375
-0.00897217,1.39063,0.390625
0.137699,1.39063,0.421875
0.0423145,1.39063,0.453125
0.149008,1.39063,0.484375
0.40238,1.39063,0.515625
0.285259,1.39063,0.546875
0.476162,1.39063,0.578125
0.745605,1.39063,0.609375
0.760456,1.39063,0.640625
1.40943,1.39063,0.671875
1.83625,1.39063,0.703125
2.34958,1.39063,0.734375
2.65154,1.39063,0.765625
3.10539,1.39063,0.796875
2.88364,1.39063,0.828125
2.61309,1.39063,0.859375
2.95716,1.39063,0.890625
0.416298,1.39063,0.921875
-1.52023,1.39063,0.953125
-3.67563,1.39063,0.984375
-8.42089,1.39063,1.01563
-6.63521,1.39063,1.04688
-5.908,1.39063,1.07813
-4.65939,1.39063,1.10938
-2.37938,1.39063,1.14063
-1.67614,1.39063,1.17188
-1.28387,1.39063,1.20313
-0.445713,1.39063,1.23438
-0.100529,1.39063,1.26563
0.0917301,1.39063,1.29688
0.386635,1.39063,1.32813
0.274736,1.39063,1.35938
0.24407,1.39063,1.39063
0.033329,1.39063,1.42188
0.299307,1.39063,1.45313
0.206698,1.39063,1.48438
0.176917,1.39063,1.51563
0.182779,1.39063,1.54688
0.177538,1.39063,1.57813
0.154011,1.39063,1.60938
0.0321865,1.39063,1.64063
0.111624,1.39063,1.67188
0.101427,1.39063,1.70313
0.0558052,1.39063,1.73438
0.0523295,1.39063,1.76563
0.0236444,1.39063,1.79688
-0.0582178,1.39063,1.82813
-7.12518,1.39063,1.85938
-12.6946,1.39063,1.89063
0,1.42188,0.015625
-0.00986397,1.42188,0.046875
0.13206,1.42188,0.078125
-0.0293387,1.42188,0.109375
0.0282004,1.42188,0.140625
-0.0144846,1.42188,0.171875
-0.0236268,1.42188,0.203125
0.0740266,1.42188,0.234375
0.0321951,1.42188,0.265625
-0.090106,1.42188,0.296875
-0.0354977,1.42188,0.328125
0.032711,1.42188,0.359375
-0.0344591,1.42188,0.390625
0.0316238,1.42188,0.421875
0.0310116,1.42188,0.453125
0.318925,1.42188,0.484375
0.349806,1.42188,0.515625
0.237265,1.42188,0.546875
0.331816,1.42188,0.578125
0.514317,1.42188,0.609375
0.92494,1.42188,0.640625
1.24583,1.42188,0.671875
1.5603,1.42188,0.703125
2.04547,1.42188,0.734375
2.02748,1.42188,0.765625
2.23167,1.42188,0.796875
2.15428,1.42188,0.828125
1.95443,1.42188,0.859375
1.81624,1.42188,0.890625
0.115775,1.42188,0.921875
-1.65436,1.42188,0.953125
-3.48533,1.42188,0.984375
-4.52709,1.42188,1.01563
-4.03055,1.42188,1.04688
-3.80489,1.42188,1.07813
-2.67505,1.42188,1.10938
-1.98006,1.42188,1.14063
-1.41382,1.42188,1.17188
-0.96327,1.42188,1.20313
-0.461451,1.42188,1.23438
0.00810051,1.42188,1.26563
0.0711193,1.42188,1.29688
0.078455,1.42188,1.32813
0.0240116,1.42188,1.35938
0.0624886,1.42188,1.39063
0.0931377,1.42188,1.42188
0.131598,1.42188,1.45313
0.239388,1.42188,1.48438
0.237558,1.42188,1.51563
0.254005,1.42188,1.54688
0.0894766,1.42188,1.57813
0.208746,1.42188,1.60938
0.151009,1.42188,1.64063
0.01825,1.42188,1.67188
0.0879607,1.42188,1.70313
0.0210552,1.42188,1.73438
0.0034318,1.42188,1.76563
-0.0178425,1.42188,1.79688
-0.345586,1.42188,1.82813
-6.94647,1.42188,1.85938
-12.6644,1.42188,1.89063
0,1.45313,0.015625
0.158589,1.45313,0.046875
0.102412,1.45313,0.078125
-0.0108588,1.45313,0.109375
0.00138617,1.45313,0.140625
-0.0573952,1.45313,0.171875
-0.0265656,1.45313,0.203125
0.0466857,1.45313,0.234375
-0.0112815,1.45313,0.265625
0.0150871,1.45313,0.296875
0.0431232,1.45313,0.328125
0.0597811,1.45313,0.359375
0.0436878,1.45313,0.390625
0.0612373,1.45313,0.421875
0.210887,1.45313,0.453125
0.333454,1.45313,0.484375
0.128758,1.45313,0.515625
0.289545,1.45313,0.546875
0.410353,1.45313,0.578125
0.51388,1.45313,0.609375
0.810057,1.45313,0.640625
0.852039,1.45313,0.671875
1.05459,1.45313,0.703125
1.4142,1.45313,0.734375
1.42259,1.45313,0.765625
1.45581,1.45313,0.796875
1.40036,1.45313,0.828125
0.786724,1.45313,0.859375
0.510736,1.45313,0.890625
-0.427173,1.45313,0.921875
-1.11609,1.45313,0.953125
-2.40378,1.45313,0.984375
-2.66822,1.45313,1.01563
-3.4267,1.45313,1.04688
-2.51614,1.45313,1.07813
-1.742,1.45313,1.10938
-1.64811,1.45313,1.14063
-1.12877,1.45313,1.17188
-0.607363,1.45313,1.20313
-0.253748,1.45313,1.23438
0.13739,1.45313,1.26563
-0.218897,1.45313,1.29688
-0.127598,1.45313,1.32813
0.133764,1.45313,1.35938
-0.00995064,1.45313,1.39063
0.155121,1.45313,1.42188
0.203771,1.45313,1.45313
0.300858,1.45313,1.48438
0.156981,1.45313,1.51563
0.168463,1.45313,1.54688
0.131705,1.45313,1.57813
0.128897,1.45313,1.60938
0.192994,1.45313,1.64063
0.111435,1.45313,1.67188
0.125452,1.45313,1.70313
0.0467219,1.45313,1.73438
0.12558,1.45313,1.76563
0.0786316,1.45313,1.79688
-0.171819,1.45313,1.82813
-7.00015,1.45313,1.85938
-13.4215,1.45313,1.89063
0,1.48438,0.015625
0.154855,1.48438,0.046875
0.112074,1.48438,0.078125
0.0627205,1.48438,0.109375
-0.014087,1.48438,0.140625
0.0369899,1.48438,0.171875
0.0133758,1.48438,0.203125
0.0395894,1.48438,0.234375
0.000716686,1.48438,0.265625
0.00259209,1.48438,0.296875
0.0669622,1.48438,0.328125
0.0684671,1.48438,0.359375
0.078023,1.48438,0.390625
0.19782,1.48438,0.421875
0.269958,1.48438,0.453125
0.141469,1.48438,0.484375
0.103111,1.48438,0.515625
0.230886,1.48438,0.546875
0.469624,1.48438,0.578125
0.533308,1.48438,0.609375
0.71476,1.48438,0.640625
0.70669,1.48438,0.671875
0.967182,1.48438,0.703125
1.13177,1.48438,0.734375
1.1578,1.48438,0.765625
0.971689,1.48438,0.796875
0.753059,1.48438,0.828125
0.539688,1.48438,0.859375
0.484303,1.48438,0.890625
-0.0275106,1.48438,0.921875
-1.33616,1.48438,0.953125
-1.81984,1.48438,0.984375
-1.97438,1.48438,1.01563
-2.17344,1.48438,1.04688
-1.71342,1.48438,1.07813
-1.74923,1.48438,1.10938
-1.42621,1.48438,1.14063
-0.945099,1.48438,1.17188
-0.58032,1.48438,1.20313
-0.256105,1.48438,1.23438
-0.126175,1.48438,1.26563
-0.21937,1.48438,1.29688
-0.0435505,1.48438,1.32813
0.255058,1.48438,1.35938
0.208218,1.48438,1.39063
0.217384,1.48438,1.42188
0.110773,1.48438,1.45313
0.132149,1.48438,1.48438
0.146684,1.48438,1.51563
0.148598,1.48438,1.54688
0.0914211,1.48438,1.57813
0.0643778,1.48438,1.60938
0.182104,1.48438,1.64063
0.104167,1.48438,1.67188
0.0531712,1.48438,1.70313
0.0828342,1.48438,1.73438
0.115837,1.48438,1.76563
0.0539434,1.48438,1.79688
0.0521836,1.48438,1.82813
-7.09062,1.48438,1.85938
-13.5107,1.48438,1.89063
0,1.51563,0.015625
0.153989,1.51563,0.046875
0.0884866,1.51563,0.078125
0.0308232,1.51563,0.109375
0.0341699,1.51563,0.140625
0.0101659,1.51563,0.171875
0.0387974,1.51563,0.203125
0.0588107,1.51563,0.234375
-0.011374,1.51563,0.265625
0.0785522,1.51563,0.296875
0.110168,1.51563,0.328125
0.0107985,1.51563,0.359375
0.139746,1.51563,0.390625
0.0786257,1.51563,0.421875
0.139285,1.51563,0.453125
0.185432,1.51563,0.484375
0.198524,1.51563,0.515625
0.357833,1.51563,0.546875
0.439825,1.51563,0.578125
0.431124,1.51563,0.609375
0.654631,1.51563,0.640625
0.519613,1.51563,0.671875
0.59111,1.51563,0.703125
0.681026,1.51563,0.734375
0.717234,1.51563,0.765625
0.57807,1.51563,0.796875
0.523768,1.51563,0.828125
0.572755,1.51563,0.859375
-0.0138702,1.51563,0.890625
0.0353069,1.51563,0.921875
-1.11209,1.51563,0.953125
-1.02976,1.51563,0.984375
-1.63508,1.51563,1.01563
-1.52554,1.51563,1.04688
-1.48217,1.51563,1.07813
-1.26034,1.51563,1.10938
-0.818172,1.51563,1.14063
-0.746227,1.51563,1.17188
-0.5448,1.51563,1.20313
-0.258577,1.51563,1.23438
-0.267836,1.51563,1.26563
-0.143867,1.51563,1.29688
0.0928288,1.51563,1.32813
0.295595,1.51563,1.35938
0.263159,1.51563,1.39063
0.0941133,1.51563,1.42188
-0.0325489,1.51563,1.45313
0.137177,1.51563,1.48438
0.0609512,1.51563,1.51563
0.0558062,1.51563,1.54688
0.138923,1.51563,1.57813
0.156573,1.51563,1.60938
0.228885,1.51563,1.64063
0.013505,1.51563,1.67188
0.0209064,1.51563,1.70313
0.0962582,1.51563,1.73438
0.0406923,1.51563,1.76563
-0.00231934,1.51563,1.79688
-0.0524821,1.51563,1.82813
-6.72879,1.51563,1.85938
-13.7956,1.51563,1.89063
0,1.54688,0.015625
0.0830948,1.54688,0.046875
0.168171,1.54688,0.078125
0.0705258,1.54688,0.109375
0.0752156,1.54688,0.140625
-0.00918698,1.54688,0.171875
0.00869226,1.54688,0.203125
-0.00826645,1.54688,0.234375
0.0293117,1.54688,0.265625
0.127005,1.54688,0.296875
0.0754495,1.54688,0.328125
0.0948081,1.54688,0.359375
0.149442,1.54688,0.390625
0.0110722,1.54688,0.421875
0.154927,1.54688,0.453125
0.158794,1.54688,0.484375
0.180422,1.54688,0.515625
0.480189,1.54688,0.546875
0.381583,1.54688,0.578125
0.480747,1.54688,0.609375
0.516919,1.54688,0.640625
0.572391,1.54688,0.671875
0.577101,1.54688,0.703125
0.489416,1.54688,0.734375
0.56361,1.54688,0.765625
0.470584,1.54688,0.796875
0.346843,1.54688,0.828125
0.0582609,1.54688,0.859375
-0.130149,1.54688,0.890625
-0.168834,1.54688,0.921875
-0.923192,1.54688,0.953125
-0.82,1.54688,0.984375
-1.01546,1.54688,1.01563
-0.886411,1.54688,1.04688
-1.1167,1.54688,1.07813
-0.997543,1.54688,1.10938
-0.863819,1.54688,1.14063
-0.671368,1.54688,1.17188
-0.529435,1.54688,1.20313
-0.234997,1.54688,1.23438
-0.184725,1.54688,1.26563
-0.140354,1.54688,1.29688
0.0979977,1.54688,1.32813
0.0880718,1.54688,1.35938
0.0523157,1.54688,1.39063
0.127922,1.54688,1.42188
0.07232,1.54688,1.45313
0.0783367,1.54688,1.48438
0.13232,1.54688,1.51563
0.159028,1.54688,1.54688
0.194442,1.54688,1.57813
0.076499,1.54688,1.60938
0.0248199,1.54688,1.64063
0.0165353,1.54688,1.67188
0.0707564,1.54688,1.70313
0.0633459,1.54688,1.73438
0.0236611,1.54688,1.76563
0.0205917,1.54688,1.79688
-0.179078,1.54688,1.82813
-6.63373,1.54688,1.85938
-14.0116,1.54688,1.89063
0,1.57813,0.015625
0.214111,1.57813,0.046875
0.192404,1.57813,0.078125
0.0958369,1.57813,0.109375
0.0403347,1.57813,0.140625
-0.014179,1.57813,0.171875
0.0333772,1.57813,0.203125
0.0482249,1.57813,0.234375
0.0666232,1.57813,0.265625
0.0118165,1.57813,0.296875
0.0150681,1.57813,0.328125
0.087409,1.57813,0.359375
0.0733051,1.57813,0.390625
0.0884657,1.57813,0.421875
0.188937,1.57813,0.453125
0.216991,1.57813,0.484375
0.258624,1.57813,0.515625
0.276985,1.57813,0.546875
0.282965,1.57813,0.578125
0.329241,1.57813,0.609375
0.361532,1.57813,0.640625
0.441469,1.57813,0.671875
0.528966,1.57813,0.703125
0.464621,1.57813,0.734375
0.435356,1.57813,0.765625
0.327703,1.57813,0.796875
0.176624,1.57813,0.828125
0.0960789,1.57813,0.859375
-0.0155163,1.57813,0.890625
-0.297136,1.57813,0.921875
-0.59732,1.57813,0.953125
-0.596658,1.57813,0.984375
-0.755995,1.57813,1.01563
-0.899391,1.57813,1.04688
-0.854523,1.57813,1.07813
-0.729258,1.57813,1.10938
-0.815474,1.57813,1.14063
-0.577882,1.57813,1.17188
-0.534084,1.57813,1.20313
-0.259183,1.57813,1.23438
-0.161066,1.57813,1.26563
-0.171081,1.57813,1.29688
-0.0584955,1.57813,1.32813
0.03473,1.57813,1.35938
0.0708656,1.57813,1.39063
-0.00623322,1.57813,1.42188
0.110868,1.57813,1.45313
0.0235138,1.57813,1.48438
0.157188,1.57813,1.51563
0.135598,1.57813,1.54688
0.0564499,1.57813,1.57813
0.063941,1.57813,1.60938
0.080822,1.57813,1.64063
0.08605,1.57813,1.67188
0.0838919,1.57813,1.70313
0.136975,1.57813,1.73438
0.0317121,1.57813,1.76563
-0.0222602,1.57813,1.79688
-0.121051,1.57813,1.82813
-7.03383,1.57813,1.85938
-14.2675,1.57813,1.89063
0,1.60938,0.015625
0.154589,1.60938,0.046875
0.1543,1.60938,0.078125
0.0182722,1.60938,0.109375
0.00671721,1.60938,0.140625
0.0650864,1.60938,0.171875
0.0433295,1.60938,0.203125
0.0602469,1.60938,0.234375
0.0800719,1.60938,0.265625
0.0379806,1.60938,0.296875
0.0853748,1.60938,0.328125
0.0670304,1.60938,0.359375
0.091711,1.60938,0.390625
0.0884142,1.60938,0.421875
0.181609,1.60938,0.453125
0.137352,1.60938,0.484375
0.189011,1.60938,0.515625
0.21935,1.60938,0.546875
0.190146,1.60938,0.578125
0.233737,1.60938,0.609375
0.286323,1.60938,0.640625
0.330581,1.60938,0.671875
0.45867,1.60938,0.703125
0.313048,1.60938,0.734375
0.215178,1.60938,0.765625
0.290894,1.60938,0.796875
0.199388,1.60938,0.828125
-0.0136023,1.60938,0.859375
-0.226373,1.60938,0.890625
-0.450555,1.60938,0.921875
-0.439361,1.60938,0.953125
-0.571554,1.60938,0.984375
-0.50747,1.60938,1.01563
-0.645681,1.60938,1.04688
-0.564134,1.60938,1.07813
-0.650657,1.60938,1.10938
-0.630104,1.60938,1.14063
-0.394122,1.60938,1.17188
-0.336943,1.60938,1.20313
-0.238166,1.60938,1.23438
-0.240754,1.60938,1.26563
-0.25397,1.60938,1.29688
-0.0902128,1.60938,1.32813
0.00383091,1.60938,1.35938
0.00351524,1.60938,1.39063
-0.0412331,1.60938,1.42188
0.0725412,1.60938,1.45313
0.0680246,1.60938,1.48438
0.122679,1.60938,1.51563
0.0849962,1.60938,1.54688
0.138794,1.60938,1.57813
0.0641994,1.60938,1.60938
0.0418782,1.60938,1.64063
0.0536098,1.60938,1.67188
0.0621676,1.60938,1.70313
0.0817728,1.60938,1.73438
0.0381801,1.60938,1.76563
0.061305,1.60938,1.79688
0.104579,1.60938,1.82813
-7.15847,1.60938,1.85938
-14.0096,1.60938,1.89063
0,1.64063,0.015625
0.145818,1.64063,0.046875
0.0823135,1.64063,0.078125
0.0311394,1.64063,0.109375
0.00527,1.64063,0.140625
0.0390418,1.64063,0.171875
0.0366118,1.64063,0.203125
0.0417433,1.64063,0.234375
0.0608754,1.64063,0.265625
0.0559902,1.64063,0.296875
0.0879674,1.64063,0.328125
0.0550981,1.64063,0.359375
0.153759,1.64063,0.390625
0.11896,1.64063,0.421875
0.168237,1.64063,0.453125
0.237743,1.64063,0.484375
0.16262,1.64063,0.515625
0.230879,1.64063,0.546875
0.227188,1.64063,0.578125
0.179298,1.64063,0.609375
0.164912,1.64063,0.640625
0.20757,1.64063,0.671875
0.277243,1.64063,0.703125
0.20849,1.64063,0.734375
0.182021,1.64063,0.765625
0.153078,1.64063,0.796875
0.00599718,1.64063,0.828125
-0.0355401,1.64063,0.859375
-0.109394,1.64063,0.890625
-0.279105,1.64063,0.921875
-0.351519,1.64063,0.953125
-0.520401,1.64063,0.984375
-0.340907,1.64063,1.01563
-0.572266,1.64063,1.04688
-0.458451,1.64063,1.07813
-0.446144,1.64063,1.10938
-0.44213,1.64063,1.14063
-0.349415,1.64063,1.17188
-0.362756,1.64063,1.20313
-0.297016,1.64063,1.23438
-0.233821,1.64063,1.26563
-0.108317,1.64063,1.29688
0.00308228,1.64063,1.32813
-0.0230093,1.64063,1.35938
-0.008605,1.64063,1.39063
-0.0904627,1.64063,1.42188
-0.0655298,1.64063,1.45313
0.046978,1.64063,1.48438
0.00139618,1.64063,1.51563
0.0285778,1.64063,1.54688
0.129484,1.64063,1.57813
0.0437646,1.64063,1.60938
-0.00046587,1.64063,1.64063
0.0625019,1.64063,1.67188
0.0466881,1.64063,1.70313
0.0632133,1.64063,1.73438
0.0565653,1.64063,1.76563
0.0985265,1.64063,1.79688
0.0265651,1.64063,1.82813
-6.81606,1.64063,1.85938
-13.814,1.64063,1.89063
0,1.67188,0.015625
0.0554691,1.67188,0.046875
0.0760895,1.67188,0.078125
0.0120671,1.67188,0.109375
0.0273409,1.67188,0.140625
0.0409911,1.67188,0.171875
0.0831475,1.67188,0.203125
0.0285554,1.67188,0.234375
0.0465317,1.67188,0.265625
0.0380387,1.67188,0.296875
0.071878,1.67188,0.328125
0.0871167,1.67188,0.359375
0.0618095,1.67188,0.390625
0.136885,1.67188,0.421875
0.142613,1.67188,0.453125
0.145748,1.67188,0.484375
0.122406,1.67188,0.515625
0.220634,1.67188,0.546875
0.182961,1.67188,0.578125
0.228947,1.67188,0.609375
0.229523,1.67188,0.640625
0.217383,1.67188,0.671875
0.290889,1.67188,0.703125
0.262657,1.67188,0.734375
0.110394,1.67188,0.765625
0.0804138,1.67188,0.796875
0.0724592,1.67188,0.828125
0.0362396,1.67188,0.859375
-0.177953,1.67188,0.890625
-0.243982,1.67188,0.921875
-0.385764,1.67188,0.953125
-0.187962,1.67188,0.984375
-0.251827,1.67188,1.01563
-0.399972,1.67188,1.04688
-0.385789,1.67188,1.07813
-0.426395,1.67188,1.10938
-0.374708,1.67188,1.14063
-0.193277,1.67188,1.17188
-0.22006,1.67188,1.20313
-0.201399,1.67188,1.23438
-0.156409,1.67188,1.26563
-0.0946236,1.67188,1.29688
-0.0570917,1.67188,1.32813
-0.0206795,1.67188,1.35938
-0.00910854,1.67188,1.39063
-0.0439396,1.67188,1.42188
0.0259666,1.67188,1.45313
0.0703564,1.67188,1.48438
-0.0220022,1.67188,1.51563
0.0481906,1.67188,1.54688
0.0340543,1.67188,1.57813
0.00178051,1.67188,1.60938
0.00887728,1.67188,1.64063
0.0896516,1.67188,1.67188
0.0421133,1.67188,1.70313
0.0542746,1.67188,1.73438
0.0524127,1.67188,1.76563
-0.00950432,1.67188,1.79688
-0.0939567,1.67188,1.82813
-6.72144,1.67188,1.85938
-13.48,1.67188,1.89063
0,1.70313,0.015625
0.0324875,1.70313,0.046875
0.179464,1.70313,0.078125
0.0374649,1.70313,0.109375
0.0474833,1.70313,0.140625
0.0702717,1.70313,0.171875
0.0438271,1.70313,0.203125
0.0505531,1.70313,0.234375
0.0446889,1.70313,0.265625
0.0283203,1.70313,0.296875
0.0895777,1.70313,0.328125
0.0479746,1.70313,0.359375
0.0794983,1.70313,0.390625
0.154592,1.70313,0.421875
0.118635,1.70313,0.453125
0.0895224,1.70313,0.484375
0.135648,1.70313,0.515625
0.148008,1.70313,0.546875
0.121633,1.70313,0.578125
0.222475,1.70313,0.609375
0.190474,1.70313,0.640625
0.205486,1.70313,0.671875
0.236994,1.70313,0.703125
0.08885,1.70313,0.734375
0.0510082,1.70313,0.765625
0.0855088,1.70313,0.796875
0.0366058,1.70313,0.828125
-0.0560174,1.70313,0.859375
-0.0581007,1.70313,0.890625
-0.241897,1.70313,0.921875
-0.26058,1.70313,0.953125
-0.0546562,1.70313,0.984375
-0.321972,1.70313,1.01563
-0.378275,1.70313,1.04688
-0.314004,1.70313,1.07813
-0.387424,1.70313,1.10938
-0.304311,1.70313,1.14063
-0.167143,1.70313,1.17188
-0.241977,1.70313,1.20313
-0.183093,1.70313,1.23438
-0.148594,1.70313,1.26563
-0.100995,1.70313,1.29688
-0.0691395,1.70313,1.32813
-0.0449038,1.70313,1.35938
-0.00165081,1.70313,1.39063
-0.0216475,1.70313,1.42188
0.0251789,1.70313,1.45313
-0.0291138,1.70313,1.48438
0.00545406,1.70313,1.51563
0.0574412,1.70313,1.54688
-0.00510216,1.70313,1.57813
0.0276456,1.70313,1.60938
0.0545206,1.70313,1.64063
0.0337844,1.70313,1.67188
0.0308418,1.70313,1.70313
0.0487421,1.70313,1.73438
0.0358415,1.70313,1.76563
-0.0492282,1.70313,1.79688
-0.0790148,1.70313,1.82813
-6.73183,1.70313,1.85938
-13.0259,1.70313,1.89063
0,1.73438,0.015625
0.130233,1.73438,0.046875
0.165993,1.73438,0.078125
0.0550447,1.73438,0.109375
0.0280269,1.73438,0.140625
0.0631714,1.73438,0.171875
0.0322402,1.73438,0.203125
0.11277,1.73438,0.234375
0.0363119,1.73438,0.265625
0.0322151,1.73438,0.296875
0.0715928,1.73438,0.328125
0.0516906,1.73438,0.359375
0.108818,1.73438,0.390625
0.100471,1.73438,0.421875
0.117432,1.73438,0.453125
0.14635,1.73438,0.484375
0.173413,1.73438,0.515625
0.149534,1.73438,0.546875
0.180141,1.73438,0.578125
0.183955,1.73438,0.609375
0.101346,1.73438,0.640625
0.0863647,1.73438,0.671875
0.0569696,1.73438,0.703125
0.0146976,1.73438,0.734375
0.0533986,1.73438,0.765625
0.0259905,1.73438,0.796875
-0.0456066,1.73438,0.828125
-0.0327444,1.73438,0.859375
-0.0822787,1.73438,0.890625
-0.13578,1.73438,0.921875
-0.10921,1.73438,0.953125
-0.204913,1.73438,0.984375
-0.308684,1.73438,1.01563
-0.312002,1.73438,1.04688
-0.233981,1.73438,1.07813
-0.363068,1.73438,1.10938
-0.311718,1.73438,1.14063
-0.167652,1.73438,1.17188
-0.24271,1.73438,1.20313
-0.155894,1.73438,1.23438
-0.12101,1.73438,1.26563
-0.0713768,1.73438,1.29688
-0.0226979,1.73438,1.32813
-0.0206399,1.73438,1.35938
-0.0328693,1.73438,1.39063
-0.0810375,1.73438,1.42188
-0.0592527,1.73438,1.45313
0.0271449,1.73438,1.48438
0.0655003,1.73438,1.51563
0.0114818,1.73438,1.54688
0.030014,1.73438,1.57813
0.0220861,1.73438,1.60938
0.034924,1.73438,1.64063
0.0521441,1.73438,1.67188
0.0552568,1.73438,1.70313
0.0180798,1.73438,1.73438
0.0167084,1.73438,1.76563
0.00233102,1.73438,1.79688
-0.151156,1.73438,1.82813
-6.66782,1.73438,1.85938
-13.3306,1.73438,1.89063
0,1.76563,0.015625
0.17438,1.76563,0.046875
0.0895742,1.76563,0.078125
0.0564591,1.76563,0.109375
0.0131347,1.76563,0.140625
0.0265825,1.76563,0.171875
0.0628471,1.76563,0.203125
0.0470252,1.76563,0.234375
0.0427966,1.76563,0.265625
0.0618098,1.76563,0.296875
0.0662208,1.76563,0.328125
0.12163,1.76563,0.359375
0.0835347,1.76563,0.390625
0.0539255,1.76563,0.421875
0.106784,1.76563,0.453125
0.0984068,1.76563,0.484375
0.0708532,1.76563,0.515625
0.10708,1.76563,0.546875
0.124682,1.76563,0.578125
0.168012,1.76563,0.609375
0.151565,1.76563,0.640625
0.141096,1.76563,0.671875
0.138995,1.76563,0.703125
0.104228,1.76563,0.734375
0.0811486,1.76563,0.765625
0.008461,1.76563,0.796875
-0.0914836,1.76563,0.828125
-0.026603,1.76563,0.859375
-0.0674977,1.76563,0.890625
-0.087749,1.76563,0.921875
-0.13794,1.76563,0.953125
-0.19824,1.76563,0.984375
-0.210379,1.76563,1.01563
-0.105216,1.76563,1.04688
-0.22843,1.76563,1.07813
-0.320432,1.76563,1.10938
-0.106786,1.76563,1.14063
-0.181837,1.76563,1.17188
-0.246943,1.76563,1.20313
-0.169157,1.76563,1.23438
-0.116625,1.76563,1.26563
-0.0900722,1.76563,1.29688
-0.0685554,1.76563,1.32813
-0.0249448,1.76563,1.35938
-0.0475755,1.76563,1.39063
0.0209446,1.76563,1.42188
0.0436954,1.76563,1.45313
0.0733519,1.76563,1.48438
0.0117126,1.76563,1.51563
-0.00666046,1.76563,1.54688
0.0524602,1.76563,1.57813
0.0150094,1.76563,1.60938
0.0566292,1.76563,1.64063
0.0544972,1.76563,1.67188
0.0134125,1.76563,1.70313
0.0112031,1.76563,1.73438
0.0298235,1.76563,1.76563
0.0274978,1.76563,1.79688
-0.0912796,1.76563,1.82813
-6.76723,1.76563,1.85938
-13.4406,1.76563,1.89063
0,1.79688,0.015625
0.0335388,1.79688,0.046875
0.0753274,1.79688,0.078125
0.0433846,1.79688,0.109375
0.0805165,1.79688,0.140625
0.0353153,1.79688,0.171875
0.0723474,1.79688,0.203125
0.0350978,1.79688,0.234375
0.0708385,1.79688,0.265625
0.0780194,1.79688,0.296875
0.0730312,1.79688,0.328125
0.0593176,1.79688,0.359375
0.0504627,1.79688,0.390625
0.11313,1.79688,0.421875
0.132126,1.79688,0.453125
0.0789156,1.79688,0.484375
0.0807137,1.79688,0.515625
0.106414,1.79688,0.546875
0.0646539,1.79688,0.578125
0.0933766,1.79688,0.609375
0.0714145,1.79688,0.640625
0.0746927,1.79688,0.671875
0.0794239,1.79688,0.703125
0.0588183,1.79688,0.734375
0.0540872,1.79688,0.765625
0.0357409,1.79688,0.796875
0.0294347,1.79688,0.828125
-0.0602882,1.79688,0.859375
-0.0372336,1.79688,0.890625
-0.0878028,1.79688,0.921875
-0.155324,1.79688,0.953125
-0.258706,1.79688,0.984375
-0.163904,1.79688,1.01563
-0.159775,1.79688,1.04688
-0.225506,1.79688,1.07813
-0.121471,1.79688,1.10938
-0.0597165,1.79688,1.14063
-0.157908,1.79688,1.17188
-0.105726,1.79688,1.20313
-0.101872,1.79688,1.23438
-0.0917974,1.79688,1.26563
-0.101748,1.79688,1.29688
-0.112667,1.79688,1.32813
-0.0675383,1.79688,1.35938
-0.0772133,1.79688,1.39063
-0.0200849,1.79688,1.42188
0.0149741,1.79688,1.45313
-0.0227089,1.79688,1.48438
0.00761366,1.79688,1.51563
0.019752,1.79688,1.54688
0.0393481,1.79688,1.57813
0.0441608,1.79688,1.60938
0.0496101,1.79688,1.64063
0.0170355,1.79688,1.67188
0.00639772,1.79688,1.70313
0.0455809,1.79688,1.73438
0.0487926,1.79688,1.76563
0.0151002,1.79688,1.79688
-0.0426911,1.79688,1.82813
-6.82455,1.79688,1.85938
-12.9839,1.79688,1.89063
0,1.82813,0.015625
0.0578833,1.82813,0.046875
0.115931,1.82813,0.078125
0.0641515,1.82813,0.109375
0.0491976,1.82813,0.140625
0.0262645,1.82813,0.171875
0.0567055,1.82813,0.203125
0.0577378,1.82813,0.234375
0.0589442,1.82813,0.265625
0.0714142,1.82813,0.296875
0.0548549,1.82813,0.328125
0.0513198,1.82813,0.359375
0.0677681,1.82813,0.390625
0.0682197,1.82813,0.421875
0.0867162,1.82813,0.453125
0.0713573,1.82813,0.484375
0.104769,1.82813,0.515625
0.12249,1.82813,0.546875
0.0759602,1.82813,0.578125
0.0932884,1.82813,0.609375
0.0868163,1.82813,0.640625
0.0877333,1.82813,0.671875
0.0877333,1.82813,0.703125
0.0618029,1.82813,0.734375
0.0761347,1.82813,0.765625
0.0557466,1.82813,0.796875
-0.0549722,1.82813,0.828125
-0.0735738,1.82813,0.859375
-0.0354218,1.82813,0.890625
-0.18653,1.82813,0.921875
-0.0702398,1.82813,0.953125
-0.138684,1.82813,0.984375
-0.153349,1.82813,1.01563
-0.170032,1.82813,1.04688
-0.144876,1.82813,1.07813
-0.106059,1.82813,1.10938
-0.182074,1.82813,1.14063
-0.138687,1.82813,1.17188
-0.103526,1.82813,1.20313
-0.0797954,1.82813,1.23438
-0.0530958,1.82813,1.26563
-0.10361,1.82813,1.29688
-0.130101,1.82813,1.32813
-0.0643673,1.82813,1.35938
-0.0646725,1.82813,1.39063
-0.059474,1.82813,1.42188
-0.0191131,1.82813,1.45313
-0.0279794,1.82813,1.48438
0.0206237,1.82813,1.51563
-0.00562191,1.82813,1.54688
0.0139561,1.82813,1.57813
0.0385556,1.82813,1.60938
-0.0267966,1.82813,1.64063
0.0162716,1.82813,1.67188
0.0326176,1.82813,1.70313
0.0232465,1.82813,1.73438
0.0234225,1.82813,1.76563
0.0310831,1.82813,1.79688
-0.074156,1.82813,1.82813
-6.85576,1.82813,1.85938
-12.9947,1.82813,1.89063
0,1.85938,0.015625
0.00970978,1.85938,0.046875
0.0776013,1.85938,0.078125
0.0762701,1.85938,0.109375
0.0547551,1.85938,0.140625
0.0618021,1.85938,0.171875
0.0186659,1.85938,0.203125
0.0322971,1.85938,0.234375
0.0523386,1.85938,0.265625
0.049453,1.85938,0.296875
0.0589092,1.85938,0.328125
0.0933211,1.85938,0.359375
0.082345,1.85938,0.390625
0.0607843,1.85938,0.421875
0.0783205,1.85938,0.453125
0.0542512,1.85938,0.484375
0.075357,1.85938,0.515625
0.0857515,1.85938,0.546875
0.0704083,1.85938,0.578125
0.109523,1.85938,0.609375
0.109354,1.85938,0.640625
0.0892262,1.85938,0.671875
0.0967302,1.85938,0.703125
0.0325508,1.85938,0.734375
0.0159957,1.85938,0.765625
0.0144987,1.85938,0.796875
-0.0119989,1.85938,0.828125
-0.00980783,1.85938,0.859375
-0.00598645,1.85938,0.890625
-0.0490825,1.85938,0.921875
-0.0331882,1.85938,0.953125
-0.172916,1.85938,0.984375
-0.140799,1.85938,1.01563
-0.0662894,1.85938,1.04688
-0.0917307,1.85938,1.07813
-0.164417,1.85938,1.10938
-0.172733,1.85938,1.14063
-0.109769,1.85938,1.17188
-0.136288,1.85938,1.20313
-0.128484,1.85938,1.23438
-0.088232,1.85938,1.26563
-0.0932736,1.85938,1.29688
-0.086174,1.85938,1.32813
-0.024569,1.85938,1.35938
-0.0154023,1.85938,1.39063
-0.0303664,1.85938,1.42188
-0.00609684,1.85938,1.45313
0.0242043,1.85938,1.48438
0.0304685,1.85938,1.51563
-0.00944424,1.85938,1.54688
-0.0198355,1.85938,1.57813
-0.000501394,1.85938,1.60938
0.00965357,1.85938,1.64063
0.0229237,1.85938,1.67188
0.0207586,1.85938,1.70313
0.0319085,1.85938,1.73438
0.0329413,1.85938,1.76563
0.0111221,1.85938,1.79688
-0.0401385,1.85938,1.82813
-6.9912,1.85938,1.85938
-13.4861,1.85938,1.89063
0,1.89063,0.015625
0.074036,1.89063,0.046875
0.0832925,1.89063,0.078125
0.0539603,1.89063,0.109375
0.0353614,1.89063,0.140625
0.0678638,1.89063,0.171875
0.0710635,1.89063,0.203125
0.099463,1.89063,0.234375
0.0894833,1.89063,0.265625
0.0960722,1.89063,0.296875
0.146399,1.89063,0.328125
0.167061,1.89063,0.359375
0.157201,1.89063,0.390625
0.149041,1.89063,0.421875
0.164693,1.89063,0.453125
0.163,1.89063,0.484375
0.181563,1.89063,0.515625
0.187796,1.89063,0.546875
0.188523,1.89063,0.578125
0.208682,1.89063,0.609375
0.190313,1.89063,0.640625
0.145513,1.89063,0.671875
0.137823,1.89063,0.703125
0.118447,1.89063,0.734375
0.107621,1.89063,0.765625
0.088192,1.89063,0.796875
0.139604,1.89063,0.828125
0.0328543,1.89063,0.859375
0.0172691,1.89063,0.890625
0.00565255,1.89063,0.921875
-0.0728186,1.89063,0.953125
-0.127456,1.89063,0.984375
-0.0732497,1.89063,1.01563
-0.145306,1.89063,1.04688
-0.151618,1.89063,1.07813
-0.229209,1.89063,1.10938
-0.195013,1.89063,1.14063
-0.173037,1.89063,1.17188
-0.219735,1.89063,1.20313
-0.212569,1.89063,1.23438
-0.179076,1.89063,1.26563
-0.189773,1.89063,1.29688
-0.20844,1.89063,1.32813
-0.170716,1.89063,1.35938
-0.152193,1.89063,1.39063
-0.179421,1.89063,1.42188
-0.143748,1.89063,1.45313
-0.105556,1.89063,1.48438
-0.0849767,1.89063,1.51563
-0.115249,1.89063,1.54688
-0.0869927,1.89063,1.57813
-0.0519822,1.89063,1.60938
-0.0579109,1.89063,1.64063
-0.0646179,1.89063,1.67188
-0.0300097,1.89063,1.70313
-0.00531912,1.89063,1.73438
-0.0138884,1.89063,1.76563
-0.0124024,1.89063,1.79688
0.0122981,1.89063,1.82813
-7.21023,1.89063,1.85938
-13.5709,1.89063,1.89063
