0,0.03125,0.03125
0,0.03125,0.09375
0,0.03125,0.15625
0,0.03125,0.21875
0,0.03125,0.28125
0,0.03125,0.34375
0,0.03125,0.40625
0,0.03125,0.46875
0,0.03125,0.53125
0,0.03125,0.59375
0,0.03125,0.65625
0,0.03125,0.71875
0,0.03125,0.78125
0,0.03125,0.84375
0,0.03125,0.90625
0,0.03125,0.96875
0,0.03125,1.03125
0,0.03125,1.09375
0,0.03125,1.15625
0,0.03125,1.21875
0,0.03125,1.28125
0,0.03125,1.34375
0,0.03125,1.40625
0,0.03125,1.46875
0,0.03125,1.53125
0,0.03125,1.59375
0,0.03125,1.65625
0,0.03125,1.71875
0,0.03125,1.78125
0,0.09375,0.03125
-0.00893259,0.09375,0.09375
-0.0648321,0.09375,0.15625
-0.116326,0.09375,0.21875
-0.140612,0.09375,0.28125
-0.276919,0.09375,0.34375
-0.477878,0.09375,0.40625
-0.391515,0.09375,0.46875
-0.46522,0.09375,0.53125
-0.54063,0.09375,0.59375
-0.433308,0.09375,0.65625
-0.413705,0.09375,0.71875
-0.517188,0.09375,0.78125
-0.36632,0.09375,0.84375
-0.302228,0.09375,0.90625
-0.117149,0.09375,0.96875
0.0116256,0.09375,1.03125
0.225138,0.09375,1.09375
0.280094,0.09375,1.15625
0.40988,0.09375,1.21875
0.572942,0.09375,1.28125
0.585083,0.09375,1.34375
0.524767,0.09375,1.40625
0.525703,0.09375,1.46875
0.500473,0.09375,1.53125
0.427385,0.09375,1.59375
0.34534,0.09375,1.65625
0.260991,0.09375,1.71875
0.214904,0.09375,1.78125
0,0.15625,0.03125
0.0712733,0.15625,0.09375
-0.104964,0.15625,0.15625
-0.242774,0.15625,0.21875
-0.347594,0.15625,0.28125
-0.369639,0.15625,0.34375
-0.381909,0.15625,0.40625
-0.584505,0.15625,0.46875
-0.684678,0.15625,0.53125
-0.650497,0.15625,0.59375
-0.662449,0.15625,0.65625
-0.656272,0.15625,0.71875
-0.591825,0.15625,0.78125
-0.571805,0.15625,0.84375
-0.371961,0.15625,0.90625
-0.273088,0.15625,0.96875
0.0539795,0.15625,1.03125
0.249798,0.15625,1.09375
0.414868,0.15625,1.15625
0.570874,0.15625,1.21875
0.647275,0.15625,1.28125
0.705273,0.15625,1.34375
0.677528,0.15625,1.40625
0.623545,0.15625,1.46875
0.526093,0.15625,1.53125
0.47822,0.15625,1.59375
0.400237,0.15625,1.65625
0.313754,0.15625,1.71875
0.157659,0.15625,1.78125
0,0.21875,0.03125
-0.0271857,0.21875,0.09375
-0.155238,0.21875,0.15625
-0.275878,0.21875,0.21875
-0.326225,0.21875,0.28125
-0.436586,0.21875,0.34375
-0.669023,0.21875,0.40625
-0.794925,0.21875,0.46875
-0.806808,0.21875,0.53125
-0.865061,0.21875,0.59375
-0.878425,0.21875,0.65625
-0.88332,0.21875,0.71875
-0.771665,0.21875,0.78125
-0.642836,0.21875,0.84375
-0.486884,0.21875,0.90625
-0.336328,0.21875,0.96875
-0.00378817,0.21875,1.03125
0.181017,0.21875,1.09375
0.500462,0.21875,1.15625
0.702849,0.21875,1.21875
0.798991,0.21875,1.28125
0.909336,0.21875,1.34375
0.878027,0.21875,1.40625
0.853783,0.21875,1.46875
0.772099,0.21875,1.53125
0.689888,0.21875,1.59375
0.535761,0.21875,1.65625
0.341169,0.21875,1.71875
0.196197,0.21875,1.78125
0,0.28125,0.03125
-0.028054,0.28125,0.09375
-0.0731658,0.28125,0.15625
-0.221053,0.28125,0.21875
-0.38658,0.28125,0.28125
-0.548136,0.28125,0.34375
-0.694918,0.28125,0.40625
-0.672639,0.28125,0.46875
-0.666121,0.28125,0.53125
-0.764762,0.28125,0.59375
-0.820968,0.28125,0.65625
-0.800978,0.28125,0.71875
-0.893921,0.28125,0.78125
-0.759637,0.28125,0.84375
-0.504657,0.28125,0.90625
-0.234212,0.28125,0.96875
-0.0979253,0.28125,1.03125
0.214263,0.28125,1.09375
0.591136,0.28125,1.15625
0.830431,0.28125,1.21875
0.957101,0.28125,1.28125
0.965612,0.28125,1.34375
0.971737,0.28125,1.40625
0.933939,0.28125,1.46875
0.833022,0.28125,1.53125
0.70808,0.28125,1.59375
0.57933,0.28125,1.65625
0.415584,0.28125,1.71875
0.282686,0.28125,1.78125
0,0.34375,0.03125
0.0582061,0.34375,0.09375
-0.092485,0.34375,0.15625
-0.199437,0.34375,0.21875
-0.360613,0.34375,0.28125
-0.503411,0.34375,0.34375
-0.503981,0.34375,0.40625
-0.572509,0.34375,0.46875
-0.66949,0.34375,0.53125
-0.787783,0.34375,0.59375
-0.937405,0.34375,0.65625
-0.985693,0.34375,0.71875
-1.12034,0.34375,0.78125
-0.971305,0.34375,0.84375
-0.876042,0.34375,0.90625
-0.567532,0.34375,0.96875
-0.0897194,0.34375,1.03125
0.427842,0.34375,1.09375
0.776551,0.34375,1.15625
0.922236,0.34375,1.21875
1.06622,0.34375,1.28125
1.12223,0.34375,1.34375
1.08,0.34375,1.40625
0.977472,0.34375,1.46875
0.802835,0.34375,1.53125
0.660213,0.34375,1.59375
0.542059,0.34375,1.65625
0.417243,0.34375,1.71875
0.286382,0.34375,1.78125
0,0.40625,0.03125
0.00795102,0.40625,0.09375
-0.120817,0.40625,0.15625
-0.228933,0.40625,0.21875
-0.366367,0.40625,0.28125
-0.353098,0.40625,0.34375
-0.363874,0.40625,0.40625
-0.584046,0.40625,0.46875
-0.675151,0.40625,0.53125
-0.710892,0.40625,0.59375
-0.828866,0.40625,0.65625
-0.998899,0.40625,0.71875
-1.16798,0.40625,0.78125
-1.13833,0.40625,0.84375
-1.21316,0.40625,0.90625
-0.865287,0.40625,0.96875
-0.169354,0.40625,1.03125
0.389931,0.40625,1.09375
0.926578,0.40625,1.15625
1.17409,0.40625,1.21875
1.42537,0.40625,1.28125
1.32396,0.40625,1.34375
1.12068,0.40625,1.40625
1.01905,0.40625,1.46875
0.824992,0.40625,1.53125
0.728648,0.40625,1.59375
0.597074,0.40625,1.65625
0.486096,0.40625,1.71875
0.180431,0.40625,1.78125
0,0.46875,0.03125
-0.0416288,0.46875,0.09375
-0.269255,0.46875,0.15625
-0.241003,0.46875,0.21875
-0.259614,0.46875,0.28125
-0.227076,0.46875,0.34375
-0.343003,0.46875,0.40625
-0.428385,0.46875,0.46875
-0.470673,0.46875,0.53125
-0.515999,0.46875,0.59375
-0.689012,0.46875,0.65625
-1.34436,0.46875,0.71875
-1.79739,0.46875,0.78125
-1.73078,0.46875,0.84375
-1.8505,0.46875,0.90625
-0.978763,0.46875,0.96875
-0.354426,0.46875,1.03125
0.465733,0.46875,1.09375
1.52087,0.46875,1.15625
1.84953,0.46875,1.21875
1.72724,0.46875,1.28125
1.63457,0.46875,1.34375
1.22648,0.46875,1.40625
0.990265,0.46875,1.46875
0.815598,0.46875,1.53125
0.656964,0.46875,1.59375
0.55969,0.46875,1.65625
0.354072,0.46875,1.71875
0.266983,0.46875,1.78125
0,0.53125,0.03125
-0.119038,0.53125,0.09375
-0.349266,0.53125,0.15625
-0.110764,0.53125,0.21875
0.00357842,0.53125,0.28125
-0.100403,0.53125,0.34375
-0.278424,0.53125,0.40625
-0.234618,0.53125,0.46875
-0.213819,0.53125,0.53125
-0.137539,0.53125,0.59375
-0.336288,0.53125,0.65625
-1.21131,0.53125,0.71875
-1.99548,0.53125,0.78125
-1.96281,0.53125,0.84375
-2.53946,0.53125,0.90625
-2.55639,0.53125,0.96875
-0.968956,0.53125,1.03125
0.880871,0.53125,1.09375
2.09609,0.53125,1.15625
2.37976,0.53125,1.21875
2.29915,0.53125,1.28125
1.97099,0.53125,1.34375
1.57122,0.53125,1.40625
1.23727,0.53125,1.46875
0.853095,0.53125,1.53125
0.606108,0.53125,1.59375
0.486219,0.53125,1.65625
0.157856,0.53125,1.71875
0.25579,0.53125,1.78125
0,0.59375,0.03125
-0.213042,0.59375,0.09375
-0.111548,0.59375,0.15625
-0.0975845,0.59375,0.21875
-0.153901,0.59375,0.28125
-0.337271,0.59375,0.34375
-0.16792,0.59375,0.40625
0.265341,0.59375,0.46875
0.143297,0.59375,0.53125
0.291552,0.59375,0.59375
0.154081,0.59375,0.65625
-0.498423,0.59375,0.71875
-2.47392,0.59375,0.78125
-5.44679,0.59375,0.84375
-7.05165,0.59375,0.90625
-2.61981,0.59375,0.96875
3.66363,0.59375,1.03125
7.11983,0.59375,1.09375
4.78907,0.59375,1.15625
3.85729,0.59375,1.21875
2.63825,0.59375,1.28125
2.04873,0.59375,1.34375
1.59499,0.59375,1.40625
0.989347,0.59375,1.46875
0.661831,0.59375,1.53125
0.559238,0.59375,1.59375
0.34124,0.59375,1.65625
0.323935,0.59375,1.71875
0.177643,0.59375,1.78125
0,0.65625,0.03125
-0.27688,0.65625,0.09375
-0.293317,0.65625,0.15625
-0.226136,0.65625,0.21875
-0.17785,0.65625,0.28125
-0.0932612,0.65625,0.34375
0.186468,0.65625,0.40625
0.400166,0.65625,0.46875
0.594261,0.65625,0.53125
0.887649,0.65625,0.59375
1.46076,0.65625,0.65625
1.77296,0.65625,0.71875
-3.36883,0.65625,0.78125
-5.25056,0.65625,0.84375
24.2966,0.65625,0.90625
7.24743,0.65625,0.96875
-13.4705,0.65625,1.03125
-28.7383,0.65625,1.09375
7.41256,0.65625,1.15625
4.66847,0.65625,1.21875
2.82512,0.65625,1.28125
1.95275,0.65625,1.34375
1.06603,0.65625,1.40625
0.636314,0.65625,1.46875
0.21832,0.65625,1.53125
0.209761,0.65625,1.59375
0.258555,0.65625,1.65625
0.219896,0.65625,1.71875
-0.0287485,0.65625,1.78125
0,0.71875,0.03125
-0.156008,0.71875,0.09375
-0.221969,0.71875,0.15625
-0.257268,0.71875,0.21875
-0.372823,0.71875,0.28125
-0.227363,0.71875,0.34375
0.00239944,0.71875,0.40625
0.581491,0.71875,0.46875
1.70482,0.71875,0.53125
1.91891,0.71875,0.59375
3.03795,0.71875,0.65625
2.89053,0.71875,0.71875
2.02719,0.71875,0.78125
52.8834,0.71875,0.84375
6.78881,0.71875,0.90625
-4.55692,0.71875,0.96875
-14.7683,0.71875,1.03125
-10.1426,0.71875,1.09375
-45.7932,0.71875,1.15625
2.3826,0.71875,1.21875
1.73936,0.71875,1.28125
0.65513,0.71875,1.34375
-0.138702,0.71875,1.40625
-0.0797558,0.71875,1.46875
0.102731,0.71875,1.53125
0.0617914,0.71875,1.59375
0.0995483,0.71875,1.65625
0.162125,0.71875,1.71875
0.0383959,0.71875,1.78125
0,0.78125,0.03125
-0.498369,0.78125,0.09375
-0.291043,0.78125,0.15625
-0.350452,0.78125,0.21875
-0.466911,0.78125,0.28125
-0.348736,0.78125,0.34375
0.170873,0.78125,0.40625
0.901312,0.78125,0.46875
1.45566,0.78125,0.53125
2.89889,0.78125,0.59375
2.89315,0.78125,0.65625
6.96653,0.78125,0.71875
84.8776,0.78125,0.78125
0,0.78125,0.84375
0,0.78125,0.90625
0,0.78125,0.96875
-19.6165,0.78125,1.03125
-21.306,0.78125,1.09375
-10.1783,0.78125,1.15625
-48.4357,0.78125,1.21875
-3.26732,0.78125,1.28125
-2.73719,0.78125,1.34375
-1.16885,0.78125,1.40625
-0.1779,0.78125,1.46875
-0.191572,0.78125,1.53125
0.388557,0.78125,1.59375
0.359962,0.78125,1.65625
0.124506,0.78125,1.71875
-0.0118341,0.78125,1.78125
0,0.84375,0.03125
-0.2606,0.84375,0.09375
-0.590229,0.84375,0.15625
-0.567062,0.84375,0.21875
-0.696885,0.84375,0.28125
-0.592731,0.84375,0.34375
-0.238532,0.84375,0.40625
0.101062,0.84375,0.46875
0.879725,0.84375,0.53125
3.32284,0.84375,0.59375
6.86525,0.84375,0.65625
78.745,0.84375,0.71875
0,0.84375,0.78125
0,0.84375,0.84375
0,0.84375,0.90625
0,0.84375,0.96875
0,0.84375,1.03125
-28.044,0.84375,1.09375
-31.7609,0.84375,1.15625
-6.20369,0.84375,1.21875
-13.8163,0.84375,1.28125
-4.54793,0.84375,1.34375
-1.43285,0.84375,1.40625
0.0643568,0.84375,1.46875
0.43181,0.84375,1.53125
0.404409,0.84375,1.59375
0.0890808,0.84375,1.65625
0.0147948,0.84375,1.71875
0.0991087,0.84375,1.78125
0,0.90625,0.03125
-0.531461,0.90625,0.09375
-0.329113,0.90625,0.15625
-0.32121,0.90625,0.21875
-0.688135,0.90625,0.28125
-0.602479,0.90625,0.34375
-0.631511,0.90625,0.40625
-1.17661,0.90625,0.46875
-0.899773,0.90625,0.53125
-2.01887,0.90625,0.59375
83.7298,0.90625,0.65625
12.453,0.90625,0.71875
0,0.90625,0.78125
0,0.90625,0.84375
0,0.90625,0.90625
0,0.90625,0.96875
0,0.90625,1.03125
0,0.90625,1.09375
-52.3708,0.90625,1.15625
-23.1284,0.90625,1.21875
-9.93366,0.90625,1.28125
-3.86993,0.90625,1.34375
-0.111655,0.90625,1.40625
-0.355391,0.90625,1.46875
0.650068,0.90625,1.53125
0.0529327,0.90625,1.59375
-0.130497,0.90625,1.65625
0.0353022,0.90625,1.71875
0.288758,0.90625,1.78125
0,0.96875,0.03125
-0.118035,0.96875,0.09375
-0.30693,0.96875,0.15625
-0.573664,0.96875,0.21875
-0.830158,0.96875,0.28125
-0.792071,0.96875,0.34375
-1.22243,0.96875,0.40625
-1.22077,0.96875,0.46875
-2.28696,0.96875,0.53125
-1.99413,0.96875,0.59375
85.4854,0.96875,0.65625
9.18894,0.96875,0.71875
0,0.96875,0.78125
0,0.96875,0.84375
0,0.96875,0.90625
0,0.96875,0.96875
0,0.96875,1.03125
0,0.96875,1.09375
-41.7915,0.96875,1.15625
-35.6399,0.96875,1.21875
-6.74458,0.96875,1.28125
-2.16781,0.96875,1.34375
-0.0423183,0.96875,1.40625
-0.0317292,0.96875,1.46875
0.264357,0.96875,1.53125
0.00883293,0.96875,1.59375
0.104302,0.96875,1.65625
0.0443611,0.96875,1.71875
-0.112447,0.96875,1.78125
0,1.03125,0.03125
-0.145015,1.03125,0.09375
-0.519722,1.03125,0.15625
-0.753405,1.03125,0.21875
-0.808789,1.03125,0.28125
-0.799416,1.03125,0.34375
-1.39787,1.03125,0.40625
-1.23468,1.03125,0.46875
-2.513,1.03125,0.53125
2.07141,1.03125,0.59375
85.6712,1.03125,0.65625
6.46568,1.03125,0.71875
-4.07627,1.03125,0.78125
0,1.03125,0.84375
0,1.03125,0.90625
0,1.03125,0.96875
0,1.03125,1.03125
0,1.03125,1.09375
-26.3422,1.03125,1.15625
-42.8035,1.03125,1.21875
-7.37905,1.03125,1.28125
1.01636,1.03125,1.34375
0.847225,1.03125,1.40625
0.375956,1.03125,1.46875
0.0785279,1.03125,1.53125
0.224224,1.03125,1.59375
0.132444,1.03125,1.65625
0.0236278,1.03125,1.71875
-0.0866055,1.03125,1.78125
0,1.09375,0.03125
-0.42047,1.09375,0.09375
-0.588757,1.09375,0.15625
-0.779668,1.09375,0.21875
-0.708458,1.09375,0.28125
-1.00709,1.09375,0.34375
-1.38644,1.09375,0.40625
-1.18753,1.09375,0.46875
-2.84987,1.09375,0.53125
6.02841,1.09375,0.59375
68.4206,1.09375,0.65625
-6.60791,1.09375,0.71875
5.79916,1.09375,0.78125
-2.94501,1.09375,0.84375
0,1.09375,0.90625
0,1.09375,0.96875
0,1.09375,1.03125
0,1.09375,1.09375
-19.6167,1.09375,1.15625
-51.3684,1.09375,1.21875
-4.59657,1.09375,1.28125
-1.30385,1.09375,1.34375
0.65102,1.09375,1.40625
0.605017,1.09375,1.46875
0.450492,1.09375,1.53125
0.47369,1.09375,1.59375
0.154494,1.09375,1.65625
0.0129178,1.09375,1.71875
0.00311065,1.09375,1.78125
0,1.15625,0.03125
-0.421889,1.15625,0.09375
-0.686279,1.15625,0.15625
-0.676735,1.15625,0.21875
-0.678777,1.15625,0.28125
-1.01494,1.15625,0.34375
-0.977518,1.15625,0.40625
-0.298224,1.15625,0.46875
0.443334,1.15625,0.53125
8.27609,1.15625,0.59375
32.4752,1.15625,0.65625
32.8345,1.15625,0.71875
0.12318,1.15625,0.78125
5.15148,1.15625,0.84375
0.972761,1.15625,0.90625
-1.05237,1.15625,0.96875
6.94148,1.15625,1.03125
5.06977,1.15625,1.09375
-8.13956,1.15625,1.15625
-30.0564,1.15625,1.21875
-11.2919,1.15625,1.28125
-0.540238,1.15625,1.34375
0.998358,1.15625,1.40625
0.824295,1.15625,1.46875
0.634473,1.15625,1.53125
0.465078,1.15625,1.59375
0.217615,1.15625,1.65625
0.100446,1.15625,1.71875
-0.0585397,1.15625,1.78125
0,1.21875,0.03125
-0.520714,1.21875,0.09375
-0.460934,1.21875,0.15625
-0.517204,1.21875,0.21875
-0.753749,1.21875,0.28125
-0.779198,1.21875,0.34375
-0.770969,1.21875,0.40625
-0.293124,1.21875,0.46875
0.494759,1.21875,0.53125
8.90479,1.21875,0.59375
29.8966,1.21875,0.65625
29.3721,1.21875,0.71875
4.46344,1.21875,0.78125
-2.51469,1.21875,0.84375
0.057902,1.21875,0.90625
9.21559,1.21875,0.96875
6.97628,1.21875,1.03125
3.12559,1.21875,1.09375
-9.07496,1.21875,1.15625
-26.2586,1.21875,1.21875
-19.613,1.21875,1.28125
-2.98857,1.21875,1.34375
0.870219,1.21875,1.40625
0.859262,1.21875,1.46875
0.663961,1.21875,1.53125
0.411162,1.21875,1.59375
0.3266,1.21875,1.65625
0.175735,1.21875,1.71875
-0.0093531,1.21875,1.78125
0,1.28125,0.03125
-0.243179,1.28125,0.09375
-0.48982,1.28125,0.15625
-0.576509,1.28125,0.21875
-0.671528,1.28125,0.28125
-0.652305,1.28125,0.34375
-0.697757,1.28125,0.40625
-0.390944,1.28125,0.46875
0.365991,1.28125,0.53125
7.55185,1.28125,0.59375
28.2353,1.28125,0.65625
27.7779,1.28125,0.71875
0.216664,1.28125,0.78125
-4.33758,1.28125,0.84375
4.86727,1.28125,0.90625
3.36249,1.28125,0.96875
-4.47641,1.28125,1.03125
-10.1245,1.28125,1.09375
-12.4634,1.28125,1.15625
-29.2547,1.28125,1.21875
-23.9001,1.28125,1.28125
-3.81251,1.28125,1.34375
0.0053823,1.28125,1.40625
0.399247,1.28125,1.46875
0.452493,1.28125,1.53125
0.324054,1.28125,1.59375
0.329788,1.28125,1.65625
0.156782,1.28125,1.71875
-0.0258371,1.28125,1.78125
0,1.34375,0.03125
-0.182988,1.34375,0.09375
-0.406659,1.34375,0.15625
-0.473026,1.34375,0.21875
-0.648975,1.34375,0.28125
-0.672687,1.34375,0.34375
-0.509965,1.34375,0.40625
-0.11982,1.34375,0.46875
0.732113,1.34375,0.53125
6.48032,1.34375,0.59375
28.7033,1.34375,0.65625
28.1706,1.34375,0.71875
6.11999,1.34375,0.78125
5.64602,1.34375,0.84375
4.23346,1.34375,0.90625
-9.13411,1.34375,0.96875
-15.478,1.34375,1.03125
-13.098,1.34375,1.09375
-16.1217,1.34375,1.15625
-29.0833,1.34375,1.21875
-21.035,1.34375,1.28125
-3.67328,1.34375,1.34375
0.395627,1.34375,1.40625
0.586991,1.34375,1.46875
0.377296,1.34375,1.53125
0.351242,1.34375,1.59375
0.243445,1.34375,1.65625
0.0638217,1.34375,1.71875
-0.0858754,1.34375,1.78125
0,1.40625,0.03125
-0.127329,1.40625,0.09375
-0.347888,1.40625,0.15625
-0.433255,1.40625,0.21875
-0.694978,1.40625,0.28125
-0.620882,1.40625,0.34375
-0.347577,1.40625,0.40625
0.0564208,1.40625,0.46875
0.982592,1.40625,0.53125
6.17207,1.40625,0.59375
28.0935,1.40625,0.65625
28.9442,1.40625,0.71875
16.1809,1.40625,0.78125
13.7113,1.40625,0.84375
-0.741791,1.40625,0.90625
-14.2287,1.40625,0.96875
-19.8996,1.40625,1.03125
-16.9545,1.40625,1.09375
-17.4619,1.40625,1.15625
-26.2283,1.40625,1.21875
-20.5235,1.40625,1.28125
-5.57407,1.40625,1.34375
0.689383,1.40625,1.40625
0.340483,1.40625,1.46875
0.373217,1.40625,1.53125
0.522882,1.40625,1.59375
0.2303,1.40625,1.65625
0.10777,1.40625,1.71875
-0.0417244,1.40625,1.78125
0,1.46875,0.03125
-0.230328,1.46875,0.09375
-0.364504,1.46875,0.15625
-0.528116,1.46875,0.21875
-0.761375,1.46875,0.28125
-0.733088,1.46875,0.34375
-0.406381,1.46875,0.40625
0.10282,1.46875,0.46875
0.689335,1.46875,0.53125
5.81517,1.46875,0.59375
25.1153,1.46875,0.65625
29.7164,1.46875,0.71875
23.3815,1.46875,0.78125
17.9237,1.46875,0.84375
-2.79624,1.46875,0.90625
-16.8823,1.46875,0.96875
-21.5599,1.46875,1.03125
-15.905,1.46875,1.09375
-15.9788,1.46875,1.15625
-26.7188,1.46875,1.21875
-19.8717,1.46875,1.28125
-3.54937,1.46875,1.34375
1.08886,1.46875,1.40625
0.342286,1.46875,1.46875
0.51213,1.46875,1.53125
0.475915,1.46875,1.59375
0.204141,1.46875,1.65625
0.166849,1.46875,1.71875
0.0544587,1.46875,1.78125
0,1.53125,0.03125
-0.082011,1.53125,0.09375
-0.303887,1.53125,0.15625
-0.615398,1.53125,0.21875
-0.791069,1.53125,0.28125
-0.757221,1.53125,0.34375
-0.43827,1.53125,0.40625
-0.0699983,1.53125,0.46875
0.185255,1.53125,0.53125
5.46791,1.53125,0.59375
23.4151,1.53125,0.65625
28.96,1.53125,0.71875
25.5867,1.53125,0.78125
20.7394,1.53125,0.84375
-1.95106,1.53125,0.90625
-18.5127,1.53125,0.96875
-17.606,1.53125,1.03125
-10.1865,1.53125,1.09375
-15.893,1.53125,1.15625
-23.4701,1.53125,1.21875
-15.5051,1.53125,1.28125
-3.00182,1.53125,1.34375
0.501377,1.53125,1.40625
0.290581,1.53125,1.46875
0.454249,1.53125,1.53125
0.426898,1.53125,1.59375
0.398073,1.53125,1.65625
0.115663,1.53125,1.71875
-0.074924,1.53125,1.78125
0,1.59375,0.03125
-0.0278087,1.59375,0.09375
-0.245589,1.59375,0.15625
-0.536129,1.59375,0.21875
-0.644648,1.59375,0.28125
-0.753592,1.59375,0.34375
-0.539045,1.59375,0.40625
-0.200816,1.59375,0.46875
0.325191,1.59375,0.53125
6.66973,1.59375,0.59375
23.9398,1.59375,0.65625
32.1457,1.59375,0.71875
29.2053,1.59375,0.78125
19.8721,1.59375,0.84375
-6.45836,1.59375,0.90625
-19.9404,1.59375,0.96875
-16.5561,1.59375,1.03125
-14.1311,1.59375,1.09375
-14.7471,1.59375,1.15625
-19.2862,1.59375,1.21875
-13.3475,1.59375,1.28125
-2.13021,1.59375,1.34375
0.358368,1.59375,1.40625
0.508089,1.59375,1.46875
0.676849,1.59375,1.53125
0.566289,1.59375,1.59375
0.332785,1.59375,1.65625
0.00239325,1.59375,1.71875
-0.0923463,1.59375,1.78125
0,1.65625,0.03125
0.0532825,1.65625,0.09375
-0.240647,1.65625,0.15625
-0.506851,1.65625,0.21875
-0.540914,1.65625,0.28125
-0.772551,1.65625,0.34375
-0.825619,1.65625,0.40625
-0.714381,1.65625,0.46875
-0.282432,1.65625,0.53125
5.63401,1.65625,0.59375
24.1369,1.65625,0.65625
35.6824,1.65625,0.71875
30.1139,1.65625,0.78125
19.0485,1.65625,0.84375
-4.84553,1.65625,0.90625
-20.6085,1.65625,0.96875
-22.1869,1.65625,1.03125
-18.2582,1.65625,1.09375
-12.6706,1.65625,1.15625
-17.8548,1.65625,1.21875
-10.4275,1.65625,1.28125
0.483501,1.65625,1.34375
0.928499,1.65625,1.40625
0.929795,1.65625,1.46875
0.527277,1.65625,1.53125
0.290171,1.65625,1.59375
0.301571,1.65625,1.65625
0.119525,1.65625,1.71875
-0.122023,1.65625,1.78125
0,1.71875,0.03125
0.0488088,1.71875,0.09375
-0.245408,1.71875,0.15625
-0.458342,1.71875,0.21875
-0.708245,1.71875,0.28125
-0.924496,1.71875,0.34375
-1.03076,1.71875,0.40625
-0.887149,1.71875,0.46875
-0.899607,1.71875,0.53125
3.37969,1.71875,0.59375
21.2192,1.71875,0.65625
31.6318,1.71875,0.71875
29.2945,1.71875,0.78125
20.6496,1.71875,0.84375
-2.6892,1.71875,0.90625
-18.9184,1.71875,0.96875
-19.4428,1.71875,1.03125
-11.7452,1.71875,1.09375
-10.3236,1.71875,1.15625
-14.6165,1.71875,1.21875
-6.59886,1.71875,1.28125
0.546694,1.71875,1.34375
0.546063,1.71875,1.40625
0.490106,1.71875,1.46875
0.306498,1.71875,1.53125
0.509021,1.71875,1.59375
0.552507,1.71875,1.65625
0.141868,1.71875,1.71875
-0.139373,1.71875,1.78125
0,1.78125,0.03125
0.115623,1.78125,0.09375
-0.268292,1.78125,0.15625
-0.574739,1.78125,0.21875
-0.774111,1.78125,0.28125
-0.790953,1.78125,0.34375
-0.889208,1.78125,0.40625
-0.623211,1.78125,0.46875
-0.111824,1.78125,0.53125
2.10128,1.78125,0.59375
15.469,1.78125,0.65625
27.1698,1.78125,0.71875
31.3588,1.78125,0.78125
22.7149,1.78125,0.84375
-4.2341,1.78125,0.90625
-18.6837,1.78125,0.96875
-14.1802,1.78125,1.03125
-7.14108,1.78125,1.09375
-11.4906,1.78125,1.15625
-17.2575,1.78125,1.21875
-9.03324,1.78125,1.28125
-1.60904,1.78125,1.34375
-0.268921,1.78125,1.40625
0.0634575,1.78125,1.46875
0.185943,1.78125,1.53125
0.417922,1.78125,1.59375
0.204102,1.78125,1.65625
0.148491,1.78125,1.71875
-0.140918,1.78125,1.78125
0,1.84375,0.03125
0.158724,1.84375,0.09375
-0.146439,1.84375,0.15625
-0.405143,1.84375,0.21875
-0.574099,1.84375,0.28125
-0.640977,1.84375,0.34375
-0.589426,1.84375,0.40625
-0.705781,1.84375,0.46875
0.061933,1.84375,0.53125
1.29623,1.84375,0.59375
8.67021,1.84375,0.65625
21.8832,1.84375,0.71875
31.2032,1.84375,0.78125
18.8145,1.84375,0.84375
-8.93678,1.84375,0.90625
-17.6702,1.84375,0.96875
-11.7775,1.84375,1.03125
-9.42411,1.84375,1.09375
-19.6068,1.84375,1.15625
-23.4949,1.84375,1.21875
-10.0411,1.84375,1.28125
-1.96476,1.84375,1.34375
-0.0416641,1.84375,1.40625
0.374355,1.84375,1.46875
0.437756,1.84375,1.53125
0.489927,1.84375,1.59375
0.333649,1.84375,1.65625
0.10911,1.84375,1.71875
-0.332097,1.84375,1.78125
0,1.90625,0.03125
0.194355,1.90625,0.09375
-0.147012,1.90625,0.15625
-0.411372,1.90625,0.21875
-0.398094,1.90625,0.28125
-0.487818,1.90625,0.34375
-0.615656,1.90625,0.40625
-0.217034,1.90625,0.46875
0.35458,1.90625,0.53125
2.0393,1.90625,0.59375
5.69182,1.90625,0.65625
17.1157,1.90625,0.71875
25.7031,1.90625,0.78125
12.1607,1.90625,0.84375
-11.88,1.90625,0.90625
-19.9785,1.90625,0.96875
-16.7983,1.90625,1.03125
-18.9291,1.90625,1.09375
-26.4733,1.90625,1.15625
-20.5145,1.90625,1.21875
-5.35126,1.90625,1.28125
0.237001,1.90625,1.34375
0.653236,1.90625,1.40625
0.647947,1.90625,1.46875
0.693423,1.90625,1.53125
0.6182,1.90625,1.59375
0.586557,1.90625,1.65625
0.139392,1.90625,1.71875
-0.146806,1.90625,1.78125
0,1.96875,0.03125
0.129564,1.96875,0.09375
0.0222759,1.96875,0.15625
-0.260567,1.96875,0.21875
-0.504199,1.96875,0.28125
-0.496516,1.96875,0.34375
-0.483996,1.96875,0.40625
0.158511,1.96875,0.46875
0.629256,1.96875,0.53125
3.39203,1.96875,0.59375
5.94206,1.96875,0.65625
12.9127,1.96875,0.71875
20.6305,1.96875,0.78125
9.98977,1.96875,0.84375
-14.3708,1.96875,0.90625
-26.4495,1.96875,0.96875
-24.0077,1.96875,1.03125
-26.6313,1.96875,1.09375
-25.2258,1.96875,1.15625
-13.406,1.96875,1.21875
-2.34208,1.96875,1.28125
1.70951,1.96875,1.34375
0.634781,1.96875,1.40625
0.575069,1.96875,1.46875
0.793884,1.96875,1.53125
0.659482,1.96875,1.59375
0.424893,1.96875,1.65625
0.111248,1.96875,1.71875
-0.14672,1.96875,1.78125
0,2.03125,0.03125
0.306103,2.03125,0.09375
-0.0461103,2.03125,0.15625
-0.333239,2.03125,0.21875
-0.360008,2.03125,0.28125
-0.436223,2.03125,0.34375
-0.304693,2.03125,0.40625
0.141435,2.03125,0.46875
0.656025,2.03125,0.53125
3.52682,2.03125,0.59375
6.29557,2.03125,0.65625
13.3253,2.03125,0.71875
21.666,2.03125,0.78125
6.35504,2.03125,0.84375
-18.6237,2.03125,0.90625
-24.0312,2.03125,0.96875
-23.3528,2.03125,1.03125
-23.9814,2.03125,1.09375
-16.4106,2.03125,1.15625
-6.3978,2.03125,1.21875
-0.385872,2.03125,1.28125
1.33558,2.03125,1.34375
1.07235,2.03125,1.40625
1.09472,2.03125,1.46875
0.676899,2.03125,1.53125
0.577669,2.03125,1.59375
0.470362,2.03125,1.65625
0.187641,2.03125,1.71875
-0.0456617,2.03125,1.78125
0,2.09375,0.03125
0.138956,2.09375,0.09375
-0.0619811,2.09375,0.15625
-0.299907,2.09375,0.21875
-0.218909,2.09375,0.28125
-0.429858,2.09375,0.34375
-0.343478,2.09375,0.40625
-0.0745807,2.09375,0.46875
0.721956,2.09375,0.53125
2.69645,2.09375,0.59375
6.52433,2.09375,0.65625
16.8805,2.09375,0.71875
21.6888,2.09375,0.78125
5.63865,2.09375,0.84375
-13.1236,2.09375,0.90625
-19.5864,2.09375,0.96875
-20.0128,2.09375,1.03125
-14.4684,2.09375,1.09375
-8.11981,2.09375,1.15625
-1.26546,2.09375,1.21875
1.74504,2.09375,1.28125
1.41507,2.09375,1.34375
1.1372,2.09375,1.40625
0.851603,2.09375,1.46875
0.655996,2.09375,1.53125
0.521956,2.09375,1.59375
0.38135,2.09375,1.65625
0.120065,2.09375,1.71875
-0.0502419,2.09375,1.78125
0,2.15625,0.03125
0.304511,2.15625,0.09375
-0.114665,2.15625,0.15625
-0.112701,2.15625,0.21875
-0.32613,2.15625,0.28125
-0.512834,2.15625,0.34375
-0.330159,2.15625,0.40625
-0.0776429,2.15625,0.46875
0.452894,2.15625,0.53125
1.61948,2.15625,0.59375
6.70583,2.15625,0.65625
18.4244,2.15625,0.71875
22.0915,2.15625,0.78125
5.26668,2.15625,0.84375
-10.7978,2.15625,0.90625
-15.1677,2.15625,0.96875
-13.6935,2.15625,1.03125
-8.66528,2.15625,1.09375
-3.35606,2.15625,1.15625
1.24291,2.15625,1.21875
1.76149,2.15625,1.28125
0.934711,2.15625,1.34375
1.34636,2.15625,1.40625
0.878538,2.15625,1.46875
0.65257,2.15625,1.53125
0.62521,2.15625,1.59375
0.565057,2.15625,1.65625
0.143143,2.15625,1.71875
-0.145729,2.15625,1.78125
0,2.21875,0.03125
0.177894,2.21875,0.09375
0.0124153,2.21875,0.15625
-0.175952,2.21875,0.21875
-0.496394,2.21875,0.28125
-0.407273,2.21875,0.34375
-0.396547,2.21875,0.40625
-0.352688,2.21875,0.46875
0.0230386,2.21875,0.53125
0.741556,2.21875,0.59375
7.30045,2.21875,0.65625
19.7608,2.21875,0.71875
25.7523,2.21875,0.78125
9.48421,2.21875,0.84375
-9.50449,2.21875,0.90625
-12.6193,2.21875,0.96875
-9.22392,2.21875,1.03125
-4.10115,2.21875,1.09375
0.486794,2.21875,1.15625
1.42566,2.21875,1.21875
1.04635,2.21875,1.28125
1.225,2.21875,1.34375
1.18587,2.21875,1.40625
0.80039,2.21875,1.46875
0.922538,2.21875,1.53125
0.896001,2.21875,1.59375
0.579582,2.21875,1.65625
0.0544009,2.21875,1.71875
-0.318772,2.21875,1.78125
0,2.28125,0.03125
0.136994,2.28125,0.09375
-0.0905384,2.28125,0.15625
-0.413598,2.28125,0.21875
-0.442107,2.28125,0.28125
-0.461534,2.28125,0.34375
-0.518147,2.28125,0.40625
-0.558804,2.28125,0.46875
-0.435263,2.28125,0.53125
-0.259493,2.28125,0.59375
5.38596,2.28125,0.65625
18.5505,2.28125,0.71875
26.4772,2.28125,0.78125
15.2278,2.28125,0.84375
-3.02488,2.28125,0.90625
-8.85966,2.28125,0.96875
-4.94662,2.28125,1.03125
-0.811489,2.28125,1.09375
0.605033,2.28125,1.15625
0.585447,2.28125,1.21875
1.01373,2.28125,1.28125
1.49061,2.28125,1.34375
0.812048,2.28125,1.40625
0.751182,2.28125,1.46875
0.916871,2.28125,1.53125
0.578451,2.28125,1.59375
0.264849,2.28125,1.65625
-0.00256538,2.28125,1.71875
-0.280275,2.28125,1.78125
0,2.34375,0.03125
0.172842,2.34375,0.09375
0.0484619,2.34375,0.15625
-0.323085,2.34375,0.21875
-0.386724,2.34375,0.28125
-0.584623,2.34375,0.34375
-0.683109,2.34375,0.40625
-0.691377,2.34375,0.46875
-0.780664,2.34375,0.53125
-0.661483,2.34375,0.59375
2.72796,2.34375,0.65625
13.2544,2.34375,0.71875
22.7944,2.34375,0.78125
17.8236,2.34375,0.84375
5.29094,2.34375,0.90625
-1.37177,2.34375,0.96875
-1.84122,2.34375,1.03125
-0.129975,2.34375,1.09375
0.31509,2.34375,1.15625
0.459602,2.34375,1.21875
1.28475,2.34375,1.28125
1.05978,2.34375,1.34375
0.66246,2.34375,1.40625
0.777267,2.34375,1.46875
0.740311,2.34375,1.53125
0.315818,2.34375,1.59375
0.274755,2.34375,1.65625
-0.0164146,2.34375,1.71875
-0.327757,2.34375,1.78125
0,2.40625,0.03125
0.145616,2.40625,0.09375
-0.00996375,2.40625,0.15625
-0.269203,2.40625,0.21875
-0.384256,2.40625,0.28125
-0.618788,2.40625,0.34375
-0.74633,2.40625,0.40625
-0.70866,2.40625,0.46875
-0.730809,2.40625,0.53125
-0.306265,2.40625,0.59375
1.40378,2.40625,0.65625
7.40951,2.40625,0.71875
17.1166,2.40625,0.78125
19.6289,2.40625,0.84375
10.7191,2.40625,0.90625
0.326632,2.40625,0.96875
-2.04026,2.40625,1.03125
0.116963,2.40625,1.09375
-0.00504827,2.40625,1.15625
0.37579,2.40625,1.21875
0.888181,2.40625,1.28125
0.693638,2.40625,1.34375
0.754555,2.40625,1.40625
0.760835,2.40625,1.46875
0.628778,2.40625,1.53125
0.361109,2.40625,1.59375
0.419796,2.40625,1.65625
-0.033787,2.40625,1.71875
-0.541587,2.40625,1.78125
0,2.46875,0.03125
0.133217,2.46875,0.09375
-0.0640485,2.46875,0.15625
-0.319758,2.46875,0.21875
-0.527702,2.46875,0.28125
-0.541124,2.46875,0.34375
-0.637998,2.46875,0.40625
-0.752487,2.46875,0.46875
-0.505324,2.46875,0.53125
-0.264811,2.46875,0.59375
0.784815,2.46875,0.65625
3.95051,2.46875,0.71875
10.3751,2.46875,0.78125
14.1919,2.46875,0.84375
8.8477,2.46875,0.90625
-1.64294,2.46875,0.96875
-3.20481,2.46875,1.03125
-0.624549,2.46875,1.09375
-0.43445,2.46875,1.15625
0.0239131,2.46875,1.21875
0.236826,2.46875,1.28125
0.583684,2.46875,1.34375
0.685194,2.46875,1.40625
0.582635,2.46875,1.46875
0.630171,2.46875,1.53125
0.580317,2.46875,1.59375
0.435754,2.46875,1.65625
-0.153059,2.46875,1.71875
-0.562534,2.46875,1.78125
0,2.53125,0.03125
0.18545,2.53125,0.09375
-0.0373136,2.53125,0.15625
-0.318949,2.53125,0.21875
-0.47997,2.53125,0.28125
-0.645467,2.53125,0.34375
-0.68554,2.53125,0.40625
-0.712803,2.53125,0.46875
-0.572736,2.53125,0.53125
-0.275692,2.53125,0.59375
0.662357,2.53125,0.65625
2.41786,2.53125,0.71875
6.20188,2.53125,0.78125
7.80741,2.53125,0.84375
4.49523,2.53125,0.90625
-2.86303,2.53125,0.96875
-5.65391,2.53125,1.03125
-2.4631,2.53125,1.09375
-0.324964,2.53125,1.15625
-0.14062,2.53125,1.21875
0.142547,2.53125,1.28125
0.476255,2.53125,1.34375
0.614811,2.53125,1.40625
0.545995,2.53125,1.46875
0.550987,2.53125,1.53125
0.547343,2.53125,1.59375
0.235703,2.53125,1.65625
-0.297527,2.53125,1.71875
-0.732882,2.53125,1.78125
0,2.59375,0.03125
0.145866,2.59375,0.09375
0.0319733,2.59375,0.15625
-0.325833,2.59375,0.21875
-0.411479,2.59375,0.28125
-0.483068,2.59375,0.34375
-0.61067,2.59375,0.40625
-0.619148,2.59375,0.46875
-0.665321,2.59375,0.53125
-0.0595031,2.59375,0.59375
0.395602,2.59375,0.65625
1.98232,2.59375,0.71875
4.02717,2.59375,0.78125
4.01902,2.59375,0.84375
3.36555,2.59375,0.90625
-0.600804,2.59375,0.96875
-5.43231,2.59375,1.03125
-3.34561,2.59375,1.09375
-1.021,2.59375,1.15625
-0.432394,2.59375,1.21875
0.447197,2.59375,1.28125
0.702882,2.59375,1.34375
0.675433,2.59375,1.40625
0.580634,2.59375,1.46875
0.716955,2.59375,1.53125
0.697004,2.59375,1.59375
0.27135,2.59375,1.65625
-0.436177,2.59375,1.71875
-1.21596,2.59375,1.78125
0,2.65625,0.03125
0.40694,2.65625,0.09375
0.00239161,2.65625,0.15625
-0.234594,2.65625,0.21875
-0.433537,2.65625,0.28125
-0.522572,2.65625,0.34375
-0.582277,2.65625,0.40625
-0.486434,2.65625,0.46875
-0.486509,2.65625,0.53125
-0.130507,2.65625,0.59375
0.374337,2.65625,0.65625
1.25012,2.65625,0.71875
2.73807,2.65625,0.78125
3.19455,2.65625,0.84375
3.50305,2.65625,0.90625
0.956265,2.65625,0.96875
-4.50041,2.65625,1.03125
-3.58463,2.65625,1.09375
-1.10092,2.65625,1.15625
-0.227062,2.65625,1.21875
0.405412,2.65625,1.28125
0.631976,2.65625,1.34375
0.614317,2.65625,1.40625
0.727589,2.65625,1.46875
0.860613,2.65625,1.53125
0.892108,2.65625,1.59375
0.805339,2.65625,1.65625
-0.0989727,2.65625,1.71875
-1.08575,2.65625,1.78125
0,2.71875,0.03125
0.317793,2.71875,0.09375
0.0810072,2.71875,0.15625
-0.261367,2.71875,0.21875
-0.583466,2.71875,0.28125
-0.557218,2.71875,0.34375
-0.639168,2.71875,0.40625
-0.669619,2.71875,0.46875
-0.487894,2.71875,0.53125
-0.237897,2.71875,0.59375
0.16311,2.71875,0.65625
0.601864,2.71875,0.71875
1.65413,2.71875,0.78125
2.73514,2.71875,0.84375
2.95694,2.71875,0.90625
0.777234,2.71875,0.96875
-3.72732,2.71875,1.03125
-3.99923,2.71875,1.09375
-1.42841,2.71875,1.15625
-0.00349146,2.71875,1.21875
0.326181,2.71875,1.28125
0.651632,2.71875,1.34375
0.926923,2.71875,1.40625
0.993981,2.71875,1.46875
0.948086,2.71875,1.53125
0.99218,2.71875,1.59375
0.916401,2.71875,1.65625
0.339474,2.71875,1.71875
-0.105919,2.71875,1.78125
0,2.78125,0.03125
0.297975,2.78125,0.09375
0.0647428,2.78125,0.15625
-0.377564,2.78125,0.21875
-0.63598,2.78125,0.28125
-0.717926,2.78125,0.34375
-0.830202,2.78125,0.40625
-0.824729,2.78125,0.46875
-0.642113,2.78125,0.53125
-0.456867,2.78125,0.59375
-0.241182,2.78125,0.65625
0.130954,2.78125,0.71875
1.10774,2.78125,0.78125
2.13562,2.78125,0.84375
2.73209,2.78125,0.90625
1.35274,2.78125,0.96875
-2.47955,2.78125,1.03125
-3.64565,2.78125,1.09375
-2.14755,2.78125,1.15625
-0.806184,2.78125,1.21875
0.0149943,2.78125,1.28125
0.589667,2.78125,1.34375
0.857325,2.78125,1.40625
0.844586,2.78125,1.46875
0.868866,2.78125,1.53125
0.857127,2.78125,1.59375
0.666093,2.78125,1.65625
0.547772,2.78125,1.71875
0.671934,2.78125,1.78125
0,2.84375,0.03125
0.252616,2.84375,0.09375
0.0384115,2.84375,0.15625
-0.329207,2.84375,0.21875
-0.478935,2.84375,0.28125
-0.584604,2.84375,0.34375
-0.672968,2.84375,0.40625
-0.668596,2.84375,0.46875
-0.575712,2.84375,0.53125
-0.514505,2.84375,0.59375
-0.356447,2.84375,0.65625
0.0698605,2.84375,0.71875
0.818715,2.84375,0.78125
1.7924,2.84375,0.84375
2.57028,2.84375,0.90625
1.88957,2.84375,0.96875
-1.23829,2.84375,1.03125
-2.89989,2.84375,1.09375
-1.76848,2.84375,1.15625
-0.610631,2.84375,1.21875
-0.197609,2.84375,1.28125
0.0971886,2.84375,1.34375
0.134698,2.84375,1.40625
0.231034,2.84375,1.46875
0.476052,2.84375,1.53125
0.565967,2.84375,1.59375
0.516492,2.84375,1.65625
0.800202,2.84375,1.71875
1.09956,2.84375,1.78125
0,2.90625,0.03125
0.14548,2.90625,0.09375
0.111514,2.90625,0.15625
-0.0877187,2.90625,0.21875
-0.17603,2.90625,0.28125
-0.180345,2.90625,0.34375
-0.224806,2.90625,0.40625
-0.276258,2.90625,0.46875
-0.188809,2.90625,0.53125
-0.0909216,2.90625,0.59375
0.022743,2.90625,0.65625
0.433587,2.90625,0.71875
0.788962,2.90625,0.78125
1.46914,2.90625,0.84375
2.0654,2.90625,0.90625
1.57426,2.90625,0.96875
-0.59724,2.90625,1.03125
-3.02624,2.90625,1.09375
-1.7459,2.90625,1.15625
-0.146892,2.90625,1.21875
-0.432616,2.90625,1.28125
-0.178725,2.90625,1.34375
-0.124975,2.90625,1.40625
-0.00187302,2.90625,1.46875
0.0801181,2.90625,1.53125
-0.019595,2.90625,1.59375
0.0263367,2.90625,1.65625
0.452017,2.90625,1.71875
0.820297,2.90625,1.78125
0,2.96875,0.03125
0.184122,2.96875,0.09375
0.104797,2.96875,0.15625
0.0184437,2.96875,0.21875
0.000393033,2.96875,0.28125
0.0379755,2.96875,0.34375
0.0739088,2.96875,0.40625
0.078167,2.96875,0.46875
0.142344,2.96875,0.53125
0.215296,2.96875,0.59375
0.338811,2.96875,0.65625
0.600166,2.96875,0.71875
0.748736,2.96875,0.78125
1.27721,2.96875,0.84375
1.95653,2.96875,0.90625
1.64358,2.96875,0.96875
-0.437899,2.96875,1.03125
-3.01692,2.96875,1.09375
-2.40403,2.96875,1.15625
-0.837461,2.96875,1.21875
-0.623033,2.96875,1.28125
-0.277842,2.96875,1.34375
-0.0820549,2.96875,1.40625
-0.073195,2.96875,1.46875
-0.168745,2.96875,1.53125
-0.236792,2.96875,1.59375
-0.144889,2.96875,1.65625
0.341438,2.96875,1.71875
0.655962,2.96875,1.78125
0,3.03125,0.03125
0.171498,3.03125,0.09375
0.102955,3.03125,0.15625
0.081821,3.03125,0.21875
0.0474818,3.03125,0.28125
0.0533827,3.03125,0.34375
0.0835845,3.03125,0.40625
0.122835,3.03125,0.46875
0.205672,3.03125,0.53125
0.236002,3.03125,0.59375
0.352465,3.03125,0.65625
0.471598,3.03125,0.71875
0.507874,3.03125,0.78125
1.06751,3.03125,0.84375
1.77939,3.03125,0.90625
1.54997,3.03125,0.96875
-0.993295,3.03125,1.03125
-3.45813,3.03125,1.09375
-2.63085,3.03125,1.15625
-1.10767,3.03125,1.21875
-0.744366,3.03125,1.28125
-0.302998,3.03125,1.34375
-0.0481954,3.03125,1.40625
-0.121374,3.03125,1.46875
-0.0383669,3.03125,1.53125
0.00392097,3.03125,1.59375
0.156663,3.03125,1.65625
0.464955,3.03125,1.71875
0.438067,3.03125,1.78125
0,3.09375,0.03125
0.145195,3.09375,0.09375
0.12715,3.09375,0.15625
0.0623881,3.09375,0.21875
-0.0056715,3.09375,0.28125
0.0325564,3.09375,0.34375
0.0588239,3.09375,0.40625
0.146805,3.09375,0.46875
0.191923,3.09375,0.53125
0.237112,3.09375,0.59375
0.40459,3.09375,0.65625
0.512254,3.09375,0.71875
0.608974,3.09375,0.78125
0.969592,3.09375,0.84375
1.46148,3.09375,0.90625
1.04645,3.09375,0.96875
-1.47538,3.09375,1.03125
-3.72787,3.09375,1.09375
-2.60999,3.09375,1.15625
-1.01207,3.09375,1.21875
-0.770437,3.09375,1.28125
-0.274036,3.09375,1.34375
-0.0727798,3.09375,1.40625
-0.122298,3.09375,1.46875
-0.0365738,3.09375,1.53125
-0.0875164,3.09375,1.59375
-0.0440628,3.09375,1.65625
-0.0485101,3.09375,1.71875
-0.237178,3.09375,1.78125
0,3.15625,0.03125
0.220837,3.15625,0.09375
0.212971,3.15625,0.15625
0.104184,3.15625,0.21875
0.0238197,3.15625,0.28125
0.0347924,3.15625,0.34375
0.0525407,3.15625,0.40625
0.11183,3.15625,0.46875
0.130639,3.15625,0.53125
0.227209,3.15625,0.59375
0.311766,3.15625,0.65625
0.483251,3.15625,0.71875
0.765668,3.15625,0.78125
1.01463,3.15625,0.84375
1.35726,3.15625,0.90625
0.729353,3.15625,0.96875
-1.7804,3.15625,1.03125
-3.58363,3.15625,1.09375
-2.22571,3.15625,1.15625
-0.931374,3.15625,1.21875
-0.671769,3.15625,1.28125
-0.237197,3.15625,1.34375
-0.202378,3.15625,1.40625
-0.216663,3.15625,1.46875
-0.157131,3.15625,1.53125
-0.194237,3.15625,1.59375
-0.162677,3.15625,1.65625
-0.289703,3.15625,1.71875
-0.328167,3.15625,1.78125
0,3.21875,0.03125
0.14378,3.21875,0.09375
0.231419,3.21875,0.15625
0.135797,3.21875,0.21875
0.0986889,3.21875,0.28125
0.0623845,3.21875,0.34375
0.0378911,3.21875,0.40625
0.0615529,3.21875,0.46875
0.0995629,3.21875,0.53125
0.20293,3.21875,0.59375
0.25227,3.21875,0.65625
0.368039,3.21875,0.71875
0.721852,3.21875,0.78125
0.943517,3.21875,0.84375
1.22846,3.21875,0.90625
0.417801,3.21875,0.96875
-2.35749,3.21875,1.03125
-3.40821,3.21875,1.09375
-1.84128,3.21875,1.15625
-1.00344,3.21875,1.21875
-0.455355,3.21875,1.28125
-0.191428,3.21875,1.34375
-0.344939,3.21875,1.40625
-0.196266,3.21875,1.46875
-0.115891,3.21875,1.53125
-0.15112,3.21875,1.59375
-0.162317,3.21875,1.65625
-0.426205,3.21875,1.71875
-0.535646,3.21875,1.78125
0,3.28125,0.03125
0.177433,3.28125,0.09375
0.192858,3.28125,0.15625
0.139884,3.28125,0.21875
0.0604441,3.28125,0.28125
0.0189401,3.28125,0.34375
0.0533233,3.28125,0.40625
0.114996,3.28125,0.46875
0.152229,3.28125,0.53125
0.190637,3.28125,0.59375
0.244903,3.28125,0.65625
0.365051,3.28125,0.71875
0.720472,3.28125,0.78125
0.998903,3.28125,0.84375
1.02738,3.28125,0.90625
-0.0792874,3.28125,0.96875
-2.40933,3.28125,1.03125
-2.82371,3.28125,1.09375
-1.33991,3.28125,1.15625
-0.719479,3.28125,1.21875
-0.286049,3.28125,1.28125
-0.203529,3.28125,1.34375
-0.232918,3.28125,1.40625
-0.0315056,3.28125,1.46875
-0.0635415,3.28125,1.53125
-0.0874529,3.28125,1.59375
-0.137302,3.28125,1.65625
-0.708553,3.28125,1.71875
-1.10752,3.28125,1.78125
0,3.34375,0.03125
0.289086,3.34375,0.09375
0.28963,3.34375,0.15625
0.251632,3.34375,0.21875
0.0671104,3.34375,0.28125
0.0282758,3.34375,0.34375
0.0241503,3.34375,0.40625
0.0477983,3.34375,0.46875
0.0888948,3.34375,0.53125
0.155826,3.34375,0.59375
0.202821,3.34375,0.65625
0.285162,3.34375,0.71875
0.575828,3.34375,0.78125
0.80862,3.34375,0.84375
0.559766,3.34375,0.90625
-0.484158,3.34375,0.96875
-1.87994,3.34375,1.03125
-1.9619,3.34375,1.09375
-1.02521,3.34375,1.15625
-0.404458,3.34375,1.21875
-0.0572492,3.34375,1.28125
-0.0812159,3.34375,1.34375
-0.0650148,3.34375,1.40625
-0.0127006,3.34375,1.46875
-0.0914195,3.34375,1.53125
-0.0666411,3.34375,1.59375
-0.16694,3.34375,1.65625
-1.05503,3.34375,1.71875
-1.67938,3.34375,1.78125
0,3.40625,0.03125
0.109477,3.40625,0.09375
0.212301,3.40625,0.15625
0.178787,3.40625,0.21875
0.10295,3.40625,0.28125
0.0646822,3.40625,0.34375
0.0445867,3.40625,0.40625
0.0620128,3.40625,0.46875
0.0534696,3.40625,0.53125
0.104623,3.40625,0.59375
0.156997,3.40625,0.65625
0.202433,3.40625,0.71875
0.404633,3.40625,0.78125
0.497074,3.40625,0.84375
0.0766609,3.40625,0.90625
-0.648911,3.40625,0.96875
-1.58462,3.40625,1.03125
-1.53126,3.40625,1.09375
-0.782754,3.40625,1.15625
-0.296801,3.40625,1.21875
-0.0555537,3.40625,1.28125
-0.178651,3.40625,1.34375
-0.2206,3.40625,1.40625
-0.14461,3.40625,1.46875
-0.0875949,3.40625,1.53125
-0.0525586,3.40625,1.59375
-0.202007,3.40625,1.65625
-1.31902,3.40625,1.71875
-2.14253,3.40625,1.78125
0,3.46875,0.03125
0.19769,3.46875,0.09375
0.110843,3.46875,0.15625
0.0479814,3.46875,0.21875
-0.00887799,3.46875,0.28125
0.0487906,3.46875,0.34375
0.132044,3.46875,0.40625
0.149022,3.46875,0.46875
0.124198,3.46875,0.53125
0.115637,3.46875,0.59375
0.127134,3.46875,0.65625
0.165956,3.46875,0.71875
0.229692,3.46875,0.78125
0.20429,3.46875,0.84375
-0.15695,3.46875,0.90625
-0.681847,3.46875,0.96875
-1.09268,3.46875,1.03125
-0.982363,3.46875,1.09375
-0.568053,3.46875,1.15625
-0.358951,3.46875,1.21875
-0.236683,3.46875,1.28125
-0.236319,3.46875,1.34375
-0.171999,3.46875,1.40625
-0.0997635,3.46875,1.46875
-0.0879894,3.46875,1.53125
-0.0546443,3.46875,1.59375
-0.171088,3.46875,1.65625
-1.44427,3.46875,1.71875
-2.3838,3.46875,1.78125
0,3.53125,0.03125
0.447583,3.53125,0.09375
0.259117,3.53125,0.15625
0.188188,3.53125,0.21875
0.0501623,3.53125,0.28125
0.0238801,3.53125,0.34375
-0.0133035,3.53125,0.40625
-0.035594,3.53125,0.46875
0.0753848,3.53125,0.53125
0.12127,3.53125,0.59375
0.111002,3.53125,0.65625
0.136328,3.53125,0.71875
0.134937,3.53125,0.78125
0.0126359,3.53125,0.84375
-0.274046,3.53125,0.90625
-0.550353,3.53125,0.96875
-0.632547,3.53125,1.03125
-0.594073,3.53125,1.09375
-0.431127,3.53125,1.15625
-0.258226,3.53125,1.21875
-0.139371,3.53125,1.28125
0.00217284,3.53125,1.34375
0.0710475,3.53125,1.40625
-0.010089,3.53125,1.46875
-0.0208927,3.53125,1.53125
-0.0363438,3.53125,1.59375
-0.3619,3.53125,1.65625
-1.90989,3.53125,1.71875
-2.84169,3.53125,1.78125
0,3.59375,0.03125
0.262613,3.59375,0.09375
0.221334,3.59375,0.15625
0.118235,3.59375,0.21875
0.100483,3.59375,0.28125
0.095107,3.59375,0.34375
0.00499991,3.59375,0.40625
-0.0110465,3.59375,0.46875
0.0361038,3.59375,0.53125
0.0117038,3.59375,0.59375
0.0486336,3.59375,0.65625
0.0725048,3.59375,0.71875
0.0245441,3.59375,0.78125
-0.0629745,3.59375,0.84375
-0.202044,3.59375,0.90625
-0.318745,3.59375,0.96875
-0.309336,3.59375,1.03125
-0.3274,3.59375,1.09375
-0.296462,3.59375,1.15625
-0.141863,3.59375,1.21875
-0.048824,3.59375,1.28125
-0.00888836,3.59375,1.34375
-0.0547369,3.59375,1.40625
-0.160162,3.59375,1.46875
-0.100609,3.59375,1.53125
-0.0519923,3.59375,1.59375
-0.384991,3.59375,1.65625
-1.86193,3.59375,1.71875
-2.75709,3.59375,1.78125
0,3.65625,0.03125
0.133647,3.65625,0.09375
0.0880761,3.65625,0.15625
0.0372798,3.65625,0.21875
0.0718714,3.65625,0.28125
0.0553112,3.65625,0.34375
0.0721731,3.65625,0.40625
0.111512,3.65625,0.46875
0.0676754,3.65625,0.53125
0.0534172,3.65625,0.59375
0.068283,3.65625,0.65625
0.022927,3.65625,0.71875
-0.0721069,3.65625,0.78125
-0.131132,3.65625,0.84375
-0.175606,3.65625,0.90625
-0.200781,3.65625,0.96875
-0.209923,3.65625,1.03125
-0.280583,3.65625,1.09375
-0.20603,3.65625,1.15625
-0.127257,3.65625,1.21875
-0.123989,3.65625,1.28125
-0.140237,3.65625,1.34375
-0.0879571,3.65625,1.40625
-0.0540138,3.65625,1.46875
-0.0159174,3.65625,1.53125
-0.0382789,3.65625,1.59375
-0.341927,3.65625,1.65625
-1.73665,3.65625,1.71875
-2.93577,3.65625,1.78125
0,3.71875,0.03125
0.291395,3.71875,0.09375
0.217961,3.71875,0.15625
0.152321,3.71875,0.21875
0.0262191,3.71875,0.28125
-0.032038,3.71875,0.34375
-0.0609599,3.71875,0.40625
-0.0381571,3.71875,0.46875
-0.0202908,3.71875,0.53125
0.0363061,3.71875,0.59375
0.0417893,3.71875,0.65625
0.00872257,3.71875,0.71875
-0.0115669,3.71875,0.78125
-0.0662343,3.71875,0.84375
-0.112547,3.71875,0.90625
-0.0820221,3.71875,0.96875
-0.150659,3.71875,1.03125
-0.179383,3.71875,1.09375
-0.102073,3.71875,1.15625
-0.0653273,3.71875,1.21875
-0.0335671,3.71875,1.28125
0.0459166,3.71875,1.34375
0.114881,3.71875,1.40625
0.0874998,3.71875,1.46875
0.0851062,3.71875,1.53125
-0.0294594,3.71875,1.59375
-0.521003,3.71875,1.65625
-2.31519,3.71875,1.71875
-3.89717,3.71875,1.78125
0,3.78125,0.03125
0.253265,3.78125,0.09375
0.152199,3.78125,0.15625
0.0621948,3.78125,0.21875
0.00628959,3.78125,0.28125
0.0370569,3.78125,0.34375
0.046575,3.78125,0.40625
0.0431176,3.78125,0.46875
0.0409586,3.78125,0.53125
0.0540451,3.78125,0.59375
0.0282761,3.78125,0.65625
-0.0191722,3.78125,0.71875
-0.00943065,3.78125,0.78125
-0.0530832,3.78125,0.84375
-0.0545318,3.78125,0.90625
-0.0192934,3.78125,0.96875
-0.0831418,3.78125,1.03125
-0.0953724,3.78125,1.09375
-0.0717845,3.78125,1.15625
-0.042248,3.78125,1.21875
-0.0392197,3.78125,1.28125
-0.0455483,3.78125,1.34375
-0.0982863,3.78125,1.40625
-0.123935,3.78125,1.46875
-0.0245164,3.78125,1.53125
-0.010901,3.78125,1.59375
-0.341698,3.78125,1.65625
-2.3728,3.78125,1.71875
-4.06691,3.78125,1.78125
